<?xml version="1.0"?>
<VTKFile type="PolyData" version="0.1" byte_order="LittleEndian">
  <PolyData>
    <Piece NumberOfPoints="    625" NumberOfVerts="  0" NumberOfLines="      0"
           NumberOfStrips="  0" NumberOfPolys="    600">
      <Points>
        <DataArray type="Float32" NumberOfComponents="3" format="ascii">
                      -4.78936                      -1.26344                      90.83837
                      -4.78936                      -1.26344                      90.83837
                      -4.78936                      -1.26344                      90.83837
                      -4.78936                      -1.26344                      90.83837
                      -4.78936                      -1.26344                      90.83837
                      -4.78936                      -1.26344                      90.83837
                      -4.78936                      -1.26344                      90.83837
                      -4.78936                      -1.26344                      90.83837
                      -4.78936                      -1.26344                      90.83837
                      -4.78936                      -1.26344                      90.83837
                      -4.78936                      -1.26344                      90.83837
                      -4.78936                      -1.26344                      90.83837
                      -4.78936                      -1.26344                      90.83837
                      -4.78936                      -1.26344                      90.83837
                      -4.78936                      -1.26344                      90.83837
                      -4.78936                      -1.26344                      90.83837
                      -4.78936                      -1.26344                      90.83837
                      -4.78936                      -1.26344                      90.83837
                      -4.78936                      -1.26344                      90.83837
                      -4.78936                      -1.26344                      90.83837
                      -4.78936                      -1.26344                      90.83837
                      -4.78936                      -1.26344                      90.83837
                      -4.78936                      -1.26344                      90.83837
                      -4.78936                      -1.26344                      90.83837
                      -4.78936                      -1.26344                      90.83837
                      -4.19848                      -1.15932                      90.71582
                      -4.22835                      -1.24182                      90.59383
                      -4.29385                      -1.31915                      90.48288
                      -4.39088                      -1.38643                      90.38994
                      -4.51334                      -1.43945                      90.32084
                      -4.65353                      -1.47486                      90.27993
                      -4.80265                      -1.49045                      90.26978
                      -4.95131                      -1.48523                      90.29103
                      -5.09019                      -1.45953                      90.34234
                      -5.21056                      -1.41497                      90.42048
                      -5.30485                      -1.35435                      90.52056
                      -5.36714                      -1.28148                      90.63627
                      -5.39352                      -1.20093                      90.76036
                      -5.38232                      -1.11776                      90.88501
                      -5.33425                      -1.03721                      91.00241
                      -5.25234                      -0.96433                      91.10517
                      -5.14172                      -0.90371                      91.18684
                      -5.00936                      -0.85914                      91.24228
                      -4.86355                      -0.83344                      91.26801
                      -4.71348                      -0.82821                      91.26242
                      -4.56856                      -0.84379                      91.22585
                      -4.43791                      -0.87920                      91.16061
                      -4.32973                      -0.93221                      91.07079
                      -4.25081                      -0.99949                      90.96203
                      -4.20613                      -1.07681                      90.84118
                      -3.97592                      -1.05520                      90.62637
                      -4.01723                      -1.16932                      90.45764
                      -4.10783                      -1.27627                      90.30418
                      -4.24204                      -1.36933                      90.17563
                      -4.41141                      -1.44265                      90.08005
                      -4.60531                      -1.49163                      90.02347
                      -4.81156                      -1.51319                      90.00943
                      -5.01718                      -1.50598                      90.03882
                      -5.20927                      -1.47044                      90.10979
                      -5.37576                      -1.40881                      90.21788
                      -5.50617                      -1.32496                      90.35629
                      -5.59233                      -1.22416                      90.51634
                      -5.62881                      -1.11275                      90.68797
                      -5.61332                      -0.99773                      90.86038
                      -5.54684                      -0.88631                      91.02276
                      -5.43354                      -0.78551                      91.16489
                      -5.28054                      -0.70166                      91.27784
                      -5.09746                      -0.64002                      91.35452
                      -4.89580                      -0.60447                      91.39011
                      -4.68823                      -0.59724                      91.38238
                      -4.48779                      -0.61879                      91.33180
                      -4.30708                      -0.66776                      91.24156
                      -4.15745                      -0.74108                      91.11733
                      -4.04830                      -0.83413                      90.96691
                      -3.98650                      -0.94108                      90.79976
                      -3.81976                      -0.95108                      90.54288
                      -3.86919                      -1.08764                      90.34099
                      -3.97761                      -1.21561                      90.15736
                      -4.13820                      -1.32697                      90.00353
                      -4.34087                      -1.41471                      89.88917
                      -4.57289                      -1.47332                      89.82146
                      -4.81968                      -1.49911                      89.80466
                      -5.06573                      -1.49048                      89.83983
                      -5.29558                      -1.44795                      89.92475
                      -5.49479                      -1.37420                      90.05409
                      -5.65085                      -1.27387                      90.21971
                      -5.75394                      -1.15326                      90.41123
                      -5.79759                      -1.01995                      90.61659
                      -5.77906                      -0.88231                      90.82290
                      -5.69951                      -0.74900                      91.01719
                      -5.56393                      -0.62838                      91.18726
                      -5.38086                      -0.52804                      91.32242
                      -5.16179                      -0.45428                      91.41418
                      -4.92048                      -0.41175                      91.45677
                      -4.67211                      -0.40310                      91.44751
                      -4.43226                      -0.42888                      91.38699
                      -4.21603                      -0.48748                      91.27901
                      -4.03698                      -0.57521                      91.13036
                      -3.90638                      -0.68656                      90.95037
                      -3.83242                      -0.81453                      90.75035
                      -3.70058                      -0.84697                      90.46272
                      -3.75629                      -1.00085                      90.23521
                      -3.87846                      -1.14506                      90.02828
                      -4.05942                      -1.27054                      89.85494
                      -4.28781                      -1.36941                      89.72607
                      -4.54926                      -1.43546                      89.64977
                      -4.82736                      -1.46453                      89.63084
                      -5.10463                      -1.45480                      89.67047
                      -5.36364                      -1.40687                      89.76616
                      -5.58813                      -1.32377                      89.91191
                      -5.76398                      -1.21071                      90.09855
                      -5.88015                      -1.07480                      90.31436
                      -5.92934                      -0.92457                      90.54578
                      -5.90846                      -0.76947                      90.77826
                      -5.81881                      -0.61924                      90.99721
                      -5.66604                      -0.48332                      91.18885
                      -5.45974                      -0.37025                      91.34116
                      -5.21288                      -0.28714                      91.44456
                      -4.94095                      -0.23920                      91.49255
                      -4.66106                      -0.22946                      91.48212
                      -4.39079                      -0.25851                      91.41392
                      -4.14712                      -0.32455                      91.29224
                      -3.94536                      -0.42341                      91.12473
                      -3.79819                      -0.54888                      90.92190
                      -3.71485                      -0.69309                      90.69651
                      -3.60686                      -0.74285                      90.38484
                      -3.66756                      -0.91054                      90.13692
                      -3.80070                      -1.06769                      89.91142
                      -3.99790                      -1.20443                      89.72252
                      -4.24677                      -1.31218                      89.58209
                      -4.53169                      -1.38415                      89.49895
                      -4.83474                      -1.41582                      89.47832
                      -5.13688                      -1.40522                      89.52150
                      -5.41914                      -1.35300                      89.62578
                      -5.66377                      -1.26244                      89.78461
                      -5.85540                      -1.13924                      89.98799
                      -5.98199                      -0.99113                      90.22317
                      -6.03560                      -0.82742                      90.47535
                      -6.01284                      -0.65840                      90.72870
                      -5.91515                      -0.49469                      90.96728
                      -5.74867                      -0.34658                      91.17613
                      -5.52386                      -0.22337                      91.34210
                      -5.25485                      -0.13279                      91.45478
                      -4.95853                      -0.08056                      91.50707
                      -4.65352                      -0.06994                      91.49571
                      -4.35900                      -0.10160                      91.42139
                      -4.09347                      -0.17356                      91.28879
                      -3.87360                      -0.28129                      91.10625
                      -3.71322                      -0.41802                      90.88523
                      -3.62241                      -0.57517                      90.63961
                      -3.53269                      -0.63874                      90.30872
                      -3.59741                      -0.81753                      90.04438
                      -3.73936                      -0.98509                      89.80395
                      -3.94962                      -1.13089                      89.60254
                      -4.21498                      -1.24577                      89.45281
                      -4.51877                      -1.32250                      89.36416
                      -4.84189                      -1.35628                      89.34216
                      -5.16404                      -1.34497                      89.38821
                      -5.46499                      -1.28929                      89.49939
                      -5.72582                      -1.19274                      89.66873
                      -5.93014                      -1.06137                      89.88559
                      -6.06512                      -0.90346                      90.13634
                      -6.12227                      -0.72891                      90.40522
                      -6.09801                      -0.54870                      90.67535
                      -5.99385                      -0.37415                      90.92974
                      -5.81635                      -0.21622                      91.15241
                      -5.57665                      -0.08485                      91.32938
                      -5.28982                       0.01172                      91.44951
                      -4.97387                       0.06742                      91.50528
                      -4.64867                       0.07874                      91.49316
                      -4.33464                       0.04498                      91.41392
                      -4.05152                      -0.03174                      91.27254
                      -3.81710                      -0.14661                      91.07791
                      -3.64610                      -0.29240                      90.84224
                      -3.54927                      -0.45995                      90.58036
                      -3.47459                      -0.53463                      90.23404
                      -3.54253                      -0.72230                      89.95656
                      -3.69153                      -0.89819                      89.70419
                      -3.91224                      -1.05123                      89.49277
                      -4.19079                      -1.17182                      89.33560
                      -4.50967                      -1.25237                      89.24254
                      -4.84884                      -1.28782                      89.21946
                      -5.18701                      -1.27595                      89.26779
                      -5.50291                      -1.21751                      89.38450
                      -5.77670                      -1.11615                      89.56225
                      -5.99118                      -0.97826                      89.78989
                      -6.13286                      -0.81250                      90.05310
                      -6.19286                      -0.62928                      90.33534
                      -6.16739                      -0.44011                      90.61889
                      -6.05805                      -0.25688                      90.88592
                      -5.87173                      -0.09111                      91.11966
                      -5.62012                       0.04679                      91.30542
                      -5.31903                       0.14816                      91.43152
                      -4.98739                       0.20662                      91.49006
                      -4.64603                       0.21851                      91.47734
                      -4.31639                       0.18307                      91.39416
                      -4.01920                       0.10253                      91.24576
                      -3.77313                      -0.01804                      91.04145
                      -3.59363                      -0.17107                      90.79408
                      -3.49199                      -0.34695                      90.51918
                      -3.43036                      -0.43051                      90.16061
                      -3.50082                      -0.62516                      89.87283
                      -3.65536                      -0.80757                      89.61108
                      -3.88426                      -0.96630                      89.39182
                      -4.17315                      -1.09136                      89.22881
                      -4.50387                      -1.17490                      89.13230
                      -4.85564                      -1.21167                      89.10836
                      -5.20635                      -1.19936                      89.15848
                      -5.53398                      -1.13874                      89.27953
                      -5.81794                      -1.03363                      89.46388
                      -6.04038                      -0.89062                      89.69997
                      -6.18733                      -0.71870                      89.97295
                      -6.24955                      -0.52868                      90.26567
                      -6.22313                      -0.33249                      90.55974
                      -6.10974                      -0.14246                      90.83669
                      -5.91649                       0.02947                      91.07911
                      -5.65554                       0.17249                      91.27176
                      -5.34328                       0.27762                      91.40255
                      -4.99932                       0.33825                      91.46326
                      -4.64529                       0.35058                      91.45006
                      -4.30342                       0.31383                      91.36380
                      -3.99519                       0.23030                      91.20989
                      -3.73998                       0.10525                      90.99799
                      -3.55382                      -0.05346                      90.74144
                      -3.44841                      -0.23587                      90.45634
                      -3.39855                      -0.32640                      90.08829
                      -3.47091                      -0.52629                      89.79275
                      -3.62962                      -0.71363                      89.52394
                      -3.86470                      -0.87664                      89.29876
                      -4.16138                      -1.00508                      89.13136
                      -4.50102                      -1.09087                      89.03224
                      -4.86228                      -1.12864                      89.00765
                      -5.22246                      -1.11599                      89.05913
                      -5.55893                      -1.05374                      89.18344
                      -5.85055                      -0.94579                      89.37277
                      -6.07899                      -0.79892                      89.61522
                      -6.22990                      -0.62236                      89.89557
                      -6.29380                      -0.42721                      90.19619
                      -6.26667                      -0.22573                      90.49820
                      -6.15022                      -0.03058                      90.78261
                      -5.95176                       0.14599                      91.03157
                      -5.68377                       0.29287                      91.22943
                      -5.36308                       0.40084                      91.36374
                      -5.00984                       0.46311                      91.42609
                      -4.64626                       0.47577                      91.41254
                      -4.29516                       0.43802                      91.32395
                      -3.97862                       0.35224                      91.16588
                      -3.71653                       0.22382                      90.94827
                      -3.52534                       0.06082                      90.68479
                      -3.41709                      -0.12651                      90.39200
                      -3.37820                      -0.22229                      90.01701
                      -3.45189                      -0.42585                      89.71604
                      -3.61351                      -0.61663                      89.44230
                      -3.85290                      -0.78262                      89.21299
                      -4.15502                      -0.91342                      89.04251
                      -4.50090                      -1.00079                      88.94158
                      -4.86879                      -1.03924                      88.91654
                      -5.23558                      -1.02637                      88.96896
                      -5.57822                      -0.96297                      89.09555
                      -5.87519                      -0.85304                      89.28835
                      -6.10782                      -0.70348                      89.53526
                      -6.26150                      -0.52368                      89.82075
                      -6.32657                      -0.32495                      90.12688
                      -6.29895                      -0.11977                      90.43443
                      -6.18036                       0.07897                      90.72407
                      -5.97826                       0.25877                      90.97760
                      -5.70535                       0.40835                      91.17908
                      -5.37878                       0.51829                      91.31586
                      -5.01906                       0.58171                      91.37935
                      -4.64880                       0.59460                      91.36555
                      -4.29126                       0.55616                      91.27533
                      -3.96892                       0.46881                      91.11437
                      -3.70201                       0.33803                      90.89277
                      -3.50732                       0.17204                      90.62445
                      -3.39707                      -0.01873                      90.32629
                      -3.36870                      -0.11818                      89.94670
                      -3.44317                      -0.32391                      89.64252
                      -3.60651                      -0.51672                      89.36586
                      -3.84845                      -0.68448                      89.13411
                      -4.15380                      -0.81667                      88.96181
                      -4.50336                      -0.90497                      88.85981
                      -4.87517                      -0.94384                      88.83450
                      -5.24587                      -0.93083                      88.88748
                      -5.59216                      -0.86676                      89.01542
                      -5.89229                      -0.75565                      89.21027
                      -6.12741                      -0.60449                      89.45981
                      -6.28272                      -0.42278                      89.74834
                      -6.34849                      -0.22193                      90.05774
                      -6.32057                      -0.01457                      90.36857
                      -6.20072                       0.18629                      90.66129
                      -5.99647                       0.36801                      90.91752
                      -5.72065                       0.51918                      91.12115
                      -5.39059                       0.63030                      91.25939
                      -5.02704                       0.69439                      91.32356
                      -4.65284                       0.70742                      91.30961
                      -4.29149                       0.66857                      91.21843
                      -3.96571                       0.58029                      91.05575
                      -3.69596                       0.44811                      90.83179
                      -3.49919                       0.28036                      90.56062
                      -3.38777                       0.08755                      90.25927
                      -3.36969                      -0.01406                      89.87733
                      -3.44443                      -0.22051                      89.57209
                      -3.60834                      -0.41400                      89.29447
                      -3.85112                      -0.58235                      89.06190
                      -4.15753                      -0.71500                      88.88901
                      -4.50831                      -0.80361                      88.78664
                      -4.88142                      -0.84261                      88.76125
                      -5.25341                      -0.82955                      88.81441
                      -5.60092                      -0.76526                      88.94280
                      -5.90210                      -0.65376                      89.13834
                      -6.13803                      -0.50208                      89.38874
                      -6.29389                      -0.31973                      89.67828
                      -6.35989                      -0.11818                      89.98876
                      -6.33187                       0.08991                      90.30067
                      -6.21160                       0.29146                      90.59442
                      -6.00663                       0.47382                      90.85154
                      -5.72985                       0.62552                      91.05588
                      -5.39865                       0.73702                      91.19461
                      -5.03383                       0.80134                      91.25899
                      -4.65831                       0.81441                      91.24500
                      -4.29571                       0.77543                      91.15350
                      -3.96879                       0.68684                      90.99025
                      -3.69809                       0.55420                      90.76551
                      -3.50064                       0.38586                      90.49339
                      -3.38883                       0.19238                      90.19100
                      -3.38108                       0.09005                      89.80889
                      -3.45556                      -0.11568                      89.50472
                      -3.61890                      -0.30849                      89.22806
                      -3.86084                      -0.47626                      88.99630
                      -4.16618                      -0.60845                      88.82401
                      -4.51574                      -0.69675                      88.72200
                      -4.88755                      -0.73562                      88.69670
                      -5.25825                      -0.72260                      88.74967
                      -5.60455                      -0.65853                      88.87761
                      -5.90468                      -0.54743                      89.07247
                      -6.13979                      -0.39627                      89.32201
                      -6.29511                      -0.21456                      89.61054
                      -6.36088                      -0.01371                      89.91994
                      -6.33295                       0.19366                      90.23077
                      -6.21310                       0.39451                      90.52349
                      -6.00885                       0.57623                      90.77972
                      -5.73303                       0.72740                      90.98335
                      -5.40298                       0.83852                      91.12159
                      -5.03943                       0.90261                      91.18575
                      -4.66522                       0.91564                      91.17181
                      -4.30387                       0.87679                      91.08063
                      -3.97809                       0.78851                      90.91795
                      -3.70834                       0.65634                      90.69399
                      -3.51158                       0.48858                      90.42281
                      -3.40016                       0.29578                      90.12147
                      -3.40298                       0.19416                      89.74140
                      -3.47666                      -0.00940                      89.44044
                      -3.63828                      -0.20018                      89.16670
                      -3.87767                      -0.36618                      88.93738
                      -4.17980                      -0.49697                      88.76691
                      -4.52567                      -0.58434                      88.66597
                      -4.89356                      -0.62280                      88.64093
                      -5.26035                      -0.60992                      88.69335
                      -5.60299                      -0.54653                      88.81994
                      -5.89996                      -0.43659                      89.01275
                      -6.13259                      -0.28703                      89.25965
                      -6.28627                      -0.10724                      89.54514
                      -6.35135                       0.09150                      89.85128
                      -6.32372                       0.29668                      90.15883
                      -6.20513                       0.49541                      90.44846
                      -6.00303                       0.67522                      90.70199
                      -5.73012                       0.82479                      90.90347
                      -5.40355                       0.93474                      91.04026
                      -5.04383                       0.99815                      91.10374
                      -4.67357                       1.01105                      91.08994
                      -4.31604                       0.97261                      90.99973
                      -3.99369                       0.88526                      90.83876
                      -3.72678                       0.75448                      90.61716
                      -3.53209                       0.58849                      90.34885
                      -3.42185                       0.39772                      90.05068
                      -3.43571                       0.29827                      89.67489
                      -3.50807                       0.09838                      89.37934
                      -3.66678                      -0.08896                      89.11053
                      -3.90186                      -0.25197                      88.88535
                      -4.19854                      -0.38041                      88.71795
                      -4.53818                      -0.46620                      88.61884
                      -4.89944                      -0.50396                      88.59425
                      -5.25962                      -0.49132                      88.64572
                      -5.59609                      -0.42907                      88.77003
                      -5.88770                      -0.32112                      88.95936
                      -6.11615                      -0.17425                      89.20182
                      -6.26706                       0.00231                      89.48216
                      -6.33095                       0.19746                      89.78278
                      -6.30383                       0.39894                      90.08479
                      -6.18738                       0.59410                      90.36921
                      -5.98892                       0.77066                      90.61816
                      -5.72093                       0.91754                      90.81602
                      -5.40024                       1.02551                      90.95034
                      -5.04700                       1.08778                      91.01268
                      -4.68341                       1.10044                      90.99913
                      -4.33232                       1.06269                      90.91054
                      -4.01578                       0.97691                      90.75247
                      -3.75369                       0.84849                      90.53486
                      -3.56250                       0.68549                      90.27139
                      -3.45424                       0.49816                      89.97859
                      -3.47991                       0.40238                      89.60940
                      -3.55037                       0.20774                      89.32162
                      -3.70490                       0.02532                      89.05987
                      -3.93380                      -0.13340                      88.84061
                      -4.22269                      -0.25847                      88.67760
                      -4.55341                      -0.34201                      88.58109
                      -4.90518                      -0.37878                      88.55715
                      -5.25590                      -0.36647                      88.60727
                      -5.58353                      -0.30585                      88.72832
                      -5.86748                      -0.20073                      88.91267
                      -6.08992                      -0.05772                      89.14876
                      -6.23687                       0.11419                      89.42174
                      -6.29909                       0.30422                      89.71446
                      -6.27267                       0.50041                      90.00853
                      -6.15928                       0.69043                      90.28548
                      -5.96604                       0.86236                      90.52790
                      -5.70509                       1.00538                      90.72055
                      -5.39282                       1.11051                      90.85134
                      -5.04887                       1.17115                      90.91205
                      -4.69483                       1.18348                      90.89885
                      -4.35296                       1.14672                      90.81259
                      -4.04474                       1.06320                      90.65868
                      -3.78953                       0.93815                      90.44678
                      -3.60337                       0.77943                      90.19023
                      -3.49795                       0.59702                      89.90513
                      -3.53652                       0.50649                      89.54503
                      -3.60446                       0.31882                      89.26755
                      -3.75346                       0.14293                      89.01517
                      -3.97417                      -0.01011                      88.80376
                      -4.25272                      -0.13070                      88.64659
                      -4.57160                      -0.21125                      88.55353
                      -4.91077                      -0.24670                      88.53044
                      -5.24894                      -0.23484                      88.57877
                      -5.56484                      -0.17639                      88.69548
                      -5.83863                      -0.07503                      88.87324
                      -6.05311                       0.06286                      89.10087
                      -6.19479                       0.22862                      89.36408
                      -6.25479                       0.41184                      89.64633
                      -6.22931                       0.60101                      89.92987
                      -6.11998                       0.78423                      90.19691
                      -5.93366                       0.95001                      90.43065
                      -5.68205                       1.08791                      90.61640
                      -5.38096                       1.18928                      90.74251
                      -5.04932                       1.24774                      90.80104
                      -4.70795                       1.25963                      90.78832
                      -4.37832                       1.22419                      90.70515
                      -4.08113                       1.14365                      90.55674
                      -3.83506                       1.02308                      90.35244
                      -3.65556                       0.87005                      90.10507
                      -3.55392                       0.69417                      89.83017
                      -3.60701                       0.61060                      89.48190
                      -3.67173                       0.43181                      89.21756
                      -3.81368                       0.26425                      88.97713
                      -4.02394                       0.11845                      88.77572
                      -4.28930                       0.00357                      88.62599
                      -4.59308                      -0.07316                      88.53734
                      -4.91620                      -0.10694                      88.51535
                      -5.23836                      -0.09563                      88.56139
                      -5.53930                      -0.03995                      88.67258
                      -5.80013                       0.05660                      88.84192
                      -6.00446                       0.18797                      89.05878
                      -6.13944                       0.34588                      89.30952
                      -6.19659                       0.52043                      89.57841
                      -6.17233                       0.70064                      89.84853
                      -6.06817                       0.87520                      90.10292
                      -5.89066                       1.03312                      90.32560
                      -5.65096                       1.16449                      90.50256
                      -5.36413                       1.26106                      90.62270
                      -5.04819                       1.31676                      90.67846
                      -4.72298                       1.32808                      90.66634
                      -4.40896                       1.29432                      90.58710
                      -4.12584                       1.21760                      90.44572
                      -3.89141                       1.10273                      90.25109
                      -3.72041                       0.95695                      90.01543
                      -3.62358                       0.78939                      89.75355
                      -3.69356                       0.71471                      89.42022
                      -3.75427                       0.54703                      89.17230
                      -3.88740                       0.38987                      88.94680
                      -4.08460                       0.25313                      88.75791
                      -4.33347                       0.14539                      88.61747
                      -4.61839                       0.07342                      88.53433
                      -4.92144                       0.04174                      88.51370
                      -5.22359                       0.05235                      88.55689
                      -5.50584                       0.10457                      88.66117
                      -5.75047                       0.19513                      88.81999
                      -5.94210                       0.31833                      89.02338
                      -6.06870                       0.46644                      89.25855
                      -6.12230                       0.63014                      89.51073
                      -6.09954                       0.79916                      89.76408
                      -6.00185                       0.96287                      90.00267
                      -5.83537                       1.11099                      90.21151
                      -5.61056                       1.23420                      90.37748
                      -5.34155                       1.32477                      90.49016
                      -5.04523                       1.37701                      90.54246
                      -4.74022                       1.38763                      90.53109
                      -4.44570                       1.35596                      90.45677
                      -4.18017                       1.28401                      90.32418
                      -3.96030                       1.17628                      90.14163
                      -3.79992                       1.03954                      89.92061
                      -3.70911                       0.88240                      89.67499
                      -3.79967                       0.81882                      89.36030
                      -3.85537                       0.66494                      89.13279
                      -3.97754                       0.52073                      88.92586
                      -4.15851                       0.39525                      88.75251
                      -4.38689                       0.29638                      88.62365
                      -4.64835                       0.23033                      88.54735
                      -4.92645                       0.20126                      88.52842
                      -5.20371                       0.21099                      88.56805
                      -5.46273                       0.25891                      88.66374
                      -5.68721                       0.34202                      88.80948
                      -5.86307                       0.45508                      88.99613
                      -5.97924                       0.59099                      89.21194
                      -6.02843                       0.74122                      89.44335
                      -6.00755                       0.89632                      89.67584
                      -5.91790                       1.04655                      89.89479
                      -5.76513                       1.18247                      90.08643
                      -5.55883                       1.29554                      90.23874
                      -5.31196                       1.37865                      90.34214
                      -5.04004                       1.42658                      90.39013
                      -4.76015                       1.43633                      90.37970
                      -4.48988                       1.40727                      90.31150
                      -4.24621                       1.34124                      90.18982
                      -4.04445                       1.24238                      90.02231
                      -3.89727                       1.11691                      89.81948
                      -3.81394                       0.97270                      89.59409
                      -3.93124                       0.92293                      89.30266
                      -3.98067                       0.78638                      89.10076
                      -4.08908                       0.65840                      88.91713
                      -4.24967                       0.54704                      88.76331
                      -4.45234                       0.45931                      88.64895
                      -4.68436                       0.40070                      88.58124
                      -4.93115                       0.37490                      88.56444
                      -5.17720                       0.38353                      88.59961
                      -5.40705                       0.42606                      88.68453
                      -5.60627                       0.49981                      88.81386
                      -5.76232                       0.60014                      88.97949
                      -5.86541                       0.72075                      89.17100
                      -5.90906                       0.85406                      89.37637
                      -5.89053                       0.99170                      89.58268
                      -5.81098                       1.12502                      89.77697
                      -5.67541                       1.24563                      89.94704
                      -5.49233                       1.34597                      90.08220
                      -5.27326                       1.41973                      90.17396
                      -5.03196                       1.46227                      90.21655
                      -4.78358                       1.47091                      90.20729
                      -4.54374                       1.44513                      90.14677
                      -4.32750                       1.38653                      90.03879
                      -4.14845                       1.29880                      89.89014
                      -4.01785                       1.18745                      89.71015
                      -3.94389                       1.05948                      89.51013
                      -4.09978                       1.02704                      89.24834
                      -4.14109                       0.91292                      89.07962
                      -4.23169                       0.80597                      88.92616
                      -4.36590                       0.71291                      88.79760
                      -4.53527                       0.63958                      88.70203
                      -4.72917                       0.59060                      88.64545
                      -4.93541                       0.56904                      88.63141
                      -5.14104                       0.57626                      88.66080
                      -5.33313                       0.61180                      88.73176
                      -5.49962                       0.67343                      88.83985
                      -5.63003                       0.75728                      88.97827
                      -5.71619                       0.85807                      89.13832
                      -5.75267                       0.96948                      89.30994
                      -5.73718                       1.08451                      89.48236
                      -5.67070                       1.19592                      89.64473
                      -5.55740                       1.29672                      89.78686
                      -5.40440                       1.38058                      89.89981
                      -5.22132                       1.44222                      89.97650
                      -5.01966                       1.47777                      90.01209
                      -4.81209                       1.48499                      90.00435
                      -4.61165                       1.46345                      89.95378
                      -4.43094                       1.41447                      89.86354
                      -4.28131                       1.34116                      89.73930
                      -4.17216                       1.24810                      89.58889
                      -4.11035                       1.14116                      89.42173
                      -4.33472                       1.13114                      89.19999
                      -4.36459                       1.04864                      89.07801
                      -4.43010                       0.97131                      88.96705
                      -4.52713                       0.90403                      88.87411
                      -4.64959                       0.85101                      88.80501
                      -4.78978                       0.81560                      88.76410
                      -4.93889                       0.80001                      88.75395
                      -5.08756                       0.80523                      88.77520
                      -5.22644                       0.83093                      88.82651
                      -5.34681                       0.87549                      88.90465
                      -5.44110                       0.93611                      89.00473
                      -5.50339                       1.00898                      89.12045
                      -5.52976                       1.08953                      89.24453
                      -5.51857                       1.17270                      89.36919
                      -5.47050                       1.25325                      89.48658
                      -5.38858                       1.32613                      89.58934
                      -5.27797                       1.38675                      89.67101
                      -5.14560                       1.43132                      89.72645
                      -4.99980                       1.45702                      89.75218
                      -4.84972                       1.46225                      89.74659
                      -4.70481                       1.44667                      89.71002
                      -4.57415                       1.41126                      89.64478
                      -4.46597                       1.35825                      89.55496
                      -4.38706                       1.29097                      89.44621
                      -4.34237                       1.21365                      89.32535
                      -4.93799                       1.23524                      89.18474
                      -4.93799                       1.23524                      89.18474
                      -4.93799                       1.23524                      89.18474
                      -4.93799                       1.23524                      89.18474
                      -4.93799                       1.23524                      89.18474
                      -4.93799                       1.23524                      89.18474
                      -4.93799                       1.23524                      89.18474
                      -4.93799                       1.23524                      89.18474
                      -4.93799                       1.23524                      89.18474
                      -4.93799                       1.23524                      89.18474
                      -4.93799                       1.23524                      89.18474
                      -4.93799                       1.23524                      89.18474
                      -4.93799                       1.23524                      89.18474
                      -4.93799                       1.23524                      89.18474
                      -4.93799                       1.23524                      89.18474
                      -4.93799                       1.23524                      89.18474
                      -4.93799                       1.23524                      89.18474
                      -4.93799                       1.23524                      89.18474
                      -4.93799                       1.23524                      89.18474
                      -4.93799                       1.23524                      89.18474
                      -4.93799                       1.23524                      89.18474
                      -4.93799                       1.23524                      89.18474
                      -4.93799                       1.23524                      89.18474
                      -4.93799                       1.23524                      89.18474
                      -4.93799                       1.23524                      89.18474
        </DataArray>
      </Points>
      <Polys>
        <DataArray type="Int32" Name="connectivity" format="ascii">
      0      1     26     25
      1      2     27     26
      2      3     28     27
      3      4     29     28
      4      5     30     29
      5      6     31     30
      6      7     32     31
      7      8     33     32
      8      9     34     33
      9     10     35     34
     10     11     36     35
     11     12     37     36
     12     13     38     37
     13     14     39     38
     14     15     40     39
     15     16     41     40
     16     17     42     41
     17     18     43     42
     18     19     44     43
     19     20     45     44
     20     21     46     45
     21     22     47     46
     22     23     48     47
     23     24     49     48
     24      0     25     49
     25     26     51     50
     26     27     52     51
     27     28     53     52
     28     29     54     53
     29     30     55     54
     30     31     56     55
     31     32     57     56
     32     33     58     57
     33     34     59     58
     34     35     60     59
     35     36     61     60
     36     37     62     61
     37     38     63     62
     38     39     64     63
     39     40     65     64
     40     41     66     65
     41     42     67     66
     42     43     68     67
     43     44     69     68
     44     45     70     69
     45     46     71     70
     46     47     72     71
     47     48     73     72
     48     49     74     73
     49     25     50     74
     50     51     76     75
     51     52     77     76
     52     53     78     77
     53     54     79     78
     54     55     80     79
     55     56     81     80
     56     57     82     81
     57     58     83     82
     58     59     84     83
     59     60     85     84
     60     61     86     85
     61     62     87     86
     62     63     88     87
     63     64     89     88
     64     65     90     89
     65     66     91     90
     66     67     92     91
     67     68     93     92
     68     69     94     93
     69     70     95     94
     70     71     96     95
     71     72     97     96
     72     73     98     97
     73     74     99     98
     74     50     75     99
     75     76    101    100
     76     77    102    101
     77     78    103    102
     78     79    104    103
     79     80    105    104
     80     81    106    105
     81     82    107    106
     82     83    108    107
     83     84    109    108
     84     85    110    109
     85     86    111    110
     86     87    112    111
     87     88    113    112
     88     89    114    113
     89     90    115    114
     90     91    116    115
     91     92    117    116
     92     93    118    117
     93     94    119    118
     94     95    120    119
     95     96    121    120
     96     97    122    121
     97     98    123    122
     98     99    124    123
     99     75    100    124
    100    101    126    125
    101    102    127    126
    102    103    128    127
    103    104    129    128
    104    105    130    129
    105    106    131    130
    106    107    132    131
    107    108    133    132
    108    109    134    133
    109    110    135    134
    110    111    136    135
    111    112    137    136
    112    113    138    137
    113    114    139    138
    114    115    140    139
    115    116    141    140
    116    117    142    141
    117    118    143    142
    118    119    144    143
    119    120    145    144
    120    121    146    145
    121    122    147    146
    122    123    148    147
    123    124    149    148
    124    100    125    149
    125    126    151    150
    126    127    152    151
    127    128    153    152
    128    129    154    153
    129    130    155    154
    130    131    156    155
    131    132    157    156
    132    133    158    157
    133    134    159    158
    134    135    160    159
    135    136    161    160
    136    137    162    161
    137    138    163    162
    138    139    164    163
    139    140    165    164
    140    141    166    165
    141    142    167    166
    142    143    168    167
    143    144    169    168
    144    145    170    169
    145    146    171    170
    146    147    172    171
    147    148    173    172
    148    149    174    173
    149    125    150    174
    150    151    176    175
    151    152    177    176
    152    153    178    177
    153    154    179    178
    154    155    180    179
    155    156    181    180
    156    157    182    181
    157    158    183    182
    158    159    184    183
    159    160    185    184
    160    161    186    185
    161    162    187    186
    162    163    188    187
    163    164    189    188
    164    165    190    189
    165    166    191    190
    166    167    192    191
    167    168    193    192
    168    169    194    193
    169    170    195    194
    170    171    196    195
    171    172    197    196
    172    173    198    197
    173    174    199    198
    174    150    175    199
    175    176    201    200
    176    177    202    201
    177    178    203    202
    178    179    204    203
    179    180    205    204
    180    181    206    205
    181    182    207    206
    182    183    208    207
    183    184    209    208
    184    185    210    209
    185    186    211    210
    186    187    212    211
    187    188    213    212
    188    189    214    213
    189    190    215    214
    190    191    216    215
    191    192    217    216
    192    193    218    217
    193    194    219    218
    194    195    220    219
    195    196    221    220
    196    197    222    221
    197    198    223    222
    198    199    224    223
    199    175    200    224
    200    201    226    225
    201    202    227    226
    202    203    228    227
    203    204    229    228
    204    205    230    229
    205    206    231    230
    206    207    232    231
    207    208    233    232
    208    209    234    233
    209    210    235    234
    210    211    236    235
    211    212    237    236
    212    213    238    237
    213    214    239    238
    214    215    240    239
    215    216    241    240
    216    217    242    241
    217    218    243    242
    218    219    244    243
    219    220    245    244
    220    221    246    245
    221    222    247    246
    222    223    248    247
    223    224    249    248
    224    200    225    249
    225    226    251    250
    226    227    252    251
    227    228    253    252
    228    229    254    253
    229    230    255    254
    230    231    256    255
    231    232    257    256
    232    233    258    257
    233    234    259    258
    234    235    260    259
    235    236    261    260
    236    237    262    261
    237    238    263    262
    238    239    264    263
    239    240    265    264
    240    241    266    265
    241    242    267    266
    242    243    268    267
    243    244    269    268
    244    245    270    269
    245    246    271    270
    246    247    272    271
    247    248    273    272
    248    249    274    273
    249    225    250    274
    250    251    276    275
    251    252    277    276
    252    253    278    277
    253    254    279    278
    254    255    280    279
    255    256    281    280
    256    257    282    281
    257    258    283    282
    258    259    284    283
    259    260    285    284
    260    261    286    285
    261    262    287    286
    262    263    288    287
    263    264    289    288
    264    265    290    289
    265    266    291    290
    266    267    292    291
    267    268    293    292
    268    269    294    293
    269    270    295    294
    270    271    296    295
    271    272    297    296
    272    273    298    297
    273    274    299    298
    274    250    275    299
    275    276    301    300
    276    277    302    301
    277    278    303    302
    278    279    304    303
    279    280    305    304
    280    281    306    305
    281    282    307    306
    282    283    308    307
    283    284    309    308
    284    285    310    309
    285    286    311    310
    286    287    312    311
    287    288    313    312
    288    289    314    313
    289    290    315    314
    290    291    316    315
    291    292    317    316
    292    293    318    317
    293    294    319    318
    294    295    320    319
    295    296    321    320
    296    297    322    321
    297    298    323    322
    298    299    324    323
    299    275    300    324
    300    301    326    325
    301    302    327    326
    302    303    328    327
    303    304    329    328
    304    305    330    329
    305    306    331    330
    306    307    332    331
    307    308    333    332
    308    309    334    333
    309    310    335    334
    310    311    336    335
    311    312    337    336
    312    313    338    337
    313    314    339    338
    314    315    340    339
    315    316    341    340
    316    317    342    341
    317    318    343    342
    318    319    344    343
    319    320    345    344
    320    321    346    345
    321    322    347    346
    322    323    348    347
    323    324    349    348
    324    300    325    349
    325    326    351    350
    326    327    352    351
    327    328    353    352
    328    329    354    353
    329    330    355    354
    330    331    356    355
    331    332    357    356
    332    333    358    357
    333    334    359    358
    334    335    360    359
    335    336    361    360
    336    337    362    361
    337    338    363    362
    338    339    364    363
    339    340    365    364
    340    341    366    365
    341    342    367    366
    342    343    368    367
    343    344    369    368
    344    345    370    369
    345    346    371    370
    346    347    372    371
    347    348    373    372
    348    349    374    373
    349    325    350    374
    350    351    376    375
    351    352    377    376
    352    353    378    377
    353    354    379    378
    354    355    380    379
    355    356    381    380
    356    357    382    381
    357    358    383    382
    358    359    384    383
    359    360    385    384
    360    361    386    385
    361    362    387    386
    362    363    388    387
    363    364    389    388
    364    365    390    389
    365    366    391    390
    366    367    392    391
    367    368    393    392
    368    369    394    393
    369    370    395    394
    370    371    396    395
    371    372    397    396
    372    373    398    397
    373    374    399    398
    374    350    375    399
    375    376    401    400
    376    377    402    401
    377    378    403    402
    378    379    404    403
    379    380    405    404
    380    381    406    405
    381    382    407    406
    382    383    408    407
    383    384    409    408
    384    385    410    409
    385    386    411    410
    386    387    412    411
    387    388    413    412
    388    389    414    413
    389    390    415    414
    390    391    416    415
    391    392    417    416
    392    393    418    417
    393    394    419    418
    394    395    420    419
    395    396    421    420
    396    397    422    421
    397    398    423    422
    398    399    424    423
    399    375    400    424
    400    401    426    425
    401    402    427    426
    402    403    428    427
    403    404    429    428
    404    405    430    429
    405    406    431    430
    406    407    432    431
    407    408    433    432
    408    409    434    433
    409    410    435    434
    410    411    436    435
    411    412    437    436
    412    413    438    437
    413    414    439    438
    414    415    440    439
    415    416    441    440
    416    417    442    441
    417    418    443    442
    418    419    444    443
    419    420    445    444
    420    421    446    445
    421    422    447    446
    422    423    448    447
    423    424    449    448
    424    400    425    449
    425    426    451    450
    426    427    452    451
    427    428    453    452
    428    429    454    453
    429    430    455    454
    430    431    456    455
    431    432    457    456
    432    433    458    457
    433    434    459    458
    434    435    460    459
    435    436    461    460
    436    437    462    461
    437    438    463    462
    438    439    464    463
    439    440    465    464
    440    441    466    465
    441    442    467    466
    442    443    468    467
    443    444    469    468
    444    445    470    469
    445    446    471    470
    446    447    472    471
    447    448    473    472
    448    449    474    473
    449    425    450    474
    450    451    476    475
    451    452    477    476
    452    453    478    477
    453    454    479    478
    454    455    480    479
    455    456    481    480
    456    457    482    481
    457    458    483    482
    458    459    484    483
    459    460    485    484
    460    461    486    485
    461    462    487    486
    462    463    488    487
    463    464    489    488
    464    465    490    489
    465    466    491    490
    466    467    492    491
    467    468    493    492
    468    469    494    493
    469    470    495    494
    470    471    496    495
    471    472    497    496
    472    473    498    497
    473    474    499    498
    474    450    475    499
    475    476    501    500
    476    477    502    501
    477    478    503    502
    478    479    504    503
    479    480    505    504
    480    481    506    505
    481    482    507    506
    482    483    508    507
    483    484    509    508
    484    485    510    509
    485    486    511    510
    486    487    512    511
    487    488    513    512
    488    489    514    513
    489    490    515    514
    490    491    516    515
    491    492    517    516
    492    493    518    517
    493    494    519    518
    494    495    520    519
    495    496    521    520
    496    497    522    521
    497    498    523    522
    498    499    524    523
    499    475    500    524
    500    501    526    525
    501    502    527    526
    502    503    528    527
    503    504    529    528
    504    505    530    529
    505    506    531    530
    506    507    532    531
    507    508    533    532
    508    509    534    533
    509    510    535    534
    510    511    536    535
    511    512    537    536
    512    513    538    537
    513    514    539    538
    514    515    540    539
    515    516    541    540
    516    517    542    541
    517    518    543    542
    518    519    544    543
    519    520    545    544
    520    521    546    545
    521    522    547    546
    522    523    548    547
    523    524    549    548
    524    500    525    549
    525    526    551    550
    526    527    552    551
    527    528    553    552
    528    529    554    553
    529    530    555    554
    530    531    556    555
    531    532    557    556
    532    533    558    557
    533    534    559    558
    534    535    560    559
    535    536    561    560
    536    537    562    561
    537    538    563    562
    538    539    564    563
    539    540    565    564
    540    541    566    565
    541    542    567    566
    542    543    568    567
    543    544    569    568
    544    545    570    569
    545    546    571    570
    546    547    572    571
    547    548    573    572
    548    549    574    573
    549    525    550    574
    550    551    576    575
    551    552    577    576
    552    553    578    577
    553    554    579    578
    554    555    580    579
    555    556    581    580
    556    557    582    581
    557    558    583    582
    558    559    584    583
    559    560    585    584
    560    561    586    585
    561    562    587    586
    562    563    588    587
    563    564    589    588
    564    565    590    589
    565    566    591    590
    566    567    592    591
    567    568    593    592
    568    569    594    593
    569    570    595    594
    570    571    596    595
    571    572    597    596
    572    573    598    597
    573    574    599    598
    574    550    575    599
    575    576    601    600
    576    577    602    601
    577    578    603    602
    578    579    604    603
    579    580    605    604
    580    581    606    605
    581    582    607    606
    582    583    608    607
    583    584    609    608
    584    585    610    609
    585    586    611    610
    586    587    612    611
    587    588    613    612
    588    589    614    613
    589    590    615    614
    590    591    616    615
    591    592    617    616
    592    593    618    617
    593    594    619    618
    594    595    620    619
    595    596    621    620
    596    597    622    621
    597    598    623    622
    598    599    624    623
    599    575    600    624
        </DataArray>
        <DataArray type="Int32" Name="offsets" format="ascii">
      4
      8
     12
     16
     20
     24
     28
     32
     36
     40
     44
     48
     52
     56
     60
     64
     68
     72
     76
     80
     84
     88
     92
     96
    100
    104
    108
    112
    116
    120
    124
    128
    132
    136
    140
    144
    148
    152
    156
    160
    164
    168
    172
    176
    180
    184
    188
    192
    196
    200
    204
    208
    212
    216
    220
    224
    228
    232
    236
    240
    244
    248
    252
    256
    260
    264
    268
    272
    276
    280
    284
    288
    292
    296
    300
    304
    308
    312
    316
    320
    324
    328
    332
    336
    340
    344
    348
    352
    356
    360
    364
    368
    372
    376
    380
    384
    388
    392
    396
    400
    404
    408
    412
    416
    420
    424
    428
    432
    436
    440
    444
    448
    452
    456
    460
    464
    468
    472
    476
    480
    484
    488
    492
    496
    500
    504
    508
    512
    516
    520
    524
    528
    532
    536
    540
    544
    548
    552
    556
    560
    564
    568
    572
    576
    580
    584
    588
    592
    596
    600
    604
    608
    612
    616
    620
    624
    628
    632
    636
    640
    644
    648
    652
    656
    660
    664
    668
    672
    676
    680
    684
    688
    692
    696
    700
    704
    708
    712
    716
    720
    724
    728
    732
    736
    740
    744
    748
    752
    756
    760
    764
    768
    772
    776
    780
    784
    788
    792
    796
    800
    804
    808
    812
    816
    820
    824
    828
    832
    836
    840
    844
    848
    852
    856
    860
    864
    868
    872
    876
    880
    884
    888
    892
    896
    900
    904
    908
    912
    916
    920
    924
    928
    932
    936
    940
    944
    948
    952
    956
    960
    964
    968
    972
    976
    980
    984
    988
    992
    996
   1000
   1004
   1008
   1012
   1016
   1020
   1024
   1028
   1032
   1036
   1040
   1044
   1048
   1052
   1056
   1060
   1064
   1068
   1072
   1076
   1080
   1084
   1088
   1092
   1096
   1100
   1104
   1108
   1112
   1116
   1120
   1124
   1128
   1132
   1136
   1140
   1144
   1148
   1152
   1156
   1160
   1164
   1168
   1172
   1176
   1180
   1184
   1188
   1192
   1196
   1200
   1204
   1208
   1212
   1216
   1220
   1224
   1228
   1232
   1236
   1240
   1244
   1248
   1252
   1256
   1260
   1264
   1268
   1272
   1276
   1280
   1284
   1288
   1292
   1296
   1300
   1304
   1308
   1312
   1316
   1320
   1324
   1328
   1332
   1336
   1340
   1344
   1348
   1352
   1356
   1360
   1364
   1368
   1372
   1376
   1380
   1384
   1388
   1392
   1396
   1400
   1404
   1408
   1412
   1416
   1420
   1424
   1428
   1432
   1436
   1440
   1444
   1448
   1452
   1456
   1460
   1464
   1468
   1472
   1476
   1480
   1484
   1488
   1492
   1496
   1500
   1504
   1508
   1512
   1516
   1520
   1524
   1528
   1532
   1536
   1540
   1544
   1548
   1552
   1556
   1560
   1564
   1568
   1572
   1576
   1580
   1584
   1588
   1592
   1596
   1600
   1604
   1608
   1612
   1616
   1620
   1624
   1628
   1632
   1636
   1640
   1644
   1648
   1652
   1656
   1660
   1664
   1668
   1672
   1676
   1680
   1684
   1688
   1692
   1696
   1700
   1704
   1708
   1712
   1716
   1720
   1724
   1728
   1732
   1736
   1740
   1744
   1748
   1752
   1756
   1760
   1764
   1768
   1772
   1776
   1780
   1784
   1788
   1792
   1796
   1800
   1804
   1808
   1812
   1816
   1820
   1824
   1828
   1832
   1836
   1840
   1844
   1848
   1852
   1856
   1860
   1864
   1868
   1872
   1876
   1880
   1884
   1888
   1892
   1896
   1900
   1904
   1908
   1912
   1916
   1920
   1924
   1928
   1932
   1936
   1940
   1944
   1948
   1952
   1956
   1960
   1964
   1968
   1972
   1976
   1980
   1984
   1988
   1992
   1996
   2000
   2004
   2008
   2012
   2016
   2020
   2024
   2028
   2032
   2036
   2040
   2044
   2048
   2052
   2056
   2060
   2064
   2068
   2072
   2076
   2080
   2084
   2088
   2092
   2096
   2100
   2104
   2108
   2112
   2116
   2120
   2124
   2128
   2132
   2136
   2140
   2144
   2148
   2152
   2156
   2160
   2164
   2168
   2172
   2176
   2180
   2184
   2188
   2192
   2196
   2200
   2204
   2208
   2212
   2216
   2220
   2224
   2228
   2232
   2236
   2240
   2244
   2248
   2252
   2256
   2260
   2264
   2268
   2272
   2276
   2280
   2284
   2288
   2292
   2296
   2300
   2304
   2308
   2312
   2316
   2320
   2324
   2328
   2332
   2336
   2340
   2344
   2348
   2352
   2356
   2360
   2364
   2368
   2372
   2376
   2380
   2384
   2388
   2392
   2396
   2400
        </DataArray>
      </Polys>
    </Piece>
  </PolyData>
</VTKFile>
