<?xml version="1.0"?>
<VTKFile type="PolyData" version="0.1" byte_order="LittleEndian">
  <PolyData>
    <Piece NumberOfPoints="     22" NumberOfVerts="  0" NumberOfLines="     21"
           NumberOfStrips="  0" NumberOfPolys="      0">
      <Points>
        <DataArray type="Float32" NumberOfComponents="3" format="ascii">
                       0.00027                      -0.00001                       2.19000
                       0.00271                      -0.00008                       6.57000
                       0.00810                      -0.00021                      10.95000
                       0.01668                      -0.00040                      15.32999
                       0.02851                      -0.00064                      19.70997
                       0.04351                      -0.00096                      24.08994
                       0.06155                      -0.00134                      28.46991
                       0.08253                      -0.00181                      32.84986
                       0.10639                      -0.00236                      37.22979
                       0.13312                      -0.00302                      41.60971
                       0.16279                      -0.00379                      45.98961
                       0.19553                      -0.00468                      50.36949
                       0.23149                      -0.00570                      54.74934
                       0.27082                      -0.00686                      59.12916
                       0.31357                      -0.00816                      63.50895
                       0.35965                      -0.00960                      67.88871
                       0.40870                      -0.01117                      72.26843
                       0.46001                      -0.01287                      76.64813
                       0.51238                      -0.01467                      81.02782
                       0.56395                      -0.01655                      85.40752
                       0.58865                      -0.01752                      87.59738
                       0.00000                       0.00000                       0.00000
        </DataArray>
      </Points>
      <PointData>
        <DataArray type="Float32" Name="TranslationalVelocity" NumberOfComponents="3" format="ascii">
                      -0.00002                      -0.00000                       0.00000
                      -0.00019                      -0.00004                       0.00000
                      -0.00057                      -0.00011                       0.00000
                      -0.00116                      -0.00021                       0.00000
                      -0.00196                      -0.00033                       0.00000
                      -0.00297                      -0.00049                       0.00001
                      -0.00417                      -0.00068                       0.00001
                      -0.00554                      -0.00091                       0.00002
                      -0.00707                      -0.00117                       0.00003
                      -0.00875                      -0.00148                       0.00004
                      -0.01058                      -0.00184                       0.00005
                      -0.01256                      -0.00225                       0.00006
                      -0.01468                      -0.00272                       0.00008
                      -0.01696                      -0.00324                       0.00010
                      -0.01939                      -0.00381                       0.00013
                      -0.02196                      -0.00445                       0.00015
                      -0.02465                      -0.00513                       0.00018
                      -0.02743                      -0.00587                       0.00021
                      -0.03022                      -0.00664                       0.00025
                      -0.03293                      -0.00745                       0.00028
                      -0.03422                      -0.00786                       0.00029
                       0.00000                      -0.00000                       0.00000
        </DataArray>
        <DataArray type="Float32" Name="RotationalVelocity" NumberOfComponents="3" format="ascii">
                       0.00000                      -0.00002                       0.00000
                       0.00001                      -0.00006                       0.00000
                       0.00002                      -0.00011                       0.00000
                       0.00003                      -0.00016                       0.00000
                       0.00003                      -0.00021                       0.00000
                       0.00004                      -0.00025                       0.00000
                       0.00005                      -0.00029                       0.00000
                       0.00006                      -0.00033                       0.00000
                       0.00007                      -0.00037                       0.00000
                       0.00008                      -0.00040                       0.00000
                       0.00009                      -0.00043                       0.00000
                       0.00010                      -0.00047                       0.00000
                       0.00011                      -0.00050                       0.00000
                       0.00013                      -0.00054                       0.00000
                       0.00014                      -0.00057                       0.00000
                       0.00015                      -0.00060                       0.00000
                       0.00016                      -0.00063                       0.00000
                       0.00017                      -0.00064                       0.00000
                       0.00018                      -0.00063                       0.00000
                       0.00019                      -0.00060                       0.00000
                       0.00019                      -0.00057                       0.00000
                       0.00000                      -0.00000                       0.00000
        </DataArray>
        <DataArray type="Float32" Name="TranslationalAcceleration" NumberOfComponents="3" format="ascii">
                      -0.00008                      -0.00015                       0.00000
                      -0.00075                      -0.00129                       0.00000
                      -0.00210                      -0.00334                       0.00000
                      -0.00411                      -0.00612                       0.00001
                      -0.00670                      -0.00944                       0.00001
                      -0.00972                      -0.01316                       0.00002
                      -0.01305                      -0.01711                       0.00004
                      -0.01650                      -0.02111                       0.00005
                      -0.01990                      -0.02499                       0.00007
                      -0.02307                      -0.02855                       0.00009
                      -0.02585                      -0.03157                       0.00010
                      -0.02808                      -0.03383                       0.00012
                      -0.02963                      -0.03512                       0.00013
                      -0.03039                      -0.03524                       0.00014
                      -0.03028                      -0.03400                       0.00013
                      -0.02927                      -0.03127                       0.00012
                      -0.02734                      -0.02700                       0.00010
                      -0.02452                      -0.02120                       0.00007
                      -0.02089                      -0.01402                       0.00003
                      -0.01655                      -0.00575                      -0.00002
                      -0.01416                      -0.00135                      -0.00005
                       0.00000                      -0.00000                       0.00000
        </DataArray>
        <DataArray type="Float32" Name="RotationalAcceleration" NumberOfComponents="3" format="ascii">
                       0.00014                      -0.00007                       0.00000
                       0.00037                      -0.00023                       0.00000
                       0.00056                      -0.00039                       0.00000
                       0.00070                      -0.00053                       0.00000
                       0.00081                      -0.00065                       0.00000
                       0.00088                      -0.00073                       0.00000
                       0.00091                      -0.00078                       0.00000
                       0.00091                      -0.00079                       0.00000
                       0.00086                      -0.00076                       0.00000
                       0.00076                      -0.00069                       0.00000
                       0.00061                      -0.00058                       0.00000
                       0.00041                      -0.00044                       0.00000
                       0.00017                      -0.00027                       0.00000
                      -0.00012                      -0.00008                       0.00000
                      -0.00045                       0.00013                       0.00000
                      -0.00080                       0.00034                       0.00000
                      -0.00115                       0.00054                       0.00000
                      -0.00149                       0.00074                       0.00000
                      -0.00178                       0.00092                       0.00000
                      -0.00198                       0.00106                       0.00000
                      -0.00203                       0.00112                       0.00000
                       0.00000                      -0.00000                       0.00000
        </DataArray>
        <DataArray type="Float32" Name="OrientationX" NumberOfComponents="3" format="ascii">
                       1.00000                       0.00000                      -0.00025
                       1.00000                       0.00000                      -0.00088
                       1.00000                       0.00000                      -0.00159
                       1.00000                       0.00000                      -0.00233
                       1.00000                       0.00000                      -0.00307
                       0.99999                       0.00000                      -0.00378
                       0.99999                       0.00000                      -0.00446
                       0.99999                       0.00000                      -0.00512
                       0.99998                       0.00000                      -0.00577
                       0.99998                       0.00000                      -0.00643
                       0.99997                       0.00000                      -0.00712
                       0.99997                       0.00000                      -0.00784
                       0.99996                       0.00000                      -0.00859
                       0.99996                       0.00000                      -0.00937
                       0.99995                       0.00000                      -0.01015
                       0.99994                       0.00000                      -0.01088
                       0.99993                       0.00000                      -0.01149
                       0.99993                       0.00000                      -0.01189
                       0.99993                       0.00000                      -0.01195
                       0.99993                       0.00000                      -0.01150
                       0.99994                       0.00000                      -0.01102
                       1.00000                      -0.00000                       0.00000
        </DataArray>
        <DataArray type="Float32" Name="OrientationY" NumberOfComponents="3" format="ascii">
                       0.00000                       1.00000                       0.00001
                       0.00000                       1.00000                       0.00002
                       0.00000                       1.00000                       0.00004
                       0.00000                       1.00000                       0.00005
                       0.00000                       1.00000                       0.00006
                       0.00000                       1.00000                       0.00008
                       0.00000                       1.00000                       0.00010
                       0.00000                       1.00000                       0.00012
                       0.00000                       1.00000                       0.00014
                       0.00000                       1.00000                       0.00016
                       0.00000                       1.00000                       0.00019
                       0.00000                       1.00000                       0.00022
                       0.00000                       1.00000                       0.00025
                       0.00000                       1.00000                       0.00028
                       0.00000                       1.00000                       0.00031
                       0.00000                       1.00000                       0.00034
                       0.00000                       1.00000                       0.00037
                       0.00000                       1.00000                       0.00040
                       0.00000                       1.00000                       0.00042
                       0.00000                       1.00000                       0.00044
                       0.00000                       1.00000                       0.00044
                      -0.00000                       1.00000                      -0.00000
        </DataArray>
        <DataArray type="Float32" Name="OrientationZ" NumberOfComponents="3" format="ascii">
                       0.00025                      -0.00001                       1.00000
                       0.00088                      -0.00002                       1.00000
                       0.00159                      -0.00004                       1.00000
                       0.00233                      -0.00005                       1.00000
                       0.00307                      -0.00006                       1.00000
                       0.00378                      -0.00008                       0.99999
                       0.00446                      -0.00010                       0.99999
                       0.00512                      -0.00012                       0.99999
                       0.00577                      -0.00014                       0.99998
                       0.00643                      -0.00016                       0.99998
                       0.00712                      -0.00019                       0.99997
                       0.00784                      -0.00022                       0.99997
                       0.00859                      -0.00025                       0.99996
                       0.00937                      -0.00028                       0.99996
                       0.01015                      -0.00031                       0.99995
                       0.01088                      -0.00034                       0.99994
                       0.01149                      -0.00037                       0.99993
                       0.01189                      -0.00040                       0.99993
                       0.01195                      -0.00042                       0.99993
                       0.01150                      -0.00044                       0.99993
                       0.01102                      -0.00044                       0.99994
                       0.00000                      -0.00000                       1.00000
        </DataArray>
      </PointData>
      <Lines>
        <DataArray type="Int32" Name="connectivity" format="ascii">
      0      1
      1      2
      2      3
      3      4
      4      5
      5      6
      6      7
      7      8
      8      9
      9     10
     10     11
     11     12
     12     13
     13     14
     14     15
     15     16
     16     17
     17     18
     18     19
     19     20
     21      0
        </DataArray>
        <DataArray type="Int32" Name="offsets" format="ascii">
      2
      4
      6
      8
     10
     12
     14
     16
     18
     20
     22
     24
     26
     28
     30
     32
     34
     36
     38
     40
     42
        </DataArray>
      </Lines>
    </Piece>
  </PolyData>
</VTKFile>
