<?xml version="1.0"?>
<VTKFile type="PolyData" version="0.1" byte_order="LittleEndian">
  <PolyData>
    <Piece NumberOfPoints="     19" NumberOfVerts="  0" NumberOfLines="     18"
           NumberOfStrips="  0" NumberOfPolys="      0">
      <Points>
        <DataArray type="Float32" NumberOfComponents="3" format="ascii">
                      -4.04585                      -1.20531                      90.99919
                      -4.01842                      -2.28519                      91.83692
                      -3.98472                      -4.50327                      93.43801
                      -3.95095                      -6.75027                      95.00229
                      -3.89079                      -9.57840                      96.93313
                      -3.70586                     -12.88997                      99.35058
                      -3.41939                     -16.12626                     101.85742
                      -3.05155                     -19.36360                     104.35283
                      -2.58407                     -22.59872                     106.83452
                      -2.00219                     -25.82980                     109.29702
                      -1.29260                     -29.05530                     111.73301
                      -0.44076                     -32.26956                     114.13830
                       0.56452                     -35.46711                     116.50715
                       1.73200                     -38.64170                     118.83322
                       3.06987                     -41.78584                     121.10879
                       4.32050                     -44.37607                     122.95972
                       5.40597                     -46.42114                     124.41497
                       6.57245                     -48.40978                     125.88213
                       7.17754                     -49.42001                     126.57058
        </DataArray>
      </Points>
      <PointData>
        <DataArray type="Float32" Name="TranslationalVelocity" NumberOfComponents="3" format="ascii">
                      -0.19363                      -2.04754                      -2.63124
                      -0.44342                      -3.92403                      -5.04194
                      -0.95814                      -7.50715                      -9.99465
                      -1.48226                     -11.00946                     -15.01384
                      -2.14738                     -15.33869                     -21.33435
                      -2.93669                     -20.78790                     -28.73985
                      -3.72330                     -26.46538                     -35.98113
                      -4.52980                     -32.14173                     -43.22770
                      -5.35967                     -37.81712                     -50.47062
                      -6.21672                     -43.48401                     -57.70376
                      -7.10454                     -49.13077                     -64.92136
                      -8.02525                     -54.75359                     -72.10822
                      -8.98039                     -60.34491                     -79.24935
                      -9.97047                     -65.89593                     -86.32801
                     -10.99472                     -71.39543                     -93.32469
                     -11.87349                     -75.92919                     -99.07558
                     -12.58921                     -79.53413                    -103.60667
                     -13.30561                     -83.20033                    -108.00304
                     -13.67574                     -84.94391                    -110.23308
        </DataArray>
        <DataArray type="Float32" Name="RotationalVelocity" NumberOfComponents="3" format="ascii">
                       2.23203                       0.00196                      -0.23274
                       2.23233                       0.00187                      -0.23292
                       2.23305                       0.00157                      -0.23356
                       2.23389                       0.00113                      -0.23461
                       2.23503                       0.00043                      -0.23649
                       2.23643                      -0.00055                      -0.23968
                       2.23769                      -0.00164                      -0.24399
                       2.23866                      -0.00282                      -0.24949
                       2.23919                      -0.00408                      -0.25627
                       2.23916                      -0.00542                      -0.26438
                       2.23851                      -0.00689                      -0.27378
                       2.23717                      -0.00851                      -0.28438
                       2.23518                      -0.01032                      -0.29600
                       2.23259                      -0.01233                      -0.30832
                       2.22954                      -0.01457                      -0.32091
                       2.22680                      -0.01661                      -0.33120
                       2.22460                      -0.01835                      -0.33898
                       2.22250                      -0.02018                      -0.34608
                       2.22152                      -0.02111                      -0.34929
        </DataArray>
        <DataArray type="Float32" Name="TranslationalAcceleration" NumberOfComponents="3" format="ascii">
                      -0.57634                       5.76802                      -4.76316
                      -0.62733                       7.02039                      -5.78556
                      -1.75545                      20.40245                     -16.19301
                      -2.76864                      32.91269                     -25.55712
                      -3.93265                      47.68987                     -36.33745
                      -5.30309                      64.13155                     -49.07688
                      -6.69369                      79.79110                     -61.95635
                      -8.09940                      95.44406                     -74.78430
                      -9.55267                     111.26192                     -87.72370
                     -11.07500                     127.28707                    -100.80964
                     -12.68085                     143.46417                    -113.98758
                     -14.38420                     159.65595                    -127.17080
                     -16.19911                     175.70438                    -140.24627
                     -18.14383                     191.46438                    -153.11116
                     -20.24382                     206.83935                    -165.70140
                     -22.14208                     219.34254                    -175.98174
                     -23.77691                     229.15932                    -184.13905
                     -25.56487                     238.72743                    -192.48478
                     -26.48727                     243.64870                    -196.51310
        </DataArray>
        <DataArray type="Float32" Name="OrientationX" NumberOfComponents="3" format="ascii">
                       0.95086                      -0.17485                      -0.25552
                       0.95082                      -0.17393                      -0.25629
                       0.95069                      -0.17086                      -0.25882
                       0.95045                      -0.16635                      -0.26263
                       0.94992                      -0.15904                      -0.26899
                       0.95827                      -0.12902                      -0.25511
                       0.96279                      -0.10184                      -0.25032
                       0.96535                      -0.07397                      -0.25027
                       0.96677                      -0.04280                      -0.25204
                       0.96662                      -0.00848                      -0.25606
                       0.96422                       0.02797                      -0.26364
                       0.95947                       0.06708                      -0.27371
                       0.95187                       0.10743                      -0.28705
                       0.94104                       0.14674                      -0.30481
                       0.92801                       0.18655                      -0.32250
                       0.91601                       0.21919                      -0.33598
                       0.90614                       0.24373                      -0.34569
                       0.89623                       0.26406                      -0.35644
                       0.89138                       0.27191                      -0.36263
        </DataArray>
        <DataArray type="Float32" Name="OrientationY" NumberOfComponents="3" format="ascii">
                       0.30895                       0.58991                       0.74602
                       0.30899                       0.58996                       0.74597
                       0.30909                       0.59025                       0.74570
                       0.30931                       0.59076                       0.74520
                       0.30982                       0.59169                       0.74426
                       0.28043                       0.59768                       0.75109
                       0.25998                       0.60188                       0.75508
                       0.24289                       0.60538                       0.75797
                       0.22530                       0.60854                       0.76087
                       0.20769                       0.61118                       0.76376
                       0.19175                       0.61314                       0.76635
                       0.17644                       0.61435                       0.76906
                       0.16330                       0.61481                       0.77158
                       0.15457                       0.61497                       0.77325
                       0.14595                       0.61439                       0.77538
                       0.13852                       0.61320                       0.77769
                       0.13287                       0.61188                       0.77971
                       0.13041                       0.61117                       0.78068
                       0.13103                       0.61132                       0.78046
        </DataArray>
        <DataArray type="Float32" Name="OrientationZ" NumberOfComponents="3" format="ascii">
                       0.02029                      -0.78831                       0.61495
                       0.02146                      -0.78847                       0.61469
                       0.02536                      -0.78893                       0.61396
                       0.03118                      -0.78951                       0.61294
                       0.04080                      -0.79032                       0.61133
                       0.05557                      -0.79128                       0.60892
                       0.07376                      -0.79207                       0.60596
                       0.09544                      -0.79250                       0.60236
                       0.12081                      -0.79237                       0.59796
                       0.15002                      -0.79145                       0.59254
                       0.18308                      -0.78948                       0.58584
                       0.21974                      -0.78618                       0.57761
                       0.25937                      -0.78132                       0.56768
                       0.30092                      -0.77477                       0.55603
                       0.34278                      -0.76663                       0.54293
                       0.37648                      -0.75891                       0.53133
                       0.40156                      -0.75246                       0.52207
                       0.42399                      -0.74616                       0.51331
                       0.43390                      -0.74321                       0.50929
        </DataArray>
        <DataArray type="Float32" Name="Force" NumberOfComponents="3" format="ascii">
                     167.79844                      30.85436                      34.01695
                     189.99237                      63.00498                      74.14820
                     277.84102                     169.34733                     205.78698
                     279.58107                     242.25626                     296.88164
                    3035.09512                    -779.38983                   -1205.52878
                    4236.22162                    -898.02446                   -1545.02859
                    4482.68065                    -675.49553                   -1419.10720
                    5774.94266                    -618.09597                   -1715.17829
                    6795.87335                    -464.61397                   -1972.52837
                    7872.62617                    -232.36210                   -2284.27484
                   10377.98179                      88.12227                   -3097.91057
                   11987.46945                     577.57961                   -3742.02481
                   12908.25487                    1152.33542                   -4274.82927
                   13704.57078                    1813.82105                   -4847.11357
                   14381.23104                    2534.09567                   -5453.31807
                   14884.51075                    3160.30398                   -5978.82493
                   14726.09109                    3533.08997                   -6178.06893
                   10652.49012                    2825.64247                   -4648.08812
                   10790.26259                    2988.23035                   -4787.48494
        </DataArray>
        <DataArray type="Float32" Name="Moment" NumberOfComponents="3" format="ascii">
                       0.00000                       0.00000                       0.00000
                       0.00000                       0.00000                       0.00000
                       0.00000                       0.00000                       0.00000
                       0.00000                       0.00000                       0.00000
                     -34.52770                     664.40906                    -516.47754
                    -111.23808                    1570.93255                   -1218.07779
                    -200.54136                    2133.13541                   -1648.84394
                    -392.51244                    3225.59543                   -2483.97756
                    -697.87606                    4526.66316                   -3470.58543
                    -981.44019                    5116.79831                   -3902.97243
                   -1313.55301                    5593.22256                   -4241.29147
                   -1679.68241                    5928.68417                   -4465.72520
                   -1687.45102                    5009.15099                   -3745.13803
                   -1952.82415                    4948.13887                   -3669.72594
                   -2157.23232                    4740.66084                   -3486.01862
                   -2258.85561                    4467.84674                   -3261.87956
                   -2150.16838                    3948.81369                   -2866.92517
                   -1144.05555                    1971.09924                   -1423.68615
                   -1214.70492                    2035.86711                   -1467.02189
        </DataArray>
      </PointData>
      <Lines>
        <DataArray type="Int32" Name="connectivity" format="ascii">
      0      1
      1      2
      2      3
      3      4
      4      5
      5      6
      6      7
      7      8
      8      9
      9     10
     10     11
     11     12
     12     13
     13     14
     14     15
     15     16
     16     17
     17     18
        </DataArray>
        <DataArray type="Int32" Name="offsets" format="ascii">
      2
      4
      6
      8
     10
     12
     14
     16
     18
     20
     22
     24
     26
     28
     30
     32
     34
     36
        </DataArray>
      </Lines>
    </Piece>
  </PolyData>
</VTKFile>
