<?xml version="1.0"?>
<VTKFile type="PolyData" version="0.1" byte_order="LittleEndian">
  <PolyData>
    <Piece NumberOfPoints="    625" NumberOfVerts="  0" NumberOfLines="      0"
           NumberOfStrips="  0" NumberOfPolys="    600">
      <Points>
        <DataArray type="Float32" NumberOfComponents="3" format="ascii">
                      -4.75150                      -0.62838                      91.37248
                      -4.75150                      -0.62838                      91.37248
                      -4.75150                      -0.62838                      91.37248
                      -4.75150                      -0.62838                      91.37248
                      -4.75150                      -0.62838                      91.37248
                      -4.75150                      -0.62838                      91.37248
                      -4.75150                      -0.62838                      91.37248
                      -4.75150                      -0.62838                      91.37248
                      -4.75150                      -0.62838                      91.37248
                      -4.75150                      -0.62838                      91.37248
                      -4.75150                      -0.62838                      91.37248
                      -4.75150                      -0.62838                      91.37248
                      -4.75150                      -0.62838                      91.37248
                      -4.75150                      -0.62838                      91.37248
                      -4.75150                      -0.62838                      91.37248
                      -4.75150                      -0.62838                      91.37248
                      -4.75150                      -0.62838                      91.37248
                      -4.75150                      -0.62838                      91.37248
                      -4.75150                      -0.62838                      91.37248
                      -4.75150                      -0.62838                      91.37248
                      -4.75150                      -0.62838                      91.37248
                      -4.75150                      -0.62838                      91.37248
                      -4.75150                      -0.62838                      91.37248
                      -4.75150                      -0.62838                      91.37248
                      -4.75150                      -0.62838                      91.37248
                      -4.16461                      -0.57687                      91.20544
                      -4.18885                      -0.71272                      91.14595
                      -4.24909                      -0.84003                      91.09357
                      -4.34154                      -0.95080                      91.05159
                      -4.46039                      -1.03809                      91.02264
                      -4.59816                      -1.09639                      91.00854
                      -4.74622                      -1.12205                      91.01018
                      -4.89524                      -1.11345                      91.02746
                      -5.03587                      -1.07114                      91.05929
                      -5.15928                      -0.99778                      91.10367
                      -5.25770                      -0.89797                      91.15781
                      -5.32496                      -0.77798                      91.21832
                      -5.35682                      -0.64536                      91.28138
                      -5.35129                      -0.50843                      91.34303
                      -5.30871                      -0.37581                      91.39941
                      -5.23176                      -0.25581                      91.44697
                      -5.12527                      -0.15600                      91.48272
                      -4.99594                      -0.08263                      91.50442
                      -4.85189                      -0.04031                      91.51069
                      -4.70217                      -0.03171                      91.50116
                      -4.55619                      -0.05737                      91.47641
                      -4.42312                      -0.11566                      91.43800
                      -4.31133                      -0.20294                      91.38835
                      -4.22783                      -0.31371                      91.33057
                      -4.17788                      -0.44102                      91.26830
                      -3.94603                      -0.52537                      91.07146
                      -3.97957                      -0.71326                      90.98919
                      -4.06289                      -0.88935                      90.91674
                      -4.19075                      -1.04257                      90.85866
                      -4.35513                      -1.16329                      90.81862
                      -4.54570                      -1.24393                      90.79912
                      -4.75047                      -1.27942                      90.80140
                      -4.95659                      -1.26754                      90.82530
                      -5.15111                      -1.20902                      90.86932
                      -5.32179                      -1.10754                      90.93070
                      -5.45792                      -0.96949                      91.00559
                      -5.55095                      -0.80353                      91.08927
                      -5.59502                      -0.62010                      91.17649
                      -5.58737                      -0.43071                      91.26177
                      -5.52847                      -0.24727                      91.33975
                      -5.42204                      -0.08131                      91.40553
                      -5.27476                       0.05675                      91.45498
                      -5.09587                       0.15823                      91.48499
                      -4.89663                       0.21676                      91.49367
                      -4.68955                       0.22865                      91.48048
                      -4.48764                       0.19317                      91.44625
                      -4.30359                       0.11254                      91.39312
                      -4.14897                      -0.00818                      91.32445
                      -4.03348                      -0.16139                      91.24453
                      -3.96439                      -0.33748                      91.15840
                      -3.79387                      -0.47387                      90.94345
                      -3.83400                      -0.69870                      90.84500
                      -3.93369                      -0.90941                      90.75830
                      -4.08670                      -1.09275                      90.68881
                      -4.28339                      -1.23720                      90.64090
                      -4.51142                      -1.33369                      90.61757
                      -4.75645                      -1.37616                      90.62029
                      -5.00309                      -1.36194                      90.64889
                      -5.23585                      -1.29191                      90.70156
                      -5.44008                      -1.17049                      90.77502
                      -5.60298                      -1.00530                      90.86462
                      -5.71429                      -0.80671                      90.96476
                      -5.76702                      -0.58722                      91.06912
                      -5.75787                      -0.36060                      91.17117
                      -5.68740                      -0.14110                      91.26448
                      -5.56004                       0.05748                      91.34319
                      -5.38380                       0.22268                      91.40236
                      -5.16975                       0.34411                      91.43826
                      -4.93134                       0.41415                      91.44865
                      -4.68355                       0.42838                      91.43287
                      -4.44195                       0.38592                      91.39191
                      -4.22172                       0.28944                      91.32834
                      -4.03670                       0.14499                      91.24616
                      -3.89850                      -0.03834                      91.15054
                      -3.81583                      -0.24904                      91.04747
                      -3.67868                      -0.42237                      90.81875
                      -3.72390                      -0.67573                      90.70781
                      -3.83624                      -0.91317                      90.61011
                      -4.00866                      -1.11977                      90.53181
                      -4.23031                      -1.28255                      90.47782
                      -4.48727                      -1.39128                      90.45153
                      -4.76339                      -1.43914                      90.45459
                      -5.04132                      -1.42311                      90.48682
                      -5.30360                      -1.34420                      90.54618
                      -5.53375                      -1.20738                      90.62895
                      -5.71731                      -1.02122                      90.72992
                      -5.84274                      -0.79745                      90.84276
                      -5.90217                      -0.55010                      90.96037
                      -5.89185                      -0.29473                      91.07536
                      -5.81244                      -0.04739                      91.18051
                      -5.66893                       0.17639                      91.26921
                      -5.47033                       0.36255                      91.33588
                      -5.22913                       0.49939                      91.37634
                      -4.96047                       0.57831                      91.38805
                      -4.68124                       0.59435                      91.37026
                      -4.40899                       0.54650                      91.32410
                      -4.16081                       0.43778                      91.25247
                      -3.95231                       0.27501                      91.15987
                      -3.79659                       0.06841                      91.05211
                      -3.70343                      -0.16902                      90.93598
                      -3.58895                      -0.37088                      90.69634
                      -3.63822                      -0.64696                      90.57544
                      -3.76065                      -0.90571                      90.46898
                      -3.94854                      -1.13084                      90.38365
                      -4.19008                      -1.30823                      90.32482
                      -4.47009                      -1.42672                      90.29617
                      -4.77098                      -1.47887                      90.29950
                      -5.07385                      -1.46141                      90.33462
                      -5.35967                      -1.37542                      90.39931
                      -5.61047                      -1.22631                      90.48951
                      -5.81050                      -1.02346                      90.59954
                      -5.94718                      -0.77960                      90.72250
                      -6.01194                      -0.51007                      90.85067
                      -6.00070                      -0.23179                      90.97597
                      -5.91417                       0.03775                      91.09056
                      -5.75778                       0.28162                      91.18721
                      -5.54136                       0.48448                      91.25987
                      -5.27851                       0.63359                      91.30396
                      -4.98575                       0.71959                      91.31672
                      -4.68146                       0.73707                      91.29733
                      -4.38478                       0.68493                      91.24704
                      -4.11434                       0.56645                      91.16898
                      -3.88714                       0.38908                      91.06807
                      -3.71744                       0.16394                      90.95064
                      -3.61592                      -0.09479                      90.82408
                      -3.51877                      -0.31938                      90.57568
                      -3.57131                      -0.61375                      90.44678
                      -3.70184                      -0.88963                      90.33327
                      -3.90217                      -1.12968                      90.24229
                      -4.15970                      -1.31881                      90.17955
                      -4.45826                      -1.44515                      90.14901
                      -4.77909                      -1.50076                      90.15256
                      -5.10201                      -1.48213                      90.19001
                      -5.40676                      -1.39045                      90.25898
                      -5.67417                      -1.23147                      90.35515
                      -5.88745                      -1.01518                      90.47247
                      -6.03318                      -0.75518                      90.60358
                      -6.10223                      -0.46779                      90.74023
                      -6.09024                      -0.17108                      90.87384
                      -5.99798                       0.11631                      90.99601
                      -5.83123                       0.37633                      91.09906
                      -5.60048                       0.59262                      91.17653
                      -5.32022                       0.75161                      91.22354
                      -5.00807                       0.84331                      91.23714
                      -4.68364                       0.86195                      91.21648
                      -4.36731                       0.80635                      91.16285
                      -4.07896                       0.68003                      91.07962
                      -3.83670                       0.49090                      90.97203
                      -3.65577                       0.25086                      90.84683
                      -3.54752                      -0.02501                      90.71188
                      -3.46466                      -0.26788                      90.45647
                      -3.51981                      -0.57688                      90.32116
                      -3.65683                      -0.86647                      90.20201
                      -3.86711                      -1.11845                      90.10651
                      -4.13744                      -1.31698                      90.04065
                      -4.45084                      -1.44960                      90.00859
                      -4.78760                      -1.50796                      90.01232
                      -5.12658                      -1.48841                      90.05163
                      -5.44647                      -1.39218                      90.12403
                      -5.72717                      -1.22530                      90.22498
                      -5.95104                      -0.99826                      90.34813
                      -6.10402                      -0.72533                      90.48575
                      -6.17650                      -0.42367                      90.62919
                      -6.16391                      -0.11221                      90.76944
                      -6.06706                       0.18946                      90.89768
                      -5.89203                       0.46239                      91.00586
                      -5.64981                       0.68944                      91.08717
                      -5.35563                       0.85633                      91.13652
                      -5.02797                       0.95258                      91.15080
                      -4.68741                       0.97214                      91.12911
                      -4.35536                       0.91379                      91.07281
                      -4.05268                       0.78119                      90.98545
                      -3.79839                       0.58266                      90.87251
                      -3.60847                       0.33069                      90.74108
                      -3.49484                       0.04111                      90.59944
                      -3.42442                      -0.21639                      90.33850
                      -3.48162                      -0.53686                      90.19816
                      -3.62373                      -0.83720                      90.07459
                      -3.84182                      -1.09853                      89.97554
                      -4.12218                      -1.30443                      89.90725
                      -4.44721                      -1.44197                      89.87399
                      -4.79648                      -1.50251                      89.87787
                      -5.14804                      -1.48223                      89.91863
                      -5.47981                      -1.38242                      89.99372
                      -5.77093                      -1.20935                      90.09841
                      -6.00311                      -0.97388                      90.22614
                      -6.16177                      -0.69082                      90.36887
                      -6.23694                      -0.37795                      90.51763
                      -6.22389                      -0.05494                      90.66309
                      -6.12344                       0.25793                      90.79609
                      -5.94191                       0.54100                      90.90828
                      -5.69070                       0.77648                      90.99262
                      -5.38560                       0.94956                      91.04380
                      -5.04577                       1.04939                      91.05861
                      -4.69257                       1.06968                      91.03611
                      -4.34819                       1.00916                      90.97772
                      -4.03428                       0.87163                      90.88712
                      -3.77054                       0.66574                      90.76998
                      -3.57357                       0.40441                      90.63368
                      -3.45572                       0.10408                      90.48677
                      -3.39660                      -0.16489                      90.22164
                      -3.45534                      -0.49401                      90.07752
                      -3.60128                      -0.80245                      89.95061
                      -3.82526                      -1.07083                      89.84889
                      -4.11319                      -1.28229                      89.77876
                      -4.44699                      -1.42354                      89.74460
                      -4.80568                      -1.48571                      89.74858
                      -5.16673                      -1.46489                      89.79044
                      -5.50744                      -1.36238                      89.86756
                      -5.80641                      -1.18464                      89.97508
                      -6.04486                      -0.94282                      90.10625
                      -6.20781                      -0.65213                      90.25283
                      -6.28500                      -0.33082                      90.40561
                      -6.27160                       0.00091                      90.55499
                      -6.16844                       0.32223                      90.69158
                      -5.98201                       0.61293                      90.80680
                      -5.72403                       0.85476                      90.89341
                      -5.41069                       1.03252                      90.94597
                      -5.06169                       1.13503                      90.96118
                      -4.69897                       1.15587                      90.93808
                      -4.34530                       1.09372                      90.87811
                      -4.02291                       0.95248                      90.78506
                      -3.75206                       0.74103                      90.66477
                      -3.54977                       0.47266                      90.52479
                      -3.42875                       0.16422                      90.37392
                      -3.38024                      -0.11340                      90.10581
                      -3.44006                      -0.44855                      89.95905
                      -3.58868                      -0.76265                      89.82981
                      -3.81676                      -1.03596                      89.72623
                      -4.10998                      -1.25130                      89.65480
                      -4.44990                      -1.39514                      89.62002
                      -4.81518                      -1.45845                      89.62408
                      -5.18285                      -1.43725                      89.66671
                      -5.52981                      -1.33286                      89.74523
                      -5.83427                      -1.15186                      89.85473
                      -6.07710                      -0.90560                      89.98831
                      -6.24303                      -0.60957                      90.13758
                      -6.32164                      -0.28237                      90.29316
                      -6.30800                       0.05545                      90.44528
                      -6.20295                       0.38266                      90.58438
                      -6.01310                       0.67870                      90.70171
                      -5.75037                       0.92496                      90.78991
                      -5.43129                       1.10598                      90.84344
                      -5.07589                       1.21038                      90.85892
                      -4.70650                       1.23160                      90.83540
                      -4.34635                       1.16831                      90.77433
                      -4.01804                       1.02448                      90.67958
                      -3.74223                       0.80915                      90.55707
                      -3.53622                       0.53585                      90.41453
                      -3.41298                       0.22176                      90.26089
                      -3.37472                      -0.06190                      89.99096
                      -3.43518                      -0.40063                      89.84263
                      -3.58539                      -0.71808                      89.71202
                      -3.81590                      -0.99430                      89.60733
                      -4.11224                      -1.21193                      89.53514
                      -4.45579                      -1.35731                      89.49999
                      -4.82495                      -1.42129                      89.50409
                      -5.19654                      -1.39986                      89.54717
                      -5.54721                      -1.29436                      89.62654
                      -5.85491                      -1.11143                      89.73720
                      -6.10033                      -0.86255                      89.87220
                      -6.26802                      -0.56336                      90.02306
                      -6.34747                      -0.23267                      90.18030
                      -6.33368                       0.10875                      90.33404
                      -6.22751                       0.43944                      90.47462
                      -6.03564                       0.73864                      90.59321
                      -5.77012                       0.98753                      90.68235
                      -5.44763                       1.17047                      90.73645
                      -5.08844                       1.27599                      90.75210
                      -4.71512                       1.29743                      90.72832
                      -4.35113                       1.23346                      90.66661
                      -4.01932                       1.08810                      90.57084
                      -3.74057                       0.87048                      90.44703
                      -3.53237                       0.59427                      90.30296
                      -3.40781                       0.27682                      90.14769
                      -3.37971                      -0.01041                      89.87705
                      -3.44038                      -0.35032                      89.72820
                      -3.59111                      -0.66887                      89.59713
                      -3.82243                      -0.94606                      89.49208
                      -4.11980                      -1.16445                      89.41964
                      -4.46455                      -1.31034                      89.38437
                      -4.83500                      -1.37454                      89.38848
                      -5.20789                      -1.35304                      89.43171
                      -5.55978                      -1.24717                      89.51136
                      -5.86856                      -1.06360                      89.62240
                      -6.11483                      -0.81385                      89.75788
                      -6.28311                      -0.51362                      89.90926
                      -6.36284                      -0.18177                      90.06705
                      -6.34900                       0.16084                      90.22133
                      -6.24246                       0.49269                      90.36240
                      -6.04992                       0.79293                      90.48140
                      -5.78347                       1.04268                      90.57085
                      -5.45986                       1.22627                      90.62514
                      -5.09941                       1.33215                      90.64084
                      -4.72479                       1.35367                      90.61698
                      -4.35952                       1.28948                      90.55505
                      -4.02656                       1.14361                      90.45895
                      -3.74683                       0.92523                      90.33471
                      -3.53791                       0.64805                      90.19014
                      -3.41292                       0.32950                      90.03432
                      -3.39509                       0.04109                      89.76407
                      -3.45555                      -0.29764                      89.61574
                      -3.60575                      -0.61509                      89.48513
                      -3.83627                      -0.89131                      89.38044
                      -4.13261                      -1.10894                      89.30825
                      -4.47616                      -1.25432                      89.27310
                      -4.84532                      -1.31830                      89.27720
                      -5.21691                      -1.29687                      89.32028
                      -5.56757                      -1.19138                      89.39965
                      -5.87528                      -1.00844                      89.51031
                      -6.12069                      -0.75956                      89.64531
                      -6.28839                      -0.46037                      89.79617
                      -6.36784                      -0.12968                      89.95341
                      -6.35405                       0.21174                      90.10715
                      -6.24788                       0.54243                      90.24773
                      -6.05601                       0.84163                      90.36632
                      -5.79049                       1.09052                      90.45546
                      -5.46800                       1.27346                      90.50956
                      -5.10881                       1.37898                      90.52521
                      -4.73549                       1.40042                      90.50143
                      -4.37149                       1.33645                      90.43972
                      -4.03969                       1.19109                      90.34395
                      -3.76094                       0.97347                      90.22014
                      -3.55274                       0.69726                      90.07607
                      -3.42818                       0.37981                      89.92080
                      -3.42097                       0.09258                      89.65204
                      -3.48079                      -0.24258                      89.50527
                      -3.62941                      -0.55668                      89.37604
                      -3.85750                      -0.82998                      89.27245
                      -4.15071                      -1.04532                      89.20103
                      -4.49064                      -1.18917                      89.16625
                      -4.85591                      -1.25247                      89.17030
                      -5.22358                      -1.23127                      89.21293
                      -5.57055                      -1.12688                      89.29146
                      -5.87501                      -0.94588                      89.40095
                      -6.11783                      -0.69962                      89.53453
                      -6.28377                      -0.40359                      89.68380
                      -6.36238                      -0.07639                      89.83938
                      -6.34873                       0.26143                      89.99150
                      -6.24368                       0.58864                      90.13060
                      -6.05383                       0.88468                      90.24793
                      -5.79111                       1.13094                      90.33614
                      -5.47202                       1.31196                      90.38966
                      -5.11662                       1.41636                      90.40515
                      -4.74724                       1.43758                      90.38162
                      -4.38708                       1.37429                      90.32056
                      -4.05878                       1.23046                      90.22580
                      -3.78296                       1.01513                      90.10330
                      -3.57696                       0.74183                      89.96075
                      -3.45371                       0.42774                      89.80711
                      -3.45770                       0.14408                      89.54098
                      -3.51644                      -0.18504                      89.39686
                      -3.66239                      -0.49348                      89.26995
                      -3.88636                      -0.76186                      89.16823
                      -4.17429                      -0.97332                      89.09809
                      -4.50809                      -1.11457                      89.06394
                      -4.86678                      -1.17674                      89.06792
                      -5.22783                      -1.15592                      89.10978
                      -5.56854                      -1.05342                      89.18689
                      -5.86752                      -0.87567                      89.29441
                      -6.10597                      -0.63385                      89.42559
                      -6.26891                      -0.34316                      89.57217
                      -6.34610                      -0.02185                      89.72495
                      -6.33270                       0.30988                      89.87432
                      -6.22955                       0.63120                      90.01091
                      -6.04312                       0.92190                      90.12614
                      -5.78513                       1.16373                      90.21275
                      -5.47179                       1.34148                      90.26531
                      -5.12280                       1.44400                      90.28051
                      -4.76007                       1.46484                      90.25741
                      -4.40640                       1.40269                      90.19745
                      -4.08401                       1.26145                      90.10440
                      -3.81317                       1.05000                      89.98410
                      -3.61088                       0.78163                      89.84412
                      -3.48985                       0.47319                      89.69325
                      -3.50589                       0.19557                      89.43094
                      -3.56309                      -0.12490                      89.29061
                      -3.70520                      -0.42524                      89.16704
                      -3.92329                      -0.68657                      89.06799
                      -4.20365                      -0.89247                      88.99969
                      -4.52868                      -1.03001                      88.96644
                      -4.87795                      -1.09055                      88.97031
                      -5.22951                      -1.07027                      89.01107
                      -5.56127                      -0.97046                      89.08616
                      -5.85239                      -0.79739                      89.19086
                      -6.08458                      -0.56192                      89.31858
                      -6.24324                      -0.27886                      89.46131
                      -6.31841                       0.03400                      89.61008
                      -6.30536                       0.35702                      89.75553
                      -6.20491                       0.66989                      89.88854
                      -6.02338                       0.95296                      90.00073
                      -5.77217                       1.18843                      90.08507
                      -5.46707                       1.36152                      90.13625
                      -5.12724                       1.46135                      90.15105
                      -4.77404                       1.48164                      90.12856
                      -4.42966                       1.42111                      90.07017
                      -4.11575                       1.28359                      89.97956
                      -3.85201                       1.07769                      89.86243
                      -3.65504                       0.81637                      89.72613
                      -3.53719                       0.51604                      89.57922
                      -3.56649                       0.24706                      89.32202
                      -3.62164                      -0.06194                      89.18671
                      -3.75867                      -0.35152                      89.06756
                      -3.96895                      -0.60350                      88.97206
                      -4.23928                      -0.80203                      88.90621
                      -4.55268                      -0.93465                      88.87415
                      -4.88944                      -0.99302                      88.87788
                      -5.22842                      -0.97347                      88.91719
                      -5.54830                      -0.87723                      88.98959
                      -5.82900                      -0.71035                      89.09054
                      -6.05288                      -0.48331                      89.21369
                      -6.20586                      -0.21039                      89.35131
                      -6.27833                       0.09128                      89.49475
                      -6.26575                       0.40274                      89.63500
                      -6.16890                       0.70441                      89.76324
                      -5.99387                       0.97734                      89.87141
                      -5.75165                       1.20439                      89.95273
                      -5.45747                       1.37128                      90.00208
                      -5.12981                       1.46753                      90.01636
                      -4.78925                       1.48709                      89.99467
                      -4.45720                       1.42874                      89.93837
                      -4.15452                       1.29613                      89.85101
                      -3.90023                       1.09761                      89.73807
                      -3.71030                       0.84564                      89.60664
                      -3.59668                       0.55606                      89.46500
                      -3.64097                       0.29856                      89.21435
                      -3.69351                       0.00419                      89.08545
                      -3.82405                      -0.27169                      88.97194
                      -4.02437                      -0.51174                      88.88096
                      -4.28191                      -0.70087                      88.81822
                      -4.58047                      -0.82721                      88.78768
                      -4.90129                      -0.88282                      88.79124
                      -5.22422                      -0.86419                      88.82868
                      -5.52896                      -0.77251                      88.89765
                      -5.79637                      -0.61353                      88.99382
                      -6.00965                      -0.39724                      89.11114
                      -6.15539                      -0.13724                      89.24225
                      -6.22443                       0.15015                      89.37890
                      -6.21245                       0.44686                      89.51251
                      -6.12018                       0.73425                      89.63468
                      -5.95343                       0.99426                      89.73773
                      -5.72268                       1.21056                      89.81520
                      -5.44243                       1.36955                      89.86221
                      -5.13028                       1.46125                      89.87581
                      -4.80584                       1.47988                      89.85515
                      -4.48951                       1.42429                      89.80152
                      -4.20116                       1.29797                      89.71829
                      -3.95891                       1.10884                      89.61070
                      -3.77797                       0.86880                      89.48550
                      -3.66973                       0.59293                      89.35055
                      -3.73152                       0.35005                      89.10812
                      -3.78080                       0.07396                      88.98722
                      -3.90322                      -0.18478                      88.88076
                      -4.09111                      -0.40992                      88.79543
                      -4.33265                      -0.58730                      88.73660
                      -4.61266                      -0.70579                      88.70795
                      -4.91356                      -0.75794                      88.71129
                      -5.21643                      -0.74048                      88.74640
                      -5.50224                      -0.65449                      88.81109
                      -5.75304                      -0.50538                      88.90129
                      -5.95307                      -0.30253                      89.01132
                      -6.08976                      -0.05868                      89.13429
                      -6.15451                       0.21086                      89.26245
                      -6.14327                       0.48914                      89.38776
                      -6.05674                       0.75868                      89.50234
                      -5.90035                       1.00254                      89.59899
                      -5.68393                       1.20541                      89.67165
                      -5.42108                       1.35452                      89.71574
                      -5.12832                       1.44052                      89.72850
                      -4.82404                       1.45800                      89.70912
                      -4.52735                       1.40586                      89.65882
                      -4.25691                       1.28738                      89.58076
                      -4.02971                       1.11000                      89.47985
                      -3.86001                       0.88487                      89.36242
                      -3.75849                       0.62614                      89.23586
                      -3.84162                       0.40154                      89.00364
                      -3.88684                       0.14819                      88.89270
                      -3.99918                      -0.08925                      88.79501
                      -4.17160                      -0.29585                      88.71670
                      -4.39325                      -0.45863                      88.66271
                      -4.65021                      -0.56737                      88.63642
                      -4.92633                      -0.61522                      88.63948
                      -5.20426                      -0.59919                      88.67171
                      -5.46654                      -0.52029                      88.73107
                      -5.69669                      -0.38346                      88.81384
                      -5.88025                      -0.19731                      88.91482
                      -6.00568                       0.02647                      89.02766
                      -6.06511                       0.27381                      89.14526
                      -6.05479                       0.52918                      89.26026
                      -5.97538                       0.77653                      89.36540
                      -5.83187                       1.00031                      89.45410
                      -5.63327                       1.18647                      89.52077
                      -5.39206                       1.32331                      89.56124
                      -5.12341                       1.40223                      89.57294
                      -4.84418                       1.41827                      89.55516
                      -4.57192                       1.37042                      89.50900
                      -4.32375                       1.26170                      89.43737
                      -4.11525                       1.09892                      89.34476
                      -3.95953                       0.89233                      89.23701
                      -3.86637                       0.65490                      89.12087
                      -3.97717                       0.45304                      88.90145
                      -4.01730                       0.22821                      88.80300
                      -4.11700                       0.01750                      88.71631
                      -4.27000                      -0.16584                      88.64682
                      -4.46670                      -0.31029                      88.59891
                      -4.69473                      -0.40679                      88.57557
                      -4.93976                      -0.44925                      88.57829
                      -5.18640                      -0.43503                      88.60689
                      -5.41915                      -0.36501                      88.65957
                      -5.62339                      -0.24358                      88.73302
                      -5.78628                      -0.07839                      88.82263
                      -5.89759                       0.12019                      88.92276
                      -5.95033                       0.33969                      89.02713
                      -5.94117                       0.56630                      89.12917
                      -5.87070                       0.78580                      89.22248
                      -5.74335                       0.98439                      89.30119
                      -5.56711                       1.14959                      89.36036
                      -5.35306                       1.27102                      89.39627
                      -5.11465                       1.34105                      89.40665
                      -4.86686                       1.35529                      89.39087
                      -4.62526                       1.31283                      89.34991
                      -4.40503                       1.21635                      89.28634
                      -4.22000                       1.07190                      89.20417
                      -4.08181                       0.88857                      89.10854
                      -3.99914                       0.67786                      89.00548
                      -4.14970                       0.50453                      88.80258
                      -4.18324                       0.31663                      88.72030
                      -4.26656                       0.14055                      88.64785
                      -4.39443                      -0.01267                      88.58978
                      -4.55881                      -0.13340                      88.54974
                      -4.74937                      -0.21404                      88.53024
                      -4.95415                      -0.24953                      88.53251
                      -5.16027                      -0.23764                      88.55641
                      -5.35478                      -0.17912                      88.60044
                      -5.52547                      -0.07765                      88.66182
                      -5.66160                       0.06041                      88.73671
                      -5.75462                       0.22637                      88.82039
                      -5.79869                       0.40980                      88.90761
                      -5.79104                       0.59919                      88.99289
                      -5.73215                       0.78262                      89.07087
                      -5.62572                       0.94859                      89.13665
                      -5.47843                       1.08665                      89.18610
                      -5.29955                       1.18813                      89.21610
                      -5.10031                       1.24665                      89.22478
                      -4.89322                       1.25855                      89.21159
                      -4.69132                       1.22307                      89.17736
                      -4.50727                       1.14243                      89.12424
                      -4.35264                       1.02172                      89.05556
                      -4.23715                       0.86850                      88.97565
                      -4.16806                       0.69242                      88.88952
                      -4.38865                       0.55602                      88.70967
                      -4.41289                       0.42017                      88.65018
                      -4.47313                       0.29286                      88.59780
                      -4.56558                       0.18208                      88.55582
                      -4.68443                       0.09480                      88.52687
                      -4.82220                       0.03650                      88.51277
                      -4.97026                       0.01084                      88.51441
                      -5.11928                       0.01943                      88.53169
                      -5.25992                       0.06174                      88.56352
                      -5.38332                       0.13511                      88.60790
                      -5.48174                       0.23492                      88.66204
                      -5.54900                       0.35491                      88.72255
                      -5.58086                       0.48753                      88.78561
                      -5.57533                       0.62446                      88.84726
                      -5.53275                       0.75708                      88.90364
                      -5.45580                       0.87707                      88.95120
                      -5.34931                       0.97689                      88.98695
                      -5.21998                       1.05026                      89.00865
                      -5.07593                       1.09257                      89.01492
                      -4.92621                       1.10117                      89.00539
                      -4.78023                       1.07552                      88.98064
                      -4.64716                       1.01722                      88.94223
                      -4.53537                       0.92995                      88.89258
                      -4.45187                       0.81917                      88.83480
                      -4.40192                       0.69186                      88.77253
                      -4.99591                       0.60750                      88.64982
                      -4.99591                       0.60750                      88.64982
                      -4.99591                       0.60750                      88.64982
                      -4.99591                       0.60750                      88.64982
                      -4.99591                       0.60750                      88.64982
                      -4.99591                       0.60750                      88.64982
                      -4.99591                       0.60750                      88.64982
                      -4.99591                       0.60750                      88.64982
                      -4.99591                       0.60750                      88.64982
                      -4.99591                       0.60750                      88.64982
                      -4.99591                       0.60750                      88.64982
                      -4.99591                       0.60750                      88.64982
                      -4.99591                       0.60750                      88.64982
                      -4.99591                       0.60750                      88.64982
                      -4.99591                       0.60750                      88.64982
                      -4.99591                       0.60750                      88.64982
                      -4.99591                       0.60750                      88.64982
                      -4.99591                       0.60750                      88.64982
                      -4.99591                       0.60750                      88.64982
                      -4.99591                       0.60750                      88.64982
                      -4.99591                       0.60750                      88.64982
                      -4.99591                       0.60750                      88.64982
                      -4.99591                       0.60750                      88.64982
                      -4.99591                       0.60750                      88.64982
                      -4.99591                       0.60750                      88.64982
        </DataArray>
      </Points>
      <Polys>
        <DataArray type="Int32" Name="connectivity" format="ascii">
      0      1     26     25
      1      2     27     26
      2      3     28     27
      3      4     29     28
      4      5     30     29
      5      6     31     30
      6      7     32     31
      7      8     33     32
      8      9     34     33
      9     10     35     34
     10     11     36     35
     11     12     37     36
     12     13     38     37
     13     14     39     38
     14     15     40     39
     15     16     41     40
     16     17     42     41
     17     18     43     42
     18     19     44     43
     19     20     45     44
     20     21     46     45
     21     22     47     46
     22     23     48     47
     23     24     49     48
     24      0     25     49
     25     26     51     50
     26     27     52     51
     27     28     53     52
     28     29     54     53
     29     30     55     54
     30     31     56     55
     31     32     57     56
     32     33     58     57
     33     34     59     58
     34     35     60     59
     35     36     61     60
     36     37     62     61
     37     38     63     62
     38     39     64     63
     39     40     65     64
     40     41     66     65
     41     42     67     66
     42     43     68     67
     43     44     69     68
     44     45     70     69
     45     46     71     70
     46     47     72     71
     47     48     73     72
     48     49     74     73
     49     25     50     74
     50     51     76     75
     51     52     77     76
     52     53     78     77
     53     54     79     78
     54     55     80     79
     55     56     81     80
     56     57     82     81
     57     58     83     82
     58     59     84     83
     59     60     85     84
     60     61     86     85
     61     62     87     86
     62     63     88     87
     63     64     89     88
     64     65     90     89
     65     66     91     90
     66     67     92     91
     67     68     93     92
     68     69     94     93
     69     70     95     94
     70     71     96     95
     71     72     97     96
     72     73     98     97
     73     74     99     98
     74     50     75     99
     75     76    101    100
     76     77    102    101
     77     78    103    102
     78     79    104    103
     79     80    105    104
     80     81    106    105
     81     82    107    106
     82     83    108    107
     83     84    109    108
     84     85    110    109
     85     86    111    110
     86     87    112    111
     87     88    113    112
     88     89    114    113
     89     90    115    114
     90     91    116    115
     91     92    117    116
     92     93    118    117
     93     94    119    118
     94     95    120    119
     95     96    121    120
     96     97    122    121
     97     98    123    122
     98     99    124    123
     99     75    100    124
    100    101    126    125
    101    102    127    126
    102    103    128    127
    103    104    129    128
    104    105    130    129
    105    106    131    130
    106    107    132    131
    107    108    133    132
    108    109    134    133
    109    110    135    134
    110    111    136    135
    111    112    137    136
    112    113    138    137
    113    114    139    138
    114    115    140    139
    115    116    141    140
    116    117    142    141
    117    118    143    142
    118    119    144    143
    119    120    145    144
    120    121    146    145
    121    122    147    146
    122    123    148    147
    123    124    149    148
    124    100    125    149
    125    126    151    150
    126    127    152    151
    127    128    153    152
    128    129    154    153
    129    130    155    154
    130    131    156    155
    131    132    157    156
    132    133    158    157
    133    134    159    158
    134    135    160    159
    135    136    161    160
    136    137    162    161
    137    138    163    162
    138    139    164    163
    139    140    165    164
    140    141    166    165
    141    142    167    166
    142    143    168    167
    143    144    169    168
    144    145    170    169
    145    146    171    170
    146    147    172    171
    147    148    173    172
    148    149    174    173
    149    125    150    174
    150    151    176    175
    151    152    177    176
    152    153    178    177
    153    154    179    178
    154    155    180    179
    155    156    181    180
    156    157    182    181
    157    158    183    182
    158    159    184    183
    159    160    185    184
    160    161    186    185
    161    162    187    186
    162    163    188    187
    163    164    189    188
    164    165    190    189
    165    166    191    190
    166    167    192    191
    167    168    193    192
    168    169    194    193
    169    170    195    194
    170    171    196    195
    171    172    197    196
    172    173    198    197
    173    174    199    198
    174    150    175    199
    175    176    201    200
    176    177    202    201
    177    178    203    202
    178    179    204    203
    179    180    205    204
    180    181    206    205
    181    182    207    206
    182    183    208    207
    183    184    209    208
    184    185    210    209
    185    186    211    210
    186    187    212    211
    187    188    213    212
    188    189    214    213
    189    190    215    214
    190    191    216    215
    191    192    217    216
    192    193    218    217
    193    194    219    218
    194    195    220    219
    195    196    221    220
    196    197    222    221
    197    198    223    222
    198    199    224    223
    199    175    200    224
    200    201    226    225
    201    202    227    226
    202    203    228    227
    203    204    229    228
    204    205    230    229
    205    206    231    230
    206    207    232    231
    207    208    233    232
    208    209    234    233
    209    210    235    234
    210    211    236    235
    211    212    237    236
    212    213    238    237
    213    214    239    238
    214    215    240    239
    215    216    241    240
    216    217    242    241
    217    218    243    242
    218    219    244    243
    219    220    245    244
    220    221    246    245
    221    222    247    246
    222    223    248    247
    223    224    249    248
    224    200    225    249
    225    226    251    250
    226    227    252    251
    227    228    253    252
    228    229    254    253
    229    230    255    254
    230    231    256    255
    231    232    257    256
    232    233    258    257
    233    234    259    258
    234    235    260    259
    235    236    261    260
    236    237    262    261
    237    238    263    262
    238    239    264    263
    239    240    265    264
    240    241    266    265
    241    242    267    266
    242    243    268    267
    243    244    269    268
    244    245    270    269
    245    246    271    270
    246    247    272    271
    247    248    273    272
    248    249    274    273
    249    225    250    274
    250    251    276    275
    251    252    277    276
    252    253    278    277
    253    254    279    278
    254    255    280    279
    255    256    281    280
    256    257    282    281
    257    258    283    282
    258    259    284    283
    259    260    285    284
    260    261    286    285
    261    262    287    286
    262    263    288    287
    263    264    289    288
    264    265    290    289
    265    266    291    290
    266    267    292    291
    267    268    293    292
    268    269    294    293
    269    270    295    294
    270    271    296    295
    271    272    297    296
    272    273    298    297
    273    274    299    298
    274    250    275    299
    275    276    301    300
    276    277    302    301
    277    278    303    302
    278    279    304    303
    279    280    305    304
    280    281    306    305
    281    282    307    306
    282    283    308    307
    283    284    309    308
    284    285    310    309
    285    286    311    310
    286    287    312    311
    287    288    313    312
    288    289    314    313
    289    290    315    314
    290    291    316    315
    291    292    317    316
    292    293    318    317
    293    294    319    318
    294    295    320    319
    295    296    321    320
    296    297    322    321
    297    298    323    322
    298    299    324    323
    299    275    300    324
    300    301    326    325
    301    302    327    326
    302    303    328    327
    303    304    329    328
    304    305    330    329
    305    306    331    330
    306    307    332    331
    307    308    333    332
    308    309    334    333
    309    310    335    334
    310    311    336    335
    311    312    337    336
    312    313    338    337
    313    314    339    338
    314    315    340    339
    315    316    341    340
    316    317    342    341
    317    318    343    342
    318    319    344    343
    319    320    345    344
    320    321    346    345
    321    322    347    346
    322    323    348    347
    323    324    349    348
    324    300    325    349
    325    326    351    350
    326    327    352    351
    327    328    353    352
    328    329    354    353
    329    330    355    354
    330    331    356    355
    331    332    357    356
    332    333    358    357
    333    334    359    358
    334    335    360    359
    335    336    361    360
    336    337    362    361
    337    338    363    362
    338    339    364    363
    339    340    365    364
    340    341    366    365
    341    342    367    366
    342    343    368    367
    343    344    369    368
    344    345    370    369
    345    346    371    370
    346    347    372    371
    347    348    373    372
    348    349    374    373
    349    325    350    374
    350    351    376    375
    351    352    377    376
    352    353    378    377
    353    354    379    378
    354    355    380    379
    355    356    381    380
    356    357    382    381
    357    358    383    382
    358    359    384    383
    359    360    385    384
    360    361    386    385
    361    362    387    386
    362    363    388    387
    363    364    389    388
    364    365    390    389
    365    366    391    390
    366    367    392    391
    367    368    393    392
    368    369    394    393
    369    370    395    394
    370    371    396    395
    371    372    397    396
    372    373    398    397
    373    374    399    398
    374    350    375    399
    375    376    401    400
    376    377    402    401
    377    378    403    402
    378    379    404    403
    379    380    405    404
    380    381    406    405
    381    382    407    406
    382    383    408    407
    383    384    409    408
    384    385    410    409
    385    386    411    410
    386    387    412    411
    387    388    413    412
    388    389    414    413
    389    390    415    414
    390    391    416    415
    391    392    417    416
    392    393    418    417
    393    394    419    418
    394    395    420    419
    395    396    421    420
    396    397    422    421
    397    398    423    422
    398    399    424    423
    399    375    400    424
    400    401    426    425
    401    402    427    426
    402    403    428    427
    403    404    429    428
    404    405    430    429
    405    406    431    430
    406    407    432    431
    407    408    433    432
    408    409    434    433
    409    410    435    434
    410    411    436    435
    411    412    437    436
    412    413    438    437
    413    414    439    438
    414    415    440    439
    415    416    441    440
    416    417    442    441
    417    418    443    442
    418    419    444    443
    419    420    445    444
    420    421    446    445
    421    422    447    446
    422    423    448    447
    423    424    449    448
    424    400    425    449
    425    426    451    450
    426    427    452    451
    427    428    453    452
    428    429    454    453
    429    430    455    454
    430    431    456    455
    431    432    457    456
    432    433    458    457
    433    434    459    458
    434    435    460    459
    435    436    461    460
    436    437    462    461
    437    438    463    462
    438    439    464    463
    439    440    465    464
    440    441    466    465
    441    442    467    466
    442    443    468    467
    443    444    469    468
    444    445    470    469
    445    446    471    470
    446    447    472    471
    447    448    473    472
    448    449    474    473
    449    425    450    474
    450    451    476    475
    451    452    477    476
    452    453    478    477
    453    454    479    478
    454    455    480    479
    455    456    481    480
    456    457    482    481
    457    458    483    482
    458    459    484    483
    459    460    485    484
    460    461    486    485
    461    462    487    486
    462    463    488    487
    463    464    489    488
    464    465    490    489
    465    466    491    490
    466    467    492    491
    467    468    493    492
    468    469    494    493
    469    470    495    494
    470    471    496    495
    471    472    497    496
    472    473    498    497
    473    474    499    498
    474    450    475    499
    475    476    501    500
    476    477    502    501
    477    478    503    502
    478    479    504    503
    479    480    505    504
    480    481    506    505
    481    482    507    506
    482    483    508    507
    483    484    509    508
    484    485    510    509
    485    486    511    510
    486    487    512    511
    487    488    513    512
    488    489    514    513
    489    490    515    514
    490    491    516    515
    491    492    517    516
    492    493    518    517
    493    494    519    518
    494    495    520    519
    495    496    521    520
    496    497    522    521
    497    498    523    522
    498    499    524    523
    499    475    500    524
    500    501    526    525
    501    502    527    526
    502    503    528    527
    503    504    529    528
    504    505    530    529
    505    506    531    530
    506    507    532    531
    507    508    533    532
    508    509    534    533
    509    510    535    534
    510    511    536    535
    511    512    537    536
    512    513    538    537
    513    514    539    538
    514    515    540    539
    515    516    541    540
    516    517    542    541
    517    518    543    542
    518    519    544    543
    519    520    545    544
    520    521    546    545
    521    522    547    546
    522    523    548    547
    523    524    549    548
    524    500    525    549
    525    526    551    550
    526    527    552    551
    527    528    553    552
    528    529    554    553
    529    530    555    554
    530    531    556    555
    531    532    557    556
    532    533    558    557
    533    534    559    558
    534    535    560    559
    535    536    561    560
    536    537    562    561
    537    538    563    562
    538    539    564    563
    539    540    565    564
    540    541    566    565
    541    542    567    566
    542    543    568    567
    543    544    569    568
    544    545    570    569
    545    546    571    570
    546    547    572    571
    547    548    573    572
    548    549    574    573
    549    525    550    574
    550    551    576    575
    551    552    577    576
    552    553    578    577
    553    554    579    578
    554    555    580    579
    555    556    581    580
    556    557    582    581
    557    558    583    582
    558    559    584    583
    559    560    585    584
    560    561    586    585
    561    562    587    586
    562    563    588    587
    563    564    589    588
    564    565    590    589
    565    566    591    590
    566    567    592    591
    567    568    593    592
    568    569    594    593
    569    570    595    594
    570    571    596    595
    571    572    597    596
    572    573    598    597
    573    574    599    598
    574    550    575    599
    575    576    601    600
    576    577    602    601
    577    578    603    602
    578    579    604    603
    579    580    605    604
    580    581    606    605
    581    582    607    606
    582    583    608    607
    583    584    609    608
    584    585    610    609
    585    586    611    610
    586    587    612    611
    587    588    613    612
    588    589    614    613
    589    590    615    614
    590    591    616    615
    591    592    617    616
    592    593    618    617
    593    594    619    618
    594    595    620    619
    595    596    621    620
    596    597    622    621
    597    598    623    622
    598    599    624    623
    599    575    600    624
        </DataArray>
        <DataArray type="Int32" Name="offsets" format="ascii">
      4
      8
     12
     16
     20
     24
     28
     32
     36
     40
     44
     48
     52
     56
     60
     64
     68
     72
     76
     80
     84
     88
     92
     96
    100
    104
    108
    112
    116
    120
    124
    128
    132
    136
    140
    144
    148
    152
    156
    160
    164
    168
    172
    176
    180
    184
    188
    192
    196
    200
    204
    208
    212
    216
    220
    224
    228
    232
    236
    240
    244
    248
    252
    256
    260
    264
    268
    272
    276
    280
    284
    288
    292
    296
    300
    304
    308
    312
    316
    320
    324
    328
    332
    336
    340
    344
    348
    352
    356
    360
    364
    368
    372
    376
    380
    384
    388
    392
    396
    400
    404
    408
    412
    416
    420
    424
    428
    432
    436
    440
    444
    448
    452
    456
    460
    464
    468
    472
    476
    480
    484
    488
    492
    496
    500
    504
    508
    512
    516
    520
    524
    528
    532
    536
    540
    544
    548
    552
    556
    560
    564
    568
    572
    576
    580
    584
    588
    592
    596
    600
    604
    608
    612
    616
    620
    624
    628
    632
    636
    640
    644
    648
    652
    656
    660
    664
    668
    672
    676
    680
    684
    688
    692
    696
    700
    704
    708
    712
    716
    720
    724
    728
    732
    736
    740
    744
    748
    752
    756
    760
    764
    768
    772
    776
    780
    784
    788
    792
    796
    800
    804
    808
    812
    816
    820
    824
    828
    832
    836
    840
    844
    848
    852
    856
    860
    864
    868
    872
    876
    880
    884
    888
    892
    896
    900
    904
    908
    912
    916
    920
    924
    928
    932
    936
    940
    944
    948
    952
    956
    960
    964
    968
    972
    976
    980
    984
    988
    992
    996
   1000
   1004
   1008
   1012
   1016
   1020
   1024
   1028
   1032
   1036
   1040
   1044
   1048
   1052
   1056
   1060
   1064
   1068
   1072
   1076
   1080
   1084
   1088
   1092
   1096
   1100
   1104
   1108
   1112
   1116
   1120
   1124
   1128
   1132
   1136
   1140
   1144
   1148
   1152
   1156
   1160
   1164
   1168
   1172
   1176
   1180
   1184
   1188
   1192
   1196
   1200
   1204
   1208
   1212
   1216
   1220
   1224
   1228
   1232
   1236
   1240
   1244
   1248
   1252
   1256
   1260
   1264
   1268
   1272
   1276
   1280
   1284
   1288
   1292
   1296
   1300
   1304
   1308
   1312
   1316
   1320
   1324
   1328
   1332
   1336
   1340
   1344
   1348
   1352
   1356
   1360
   1364
   1368
   1372
   1376
   1380
   1384
   1388
   1392
   1396
   1400
   1404
   1408
   1412
   1416
   1420
   1424
   1428
   1432
   1436
   1440
   1444
   1448
   1452
   1456
   1460
   1464
   1468
   1472
   1476
   1480
   1484
   1488
   1492
   1496
   1500
   1504
   1508
   1512
   1516
   1520
   1524
   1528
   1532
   1536
   1540
   1544
   1548
   1552
   1556
   1560
   1564
   1568
   1572
   1576
   1580
   1584
   1588
   1592
   1596
   1600
   1604
   1608
   1612
   1616
   1620
   1624
   1628
   1632
   1636
   1640
   1644
   1648
   1652
   1656
   1660
   1664
   1668
   1672
   1676
   1680
   1684
   1688
   1692
   1696
   1700
   1704
   1708
   1712
   1716
   1720
   1724
   1728
   1732
   1736
   1740
   1744
   1748
   1752
   1756
   1760
   1764
   1768
   1772
   1776
   1780
   1784
   1788
   1792
   1796
   1800
   1804
   1808
   1812
   1816
   1820
   1824
   1828
   1832
   1836
   1840
   1844
   1848
   1852
   1856
   1860
   1864
   1868
   1872
   1876
   1880
   1884
   1888
   1892
   1896
   1900
   1904
   1908
   1912
   1916
   1920
   1924
   1928
   1932
   1936
   1940
   1944
   1948
   1952
   1956
   1960
   1964
   1968
   1972
   1976
   1980
   1984
   1988
   1992
   1996
   2000
   2004
   2008
   2012
   2016
   2020
   2024
   2028
   2032
   2036
   2040
   2044
   2048
   2052
   2056
   2060
   2064
   2068
   2072
   2076
   2080
   2084
   2088
   2092
   2096
   2100
   2104
   2108
   2112
   2116
   2120
   2124
   2128
   2132
   2136
   2140
   2144
   2148
   2152
   2156
   2160
   2164
   2168
   2172
   2176
   2180
   2184
   2188
   2192
   2196
   2200
   2204
   2208
   2212
   2216
   2220
   2224
   2228
   2232
   2236
   2240
   2244
   2248
   2252
   2256
   2260
   2264
   2268
   2272
   2276
   2280
   2284
   2288
   2292
   2296
   2300
   2304
   2308
   2312
   2316
   2320
   2324
   2328
   2332
   2336
   2340
   2344
   2348
   2352
   2356
   2360
   2364
   2368
   2372
   2376
   2380
   2384
   2388
   2392
   2396
   2400
        </DataArray>
      </Polys>
    </Piece>
  </PolyData>
</VTKFile>
