<?xml version="1.0"?>
<VTKFile type="PolyData" version="0.1" byte_order="LittleEndian">
  <PolyData>
    <Piece NumberOfPoints="    550" NumberOfVerts="  0" NumberOfLines="     21"
           NumberOfStrips="  0" NumberOfPolys="    567">
      <Points>
        <DataArray type="Float32" NumberOfComponents="3" format="ascii">
                       2.97334                      -0.00000                       2.19011
                       2.87992                       0.73944                       2.19011
                       2.60555                       1.43243                       2.19010
                       2.16746                       2.03541                       2.19009
                       1.59317                       2.51050                       2.19007
                       0.91878                       2.82784                       2.19005
                       0.18666                       2.96750                       2.19002
                      -0.55719                       2.92070                       2.18999
                      -1.26604                       2.69039                       2.18996
                      -1.89534                       2.29102                       2.18994
                      -2.40555                       1.74770                       2.18992
                      -2.76461                       1.09457                       2.18990
                      -2.94997                       0.37266                       2.18989
                      -2.94997                      -0.37267                       2.18989
                      -2.76461                      -1.09458                       2.18989
                      -2.40555                      -1.74771                       2.18990
                      -1.89534                      -2.29103                       2.18992
                      -1.26604                      -2.69039                       2.18994
                      -0.55719                      -2.92071                       2.18997
                       0.18666                      -2.96751                       2.18999
                       0.91878                      -2.82785                       2.19002
                       1.59317                      -2.51051                       2.19005
                       2.16746                      -2.03542                       2.19007
                       2.60555                      -1.43244                       2.19009
                       2.87992                      -0.73945                       2.19010
                       2.91973                      -0.00004                       6.57038
                       2.82799                       0.72617                       6.57038
                       2.55853                       1.40674                       6.57035
                       2.12828                       1.99892                       6.57030
                       1.56428                       2.46550                       6.57023
                       0.90197                       2.77716                       6.57015
                       0.18296                       2.91432                       6.57006
                      -0.54757                       2.86836                       6.56996
                      -1.24373                       2.64217                       6.56987
                      -1.86175                       2.24996                       6.56978
                      -2.36283                       1.71637                       6.56971
                      -2.71546                       1.07493                       6.56966
                      -2.89750                       0.36595                       6.56963
                      -2.89750                      -0.36603                       6.56962
                      -2.71546                      -1.07501                       6.56964
                      -2.36283                      -1.71645                       6.56967
                      -1.86175                      -2.25003                       6.56973
                      -1.24373                      -2.64225                       6.56981
                      -0.54757                      -2.86844                       6.56990
                       0.18296                      -2.91440                       6.56999
                       0.90197                      -2.77724                       6.57009
                       1.56428                      -2.46558                       6.57017
                       2.12828                      -1.99900                       6.57025
                       2.55853                      -1.40682                       6.57032
                       2.82799                      -0.72624                       6.57036
                       2.86568                      -0.00010                      10.95068
                       2.77561                       0.71286                      10.95067
                       2.51106                       1.38102                      10.95062
                       2.08866                       1.96241                      10.95053
                       1.53495                       2.42048                      10.95041
                       0.88471                       2.72646                      10.95026
                       0.17881                       2.86111                      10.95009
                      -0.53840                       2.81599                      10.94992
                      -1.22185                       2.59392                      10.94976
                      -1.82861                       2.20886                      10.94961
                      -2.32055                       1.68500                      10.94948
                      -2.66675                       1.05526                      10.94938
                      -2.84547                       0.35921                      10.94933
                      -2.84547                      -0.35942                      10.94932
                      -2.66675                      -1.05547                      10.94935
                      -2.32055                      -1.68521                      10.94942
                      -1.82861                      -2.20907                      10.94953
                      -1.22185                      -2.59413                      10.94966
                      -0.53840                      -2.81620                      10.94982
                       0.17881                      -2.86132                      10.94999
                       0.88472                      -2.72666                      10.95016
                       1.53495                      -2.42069                      10.95032
                       2.08866                      -1.96262                      10.95046
                       2.51106                      -1.38123                      10.95057
                       2.77561                      -0.71307                      10.95065
                       2.81114                      -0.00020                      15.33099
                       2.72274                       0.69952                      15.33098
                       2.46311                       1.35528                      15.33090
                       2.04855                       1.92586                      15.33077
                       1.50513                       2.37543                      15.33059
                       0.86697                       2.67572                      15.33037
                       0.17418                       2.80788                      15.33013
                      -0.52971                       2.76359                      15.32988
                      -1.20047                       2.54565                      15.32964
                      -1.79596                       2.16774                      15.32942
                      -2.27876                       1.65361                      15.32924
                      -2.61853                       1.03557                      15.32910
                      -2.79393                       0.35244                      15.32902
                      -2.79393                      -0.35284                      15.32901
                      -2.61853                      -1.03596                      15.32905
                      -2.27876                      -1.65400                      15.32916
                      -1.79596                      -2.16813                      15.32932
                      -1.20047                      -2.54604                      15.32952
                      -0.52971                      -2.76398                      15.32975
                       0.17418                      -2.80827                      15.32999
                       0.86697                      -2.67611                      15.33024
                       1.50513                      -2.37582                      15.33047
                       2.04855                      -1.92626                      15.33068
                       2.46311                      -1.35567                      15.33084
                       2.72274                      -0.69992                      15.33094
                       2.75609                      -0.00032                      19.71129
                       2.66937                       0.68616                      19.71127
                       2.41465                       1.32951                      19.71117
                       2.00794                       1.88929                      19.71100
                       1.47480                       2.33035                      19.71076
                       0.84872                       2.62496                      19.71048
                       0.16904                       2.75461                      19.71016
                      -0.52153                       2.71117                      19.70984
                      -1.17960                       2.49735                      19.70952
                      -1.76382                       2.12659                      19.70924
                      -2.23748                       1.62219                      19.70900
                      -2.57082                       1.01585                      19.70883
                      -2.74289                       0.34565                      19.70873
                      -2.74289                      -0.34628                      19.70871
                      -2.57082                      -1.01648                      19.70877
                      -2.23748                      -1.62282                      19.70891
                      -1.76381                      -2.12722                      19.70911
                      -1.17960                      -2.49798                      19.70937
                      -0.52153                      -2.71180                      19.70968
                       0.16904                      -2.75524                      19.71000
                       0.84872                      -2.62559                      19.71032
                       1.47480                      -2.33098                      19.71062
                       2.00794                      -1.88992                      19.71088
                       2.41465                      -1.33014                      19.71109
                       2.66937                      -0.68679                      19.71123
                       2.70054                      -0.00046                      24.09158
                       2.61549                       0.67277                      24.09155
                       2.36568                       1.30371                      24.09143
                       1.96682                       1.85269                      24.09122
                       1.44396                       2.28524                      24.09093
                       0.82996                       2.57417                      24.09058
                       0.16339                       2.70132                      24.09019
                      -0.51385                       2.65871                      24.08980
                      -1.15923                       2.44902                      24.08942
                      -1.73217                       2.08542                      24.08907
                      -2.19670                       1.59075                      24.08878
                      -2.52361                       0.99610                      24.08857
                      -2.69237                       0.33883                      24.08845
                      -2.69237                      -0.33975                      24.08842
                      -2.52361                      -0.99702                      24.08850
                      -2.19670                      -1.59167                      24.08867
                      -1.73217                      -2.08634                      24.08892
                      -1.15923                      -2.44994                      24.08924
                      -0.51385                      -2.65963                      24.08961
                       0.16339                      -2.70224                      24.09000
                       0.82996                      -2.57509                      24.09039
                       1.44396                      -2.28616                      24.09076
                       1.96682                      -1.85361                      24.09108
                       2.36568                      -1.30463                      24.09133
                       2.61549                      -0.67369                      24.09150
                       2.64449                      -0.00063                      28.47184
                       2.56111                       0.65936                      28.47181
                       2.31622                       1.27788                      28.47167
                       1.92520                       1.81607                      28.47142
                       1.41263                       2.24011                      28.47108
                       0.81070                       2.52335                      28.47068
                       0.15725                       2.64801                      28.47023
                      -0.50667                       2.60624                      28.46976
                      -1.13935                       2.40067                      28.46931
                      -1.70103                       2.04421                      28.46891
                      -2.15642                       1.55928                      28.46857
                      -2.47690                       0.97633                      28.46832
                      -2.64234                       0.33199                      28.46818
                      -2.64234                      -0.33325                      28.46815
                      -2.47690                      -0.97759                      28.46824
                      -2.15642                      -1.56054                      28.46844
                      -1.70103                      -2.04548                      28.46873
                      -1.13935                      -2.40193                      28.46911
                      -0.50667                      -2.60750                      28.46954
                       0.15725                      -2.64927                      28.47000
                       0.81070                      -2.52462                      28.47046
                       1.41263                      -2.24137                      28.47089
                       1.92520                      -1.81733                      28.47127
                       2.31622                      -1.27915                      28.47156
                       2.56111                      -0.66062                      28.47176
                       2.58794                      -0.00083                      32.85210
                       2.50624                       0.64592                      32.85207
                       2.26626                       1.25203                      32.85190
                       1.88309                       1.77942                      32.85162
                       1.38080                       2.19495                      32.85123
                       0.79095                       2.47251                      32.85077
                       0.15061                       2.59466                      32.85026
                      -0.49999                       2.55373                      32.84973
                      -1.11998                       2.35229                      32.84922
                      -1.67038                       2.00299                      32.84875
                      -2.11663                       1.52778                      32.84837
                      -2.43068                       0.95652                      32.84809
                      -2.59280                       0.32511                      32.84792
                      -2.59280                      -0.32677                      32.84789
                      -2.43068                      -0.95818                      32.84799
                      -2.11663                      -1.52944                      32.84822
                      -1.67038                      -2.00465                      32.84856
                      -1.11998                      -2.35395                      32.84899
                      -0.49999                      -2.55539                      32.84948
                       0.15061                      -2.59632                      32.85000
                       0.79095                      -2.47417                      32.85053
                       1.38080                      -2.19661                      32.85102
                       1.88309                      -1.78108                      32.85144
                       2.26626                      -1.25369                      32.85178
                       2.50624                      -0.64758                      32.85200
                       2.53089                      -0.00106                      37.23235
                       2.45086                       0.63245                      37.23231
                       2.21580                       1.22615                      37.23213
                       1.84047                       1.74274                      37.23181
                       1.34847                       2.14976                      37.23138
                       0.77070                       2.42164                      37.23086
                       0.14347                       2.54129                      37.23028
                      -0.49381                       2.50119                      37.22969
                      -1.10110                       2.30387                      37.22912
                      -1.64024                       1.96173                      37.22860
                      -2.07735                       1.49625                      37.22817
                      -2.38497                       0.93669                      37.22786
                      -2.54377                       0.31821                      37.22767
                      -2.54377                      -0.32033                      37.22764
                      -2.38497                      -0.93881                      37.22775
                      -2.07735                      -1.49837                      37.22800
                      -1.64024                      -1.96385                      37.22838
                      -1.10110                      -2.30599                      37.22886
                      -0.49381                      -2.50331                      37.22941
                       0.14347                      -2.54341                      37.23000
                       0.77070                      -2.42376                      37.23059
                       1.34847                      -2.15188                      37.23114
                       1.84047                      -1.74486                      37.23162
                       2.21580                      -1.22827                      37.23199
                       2.45086                      -0.63457                      37.23224
                       2.47333                      -0.00132                      41.61260
                       2.39497                       0.61894                      41.61256
                       2.16482                       1.20023                      41.61236
                       1.79734                       1.70603                      41.61200
                       1.31562                       2.10454                      41.61152
                       0.74993                       2.37073                      41.61095
                       0.13581                       2.48788                      41.61031
                      -0.48815                       2.44863                      41.60966
                      -1.08274                       2.25543                      41.60902
                      -1.61061                       1.92044                      41.60845
                      -2.03858                       1.46469                      41.60797
                      -2.33977                       0.91683                      41.60762
                      -2.49525                       0.31128                      41.60742
                      -2.49525                      -0.31392                      41.60738
                      -2.33977                      -0.91947                      41.60751
                      -2.03858                      -1.46733                      41.60779
                      -1.61061                      -1.92308                      41.60821
                      -1.08274                      -2.25807                      41.60874
                      -0.48815                      -2.45127                      41.60935
                       0.13581                      -2.49052                      41.61000
                       0.74993                      -2.37337                      41.61065
                       1.31562                      -2.10718                      41.61126
                       1.79734                      -1.70867                      41.61179
                       2.16482                      -1.20287                      41.61220
                       2.39497                      -0.62158                      41.61248
                       2.41522                      -0.00161                      45.99286
                       2.33853                       0.60541                      45.99281
                       2.11330                       1.17429                      45.99259
                       1.75366                       1.66928                      45.99220
                       1.28223                       2.05928                      45.99167
                       0.72861                       2.31980                      45.99104
                       0.12761                       2.43444                      45.99034
                      -0.48303                       2.39603                      45.98962
                      -1.06493                       2.20696                      45.98893
                      -1.58153                       1.87911                      45.98830
                      -2.00037                       1.43310                      45.98777
                      -2.29512                       0.89693                      45.98739
                      -2.44728                       0.30431                      45.98717
                      -2.44728                      -0.30754                      45.98712
                      -2.29512                      -0.90016                      45.98726
                      -2.00036                      -1.43632                      45.98757
                      -1.58153                      -1.88234                      45.98803
                      -1.06493                      -2.21018                      45.98861
                      -0.48303                      -2.39925                      45.98928
                       0.12761                      -2.43767                      45.99000
                       0.72861                      -2.32302                      45.99071
                       1.28223                      -2.06251                      45.99138
                       1.75366                      -1.67251                      45.99196
                       2.11330                      -1.17752                      45.99242
                       2.33853                      -0.60864                      45.99272
                       2.35652                      -0.00194                      50.37312
                       2.28151                       0.59184                      50.37307
                       2.06119                       1.14830                      50.37282
                       1.70940                       1.63250                      50.37240
                       1.24825                       2.01400                      50.37182
                       0.70672                       2.26882                      50.37113
                       0.11882                       2.38097                      50.37037
                      -0.47850                       2.34339                      50.36958
                      -1.04770                       2.15844                      50.36882
                      -1.55303                       1.83775                      50.36813
                      -1.96273                       1.40147                      50.36756
                      -2.25106                       0.87700                      50.36714
                      -2.39990                       0.29731                      50.36690
                      -2.39990                      -0.30119                      50.36685
                      -2.25106                      -0.88089                      50.36700
                      -1.96273                      -1.40535                      50.36734
                      -1.55303                      -1.84164                      50.36784
                      -1.04770                      -2.16233                      50.36848
                      -0.47850                      -2.34728                      50.36921
                       0.11882                      -2.38486                      50.37000
                       0.70672                      -2.27271                      50.37078
                       1.24825                      -2.01788                      50.37151
                       1.70940                      -1.63639                      50.37214
                       2.06119                      -1.15219                      50.37264
                       2.28151                      -0.59572                      50.37297
                       2.29721                      -0.00231                      54.75339
                       2.22387                       0.57823                      54.75333
                       2.00846                       1.12229                      54.75306
                       1.66452                       1.59568                      54.75260
                       1.21365                       1.96867                      54.75198
                       0.68419                       2.21782                      54.75123
                       0.10941                       2.32746                      54.75040
                      -0.47458                       2.29072                      54.74954
                      -1.03109                       2.10990                      54.74872
                      -1.52515                       1.79636                      54.74797
                      -1.92571                       1.36980                      54.74735
                      -2.20761                       0.85703                      54.74689
                      -2.35313                       0.29027                      54.74663
                      -2.35313                      -0.29488                      54.74658
                      -2.20761                      -0.86165                      54.74674
                      -1.92571                      -1.37442                      54.74711
                      -1.52515                      -1.80097                      54.74766
                      -1.03109                      -2.11451                      54.74835
                      -0.47458                      -2.29533                      54.74914
                       0.10941                      -2.33208                      54.74999
                       0.68419                      -2.22243                      54.75084
                       1.21365                      -1.97329                      54.75164
                       1.66452                      -1.60030                      54.75233
                       2.00846                      -1.12690                      54.75287
                       2.22387                      -0.58284                      54.75323
                       2.23723                      -0.00271                      59.13365
                       2.16557                       0.56459                      59.13359
                       1.95507                       1.09623                      59.13330
                       1.61898                       1.55883                      59.13281
                       1.17840                       1.92331                      59.13213
                       0.66102                       2.16677                      59.13132
                       0.09934                       2.27392                      59.13042
                      -0.47133                       2.23801                      59.12950
                      -1.01514                       2.06132                      59.12861
                      -1.49793                       1.75493                      59.12780
                      -1.88936                       1.33811                      59.12713
                      -2.16482                       0.83703                      59.12664
                      -2.30702                       0.28320                      59.12636
                      -2.30702                      -0.28861                      59.12630
                      -2.16482                      -0.84244                      59.12648
                      -1.88936                      -1.34352                      59.12688
                      -1.49793                      -1.76034                      59.12747
                      -1.01514                      -2.06673                      59.12822
                      -0.47133                      -2.24343                      59.12908
                       0.09934                      -2.27933                      59.12999
                       0.66102                      -2.17218                      59.13091
                       1.17840                      -1.92872                      59.13176
                       1.61898                      -1.56424                      59.13251
                       1.95507                      -1.10165                      59.13309
                       2.16557                      -0.57000                      59.13348
                       2.17658                      -0.00314                      63.51390
                       2.10659                       0.55091                      63.51384
                       1.90101                       1.07015                      63.51353
                       1.57276                       1.52195                      63.51300
                       1.14247                       1.87792                      63.51227
                       0.63716                       2.11570                      63.51140
                       0.08860                       2.22034                      63.51045
                      -0.46875                       2.18527                      63.50946
                      -0.99987                       2.01270                      63.50850
                      -1.47139                       1.71347                      63.50764
                      -1.85367                       1.30637                      63.50692
                      -2.12271                       0.81700                      63.50640
                      -2.26159                       0.27609                      63.50610
                      -2.26159                      -0.28237                      63.50604
                      -2.12271                      -0.82327                      63.50623
                      -1.85367                      -1.31265                      63.50665
                      -1.47138                      -1.71975                      63.50729
                      -0.99987                      -2.01898                      63.50809
                      -0.46875                      -2.19155                      63.50901
                       0.08860                      -2.22662                      63.50999
                       0.63716                      -2.12197                      63.51097
                       1.14247                      -1.88420                      63.51189
                       1.57276                      -1.52823                      63.51268
                       1.90101                      -1.07643                      63.51331
                       2.10659                      -0.55719                      63.51372
                       2.11528                      -0.00361                      67.89412
                       2.04696                       0.53720                      67.89405
                       1.84629                       1.04403                      67.89372
                       1.52589                       1.48503                      67.89316
                       1.10587                       1.83249                      67.89239
                       0.61265                       2.06459                      67.89148
                       0.07720                       2.16673                      67.89046
                      -0.46683                       2.13250                      67.88942
                      -0.98525                       1.96405                      67.88841
                      -1.44550                       1.67197                      67.88750
                      -1.81865                       1.27461                      67.88674
                      -2.08126                       0.79693                      67.88619
                      -2.21682                       0.26895                      67.88587
                      -2.21682                      -0.27616                      67.88581
                      -2.08126                      -0.80414                      67.88601
                      -1.81865                      -1.28182                      67.88646
                      -1.44550                      -1.67918                      67.88713
                      -0.98525                      -1.97127                      67.88798
                      -0.46683                      -2.13971                      67.88895
                       0.07720                      -2.17394                      67.88999
                       0.61265                      -2.07180                      67.89102
                       1.10587                      -1.83970                      67.89199
                       1.52589                      -1.49224                      67.89283
                       1.84629                      -1.05124                      67.89349
                       2.04696                      -0.54441                      67.89393
                       2.05337                      -0.00410                      72.27428
                       1.98672                       0.52346                      72.27420
                       1.79097                       1.01788                      72.27386
                       1.47841                       1.44808                      72.27328
                       1.06868                       1.78703                      72.27248
                       0.58753                       2.01344                      72.27153
                       0.06520                       2.11309                      72.27047
                      -0.46551                       2.07970                      72.26939
                      -0.97124                       1.91537                      72.26834
                      -1.42022                       1.63044                      72.26739
                      -1.78423                       1.24281                      72.26660
                      -2.04041                       0.77683                      72.26603
                      -2.17265                       0.26178                      72.26570
                      -2.17265                      -0.26998                      72.26564
                      -2.04041                      -0.78503                      72.26584
                      -1.78423                      -1.25102                      72.26631
                      -1.42022                      -1.63865                      72.26701
                      -0.97124                      -1.92358                      72.26789
                      -0.46551                      -2.08790                      72.26890
                       0.06520                      -2.12129                      72.26998
                       0.58754                      -2.02165                      72.27106
                       1.06868                      -1.79524                      72.27206
                       1.47841                      -1.45628                      72.27294
                       1.79097                      -1.02608                      72.27362
                       1.98672                      -0.53167                      72.27408
                       1.99098                      -0.00463                      76.65434
                       1.92601                       0.50969                      76.65427
                       1.73517                       0.99170                      76.65392
                       1.43045                       1.41110                      76.65332
                       1.03101                       1.74155                      76.65251
                       0.56194                       1.96228                      76.65154
                       0.05272                       2.05942                      76.65047
                      -0.46467                       2.02686                      76.64937
                      -0.95770                       1.86667                      76.64830
                      -1.39541                       1.58889                      76.64734
                      -1.75028                       1.21099                      76.64654
                      -2.00003                       0.75670                      76.64595
                      -2.12895                       0.25458                      76.64562
                      -2.12895                      -0.26383                      76.64555
                      -2.00003                      -0.76596                      76.64577
                      -1.75028                      -1.22024                      76.64624
                      -1.39541                      -1.59815                      76.64695
                      -0.95770                      -1.87592                      76.64784
                      -0.46467                      -2.03612                      76.64887
                       0.05272                      -2.06867                      76.64997
                       0.56194                      -1.97153                      76.65106
                       1.03101                      -1.75080                      76.65209
                       1.43045                      -1.42036                      76.65298
                       1.73517                      -1.00095                      76.65368
                       1.92601                      -0.51895                      76.65414
                       1.92833                      -0.00518                      81.03427
                       1.86503                       0.49590                      81.03420
                       1.67911                       0.96550                      81.03386
                       1.38224                       1.37410                      81.03327
                       0.99309                       1.69604                      81.03248
                       0.53609                       1.91108                      81.03152
                       0.03998                       2.00572                      81.03046
                      -0.46408                       1.97401                      81.02937
                      -0.94443                       1.81794                      81.02832
                      -1.37086                       1.54731                      81.02737
                      -1.71660                       1.17914                      81.02658
                      -1.95991                       0.73655                      81.02600
                      -2.08552                       0.24736                      81.02567
                      -2.08552                      -0.25771                      81.02560
                      -1.95991                      -0.74690                      81.02581
                      -1.71660                      -1.18949                      81.02628
                      -1.37086                      -1.55766                      81.02697
                      -0.94443                      -1.82829                      81.02786
                      -0.46408                      -1.98436                      81.02887
                       0.03998                      -2.01607                      81.02995
                       0.53609                      -1.92144                      81.03103
                       0.99309                      -1.70639                      81.03204
                       1.38224                      -1.38445                      81.03292
                       1.67911                      -0.97585                      81.03361
                       1.86503                      -0.50625                      81.03407
                       1.86576                      -0.00574                      85.41402
                       1.80413                       0.48210                      85.41396
                       1.62312                       0.93928                      85.41364
                       1.33410                       1.33708                      85.41309
                       0.95523                       1.65051                      85.41234
                       0.51031                       1.85988                      85.41144
                       0.02731                       1.95201                      85.41044
                      -0.46343                       1.92114                      85.40941
                      -0.93108                       1.76919                      85.40841
                      -1.34625                       1.50572                      85.40751
                      -1.68285                       1.14727                      85.40676
                      -1.91973                       0.71638                      85.40621
                      -2.04201                       0.24012                      85.40589
                      -2.04201                      -0.25160                      85.40583
                      -1.91973                      -0.72786                      85.40602
                      -1.68285                      -1.15875                      85.40646
                      -1.34624                      -1.51720                      85.40712
                      -0.93108                      -1.78067                      85.40795
                      -0.46343                      -1.93262                      85.40891
                       0.02731                      -1.96349                      85.40993
                       0.51031                      -1.87136                      85.41095
                       0.95523                      -1.66200                      85.41190
                       1.33410                      -1.34857                      85.41274
                       1.62312                      -0.95076                      85.41339
                       1.80413                      -0.49358                      85.41383
                       1.83464                      -0.00603                      87.60381
                       1.77385                       0.47519                      87.60376
                       1.59529                       0.92617                      87.60346
                       1.31019                       1.31857                      87.60293
                       0.93646                       1.62775                      87.60222
                       0.49759                       1.83427                      87.60137
                       0.02114                       1.92515                      87.60042
                      -0.46294                       1.89470                      87.59944
                      -0.92424                       1.74481                      87.59849
                      -1.33377                       1.48492                      87.59764
                      -1.66580                       1.13134                      87.59692
                      -1.89947                       0.70629                      87.59639
                      -2.02010                       0.23649                      87.59609
                      -2.02010                      -0.24855                      87.59603
                      -1.89947                      -0.71835                      87.59621
                      -1.66580                      -1.14339                      87.59662
                      -1.33377                      -1.49697                      87.59724
                      -0.92424                      -1.75687                      87.59803
                      -0.46294                      -1.90675                      87.59894
                       0.02114                      -1.93721                      87.59991
                       0.49759                      -1.84632                      87.60088
                       0.93646                      -1.63980                      87.60179
                       1.31019                      -1.33063                      87.60258
                       1.59529                      -0.93822                      87.60321
                       1.77385                      -0.48724                      87.60363
                       3.00000                       0.00000                       0.00000
                       2.90575                       0.74607                       0.00000
                       2.62892                       1.44526                       0.00000
                       2.18691                       2.05364                       0.00000
                       1.60748                       2.53298                       0.00000
                       0.92705                       2.85317                       0.00000
                       0.18837                       2.99408                       0.00000
                      -0.56214                       2.94686                       0.00000
                      -1.27734                       2.71448                       0.00000
                      -1.91227                       2.31154                       0.00000
                      -2.42705                       1.76336                       0.00000
                      -2.78933                       1.10437                       0.00000
                      -2.97634                       0.37600                       0.00000
                      -2.97634                      -0.37600                       0.00000
                      -2.78933                      -1.10437                       0.00000
                      -2.42705                      -1.76336                       0.00000
                      -1.91227                      -2.31154                       0.00000
                      -1.27734                      -2.71448                       0.00000
                      -0.56214                      -2.94686                       0.00000
                       0.18837                      -2.99408                       0.00000
                       0.92705                      -2.85317                       0.00000
                       1.60748                      -2.53298                       0.00000
                       2.18691                      -2.05364                       0.00000
                       2.62892                      -1.44526                       0.00000
                       2.90575                      -0.74607                       0.00000
        </DataArray>
      </Points>
      <Polys>
        <DataArray type="Int32" Name="connectivity" format="ascii">
      0      1     26     25
      1      2     27     26
      2      3     28     27
      3      4     29     28
      4      5     30     29
      5      6     31     30
      6      7     32     31
      7      8     33     32
      8      9     34     33
      9     10     35     34
     10     11     36     35
     11     12     37     36
     12     13     38     37
     13     14     39     38
     14     15     40     39
     15     16     41     40
     16     17     42     41
     17     18     43     42
     18     19     44     43
     19     20     45     44
     20     21     46     45
     21     22     47     46
     22     23     48     47
     23     24     49     48
     24      0     25     49
     24     23     22     21     20     19     18     17     16     15     14     13     12     11     10      9      8      7      6      5      4      3      2      1      0
     25     26     27     28     29     30     31     32     33     34     35     36     37     38     39     40     41     42     43     44     45     46     47     48     49
     25     26     51     50
     26     27     52     51
     27     28     53     52
     28     29     54     53
     29     30     55     54
     30     31     56     55
     31     32     57     56
     32     33     58     57
     33     34     59     58
     34     35     60     59
     35     36     61     60
     36     37     62     61
     37     38     63     62
     38     39     64     63
     39     40     65     64
     40     41     66     65
     41     42     67     66
     42     43     68     67
     43     44     69     68
     44     45     70     69
     45     46     71     70
     46     47     72     71
     47     48     73     72
     48     49     74     73
     49     25     50     74
     49     48     47     46     45     44     43     42     41     40     39     38     37     36     35     34     33     32     31     30     29     28     27     26     25
     50     51     52     53     54     55     56     57     58     59     60     61     62     63     64     65     66     67     68     69     70     71     72     73     74
     50     51     76     75
     51     52     77     76
     52     53     78     77
     53     54     79     78
     54     55     80     79
     55     56     81     80
     56     57     82     81
     57     58     83     82
     58     59     84     83
     59     60     85     84
     60     61     86     85
     61     62     87     86
     62     63     88     87
     63     64     89     88
     64     65     90     89
     65     66     91     90
     66     67     92     91
     67     68     93     92
     68     69     94     93
     69     70     95     94
     70     71     96     95
     71     72     97     96
     72     73     98     97
     73     74     99     98
     74     50     75     99
     74     73     72     71     70     69     68     67     66     65     64     63     62     61     60     59     58     57     56     55     54     53     52     51     50
     75     76     77     78     79     80     81     82     83     84     85     86     87     88     89     90     91     92     93     94     95     96     97     98     99
     75     76    101    100
     76     77    102    101
     77     78    103    102
     78     79    104    103
     79     80    105    104
     80     81    106    105
     81     82    107    106
     82     83    108    107
     83     84    109    108
     84     85    110    109
     85     86    111    110
     86     87    112    111
     87     88    113    112
     88     89    114    113
     89     90    115    114
     90     91    116    115
     91     92    117    116
     92     93    118    117
     93     94    119    118
     94     95    120    119
     95     96    121    120
     96     97    122    121
     97     98    123    122
     98     99    124    123
     99     75    100    124
     99     98     97     96     95     94     93     92     91     90     89     88     87     86     85     84     83     82     81     80     79     78     77     76     75
    100    101    102    103    104    105    106    107    108    109    110    111    112    113    114    115    116    117    118    119    120    121    122    123    124
    100    101    126    125
    101    102    127    126
    102    103    128    127
    103    104    129    128
    104    105    130    129
    105    106    131    130
    106    107    132    131
    107    108    133    132
    108    109    134    133
    109    110    135    134
    110    111    136    135
    111    112    137    136
    112    113    138    137
    113    114    139    138
    114    115    140    139
    115    116    141    140
    116    117    142    141
    117    118    143    142
    118    119    144    143
    119    120    145    144
    120    121    146    145
    121    122    147    146
    122    123    148    147
    123    124    149    148
    124    100    125    149
    124    123    122    121    120    119    118    117    116    115    114    113    112    111    110    109    108    107    106    105    104    103    102    101    100
    125    126    127    128    129    130    131    132    133    134    135    136    137    138    139    140    141    142    143    144    145    146    147    148    149
    125    126    151    150
    126    127    152    151
    127    128    153    152
    128    129    154    153
    129    130    155    154
    130    131    156    155
    131    132    157    156
    132    133    158    157
    133    134    159    158
    134    135    160    159
    135    136    161    160
    136    137    162    161
    137    138    163    162
    138    139    164    163
    139    140    165    164
    140    141    166    165
    141    142    167    166
    142    143    168    167
    143    144    169    168
    144    145    170    169
    145    146    171    170
    146    147    172    171
    147    148    173    172
    148    149    174    173
    149    125    150    174
    149    148    147    146    145    144    143    142    141    140    139    138    137    136    135    134    133    132    131    130    129    128    127    126    125
    150    151    152    153    154    155    156    157    158    159    160    161    162    163    164    165    166    167    168    169    170    171    172    173    174
    150    151    176    175
    151    152    177    176
    152    153    178    177
    153    154    179    178
    154    155    180    179
    155    156    181    180
    156    157    182    181
    157    158    183    182
    158    159    184    183
    159    160    185    184
    160    161    186    185
    161    162    187    186
    162    163    188    187
    163    164    189    188
    164    165    190    189
    165    166    191    190
    166    167    192    191
    167    168    193    192
    168    169    194    193
    169    170    195    194
    170    171    196    195
    171    172    197    196
    172    173    198    197
    173    174    199    198
    174    150    175    199
    174    173    172    171    170    169    168    167    166    165    164    163    162    161    160    159    158    157    156    155    154    153    152    151    150
    175    176    177    178    179    180    181    182    183    184    185    186    187    188    189    190    191    192    193    194    195    196    197    198    199
    175    176    201    200
    176    177    202    201
    177    178    203    202
    178    179    204    203
    179    180    205    204
    180    181    206    205
    181    182    207    206
    182    183    208    207
    183    184    209    208
    184    185    210    209
    185    186    211    210
    186    187    212    211
    187    188    213    212
    188    189    214    213
    189    190    215    214
    190    191    216    215
    191    192    217    216
    192    193    218    217
    193    194    219    218
    194    195    220    219
    195    196    221    220
    196    197    222    221
    197    198    223    222
    198    199    224    223
    199    175    200    224
    199    198    197    196    195    194    193    192    191    190    189    188    187    186    185    184    183    182    181    180    179    178    177    176    175
    200    201    202    203    204    205    206    207    208    209    210    211    212    213    214    215    216    217    218    219    220    221    222    223    224
    200    201    226    225
    201    202    227    226
    202    203    228    227
    203    204    229    228
    204    205    230    229
    205    206    231    230
    206    207    232    231
    207    208    233    232
    208    209    234    233
    209    210    235    234
    210    211    236    235
    211    212    237    236
    212    213    238    237
    213    214    239    238
    214    215    240    239
    215    216    241    240
    216    217    242    241
    217    218    243    242
    218    219    244    243
    219    220    245    244
    220    221    246    245
    221    222    247    246
    222    223    248    247
    223    224    249    248
    224    200    225    249
    224    223    222    221    220    219    218    217    216    215    214    213    212    211    210    209    208    207    206    205    204    203    202    201    200
    225    226    227    228    229    230    231    232    233    234    235    236    237    238    239    240    241    242    243    244    245    246    247    248    249
    225    226    251    250
    226    227    252    251
    227    228    253    252
    228    229    254    253
    229    230    255    254
    230    231    256    255
    231    232    257    256
    232    233    258    257
    233    234    259    258
    234    235    260    259
    235    236    261    260
    236    237    262    261
    237    238    263    262
    238    239    264    263
    239    240    265    264
    240    241    266    265
    241    242    267    266
    242    243    268    267
    243    244    269    268
    244    245    270    269
    245    246    271    270
    246    247    272    271
    247    248    273    272
    248    249    274    273
    249    225    250    274
    249    248    247    246    245    244    243    242    241    240    239    238    237    236    235    234    233    232    231    230    229    228    227    226    225
    250    251    252    253    254    255    256    257    258    259    260    261    262    263    264    265    266    267    268    269    270    271    272    273    274
    250    251    276    275
    251    252    277    276
    252    253    278    277
    253    254    279    278
    254    255    280    279
    255    256    281    280
    256    257    282    281
    257    258    283    282
    258    259    284    283
    259    260    285    284
    260    261    286    285
    261    262    287    286
    262    263    288    287
    263    264    289    288
    264    265    290    289
    265    266    291    290
    266    267    292    291
    267    268    293    292
    268    269    294    293
    269    270    295    294
    270    271    296    295
    271    272    297    296
    272    273    298    297
    273    274    299    298
    274    250    275    299
    274    273    272    271    270    269    268    267    266    265    264    263    262    261    260    259    258    257    256    255    254    253    252    251    250
    275    276    277    278    279    280    281    282    283    284    285    286    287    288    289    290    291    292    293    294    295    296    297    298    299
    275    276    301    300
    276    277    302    301
    277    278    303    302
    278    279    304    303
    279    280    305    304
    280    281    306    305
    281    282    307    306
    282    283    308    307
    283    284    309    308
    284    285    310    309
    285    286    311    310
    286    287    312    311
    287    288    313    312
    288    289    314    313
    289    290    315    314
    290    291    316    315
    291    292    317    316
    292    293    318    317
    293    294    319    318
    294    295    320    319
    295    296    321    320
    296    297    322    321
    297    298    323    322
    298    299    324    323
    299    275    300    324
    299    298    297    296    295    294    293    292    291    290    289    288    287    286    285    284    283    282    281    280    279    278    277    276    275
    300    301    302    303    304    305    306    307    308    309    310    311    312    313    314    315    316    317    318    319    320    321    322    323    324
    300    301    326    325
    301    302    327    326
    302    303    328    327
    303    304    329    328
    304    305    330    329
    305    306    331    330
    306    307    332    331
    307    308    333    332
    308    309    334    333
    309    310    335    334
    310    311    336    335
    311    312    337    336
    312    313    338    337
    313    314    339    338
    314    315    340    339
    315    316    341    340
    316    317    342    341
    317    318    343    342
    318    319    344    343
    319    320    345    344
    320    321    346    345
    321    322    347    346
    322    323    348    347
    323    324    349    348
    324    300    325    349
    324    323    322    321    320    319    318    317    316    315    314    313    312    311    310    309    308    307    306    305    304    303    302    301    300
    325    326    327    328    329    330    331    332    333    334    335    336    337    338    339    340    341    342    343    344    345    346    347    348    349
    325    326    351    350
    326    327    352    351
    327    328    353    352
    328    329    354    353
    329    330    355    354
    330    331    356    355
    331    332    357    356
    332    333    358    357
    333    334    359    358
    334    335    360    359
    335    336    361    360
    336    337    362    361
    337    338    363    362
    338    339    364    363
    339    340    365    364
    340    341    366    365
    341    342    367    366
    342    343    368    367
    343    344    369    368
    344    345    370    369
    345    346    371    370
    346    347    372    371
    347    348    373    372
    348    349    374    373
    349    325    350    374
    349    348    347    346    345    344    343    342    341    340    339    338    337    336    335    334    333    332    331    330    329    328    327    326    325
    350    351    352    353    354    355    356    357    358    359    360    361    362    363    364    365    366    367    368    369    370    371    372    373    374
    350    351    376    375
    351    352    377    376
    352    353    378    377
    353    354    379    378
    354    355    380    379
    355    356    381    380
    356    357    382    381
    357    358    383    382
    358    359    384    383
    359    360    385    384
    360    361    386    385
    361    362    387    386
    362    363    388    387
    363    364    389    388
    364    365    390    389
    365    366    391    390
    366    367    392    391
    367    368    393    392
    368    369    394    393
    369    370    395    394
    370    371    396    395
    371    372    397    396
    372    373    398    397
    373    374    399    398
    374    350    375    399
    374    373    372    371    370    369    368    367    366    365    364    363    362    361    360    359    358    357    356    355    354    353    352    351    350
    375    376    377    378    379    380    381    382    383    384    385    386    387    388    389    390    391    392    393    394    395    396    397    398    399
    375    376    401    400
    376    377    402    401
    377    378    403    402
    378    379    404    403
    379    380    405    404
    380    381    406    405
    381    382    407    406
    382    383    408    407
    383    384    409    408
    384    385    410    409
    385    386    411    410
    386    387    412    411
    387    388    413    412
    388    389    414    413
    389    390    415    414
    390    391    416    415
    391    392    417    416
    392    393    418    417
    393    394    419    418
    394    395    420    419
    395    396    421    420
    396    397    422    421
    397    398    423    422
    398    399    424    423
    399    375    400    424
    399    398    397    396    395    394    393    392    391    390    389    388    387    386    385    384    383    382    381    380    379    378    377    376    375
    400    401    402    403    404    405    406    407    408    409    410    411    412    413    414    415    416    417    418    419    420    421    422    423    424
    400    401    426    425
    401    402    427    426
    402    403    428    427
    403    404    429    428
    404    405    430    429
    405    406    431    430
    406    407    432    431
    407    408    433    432
    408    409    434    433
    409    410    435    434
    410    411    436    435
    411    412    437    436
    412    413    438    437
    413    414    439    438
    414    415    440    439
    415    416    441    440
    416    417    442    441
    417    418    443    442
    418    419    444    443
    419    420    445    444
    420    421    446    445
    421    422    447    446
    422    423    448    447
    423    424    449    448
    424    400    425    449
    424    423    422    421    420    419    418    417    416    415    414    413    412    411    410    409    408    407    406    405    404    403    402    401    400
    425    426    427    428    429    430    431    432    433    434    435    436    437    438    439    440    441    442    443    444    445    446    447    448    449
    425    426    451    450
    426    427    452    451
    427    428    453    452
    428    429    454    453
    429    430    455    454
    430    431    456    455
    431    432    457    456
    432    433    458    457
    433    434    459    458
    434    435    460    459
    435    436    461    460
    436    437    462    461
    437    438    463    462
    438    439    464    463
    439    440    465    464
    440    441    466    465
    441    442    467    466
    442    443    468    467
    443    444    469    468
    444    445    470    469
    445    446    471    470
    446    447    472    471
    447    448    473    472
    448    449    474    473
    449    425    450    474
    449    448    447    446    445    444    443    442    441    440    439    438    437    436    435    434    433    432    431    430    429    428    427    426    425
    450    451    452    453    454    455    456    457    458    459    460    461    462    463    464    465    466    467    468    469    470    471    472    473    474
    450    451    476    475
    451    452    477    476
    452    453    478    477
    453    454    479    478
    454    455    480    479
    455    456    481    480
    456    457    482    481
    457    458    483    482
    458    459    484    483
    459    460    485    484
    460    461    486    485
    461    462    487    486
    462    463    488    487
    463    464    489    488
    464    465    490    489
    465    466    491    490
    466    467    492    491
    467    468    493    492
    468    469    494    493
    469    470    495    494
    470    471    496    495
    471    472    497    496
    472    473    498    497
    473    474    499    498
    474    450    475    499
    474    473    472    471    470    469    468    467    466    465    464    463    462    461    460    459    458    457    456    455    454    453    452    451    450
    475    476    477    478    479    480    481    482    483    484    485    486    487    488    489    490    491    492    493    494    495    496    497    498    499
    475    476    501    500
    476    477    502    501
    477    478    503    502
    478    479    504    503
    479    480    505    504
    480    481    506    505
    481    482    507    506
    482    483    508    507
    483    484    509    508
    484    485    510    509
    485    486    511    510
    486    487    512    511
    487    488    513    512
    488    489    514    513
    489    490    515    514
    490    491    516    515
    491    492    517    516
    492    493    518    517
    493    494    519    518
    494    495    520    519
    495    496    521    520
    496    497    522    521
    497    498    523    522
    498    499    524    523
    499    475    500    524
    499    498    497    496    495    494    493    492    491    490    489    488    487    486    485    484    483    482    481    480    479    478    477    476    475
    500    501    502    503    504    505    506    507    508    509    510    511    512    513    514    515    516    517    518    519    520    521    522    523    524
    525    526      1      0
    526    527      2      1
    527    528      3      2
    528    529      4      3
    529    530      5      4
    530    531      6      5
    531    532      7      6
    532    533      8      7
    533    534      9      8
    534    535     10      9
    535    536     11     10
    536    537     12     11
    537    538     13     12
    538    539     14     13
    539    540     15     14
    540    541     16     15
    541    542     17     16
    542    543     18     17
    543    544     19     18
    544    545     20     19
    545    546     21     20
    546    547     22     21
    547    548     23     22
    548    549     24     23
    549    525      0     24
    549    548    547    546    545    544    543    542    541    540    539    538    537    536    535    534    533    532    531    530    529    528    527    526    525
      0      1      2      3      4      5      6      7      8      9     10     11     12     13     14     15     16     17     18     19     20     21     22     23     24
        </DataArray>
        <DataArray type="Int32" Name="offsets" format="ascii">
      4
      8
     12
     16
     20
     24
     28
     32
     36
     40
     44
     48
     52
     56
     60
     64
     68
     72
     76
     80
     84
     88
     92
     96
    100
    125
    150
    154
    158
    162
    166
    170
    174
    178
    182
    186
    190
    194
    198
    202
    206
    210
    214
    218
    222
    226
    230
    234
    238
    242
    246
    250
    275
    300
    304
    308
    312
    316
    320
    324
    328
    332
    336
    340
    344
    348
    352
    356
    360
    364
    368
    372
    376
    380
    384
    388
    392
    396
    400
    425
    450
    454
    458
    462
    466
    470
    474
    478
    482
    486
    490
    494
    498
    502
    506
    510
    514
    518
    522
    526
    530
    534
    538
    542
    546
    550
    575
    600
    604
    608
    612
    616
    620
    624
    628
    632
    636
    640
    644
    648
    652
    656
    660
    664
    668
    672
    676
    680
    684
    688
    692
    696
    700
    725
    750
    754
    758
    762
    766
    770
    774
    778
    782
    786
    790
    794
    798
    802
    806
    810
    814
    818
    822
    826
    830
    834
    838
    842
    846
    850
    875
    900
    904
    908
    912
    916
    920
    924
    928
    932
    936
    940
    944
    948
    952
    956
    960
    964
    968
    972
    976
    980
    984
    988
    992
    996
   1000
   1025
   1050
   1054
   1058
   1062
   1066
   1070
   1074
   1078
   1082
   1086
   1090
   1094
   1098
   1102
   1106
   1110
   1114
   1118
   1122
   1126
   1130
   1134
   1138
   1142
   1146
   1150
   1175
   1200
   1204
   1208
   1212
   1216
   1220
   1224
   1228
   1232
   1236
   1240
   1244
   1248
   1252
   1256
   1260
   1264
   1268
   1272
   1276
   1280
   1284
   1288
   1292
   1296
   1300
   1325
   1350
   1354
   1358
   1362
   1366
   1370
   1374
   1378
   1382
   1386
   1390
   1394
   1398
   1402
   1406
   1410
   1414
   1418
   1422
   1426
   1430
   1434
   1438
   1442
   1446
   1450
   1475
   1500
   1504
   1508
   1512
   1516
   1520
   1524
   1528
   1532
   1536
   1540
   1544
   1548
   1552
   1556
   1560
   1564
   1568
   1572
   1576
   1580
   1584
   1588
   1592
   1596
   1600
   1625
   1650
   1654
   1658
   1662
   1666
   1670
   1674
   1678
   1682
   1686
   1690
   1694
   1698
   1702
   1706
   1710
   1714
   1718
   1722
   1726
   1730
   1734
   1738
   1742
   1746
   1750
   1775
   1800
   1804
   1808
   1812
   1816
   1820
   1824
   1828
   1832
   1836
   1840
   1844
   1848
   1852
   1856
   1860
   1864
   1868
   1872
   1876
   1880
   1884
   1888
   1892
   1896
   1900
   1925
   1950
   1954
   1958
   1962
   1966
   1970
   1974
   1978
   1982
   1986
   1990
   1994
   1998
   2002
   2006
   2010
   2014
   2018
   2022
   2026
   2030
   2034
   2038
   2042
   2046
   2050
   2075
   2100
   2104
   2108
   2112
   2116
   2120
   2124
   2128
   2132
   2136
   2140
   2144
   2148
   2152
   2156
   2160
   2164
   2168
   2172
   2176
   2180
   2184
   2188
   2192
   2196
   2200
   2225
   2250
   2254
   2258
   2262
   2266
   2270
   2274
   2278
   2282
   2286
   2290
   2294
   2298
   2302
   2306
   2310
   2314
   2318
   2322
   2326
   2330
   2334
   2338
   2342
   2346
   2350
   2375
   2400
   2404
   2408
   2412
   2416
   2420
   2424
   2428
   2432
   2436
   2440
   2444
   2448
   2452
   2456
   2460
   2464
   2468
   2472
   2476
   2480
   2484
   2488
   2492
   2496
   2500
   2525
   2550
   2554
   2558
   2562
   2566
   2570
   2574
   2578
   2582
   2586
   2590
   2594
   2598
   2602
   2606
   2610
   2614
   2618
   2622
   2626
   2630
   2634
   2638
   2642
   2646
   2650
   2675
   2700
   2704
   2708
   2712
   2716
   2720
   2724
   2728
   2732
   2736
   2740
   2744
   2748
   2752
   2756
   2760
   2764
   2768
   2772
   2776
   2780
   2784
   2788
   2792
   2796
   2800
   2825
   2850
   2854
   2858
   2862
   2866
   2870
   2874
   2878
   2882
   2886
   2890
   2894
   2898
   2902
   2906
   2910
   2914
   2918
   2922
   2926
   2930
   2934
   2938
   2942
   2946
   2950
   2975
   3000
   3004
   3008
   3012
   3016
   3020
   3024
   3028
   3032
   3036
   3040
   3044
   3048
   3052
   3056
   3060
   3064
   3068
   3072
   3076
   3080
   3084
   3088
   3092
   3096
   3100
   3125
   3150
        </DataArray>
      </Polys>
    </Piece>
  </PolyData>
</VTKFile>
