<?xml version="1.0"?>
<VTKFile type="PolyData" version="0.1" byte_order="LittleEndian">
  <PolyData>
    <Piece NumberOfPoints="     22" NumberOfVerts="  0" NumberOfLines="     21"
           NumberOfStrips="  0" NumberOfPolys="      0">
      <Points>
        <DataArray type="Float32" NumberOfComponents="3" format="ascii">
                       0.00007                      -0.00000                       2.19000
                       0.00075                      -0.00004                       6.57000
                       0.00222                      -0.00010                      10.95000
                       0.00456                      -0.00019                      15.33000
                       0.00777                      -0.00030                      19.71000
                       0.01182                      -0.00044                      24.09000
                       0.01666                      -0.00061                      28.46999
                       0.02226                      -0.00082                      32.84999
                       0.02859                      -0.00105                      37.22999
                       0.03562                      -0.00133                      41.60998
                       0.04337                      -0.00164                      45.98997
                       0.05185                      -0.00200                      50.36996
                       0.06109                      -0.00240                      54.74995
                       0.07112                      -0.00285                      59.12994
                       0.08195                      -0.00335                      63.50993
                       0.09355                      -0.00389                      67.88991
                       0.10583                      -0.00448                      72.26990
                       0.11861                      -0.00510                      76.64988
                       0.13159                      -0.00576                      81.02986
                       0.14431                      -0.00644                      85.40984
                       0.15038                      -0.00679                      87.59983
                       0.00000                       0.00000                       0.00000
        </DataArray>
      </Points>
      <PointData>
        <DataArray type="Float32" Name="TranslationalVelocity" NumberOfComponents="3" format="ascii">
                      -0.00002                      -0.00000                       0.00000
                      -0.00022                      -0.00004                       0.00000
                      -0.00060                      -0.00011                       0.00000
                      -0.00116                      -0.00021                       0.00000
                      -0.00186                      -0.00034                       0.00000
                      -0.00266                      -0.00052                       0.00000
                      -0.00351                      -0.00074                       0.00000
                      -0.00435                      -0.00102                       0.00000
                      -0.00512                      -0.00137                       0.00000
                      -0.00575                      -0.00179                       0.00001
                      -0.00618                      -0.00230                       0.00001
                      -0.00635                      -0.00290                       0.00001
                      -0.00622                      -0.00361                       0.00001
                      -0.00573                      -0.00443                       0.00001
                      -0.00487                      -0.00537                       0.00000
                      -0.00362                      -0.00642                      -0.00000
                      -0.00199                      -0.00759                      -0.00001
                       0.00002                      -0.00886                      -0.00001
                       0.00233                      -0.01022                      -0.00002
                       0.00488                      -0.01166                      -0.00003
                       0.00622                      -0.01240                      -0.00003
                       0.00000                      -0.00000                       0.00000
        </DataArray>
        <DataArray type="Float32" Name="RotationalVelocity" NumberOfComponents="3" format="ascii">
                       0.00000                      -0.00002                       0.00000
                       0.00001                      -0.00007                       0.00000
                       0.00002                      -0.00011                       0.00000
                       0.00003                      -0.00015                       0.00000
                       0.00004                      -0.00017                       0.00000
                       0.00005                      -0.00019                       0.00000
                       0.00006                      -0.00020                       0.00000
                       0.00007                      -0.00019                       0.00000
                       0.00009                      -0.00016                       0.00000
                       0.00011                      -0.00012                       0.00000
                       0.00013                      -0.00007                       0.00000
                       0.00015                      -0.00001                       0.00000
                       0.00017                       0.00007                       0.00000
                       0.00020                       0.00015                       0.00000
                       0.00023                       0.00024                       0.00000
                       0.00025                       0.00033                       0.00000
                       0.00028                       0.00042                       0.00000
                       0.00030                       0.00049                       0.00000
                       0.00032                       0.00056                       0.00000
                       0.00033                       0.00060                       0.00000
                       0.00034                       0.00062                       0.00000
                       0.00000                      -0.00000                       0.00000
        </DataArray>
        <DataArray type="Float32" Name="TranslationalAcceleration" NumberOfComponents="3" format="ascii">
                      -0.00047                      -0.00012                       0.00000
                      -0.00432                      -0.00102                       0.00000
                      -0.01207                      -0.00265                       0.00000
                      -0.02344                      -0.00485                       0.00001
                      -0.03787                      -0.00750                       0.00002
                      -0.05456                      -0.01049                       0.00004
                      -0.07254                      -0.01367                       0.00005
                      -0.09075                      -0.01694                       0.00008
                      -0.10803                      -0.02016                       0.00010
                      -0.12323                      -0.02317                       0.00013
                      -0.13523                      -0.02583                       0.00015
                      -0.14301                      -0.02797                       0.00016
                      -0.14566                      -0.02942                       0.00017
                      -0.14245                      -0.03004                       0.00016
                      -0.13287                      -0.02968                       0.00013
                      -0.11666                      -0.02826                       0.00009
                      -0.09384                      -0.02571                       0.00003
                      -0.06476                      -0.02206                      -0.00006
                      -0.03012                      -0.01740                      -0.00016
                       0.00899                      -0.01195                      -0.00028
                       0.02977                      -0.00903                      -0.00034
                       0.00000                      -0.00000                       0.00000
        </DataArray>
        <DataArray type="Float32" Name="RotationalAcceleration" NumberOfComponents="3" format="ascii">
                       0.00011                      -0.00043                       0.00000
                       0.00029                      -0.00133                       0.00000
                       0.00044                      -0.00220                       0.00000
                       0.00056                      -0.00297                       0.00000
                       0.00065                      -0.00359                       0.00000
                       0.00071                      -0.00400                       0.00000
                       0.00074                      -0.00417                       0.00000
                       0.00075                      -0.00409                       0.00000
                       0.00072                      -0.00375                       0.00000
                       0.00065                      -0.00315                       0.00000
                       0.00055                      -0.00230                       0.00000
                       0.00042                      -0.00122                       0.00000
                       0.00024                       0.00004                       0.00000
                       0.00003                       0.00144                       0.00000
                      -0.00020                       0.00294                       0.00000
                      -0.00045                       0.00446                       0.00000
                      -0.00071                       0.00594                       0.00000
                      -0.00095                       0.00731                       0.00000
                      -0.00116                       0.00847                       0.00000
                      -0.00131                       0.00933                       0.00000
                      -0.00135                       0.00963                       0.00000
                       0.00000                      -0.00000                       0.00000
        </DataArray>
        <DataArray type="Float32" Name="OrientationX" NumberOfComponents="3" format="ascii">
                       1.00000                       0.00000                      -0.00007
                       1.00000                       0.00000                      -0.00024
                       1.00000                       0.00000                      -0.00043
                       1.00000                       0.00000                      -0.00063
                       1.00000                       0.00000                      -0.00083
                       1.00000                       0.00000                      -0.00102
                       1.00000                       0.00000                      -0.00119
                       1.00000                       0.00000                      -0.00136
                       1.00000                       0.00000                      -0.00152
                       1.00000                       0.00000                      -0.00169
                       1.00000                       0.00000                      -0.00185
                       1.00000                       0.00000                      -0.00202
                       1.00000                       0.00000                      -0.00220
                       1.00000                       0.00000                      -0.00238
                       1.00000                       0.00000                      -0.00256
                       1.00000                       0.00000                      -0.00273
                       1.00000                       0.00000                      -0.00287
                       1.00000                       0.00000                      -0.00295
                       1.00000                       0.00000                      -0.00295
                       1.00000                       0.00000                      -0.00283
                       1.00000                       0.00000                      -0.00270
                       1.00000                      -0.00000                       0.00000
        </DataArray>
        <DataArray type="Float32" Name="OrientationY" NumberOfComponents="3" format="ascii">
                       0.00000                       1.00000                       0.00000
                       0.00000                       1.00000                       0.00001
                       0.00000                       1.00000                       0.00002
                       0.00000                       1.00000                       0.00002
                       0.00000                       1.00000                       0.00003
                       0.00000                       1.00000                       0.00004
                       0.00000                       1.00000                       0.00004
                       0.00000                       1.00000                       0.00005
                       0.00000                       1.00000                       0.00006
                       0.00000                       1.00000                       0.00007
                       0.00000                       1.00000                       0.00008
                       0.00000                       1.00000                       0.00009
                       0.00000                       1.00000                       0.00010
                       0.00000                       1.00000                       0.00011
                       0.00000                       1.00000                       0.00012
                       0.00000                       1.00000                       0.00013
                       0.00000                       1.00000                       0.00014
                       0.00000                       1.00000                       0.00015
                       0.00000                       1.00000                       0.00015
                       0.00000                       1.00000                       0.00016
                       0.00000                       1.00000                       0.00016
                      -0.00000                       1.00000                      -0.00000
        </DataArray>
        <DataArray type="Float32" Name="OrientationZ" NumberOfComponents="3" format="ascii">
                       0.00007                      -0.00000                       1.00000
                       0.00024                      -0.00001                       1.00000
                       0.00043                      -0.00002                       1.00000
                       0.00063                      -0.00002                       1.00000
                       0.00083                      -0.00003                       1.00000
                       0.00102                      -0.00004                       1.00000
                       0.00119                      -0.00004                       1.00000
                       0.00136                      -0.00005                       1.00000
                       0.00152                      -0.00006                       1.00000
                       0.00169                      -0.00007                       1.00000
                       0.00185                      -0.00008                       1.00000
                       0.00202                      -0.00009                       1.00000
                       0.00220                      -0.00010                       1.00000
                       0.00238                      -0.00011                       1.00000
                       0.00256                      -0.00012                       1.00000
                       0.00273                      -0.00013                       1.00000
                       0.00287                      -0.00014                       1.00000
                       0.00295                      -0.00015                       1.00000
                       0.00295                      -0.00015                       1.00000
                       0.00283                      -0.00016                       1.00000
                       0.00270                      -0.00016                       1.00000
                       0.00000                      -0.00000                       1.00000
        </DataArray>
      </PointData>
      <Lines>
        <DataArray type="Int32" Name="connectivity" format="ascii">
      0      1
      1      2
      2      3
      3      4
      4      5
      5      6
      6      7
      7      8
      8      9
      9     10
     10     11
     11     12
     12     13
     13     14
     14     15
     15     16
     16     17
     17     18
     18     19
     19     20
     21      0
        </DataArray>
        <DataArray type="Int32" Name="offsets" format="ascii">
      2
      4
      6
      8
     10
     12
     14
     16
     18
     20
     22
     24
     26
     28
     30
     32
     34
     36
     38
     40
     42
        </DataArray>
      </Lines>
    </Piece>
  </PolyData>
</VTKFile>
