<?xml version="1.0"?>
<VTKFile type="PolyData" version="0.1" byte_order="LittleEndian">
  <PolyData>
    <Piece NumberOfPoints="     19" NumberOfVerts="  0" NumberOfLines="     18"
           NumberOfStrips="  0" NumberOfPolys="      0">
      <Points>
        <DataArray type="Float32" NumberOfComponents="3" format="ascii">
                      -4.84565                      -1.16780                      90.96087
                      -4.82800                      -2.22828                      91.82323
                      -4.82109                      -4.40934                      93.47559
                      -4.82537                      -6.61972                      95.09285
                      -4.83281                      -9.40128                      97.09212
                      -4.76821                     -12.65319                      99.59501
                      -4.65901                     -15.82691                     102.19317
                      -4.54436                     -19.00189                     104.79034
                      -4.42873                     -22.17675                     107.38870
                      -4.32281                     -25.35200                     109.98818
                      -4.24039                     -28.52870                     112.58771
                      -4.19485                     -31.70410                     115.19029
                      -4.20285                     -34.87552                     117.79807
                      -4.28263                     -38.03924                     120.41331
                      -4.45121                     -41.19084                     123.03798
                      -4.67583                     -43.80334                     125.23430
                      -4.91453                     -45.87699                     127.00379
                      -5.20048                     -47.90467                     128.82138
                      -5.37969                     -48.93776                     129.70133
        </DataArray>
      </Points>
      <PointData>
        <DataArray type="Float32" Name="TranslationalVelocity" NumberOfComponents="3" format="ascii">
                      -0.29646                      -2.69979                      -3.30102
                      -0.56772                      -5.15401                      -6.31341
                      -1.12439                      -9.85115                     -12.51110
                      -1.68734                     -14.44796                     -18.79542
                      -2.39409                     -20.13358                     -26.70911
                      -3.21679                     -27.27593                     -35.96909
                      -4.01302                     -34.70776                     -45.01521
                      -4.79878                     -42.14505                     -54.07362
                      -5.56870                     -49.59245                     -63.14000
                      -6.31738                     -57.04657                     -72.21523
                      -7.03938                     -64.50058                     -81.30158
                      -7.72854                     -71.95977                     -90.39033
                      -8.37934                     -79.42676                     -99.47277
                      -8.98696                     -86.90490                    -108.53725
                      -9.54780                     -94.39784                    -117.57012
                      -9.97688                    -100.65741                    -125.05965
                     -10.29495                    -105.69414                    -131.00521
                     -10.58392                    -110.86544                    -136.81987
                     -10.72629                    -113.36402                    -139.78225
        </DataArray>
        <DataArray type="Float32" Name="RotationalVelocity" NumberOfComponents="3" format="ascii">
                       2.84019                      -0.00061                      -0.25512
                       2.84061                      -0.00054                      -0.25505
                       2.84179                      -0.00035                      -0.25485
                       2.84329                      -0.00007                      -0.25455
                       2.84543                       0.00043                      -0.25402
                       2.84814                       0.00133                      -0.25300
                       2.85082                       0.00263                      -0.25136
                       2.85335                       0.00442                      -0.24888
                       2.85570                       0.00677                      -0.24532
                       2.85789                       0.00973                      -0.24051
                       2.85997                       0.01331                      -0.23432
                       2.86203                       0.01745                      -0.22676
                       2.86413                       0.02207                      -0.21800
                       2.86629                       0.02699                      -0.20835
                       2.86853                       0.03193                      -0.19838
                       2.87039                       0.03585                      -0.19036
                       2.87181                       0.03864                      -0.18458
                       2.87311                       0.04096                      -0.17979
                       2.87368                       0.04189                      -0.17789
        </DataArray>
        <DataArray type="Float32" Name="TranslationalAcceleration" NumberOfComponents="3" format="ascii">
                      -0.67338                       9.41199                      -7.65048
                      -0.82033                      11.42716                      -9.25760
                      -2.29454                      33.21093                     -25.89150
                      -3.62996                      53.54978                     -40.84867
                      -5.19283                      77.55317                     -58.05510
                      -7.09065                     104.26951                     -78.41928
                      -9.06386                     129.73954                     -99.03741
                     -11.07669                     155.21579                    -119.58524
                     -13.13575                     181.00143                    -140.32924
                     -15.22304                     207.19815                    -161.33945
                     -17.30345                     233.75485                    -182.55172
                     -19.33454                     260.49425                    -203.86300
                     -21.26965                     287.20665                    -225.13985
                     -23.06523                     313.70362                    -246.27895
                     -24.68744                     339.88257                    -267.25684
                     -25.89065                     361.47374                    -284.68977
                     -26.76164                     378.64205                    -298.75470
                     -27.56264                     395.61444                    -313.37842
                     -27.93341                     404.38509                    -320.54932
        </DataArray>
        <DataArray type="Float32" Name="OrientationX" NumberOfComponents="3" format="ascii">
                       0.95477                      -0.17840                      -0.23789
                       0.95476                      -0.17817                      -0.23809
                       0.95468                      -0.17758                      -0.23887
                       0.95451                      -0.17680                      -0.24012
                       0.95419                      -0.17565                      -0.24221
                       0.96269                      -0.15502                      -0.22179
                       0.96785                      -0.14068                      -0.20851
                       0.97155                      -0.12998                      -0.19799
                       0.97478                      -0.12151                      -0.18721
                       0.97735                      -0.11663                      -0.17658
                       0.97887                      -0.11737                      -0.16742
                       0.97951                      -0.12378                      -0.15888
                       0.97879                      -0.13724                      -0.15208
                       0.97600                      -0.15916                      -0.14862
                       0.97180                      -0.18616                      -0.14474
                       0.96724                      -0.21137                      -0.14058
                       0.96281                      -0.23298                      -0.13678
                       0.95696                      -0.25702                      -0.13481
                       0.95331                      -0.27011                      -0.13502
        </DataArray>
        <DataArray type="Float32" Name="OrientationY" NumberOfComponents="3" format="ascii">
                       0.29706                       0.60743                       0.73674
                       0.29707                       0.60733                       0.73681
                       0.29731                       0.60709                       0.73692
                       0.29779                       0.60681                       0.73696
                       0.29869                       0.60642                       0.73691
                       0.26984                       0.61112                       0.74412
                       0.25051                       0.61374                       0.74871
                       0.23562                       0.61537                       0.75220
                       0.22193                       0.61657                       0.75537
                       0.21062                       0.61724                       0.75806
                       0.20398                       0.61720                       0.75991
                       0.20138                       0.61661                       0.76108
                       0.20456                       0.61527                       0.76132
                       0.21569                       0.61269                       0.76032
                       0.22976                       0.60936                       0.75887
                       0.24255                       0.60612                       0.75749
                       0.25339                       0.60319                       0.75628
                       0.26725                       0.59923                       0.75465
                       0.27580                       0.59664                       0.75363
        </DataArray>
        <DataArray type="Float32" Name="OrientationZ" NumberOfComponents="3" format="ascii">
                       0.01307                      -0.77409                       0.63295
                       0.01332                      -0.77421                       0.63279
                       0.01415                      -0.77454                       0.63237
                       0.01541                      -0.77494                       0.63185
                       0.01744                      -0.77550                       0.63110
                       0.02018                      -0.77621                       0.63015
                       0.02264                      -0.77688                       0.62925
                       0.02407                      -0.77744                       0.62849
                       0.02365                      -0.77787                       0.62798
                       0.02058                      -0.77808                       0.62782
                       0.01414                      -0.77800                       0.62810
                       0.00376                      -0.77748                       0.62890
                      -0.01092                      -0.77628                       0.63029
                      -0.02996                      -0.77413                       0.63232
                      -0.05308                      -0.77073                       0.63495
                      -0.07490                      -0.76677                       0.63754
                      -0.09370                      -0.76281                       0.63980
                      -0.11317                      -0.75820                       0.64213
                      -0.12301                      -0.75569                       0.64328
        </DataArray>
        <DataArray type="Float32" Name="Force" NumberOfComponents="3" format="ascii">
                     174.23277                      39.93949                      45.24856
                     205.47883                      86.16275                     101.05215
                     322.51219                     249.61523                     298.09111
                     338.21226                     371.48580                     446.19716
                    3473.38378                    -874.05391                   -1166.16166
                    3583.95835                    -669.94800                    -935.74109
                    3275.92860                    -461.67655                    -684.13794
                    4421.32693                    -543.58191                    -836.48754
                    5713.02263                    -637.30880                    -997.69349
                    6061.28625                    -604.96826                    -941.79226
                    8397.80380                    -814.57076                   -1189.54594
                    8052.45003                    -765.41278                    -987.71724
                    4902.06177                    -439.67381                    -454.11075
                     897.66109                      37.61392                      87.76740
                   -1803.33908                     393.00156                     325.66236
                   -6839.37798                    1175.48557                     612.21020
                  -10972.40262                    1926.46173                     697.12844
                  -12003.67457                    2211.96686                     507.94736
                  -14936.30080                    2831.41660                     487.10594
        </DataArray>
        <DataArray type="Float32" Name="Moment" NumberOfComponents="3" format="ascii">
                       0.00000                       0.00000                       0.00000
                       0.00000                       0.00000                       0.00000
                       0.00000                       0.00000                       0.00000
                       0.00000                       0.00000                       0.00000
                     -27.35807                    1204.84737                    -984.53471
                     -58.48988                    2221.00686                   -1814.16038
                     -85.76302                    2898.21653                   -2366.47032
                    -144.61575                    4590.42225                   -3747.41264
                    -207.49961                    6689.65379                   -5461.42199
                    -204.91040                    7562.18268                   -6176.41632
                    -158.34707                    8422.76235                   -6885.57145
                     -47.79431                    8901.98557                   -7288.07247
                      91.14702                    6657.34308                   -5461.77566
                     244.55514                    6347.03043                   -5221.35039
                     415.10638                    6026.72977                   -4974.28276
                     547.99224                    5605.65248                   -4641.27770
                     605.13062                    4926.73553                   -4090.25146
                     359.76897                    2413.85827                   -2009.70592
                     396.52395                    2442.02411                   -2036.07997
        </DataArray>
      </PointData>
      <Lines>
        <DataArray type="Int32" Name="connectivity" format="ascii">
      0      1
      1      2
      2      3
      3      4
      4      5
      5      6
      6      7
      7      8
      8      9
      9     10
     10     11
     11     12
     12     13
     13     14
     14     15
     15     16
     16     17
     17     18
        </DataArray>
        <DataArray type="Int32" Name="offsets" format="ascii">
      2
      4
      6
      8
     10
     12
     14
     16
     18
     20
     22
     24
     26
     28
     30
     32
     34
     36
        </DataArray>
      </Lines>
    </Piece>
  </PolyData>
</VTKFile>
