<?xml version="1.0"?>
<VTKFile type="PolyData" version="0.1" byte_order="LittleEndian">
  <PolyData>
    <Piece NumberOfPoints="    625" NumberOfVerts="  0" NumberOfLines="      0"
           NumberOfStrips="  0" NumberOfPolys="    600">
      <Points>
        <DataArray type="Float32" NumberOfComponents="3" format="ascii">
                      -4.35414                      -0.49278                      88.65667
                      -4.35414                      -0.49278                      88.65667
                      -4.35414                      -0.49278                      88.65667
                      -4.35414                      -0.49278                      88.65667
                      -4.35414                      -0.49278                      88.65667
                      -4.35414                      -0.49278                      88.65667
                      -4.35414                      -0.49278                      88.65667
                      -4.35414                      -0.49278                      88.65667
                      -4.35414                      -0.49278                      88.65667
                      -4.35414                      -0.49278                      88.65667
                      -4.35414                      -0.49278                      88.65667
                      -4.35414                      -0.49278                      88.65667
                      -4.35414                      -0.49278                      88.65667
                      -4.35414                      -0.49278                      88.65667
                      -4.35414                      -0.49278                      88.65667
                      -4.35414                      -0.49278                      88.65667
                      -4.35414                      -0.49278                      88.65667
                      -4.35414                      -0.49278                      88.65667
                      -4.35414                      -0.49278                      88.65667
                      -4.35414                      -0.49278                      88.65667
                      -4.35414                      -0.49278                      88.65667
                      -4.35414                      -0.49278                      88.65667
                      -4.35414                      -0.49278                      88.65667
                      -4.35414                      -0.49278                      88.65667
                      -4.35414                      -0.49278                      88.65667
                      -3.74576                      -0.45198                      88.71340
                      -3.76944                      -0.31106                      88.66690
                      -3.82910                      -0.17899                      88.62715
                      -3.92100                      -0.06408                      88.59664
                      -4.03936                       0.02646                      88.57728
                      -4.17674                       0.08693                      88.57030
                      -4.32452                       0.11355                      88.57613
                      -4.47341                       0.10462                      88.59441
                      -4.61405                       0.06073                      88.62399
                      -4.73760                      -0.01538                      88.66300
                      -4.83631                      -0.11892                      88.70901
                      -4.90396                      -0.24340                      88.75911
                      -4.93632                      -0.38097                      88.81016
                      -4.93134                      -0.52301                      88.85895
                      -4.88935                      -0.66059                      88.90242
                      -4.81296                      -0.78506                      88.93784
                      -4.70700                      -0.88860                      88.96297
                      -4.57811                      -0.96471                      88.97624
                      -4.43440                      -1.00860                      88.97682
                      -4.28488                      -1.01752                      88.96467
                      -4.13897                      -0.99090                      88.94055
                      -4.00582                      -0.93042                      88.90598
                      -3.89381                      -0.83988                      88.86313
                      -3.80997                      -0.72497                      88.81470
                      -3.75956                      -0.59290                      88.76372
                      -3.50528                      -0.41118                      88.80764
                      -3.53803                      -0.21627                      88.74333
                      -3.62055                      -0.03361                      88.68835
                      -3.74765                       0.12533                      88.64614
                      -3.91136                       0.25056                      88.61937
                      -4.10138                       0.33420                      88.60972
                      -4.30578                       0.37101                      88.61778
                      -4.51171                       0.35868                      88.64307
                      -4.70623                       0.29796                      88.68397
                      -4.87712                       0.19269                      88.73794
                      -5.01365                       0.04948                      88.80157
                      -5.10723                      -0.12268                      88.87087
                      -5.15198                      -0.31297                      88.94148
                      -5.14509                      -0.50943                      89.00896
                      -5.08700                      -0.69971                      89.06909
                      -4.98136                      -0.87187                      89.11807
                      -4.83480                      -1.01508                      89.15283
                      -4.65653                      -1.12035                      89.17119
                      -4.45775                      -1.18106                      89.17199
                      -4.25096                      -1.19339                      89.15518
                      -4.04914                      -1.15657                      89.12182
                      -3.86498                      -1.07292                      89.07401
                      -3.71005                      -0.94769                      89.01474
                      -3.59409                      -0.78875                      88.94775
                      -3.52437                      -0.60609                      88.87724
                      -3.33114                      -0.37038                      88.90865
                      -3.37032                      -0.13715                      88.83170
                      -3.46906                       0.08142                      88.76590
                      -3.62115                       0.27160                      88.71540
                      -3.81704                       0.42145                      88.68337
                      -4.04442                       0.52154                      88.67182
                      -4.28900                       0.56558                      88.68147
                      -4.53541                       0.55082                      88.71172
                      -4.76817                       0.47817                      88.76067
                      -4.97266                       0.35221                      88.82524
                      -5.13602                       0.18084                      88.90138
                      -5.24800                      -0.02516                      88.98430
                      -5.30155                      -0.25286                      89.06879
                      -5.29331                      -0.48794                      89.14955
                      -5.22380                      -0.71564                      89.22149
                      -5.09739                      -0.92164                      89.28010
                      -4.92202                      -1.09300                      89.32169
                      -4.70870                      -1.21896                      89.34366
                      -4.47085                      -1.29160                      89.34462
                      -4.22340                      -1.30636                      89.32451
                      -3.98191                      -1.26231                      89.28459
                      -3.76155                      -1.16221                      89.22738
                      -3.57616                      -1.01236                      89.15646
                      -3.43740                      -0.82218                      89.07630
                      -3.35398                      -0.60361                      88.99193
                      -3.19392                      -0.32958                      89.01343
                      -3.23808                      -0.06676                      88.92671
                      -3.34935                       0.17954                      88.85257
                      -3.52073                       0.39385                      88.79566
                      -3.74148                       0.56271                      88.75956
                      -3.99770                       0.67550                      88.74654
                      -4.27331                       0.72513                      88.75742
                      -4.55098                       0.70849                      88.79151
                      -4.81328                       0.62663                      88.84667
                      -5.04371                       0.48468                      88.91944
                      -5.22780                       0.29157                      89.00524
                      -5.35398                       0.05943                      89.09868
                      -5.41433                      -0.19715                      89.19389
                      -5.40504                      -0.46206                      89.28489
                      -5.32672                      -0.71864                      89.36595
                      -5.18426                      -0.95078                      89.43200
                      -4.98664                      -1.14388                      89.47887
                      -4.74626                      -1.28582                      89.50363
                      -4.47823                      -1.36768                      89.50471
                      -4.19939                      -1.38431                      89.48204
                      -3.92726                      -1.33467                      89.43706
                      -3.67894                      -1.22188                      89.37259
                      -3.47003                      -1.05302                      89.29268
                      -3.31366                      -0.83870                      89.20235
                      -3.21966                      -0.59240                      89.10727
                      -3.08214                      -0.28878                      89.12079
                      -3.13026                      -0.00238                      89.02630
                      -3.25151                       0.26602                      88.94550
                      -3.43827                       0.49956                      88.88349
                      -3.67882                       0.68357                      88.84415
                      -3.95804                       0.80647                      88.82996
                      -4.25837                       0.86056                      88.84182
                      -4.56096                       0.84243                      88.87897
                      -4.84679                       0.75322                      88.93908
                      -5.09790                       0.59854                      89.01837
                      -5.29850                       0.38811                      89.11187
                      -5.43601                       0.13514                      89.21369
                      -5.50177                      -0.14447                      89.31745
                      -5.49165                      -0.43314                      89.41661
                      -5.40629                      -0.71275                      89.50495
                      -5.25106                      -0.96571                      89.57692
                      -5.03571                      -1.17615                      89.62800
                      -4.77376                      -1.33082                      89.65498
                      -4.48168                      -1.42002                      89.65615
                      -4.17782                      -1.43815                      89.63146
                      -3.88127                      -1.38405                      89.58244
                      -3.61067                      -1.26114                      89.51218
                      -3.38302                      -1.07713                      89.42510
                      -3.21262                      -0.84358                      89.32666
                      -3.11018                      -0.57518                      89.22306
                      -2.98988                      -0.24798                      89.23015
                      -3.04118                       0.05739                      89.12940
                      -3.17046                       0.34356                      89.04325
                      -3.36960                       0.59257                      88.97713
                      -3.62608                       0.78876                      88.93519
                      -3.92379                       0.91981                      88.92006
                      -4.24401                       0.97748                      88.93270
                      -4.56664                       0.95815                      88.97231
                      -4.87140                       0.86303                      89.03640
                      -5.13914                       0.69811                      89.12095
                      -5.35303                       0.47373                      89.22064
                      -5.49964                       0.20401                      89.32920
                      -5.56975                      -0.09411                      89.43983
                      -5.55897                      -0.40191                      89.54556
                      -5.46796                      -0.70003                      89.63975
                      -5.30245                      -0.96975                      89.71649
                      -5.07283                      -1.19412                      89.77095
                      -4.79353                      -1.35904                      89.79971
                      -4.48211                      -1.45415                      89.80097
                      -4.15813                      -1.47347                      89.77464
                      -3.84194                      -1.41579                      89.72237
                      -3.55342                      -1.28473                      89.64746
                      -3.31069                      -1.08854                      89.55461
                      -3.12900                      -0.83953                      89.44966
                      -3.01978                      -0.55335                      89.33919
                      -2.91368                      -0.20718                      89.34115
                      -2.96753                       0.11336                      89.23539
                      -3.10323                       0.41376                      89.14496
                      -3.31226                       0.67514                      89.07555
                      -3.58149                       0.88108                      89.03153
                      -3.89399                       1.01864                      89.01565
                      -4.23013                       1.07918                      89.02892
                      -4.56879                       1.05888                      89.07049
                      -4.88869                       0.95904                      89.13777
                      -5.16973                       0.78592                      89.22652
                      -5.39425                       0.55040                      89.33116
                      -5.54815                       0.26727                      89.44512
                      -5.62175                      -0.04567                      89.56124
                      -5.61043                      -0.36876                      89.67223
                      -5.51489                      -0.68169                      89.77110
                      -5.34116                      -0.96481                      89.85165
                      -5.10013                      -1.20033                      89.90882
                      -4.80695                      -1.37345                      89.93901
                      -4.48006                      -1.47328                      89.94033
                      -4.13997                      -1.49357                      89.91269
                      -3.80808                      -1.43302                      89.85783
                      -3.50522                      -1.29545                      89.77920
                      -3.25043                      -1.08951                      89.68173
                      -3.05971                      -0.82812                      89.57156
                      -2.94506                      -0.52772                      89.45560
                      -2.85133                      -0.16638                      89.45356
                      -2.90718                       0.16606                      89.34387
                      -3.04792                       0.47761                      89.25008
                      -3.26471                       0.74869                      89.17810
                      -3.54393                       0.96228                      89.13244
                      -3.86803                       1.10495                      89.11597
                      -4.21665                       1.16773                      89.12973
                      -4.56789                       1.14669                      89.17285
                      -4.89967                       1.04314                      89.24263
                      -5.19114                       0.86359                      89.33467
                      -5.42400                       0.61932                      89.44320
                      -5.58361                       0.32568                      89.56139
                      -5.65994                       0.00113                      89.68182
                      -5.64820                      -0.33396                      89.79693
                      -5.54912                      -0.65851                      89.89948
                      -5.36893                      -0.95214                      89.98302
                      -5.11895                      -1.19640                      90.04231
                      -4.81489                      -1.37595                      90.07362
                      -4.47586                      -1.47949                      90.07498
                      -4.12315                      -1.50052                      90.04632
                      -3.77893                      -1.43773                      89.98942
                      -3.46483                      -1.29506                      89.90787
                      -3.20058                      -1.08146                      89.80679
                      -3.00279                      -0.81038                      89.69252
                      -2.88388                      -0.49882                      89.57226
                      -2.80138                      -0.12558                      89.56723
                      -2.85874                       0.21583                      89.45458
                      -3.00328                       0.53578                      89.35827
                      -3.22592                       0.81418                      89.28434
                      -3.51267                       1.03353                      89.23745
                      -3.84552                       1.18005                      89.22054
                      -4.20355                       1.24452                      89.23467
                      -4.56426                       1.22291                      89.27895
                      -4.90498                       1.11657                      89.35061
                      -5.20432                       0.93217                      89.44514
                      -5.44346                       0.68132                      89.55659
                      -5.60738                       0.37976                      89.67797
                      -5.68577                       0.04645                      89.80166
                      -5.67371                      -0.29768                      89.91987
                      -5.57196                      -0.63099                      90.02518
                      -5.38691                      -0.93254                      90.11098
                      -5.13019                      -1.18340                      90.17186
                      -4.81793                      -1.36778                      90.20402
                      -4.46974                      -1.47412                      90.20542
                      -4.10752                      -1.49572                      90.17598
                      -3.75401                      -1.43123                      90.11755
                      -3.43144                      -1.28471                      90.03380
                      -3.16006                      -1.06535                      89.92999
                      -2.95693                      -0.78695                      89.81265
                      -2.83481                      -0.46699                      89.68914
                      -2.76288                      -0.08478                      89.68207
                      -2.82129                       0.26289                      89.56736
                      -2.96848                       0.58872                      89.46928
                      -3.19521                       0.87222                      89.39399
                      -3.48722                       1.09560                      89.34624
                      -3.82618                       1.24480                      89.32902
                      -4.19078                       1.31046                      89.34341
                      -4.55810                       1.28846                      89.38851
                      -4.90509                       1.18016                      89.46148
                      -5.20992                       0.99238                      89.55774
                      -5.45344                       0.73692                      89.67124
                      -5.62037                       0.42983                      89.79485
                      -5.70020                       0.09040                      89.92080
                      -5.68792                      -0.26004                      90.04118
                      -5.58430                      -0.59946                      90.14842
                      -5.39585                      -0.90655                      90.23579
                      -5.13442                      -1.16201                      90.29780
                      -4.81643                      -1.34978                      90.33055
                      -4.46186                      -1.45806                      90.33197
                      -4.09299                      -1.48006                      90.30199
                      -3.73299                      -1.41439                      90.24249
                      -3.40450                      -1.26518                      90.15720
                      -3.12814                      -1.04180                      90.05149
                      -2.92128                      -0.75829                      89.93199
                      -2.79692                      -0.43246                      89.80622
                      -2.73521                      -0.04399                      89.79802
                      -2.79425                       0.30739                      89.68208
                      -2.94301                       0.63669                      89.58295
                      -3.17215                       0.92322                      89.50687
                      -3.46728                       1.14898                      89.45861
                      -3.80984                       1.29977                      89.44120
                      -4.17832                       1.36613                      89.45574
                      -4.54957                       1.34389                      89.50132
                      -4.90025                       1.23444                      89.57507
                      -5.20833                       1.04466                      89.67236
                      -5.45445                       0.78648                      89.78707
                      -5.62315                       0.47611                      89.91200
                      -5.70383                       0.13307                      90.03929
                      -5.69142                      -0.22111                      90.16095
                      -5.58670                      -0.56415                      90.26934
                      -5.39625                      -0.87451                      90.35764
                      -5.13203                      -1.13269                      90.42031
                      -4.81065                      -1.32246                      90.45340
                      -4.45230                      -1.43190                      90.45485
                      -4.07949                      -1.45414                      90.42455
                      -3.71566                      -1.38777                      90.36441
                      -3.38367                      -1.23696                      90.27821
                      -3.10436                      -1.01120                      90.17137
                      -2.89530                      -0.72467                      90.05060
                      -2.76962                      -0.39537                      89.92349
                      -2.71804                      -0.00319                      89.91503
                      -2.77727                       0.34942                      89.79869
                      -2.92656                       0.67987                      89.69922
                      -3.15650                       0.96740                      89.62287
                      -3.45265                       1.19394                      89.57444
                      -3.79642                       1.34526                      89.55697
                      -4.16618                       1.41185                      89.57157
                      -4.53872                       1.38953                      89.61730
                      -4.89063                       1.27970                      89.69131
                      -5.19978                       1.08926                      89.78893
                      -5.44677                       0.83018                      89.90405
                      -5.61606                       0.51873                      90.02941
                      -5.69702                       0.17448                      90.15715
                      -5.68456                      -0.18093                      90.27924
                      -5.57948                      -0.52517                      90.38800
                      -5.38836                      -0.83661                      90.47661
                      -5.12322                      -1.09569                      90.53950
                      -4.80071                      -1.28612                      90.57271
                      -4.44111                      -1.39595                      90.57415
                      -4.06701                      -1.41826                      90.54375
                      -3.70191                      -1.35166                      90.48340
                      -3.36875                      -1.20033                      90.39690
                      -3.08847                      -0.97378                      90.28969
                      -2.87868                      -0.68625                      90.16850
                      -2.75256                      -0.35579                      90.04094
                      -2.71124                       0.03761                      90.03311
                      -2.77027                       0.38899                      89.91717
                      -2.91903                       0.71829                      89.81804
                      -3.14818                       1.00482                      89.74196
                      -3.44330                       1.23057                      89.69370
                      -3.78587                       1.38137                      89.67629
                      -4.15435                       1.44773                      89.69083
                      -4.52560                       1.42549                      89.73641
                      -4.87627                       1.31604                      89.81016
                      -5.18435                       1.12626                      89.90745
                      -5.43048                       0.86808                      90.02216
                      -5.59918                       0.55771                      90.14709
                      -5.67986                       0.21466                      90.27438
                      -5.66745                      -0.13951                      90.39604
                      -5.56273                      -0.48255                      90.50443
                      -5.37227                      -0.79292                      90.59273
                      -5.10805                      -1.05109                      90.65540
                      -4.78667                      -1.24086                      90.68849
                      -4.42832                      -1.35030                      90.68994
                      -4.05552                      -1.37254                      90.65964
                      -3.69169                      -1.30617                      90.59950
                      -3.35969                      -1.15537                      90.51330
                      -3.08039                      -0.92961                      90.40646
                      -2.87133                      -0.64307                      90.28569
                      -2.74565                      -0.31377                      90.15858
                      -2.71494                       0.07841                      90.15225
                      -2.77335                       0.42608                      90.03754
                      -2.92054                       0.75191                      89.93946
                      -3.14726                       1.03542                      89.86417
                      -3.43928                       1.25879                      89.81642
                      -3.77823                       1.40800                      89.79920
                      -4.14283                       1.47366                      89.81359
                      -4.51016                       1.45165                      89.85868
                      -4.85714                       1.34335                      89.93166
                      -5.16197                       1.15558                      90.02792
                      -5.40550                       0.90012                      90.14142
                      -5.57242                       0.59302                      90.26503
                      -5.65225                       0.25359                      90.39098
                      -5.63997                      -0.09684                      90.51136
                      -5.53635                      -0.43627                      90.61860
                      -5.34791                      -0.74336                      90.70597
                      -5.08647                      -0.99881                      90.76798
                      -4.76848                      -1.18658                      90.80073
                      -4.41391                      -1.29487                      90.80215
                      -4.04504                      -1.31687                      90.77217
                      -3.68505                      -1.25120                      90.71267
                      -3.35655                      -1.10199                      90.62738
                      -3.08019                      -0.87861                      90.52167
                      -2.87333                      -0.59510                      90.40217
                      -2.74898                      -0.26926                      90.27640
                      -2.72946                       0.11921                      90.27250
                      -2.78682                       0.46062                      90.15985
                      -2.93136                       0.78057                      90.06354
                      -3.15400                       1.05897                      89.98961
                      -3.44075                       1.27832                      89.94272
                      -3.77360                       1.42484                      89.92581
                      -4.13163                       1.48931                      89.93994
                      -4.49234                       1.46770                      89.98422
                      -4.83306                       1.36136                      90.05588
                      -5.13240                       1.17697                      90.15041
                      -5.37154                       0.92611                      90.26186
                      -5.53546                       0.62455                      90.38324
                      -5.61385                       0.29124                      90.50693
                      -5.60179                      -0.05289                      90.62514
                      -5.50004                      -0.38620                      90.73045
                      -5.31499                      -0.68775                      90.81625
                      -5.05827                      -0.93860                      90.87713
                      -4.74601                      -1.12299                      90.90929
                      -4.39782                      -1.22933                      90.91069
                      -4.03560                      -1.25093                      90.88125
                      -3.68209                      -1.18644                      90.82282
                      -3.35952                      -1.03992                      90.73907
                      -3.08814                      -0.82056                      90.63526
                      -2.88501                      -0.54216                      90.51792
                      -2.76289                      -0.22220                      90.39441
                      -2.75543                       0.16001                      90.39392
                      -2.81128                       0.49245                      90.28423
                      -2.95203                       0.80400                      90.19044
                      -3.16882                       1.07508                      90.11846
                      -3.44804                       1.28867                      90.07280
                      -3.77214                       1.43133                      90.05633
                      -4.12076                       1.49412                      90.07009
                      -4.47199                       1.47307                      90.11321
                      -4.80377                       1.36952                      90.18299
                      -5.09525                       1.18997                      90.27503
                      -5.32810                       0.94571                      90.38356
                      -5.48771                       0.65207                      90.50175
                      -5.56404                       0.32751                      90.62218
                      -5.55230                      -0.00757                      90.73729
                      -5.45322                      -0.33212                      90.83983
                      -5.27304                      -0.62576                      90.92338
                      -5.02306                      -0.87002                      90.98267
                      -4.71900                      -1.04956                      91.01398
                      -4.37997                      -1.15310                      91.01534
                      -4.02726                      -1.17414                      90.98668
                      -3.68304                      -1.11135                      90.92978
                      -3.36894                      -0.96867                      90.84823
                      -3.10469                      -0.75508                      90.74715
                      -2.90689                      -0.48399                      90.63288
                      -2.78799                      -0.17243                      90.51262
                      -2.79381                       0.20080                      90.51660
                      -2.84766                       0.52134                      90.41083
                      -2.98337                       0.82174                      90.32041
                      -3.19240                       1.08312                      90.25100
                      -3.46162                       1.28906                      90.20698
                      -3.77412                       1.42662                      90.19110
                      -4.11026                       1.48716                      90.20436
                      -4.44892                       1.46687                      90.24594
                      -4.76883                       1.36702                      90.31322
                      -5.04987                       1.19390                      90.40197
                      -5.27439                       0.95838                      90.50661
                      -5.42828                       0.67525                      90.62057
                      -5.50188                       0.36232                      90.73669
                      -5.49056                       0.03923                      90.84768
                      -5.39503                      -0.27371                      90.94655
                      -5.22129                      -0.55683                      91.02710
                      -4.98026                      -0.79235                      91.08427
                      -4.68709                      -0.96546                      91.11446
                      -4.36019                      -1.06530                      91.11578
                      -4.02011                      -1.08558                      91.08814
                      -3.68821                      -1.02504                      91.03328
                      -3.38535                      -0.88747                      90.95465
                      -3.13056                      -0.68152                      90.85718
                      -2.93985                      -0.42014                      90.74701
                      -2.82520                      -0.11974                      90.63105
                      -2.84604                       0.24160                      90.64069
                      -2.89734                       0.54697                      90.53993
                      -3.02662                       0.83314                      90.45379
                      -3.22576                       1.08215                      90.38767
                      -3.48224                       1.27834                      90.34573
                      -3.77995                       1.40939                      90.33060
                      -4.10018                       1.46706                      90.34324
                      -4.42280                       1.44773                      90.38285
                      -4.72756                       1.35261                      90.44694
                      -4.99530                       1.18769                      90.53149
                      -5.20919                       0.96331                      90.63118
                      -5.35580                       0.69359                      90.73974
                      -5.42592                       0.39547                      90.85037
                      -5.41513                       0.08767                      90.95610
                      -5.32412                      -0.21045                      91.05029
                      -5.15861                      -0.48017                      91.12703
                      -4.92899                      -0.70454                      91.18149
                      -4.64969                      -0.86946                      91.21025
                      -4.33827                      -0.96456                      91.21151
                      -4.01429                      -0.98389                      91.18518
                      -3.69810                      -0.92621                      91.13291
                      -3.40958                      -0.79515                      91.05800
                      -3.16685                      -0.59896                      90.96515
                      -2.98517                      -0.34994                      90.86020
                      -2.87594                      -0.06376                      90.74973
                      -2.91433                       0.28240                      90.76642
                      -2.96244                       0.56880                      90.67192
                      -3.08369                       0.83720                      90.59113
                      -3.27046                       1.07074                      90.52912
                      -3.51101                       1.25474                      90.48978
                      -3.79022                       1.37765                      90.47559
                      -4.09056                       1.43174                      90.48745
                      -4.39315                       1.41361                      90.52460
                      -4.67898                       1.32440                      90.58471
                      -4.93008                       1.16972                      90.66400
                      -5.13069                       0.95928                      90.75750
                      -5.26819                       0.70631                      90.85932
                      -5.33395                       0.42671                      90.96308
                      -5.32384                       0.13803                      91.06224
                      -5.23848                      -0.14157                      91.15058
                      -5.08325                      -0.39454                      91.22255
                      -4.86789                      -0.60497                      91.27363
                      -4.60595                      -0.75965                      91.30061
                      -4.31387                      -0.84885                      91.30178
                      -4.01001                      -0.86697                      91.27709
                      -3.71346                      -0.81287                      91.22807
                      -3.44286                      -0.68996                      91.15781
                      -3.21521                      -0.50595                      91.07073
                      -3.04481                      -0.27240                      90.97229
                      -2.94237                      -0.00400                      90.86869
                      -3.00214                       0.32320                      90.89415
                      -3.04629                       0.58601                      90.80743
                      -3.15756                       0.83231                      90.73329
                      -3.32895                       1.04663                      90.67638
                      -3.54969                       1.21548                      90.64028
                      -3.80592                       1.32827                      90.62726
                      -4.08153                       1.37790                      90.63814
                      -4.35920                       1.36127                      90.67223
                      -4.62149                       1.27940                      90.72739
                      -4.85192                       1.13746                      90.80016
                      -5.03601                       0.94435                      90.88595
                      -5.16220                       0.71221                      90.97939
                      -5.22254                       0.45562                      91.07461
                      -5.21326                       0.19072                      91.16560
                      -5.13493                      -0.06587                      91.24667
                      -4.99248                      -0.29800                      91.31272
                      -4.79485                      -0.49111                      91.35959
                      -4.55448                      -0.63305                      91.38434
                      -4.28644                      -0.71491                      91.38542
                      -4.00760                      -0.73154                      91.36276
                      -3.73547                      -0.68190                      91.31778
                      -3.48715                      -0.56910                      91.25331
                      -3.27825                      -0.40024                      91.17340
                      -3.12188                      -0.18593                      91.08307
                      -3.02787                       0.06038                      90.98799
                      -3.11538                       0.36399                      91.02446
                      -3.15456                       0.59722                      90.94751
                      -3.25330                       0.81579                      90.88171
                      -3.40540                       1.00597                      90.83121
                      -3.60128                       1.15582                      90.79918
                      -3.82866                       1.25591                      90.78762
                      -4.07324                       1.29995                      90.79728
                      -4.31965                       1.28519                      90.82753
                      -4.55241                       1.21254                      90.87648
                      -4.75690                       1.08658                      90.94105
                      -4.92027                       0.91521                      91.01719
                      -5.03224                       0.70921                      91.10011
                      -5.08579                       0.48151                      91.18460
                      -5.07755                       0.24643                      91.26536
                      -5.00804                       0.01874                      91.33730
                      -4.88163                      -0.18727                      91.39591
                      -4.70626                      -0.35863                      91.43750
                      -4.49294                      -0.48459                      91.45947
                      -4.25509                      -0.55723                      91.46043
                      -4.00764                      -0.57199                      91.44032
                      -3.76615                      -0.52794                      91.40040
                      -3.54579                      -0.42784                      91.34319
                      -3.36040                      -0.27799                      91.27227
                      -3.22164                      -0.08781                      91.19211
                      -3.13822                       0.13077                      91.10774
                      -3.26555                       0.40479                      91.15854
                      -3.29830                       0.59970                      91.09423
                      -3.38082                       0.78236                      91.03925
                      -3.50792                       0.94130                      90.99704
                      -3.67163                       1.06653                      90.97027
                      -3.86165                       1.15017                      90.96062
                      -4.06605                       1.18698                      90.96868
                      -4.27198                       1.17464                      90.99396
                      -4.46650                       1.11393                      91.03487
                      -4.63739                       1.00866                      91.08884
                      -4.77392                       0.86545                      91.15247
                      -4.86749                       0.69329                      91.22177
                      -4.91225                       0.50300                      91.29238
                      -4.90536                       0.30654                      91.35986
                      -4.84727                       0.11625                      91.41998
                      -4.74163                      -0.05590                      91.46897
                      -4.59507                      -0.19911                      91.50373
                      -4.41680                      -0.30438                      91.52208
                      -4.21802                      -0.36509                      91.52288
                      -4.01123                      -0.37742                      91.50608
                      -3.80941                      -0.34061                      91.47272
                      -3.62525                      -0.25696                      91.42491
                      -3.47032                      -0.13173                      91.36564
                      -3.35435                       0.02721                      91.29865
                      -3.28464                       0.20988                      91.22814
                      -3.48206                       0.44559                      91.29939
                      -3.50573                       0.58650                      91.25289
                      -3.56539                       0.71857                      91.21314
                      -3.65729                       0.83348                      91.18262
                      -3.77565                       0.92402                      91.16327
                      -3.91304                       0.98450                      91.15629
                      -4.06082                       1.01111                      91.16212
                      -4.20970                       1.00219                      91.18040
                      -4.35034                       0.95829                      91.20998
                      -4.47390                       0.88218                      91.24899
                      -4.57260                       0.77864                      91.29500
                      -4.64026                       0.65417                      91.34510
                      -4.67262                       0.51659                      91.39615
                      -4.66764                       0.37455                      91.44494
                      -4.62564                       0.23697                      91.48841
                      -4.54926                       0.11250                      91.52382
                      -4.44330                       0.00896                      91.54896
                      -4.31441                      -0.06714                      91.56223
                      -4.17069                      -0.11104                      91.56281
                      -4.02118                      -0.11995                      91.55066
                      -3.87527                      -0.09334                      91.52654
                      -3.74212                      -0.03286                      91.49197
                      -3.63011                       0.05769                      91.44912
                      -3.54626                       0.17260                      91.40069
                      -3.49586                       0.30467                      91.34971
                      -4.06646                       0.48638                      91.47775
                      -4.06646                       0.48638                      91.47775
                      -4.06646                       0.48638                      91.47775
                      -4.06646                       0.48638                      91.47775
                      -4.06646                       0.48638                      91.47775
                      -4.06646                       0.48638                      91.47775
                      -4.06646                       0.48638                      91.47775
                      -4.06646                       0.48638                      91.47775
                      -4.06646                       0.48638                      91.47775
                      -4.06646                       0.48638                      91.47775
                      -4.06646                       0.48638                      91.47775
                      -4.06646                       0.48638                      91.47775
                      -4.06646                       0.48638                      91.47775
                      -4.06646                       0.48638                      91.47775
                      -4.06646                       0.48638                      91.47775
                      -4.06646                       0.48638                      91.47775
                      -4.06646                       0.48638                      91.47775
                      -4.06646                       0.48638                      91.47775
                      -4.06646                       0.48638                      91.47775
                      -4.06646                       0.48638                      91.47775
                      -4.06646                       0.48638                      91.47775
                      -4.06646                       0.48638                      91.47775
                      -4.06646                       0.48638                      91.47775
                      -4.06646                       0.48638                      91.47775
                      -4.06646                       0.48638                      91.47775
        </DataArray>
      </Points>
      <Polys>
        <DataArray type="Int32" Name="connectivity" format="ascii">
      0      1     26     25
      1      2     27     26
      2      3     28     27
      3      4     29     28
      4      5     30     29
      5      6     31     30
      6      7     32     31
      7      8     33     32
      8      9     34     33
      9     10     35     34
     10     11     36     35
     11     12     37     36
     12     13     38     37
     13     14     39     38
     14     15     40     39
     15     16     41     40
     16     17     42     41
     17     18     43     42
     18     19     44     43
     19     20     45     44
     20     21     46     45
     21     22     47     46
     22     23     48     47
     23     24     49     48
     24      0     25     49
     25     26     51     50
     26     27     52     51
     27     28     53     52
     28     29     54     53
     29     30     55     54
     30     31     56     55
     31     32     57     56
     32     33     58     57
     33     34     59     58
     34     35     60     59
     35     36     61     60
     36     37     62     61
     37     38     63     62
     38     39     64     63
     39     40     65     64
     40     41     66     65
     41     42     67     66
     42     43     68     67
     43     44     69     68
     44     45     70     69
     45     46     71     70
     46     47     72     71
     47     48     73     72
     48     49     74     73
     49     25     50     74
     50     51     76     75
     51     52     77     76
     52     53     78     77
     53     54     79     78
     54     55     80     79
     55     56     81     80
     56     57     82     81
     57     58     83     82
     58     59     84     83
     59     60     85     84
     60     61     86     85
     61     62     87     86
     62     63     88     87
     63     64     89     88
     64     65     90     89
     65     66     91     90
     66     67     92     91
     67     68     93     92
     68     69     94     93
     69     70     95     94
     70     71     96     95
     71     72     97     96
     72     73     98     97
     73     74     99     98
     74     50     75     99
     75     76    101    100
     76     77    102    101
     77     78    103    102
     78     79    104    103
     79     80    105    104
     80     81    106    105
     81     82    107    106
     82     83    108    107
     83     84    109    108
     84     85    110    109
     85     86    111    110
     86     87    112    111
     87     88    113    112
     88     89    114    113
     89     90    115    114
     90     91    116    115
     91     92    117    116
     92     93    118    117
     93     94    119    118
     94     95    120    119
     95     96    121    120
     96     97    122    121
     97     98    123    122
     98     99    124    123
     99     75    100    124
    100    101    126    125
    101    102    127    126
    102    103    128    127
    103    104    129    128
    104    105    130    129
    105    106    131    130
    106    107    132    131
    107    108    133    132
    108    109    134    133
    109    110    135    134
    110    111    136    135
    111    112    137    136
    112    113    138    137
    113    114    139    138
    114    115    140    139
    115    116    141    140
    116    117    142    141
    117    118    143    142
    118    119    144    143
    119    120    145    144
    120    121    146    145
    121    122    147    146
    122    123    148    147
    123    124    149    148
    124    100    125    149
    125    126    151    150
    126    127    152    151
    127    128    153    152
    128    129    154    153
    129    130    155    154
    130    131    156    155
    131    132    157    156
    132    133    158    157
    133    134    159    158
    134    135    160    159
    135    136    161    160
    136    137    162    161
    137    138    163    162
    138    139    164    163
    139    140    165    164
    140    141    166    165
    141    142    167    166
    142    143    168    167
    143    144    169    168
    144    145    170    169
    145    146    171    170
    146    147    172    171
    147    148    173    172
    148    149    174    173
    149    125    150    174
    150    151    176    175
    151    152    177    176
    152    153    178    177
    153    154    179    178
    154    155    180    179
    155    156    181    180
    156    157    182    181
    157    158    183    182
    158    159    184    183
    159    160    185    184
    160    161    186    185
    161    162    187    186
    162    163    188    187
    163    164    189    188
    164    165    190    189
    165    166    191    190
    166    167    192    191
    167    168    193    192
    168    169    194    193
    169    170    195    194
    170    171    196    195
    171    172    197    196
    172    173    198    197
    173    174    199    198
    174    150    175    199
    175    176    201    200
    176    177    202    201
    177    178    203    202
    178    179    204    203
    179    180    205    204
    180    181    206    205
    181    182    207    206
    182    183    208    207
    183    184    209    208
    184    185    210    209
    185    186    211    210
    186    187    212    211
    187    188    213    212
    188    189    214    213
    189    190    215    214
    190    191    216    215
    191    192    217    216
    192    193    218    217
    193    194    219    218
    194    195    220    219
    195    196    221    220
    196    197    222    221
    197    198    223    222
    198    199    224    223
    199    175    200    224
    200    201    226    225
    201    202    227    226
    202    203    228    227
    203    204    229    228
    204    205    230    229
    205    206    231    230
    206    207    232    231
    207    208    233    232
    208    209    234    233
    209    210    235    234
    210    211    236    235
    211    212    237    236
    212    213    238    237
    213    214    239    238
    214    215    240    239
    215    216    241    240
    216    217    242    241
    217    218    243    242
    218    219    244    243
    219    220    245    244
    220    221    246    245
    221    222    247    246
    222    223    248    247
    223    224    249    248
    224    200    225    249
    225    226    251    250
    226    227    252    251
    227    228    253    252
    228    229    254    253
    229    230    255    254
    230    231    256    255
    231    232    257    256
    232    233    258    257
    233    234    259    258
    234    235    260    259
    235    236    261    260
    236    237    262    261
    237    238    263    262
    238    239    264    263
    239    240    265    264
    240    241    266    265
    241    242    267    266
    242    243    268    267
    243    244    269    268
    244    245    270    269
    245    246    271    270
    246    247    272    271
    247    248    273    272
    248    249    274    273
    249    225    250    274
    250    251    276    275
    251    252    277    276
    252    253    278    277
    253    254    279    278
    254    255    280    279
    255    256    281    280
    256    257    282    281
    257    258    283    282
    258    259    284    283
    259    260    285    284
    260    261    286    285
    261    262    287    286
    262    263    288    287
    263    264    289    288
    264    265    290    289
    265    266    291    290
    266    267    292    291
    267    268    293    292
    268    269    294    293
    269    270    295    294
    270    271    296    295
    271    272    297    296
    272    273    298    297
    273    274    299    298
    274    250    275    299
    275    276    301    300
    276    277    302    301
    277    278    303    302
    278    279    304    303
    279    280    305    304
    280    281    306    305
    281    282    307    306
    282    283    308    307
    283    284    309    308
    284    285    310    309
    285    286    311    310
    286    287    312    311
    287    288    313    312
    288    289    314    313
    289    290    315    314
    290    291    316    315
    291    292    317    316
    292    293    318    317
    293    294    319    318
    294    295    320    319
    295    296    321    320
    296    297    322    321
    297    298    323    322
    298    299    324    323
    299    275    300    324
    300    301    326    325
    301    302    327    326
    302    303    328    327
    303    304    329    328
    304    305    330    329
    305    306    331    330
    306    307    332    331
    307    308    333    332
    308    309    334    333
    309    310    335    334
    310    311    336    335
    311    312    337    336
    312    313    338    337
    313    314    339    338
    314    315    340    339
    315    316    341    340
    316    317    342    341
    317    318    343    342
    318    319    344    343
    319    320    345    344
    320    321    346    345
    321    322    347    346
    322    323    348    347
    323    324    349    348
    324    300    325    349
    325    326    351    350
    326    327    352    351
    327    328    353    352
    328    329    354    353
    329    330    355    354
    330    331    356    355
    331    332    357    356
    332    333    358    357
    333    334    359    358
    334    335    360    359
    335    336    361    360
    336    337    362    361
    337    338    363    362
    338    339    364    363
    339    340    365    364
    340    341    366    365
    341    342    367    366
    342    343    368    367
    343    344    369    368
    344    345    370    369
    345    346    371    370
    346    347    372    371
    347    348    373    372
    348    349    374    373
    349    325    350    374
    350    351    376    375
    351    352    377    376
    352    353    378    377
    353    354    379    378
    354    355    380    379
    355    356    381    380
    356    357    382    381
    357    358    383    382
    358    359    384    383
    359    360    385    384
    360    361    386    385
    361    362    387    386
    362    363    388    387
    363    364    389    388
    364    365    390    389
    365    366    391    390
    366    367    392    391
    367    368    393    392
    368    369    394    393
    369    370    395    394
    370    371    396    395
    371    372    397    396
    372    373    398    397
    373    374    399    398
    374    350    375    399
    375    376    401    400
    376    377    402    401
    377    378    403    402
    378    379    404    403
    379    380    405    404
    380    381    406    405
    381    382    407    406
    382    383    408    407
    383    384    409    408
    384    385    410    409
    385    386    411    410
    386    387    412    411
    387    388    413    412
    388    389    414    413
    389    390    415    414
    390    391    416    415
    391    392    417    416
    392    393    418    417
    393    394    419    418
    394    395    420    419
    395    396    421    420
    396    397    422    421
    397    398    423    422
    398    399    424    423
    399    375    400    424
    400    401    426    425
    401    402    427    426
    402    403    428    427
    403    404    429    428
    404    405    430    429
    405    406    431    430
    406    407    432    431
    407    408    433    432
    408    409    434    433
    409    410    435    434
    410    411    436    435
    411    412    437    436
    412    413    438    437
    413    414    439    438
    414    415    440    439
    415    416    441    440
    416    417    442    441
    417    418    443    442
    418    419    444    443
    419    420    445    444
    420    421    446    445
    421    422    447    446
    422    423    448    447
    423    424    449    448
    424    400    425    449
    425    426    451    450
    426    427    452    451
    427    428    453    452
    428    429    454    453
    429    430    455    454
    430    431    456    455
    431    432    457    456
    432    433    458    457
    433    434    459    458
    434    435    460    459
    435    436    461    460
    436    437    462    461
    437    438    463    462
    438    439    464    463
    439    440    465    464
    440    441    466    465
    441    442    467    466
    442    443    468    467
    443    444    469    468
    444    445    470    469
    445    446    471    470
    446    447    472    471
    447    448    473    472
    448    449    474    473
    449    425    450    474
    450    451    476    475
    451    452    477    476
    452    453    478    477
    453    454    479    478
    454    455    480    479
    455    456    481    480
    456    457    482    481
    457    458    483    482
    458    459    484    483
    459    460    485    484
    460    461    486    485
    461    462    487    486
    462    463    488    487
    463    464    489    488
    464    465    490    489
    465    466    491    490
    466    467    492    491
    467    468    493    492
    468    469    494    493
    469    470    495    494
    470    471    496    495
    471    472    497    496
    472    473    498    497
    473    474    499    498
    474    450    475    499
    475    476    501    500
    476    477    502    501
    477    478    503    502
    478    479    504    503
    479    480    505    504
    480    481    506    505
    481    482    507    506
    482    483    508    507
    483    484    509    508
    484    485    510    509
    485    486    511    510
    486    487    512    511
    487    488    513    512
    488    489    514    513
    489    490    515    514
    490    491    516    515
    491    492    517    516
    492    493    518    517
    493    494    519    518
    494    495    520    519
    495    496    521    520
    496    497    522    521
    497    498    523    522
    498    499    524    523
    499    475    500    524
    500    501    526    525
    501    502    527    526
    502    503    528    527
    503    504    529    528
    504    505    530    529
    505    506    531    530
    506    507    532    531
    507    508    533    532
    508    509    534    533
    509    510    535    534
    510    511    536    535
    511    512    537    536
    512    513    538    537
    513    514    539    538
    514    515    540    539
    515    516    541    540
    516    517    542    541
    517    518    543    542
    518    519    544    543
    519    520    545    544
    520    521    546    545
    521    522    547    546
    522    523    548    547
    523    524    549    548
    524    500    525    549
    525    526    551    550
    526    527    552    551
    527    528    553    552
    528    529    554    553
    529    530    555    554
    530    531    556    555
    531    532    557    556
    532    533    558    557
    533    534    559    558
    534    535    560    559
    535    536    561    560
    536    537    562    561
    537    538    563    562
    538    539    564    563
    539    540    565    564
    540    541    566    565
    541    542    567    566
    542    543    568    567
    543    544    569    568
    544    545    570    569
    545    546    571    570
    546    547    572    571
    547    548    573    572
    548    549    574    573
    549    525    550    574
    550    551    576    575
    551    552    577    576
    552    553    578    577
    553    554    579    578
    554    555    580    579
    555    556    581    580
    556    557    582    581
    557    558    583    582
    558    559    584    583
    559    560    585    584
    560    561    586    585
    561    562    587    586
    562    563    588    587
    563    564    589    588
    564    565    590    589
    565    566    591    590
    566    567    592    591
    567    568    593    592
    568    569    594    593
    569    570    595    594
    570    571    596    595
    571    572    597    596
    572    573    598    597
    573    574    599    598
    574    550    575    599
    575    576    601    600
    576    577    602    601
    577    578    603    602
    578    579    604    603
    579    580    605    604
    580    581    606    605
    581    582    607    606
    582    583    608    607
    583    584    609    608
    584    585    610    609
    585    586    611    610
    586    587    612    611
    587    588    613    612
    588    589    614    613
    589    590    615    614
    590    591    616    615
    591    592    617    616
    592    593    618    617
    593    594    619    618
    594    595    620    619
    595    596    621    620
    596    597    622    621
    597    598    623    622
    598    599    624    623
    599    575    600    624
        </DataArray>
        <DataArray type="Int32" Name="offsets" format="ascii">
      4
      8
     12
     16
     20
     24
     28
     32
     36
     40
     44
     48
     52
     56
     60
     64
     68
     72
     76
     80
     84
     88
     92
     96
    100
    104
    108
    112
    116
    120
    124
    128
    132
    136
    140
    144
    148
    152
    156
    160
    164
    168
    172
    176
    180
    184
    188
    192
    196
    200
    204
    208
    212
    216
    220
    224
    228
    232
    236
    240
    244
    248
    252
    256
    260
    264
    268
    272
    276
    280
    284
    288
    292
    296
    300
    304
    308
    312
    316
    320
    324
    328
    332
    336
    340
    344
    348
    352
    356
    360
    364
    368
    372
    376
    380
    384
    388
    392
    396
    400
    404
    408
    412
    416
    420
    424
    428
    432
    436
    440
    444
    448
    452
    456
    460
    464
    468
    472
    476
    480
    484
    488
    492
    496
    500
    504
    508
    512
    516
    520
    524
    528
    532
    536
    540
    544
    548
    552
    556
    560
    564
    568
    572
    576
    580
    584
    588
    592
    596
    600
    604
    608
    612
    616
    620
    624
    628
    632
    636
    640
    644
    648
    652
    656
    660
    664
    668
    672
    676
    680
    684
    688
    692
    696
    700
    704
    708
    712
    716
    720
    724
    728
    732
    736
    740
    744
    748
    752
    756
    760
    764
    768
    772
    776
    780
    784
    788
    792
    796
    800
    804
    808
    812
    816
    820
    824
    828
    832
    836
    840
    844
    848
    852
    856
    860
    864
    868
    872
    876
    880
    884
    888
    892
    896
    900
    904
    908
    912
    916
    920
    924
    928
    932
    936
    940
    944
    948
    952
    956
    960
    964
    968
    972
    976
    980
    984
    988
    992
    996
   1000
   1004
   1008
   1012
   1016
   1020
   1024
   1028
   1032
   1036
   1040
   1044
   1048
   1052
   1056
   1060
   1064
   1068
   1072
   1076
   1080
   1084
   1088
   1092
   1096
   1100
   1104
   1108
   1112
   1116
   1120
   1124
   1128
   1132
   1136
   1140
   1144
   1148
   1152
   1156
   1160
   1164
   1168
   1172
   1176
   1180
   1184
   1188
   1192
   1196
   1200
   1204
   1208
   1212
   1216
   1220
   1224
   1228
   1232
   1236
   1240
   1244
   1248
   1252
   1256
   1260
   1264
   1268
   1272
   1276
   1280
   1284
   1288
   1292
   1296
   1300
   1304
   1308
   1312
   1316
   1320
   1324
   1328
   1332
   1336
   1340
   1344
   1348
   1352
   1356
   1360
   1364
   1368
   1372
   1376
   1380
   1384
   1388
   1392
   1396
   1400
   1404
   1408
   1412
   1416
   1420
   1424
   1428
   1432
   1436
   1440
   1444
   1448
   1452
   1456
   1460
   1464
   1468
   1472
   1476
   1480
   1484
   1488
   1492
   1496
   1500
   1504
   1508
   1512
   1516
   1520
   1524
   1528
   1532
   1536
   1540
   1544
   1548
   1552
   1556
   1560
   1564
   1568
   1572
   1576
   1580
   1584
   1588
   1592
   1596
   1600
   1604
   1608
   1612
   1616
   1620
   1624
   1628
   1632
   1636
   1640
   1644
   1648
   1652
   1656
   1660
   1664
   1668
   1672
   1676
   1680
   1684
   1688
   1692
   1696
   1700
   1704
   1708
   1712
   1716
   1720
   1724
   1728
   1732
   1736
   1740
   1744
   1748
   1752
   1756
   1760
   1764
   1768
   1772
   1776
   1780
   1784
   1788
   1792
   1796
   1800
   1804
   1808
   1812
   1816
   1820
   1824
   1828
   1832
   1836
   1840
   1844
   1848
   1852
   1856
   1860
   1864
   1868
   1872
   1876
   1880
   1884
   1888
   1892
   1896
   1900
   1904
   1908
   1912
   1916
   1920
   1924
   1928
   1932
   1936
   1940
   1944
   1948
   1952
   1956
   1960
   1964
   1968
   1972
   1976
   1980
   1984
   1988
   1992
   1996
   2000
   2004
   2008
   2012
   2016
   2020
   2024
   2028
   2032
   2036
   2040
   2044
   2048
   2052
   2056
   2060
   2064
   2068
   2072
   2076
   2080
   2084
   2088
   2092
   2096
   2100
   2104
   2108
   2112
   2116
   2120
   2124
   2128
   2132
   2136
   2140
   2144
   2148
   2152
   2156
   2160
   2164
   2168
   2172
   2176
   2180
   2184
   2188
   2192
   2196
   2200
   2204
   2208
   2212
   2216
   2220
   2224
   2228
   2232
   2236
   2240
   2244
   2248
   2252
   2256
   2260
   2264
   2268
   2272
   2276
   2280
   2284
   2288
   2292
   2296
   2300
   2304
   2308
   2312
   2316
   2320
   2324
   2328
   2332
   2336
   2340
   2344
   2348
   2352
   2356
   2360
   2364
   2368
   2372
   2376
   2380
   2384
   2388
   2392
   2396
   2400
        </DataArray>
      </Polys>
    </Piece>
  </PolyData>
</VTKFile>
