<?xml version="1.0"?>
<VTKFile type="PolyData" version="0.1" byte_order="LittleEndian">
  <PolyData>
    <Piece NumberOfPoints="     19" NumberOfVerts="  0" NumberOfLines="     18"
           NumberOfStrips="  0" NumberOfPolys="      0">
      <Points>
        <DataArray type="Float32" NumberOfComponents="3" format="ascii">
                      -4.97292                       1.41276                      89.54576
                      -5.07067                       2.70953                      89.12447
                      -5.28081                       5.33209                      88.37237
                      -5.49666                       7.96846                      87.66155
                      -5.76714                      11.27210                      86.79519
                      -6.04519                      15.19240                      85.60933
                      -6.30510                      19.07087                      84.29223
                      -6.56767                      22.94691                      82.96737
                      -6.83887                      26.81990                      81.63378
                      -7.13021                      30.69005                      80.29452
                      -7.45593                      34.55761                      78.95439
                      -7.83043                      38.42056                      77.61309
                      -8.27091                      42.27634                      76.27157
                      -8.79587                      46.12116                      74.93043
                      -9.42223                      49.95024                      73.58974
                     -10.03786                      53.12404                      72.47236
                     -10.59601                      55.64664                      71.57050
                     -11.21384                      58.13715                      70.61552
                     -11.55474                      59.38798                      70.17684
        </DataArray>
      </Points>
      <PointData>
        <DataArray type="Float32" Name="TranslationalVelocity" NumberOfComponents="3" format="ascii">
                       0.36625                       1.34708                       4.04298
                       0.69692                       2.56866                       7.72671
                       1.36485                       4.75822                      15.17524
                       2.03587                       6.83153                      22.66076
                       2.87709                       9.35959                      32.03696
                       3.87660                      12.79478                      43.15714
                       4.86674                      16.59532                      54.15174
                       5.85602                      20.41609                      65.13258
                       6.84136                      24.26143                      76.09837
                       7.81863                      28.12547                      87.05029
                       8.78247                      31.99779                      97.98980
                       9.72581                      35.88198                     108.91195
                      10.64036                      39.77800                     119.81013
                      11.51649                      43.68636                     130.67413
                      12.34333                      47.60753                     141.49066
                      12.98472                      50.88666                     150.45357
                      13.46233                      53.53883                     157.57569
                      13.90196                      56.34546                     164.60536
                      14.10816                      57.64168                     168.13499
        </DataArray>
        <DataArray type="Float32" Name="RotationalVelocity" NumberOfComponents="3" format="ascii">
                       2.84087                       0.00077                      -0.25508
                       2.84063                       0.00076                      -0.25504
                       2.83995                       0.00070                      -0.25495
                       2.83906                       0.00056                      -0.25491
                       2.83777                       0.00029                      -0.25493
                       2.83607                      -0.00020                      -0.25500
                       2.83437                      -0.00093                      -0.25488
                       2.83277                      -0.00193                      -0.25426
                       2.83136                      -0.00324                      -0.25272
                       2.83020                      -0.00489                      -0.24984
                       2.82929                      -0.00686                      -0.24521
                       2.82863                      -0.00910                      -0.23850
                       2.82819                      -0.01149                      -0.22947
                       2.82791                      -0.01387                      -0.21805
                       2.82772                      -0.01597                      -0.20435
                       2.82755                      -0.01728                      -0.19147
                       2.82737                      -0.01785                      -0.18041
                       2.82710                      -0.01782                      -0.16896
                       2.82692                      -0.01753                      -0.16319
        </DataArray>
        <DataArray type="Float32" Name="TranslationalAcceleration" NumberOfComponents="3" format="ascii">
                       0.41467                     -11.57659                       3.90019
                       0.43252                     -13.99932                       4.63360
                       1.15615                     -40.28668                      12.53259
                       1.76013                     -64.57130                      19.39984
                       2.39954                     -92.98795                      27.14477
                       3.15818                    -124.90912                      36.99054
                       3.93444                    -155.60833                      47.60837
                       4.68640                    -186.14210                      58.27653
                       5.45203                    -216.88976                      69.14616
                       6.25996                    -247.97289                      80.25131
                       7.13116                    -279.32258                      91.54843
                       8.08256                    -310.73645                     102.99339
                       9.12308                    -341.96884                     114.51675
                      10.25456                    -372.80136                     126.06003
                      11.47174                    -403.12169                     137.59815
                      12.54438                    -428.02827                     147.23542
                      13.43041                    -447.80753                     155.05672
                      14.33205                    -467.50839                     163.39774
                      14.78829                    -477.54429                     167.32388
        </DataArray>
        <DataArray type="Float32" Name="OrientationX" NumberOfComponents="3" format="ascii">
                       0.98666                       0.11299                       0.11723
                       0.98666                       0.11291                       0.11727
                       0.98665                       0.11265                       0.11763
                       0.98661                       0.11226                       0.11831
                       0.98652                       0.11169                       0.11958
                       0.99059                       0.10156                       0.09176
                       0.99277                       0.09495                       0.07342
                       0.99408                       0.09100                       0.05929
                       0.99493                       0.08946                       0.04596
                       0.99522                       0.09150                       0.03427
                       0.99479                       0.09852                       0.02620
                       0.99362                       0.11083                       0.02087
                       0.99141                       0.12925                       0.01977
                       0.98770                       0.15439                       0.02487
                       0.98240                       0.18416                       0.03128
                       0.97671                       0.21141                       0.03653
                       0.97132                       0.23430                       0.04060
                       0.96491                       0.25832                       0.04707
                       0.96127                       0.27069                       0.05175
        </DataArray>
        <DataArray type="Float32" Name="OrientationY" NumberOfComponents="3" format="ascii">
                       0.14619                      -0.29782                      -0.94336
                       0.14622                      -0.29805                      -0.94328
                       0.14653                      -0.29866                      -0.94304
                       0.14711                      -0.29944                      -0.94270
                       0.14823                      -0.30055                      -0.94218
                       0.11882                      -0.30530                      -0.94482
                       0.09948                      -0.30867                      -0.94595
                       0.08494                      -0.31121                      -0.94654
                       0.07190                      -0.31321                      -0.94696
                       0.06154                      -0.31456                      -0.94724
                       0.05616                      -0.31511                      -0.94739
                       0.05503                      -0.31498                      -0.94750
                       0.05983                      -0.31397                      -0.94755
                       0.07257                      -0.31162                      -0.94743
                       0.08797                      -0.30841                      -0.94718
                       0.10148                      -0.30526                      -0.94685
                       0.11250                      -0.30240                      -0.94652
                       0.12607                      -0.29854                      -0.94603
                       0.13427                      -0.29602                      -0.94570
        </DataArray>
        <DataArray type="Float32" Name="OrientationZ" NumberOfComponents="3" format="ascii">
                      -0.07168                       0.94791                      -0.31037
                      -0.07155                       0.94785                      -0.31059
                      -0.07110                       0.94769                      -0.31118
                      -0.07040                       0.94749                      -0.31195
                      -0.06929                       0.94720                      -0.31306
                      -0.06794                       0.94683                      -0.31449
                      -0.06716                       0.94642                      -0.31588
                      -0.06768                       0.94597                      -0.31710
                      -0.07033                       0.94546                      -0.31806
                      -0.07589                       0.94482                      -0.31869
                      -0.08508                       0.94393                      -0.31900
                      -0.09843                       0.94261                      -0.31907
                      -0.11626                       0.94060                      -0.31900
                      -0.13853                       0.93758                      -0.31898
                      -0.16479                       0.93326                      -0.31918
                      -0.18903                       0.92851                      -0.31960
                      -0.20949                       0.92394                      -0.32008
                      -0.23032                       0.91877                      -0.32063
                      -0.24068                       0.91602                      -0.32090
        </DataArray>
        <DataArray type="Float32" Name="Force" NumberOfComponents="3" format="ascii">
                     154.84429                      -7.18606                     -57.70917
                     166.79852                     -26.38372                    -119.01618
                     236.99699                     -93.70955                    -340.37864
                     230.43021                    -152.04901                    -516.34296
                    3303.30276                     487.81787                     754.18620
                    3295.48711                     373.64689                     422.93346
                    2788.35154                     252.15200                     170.67347
                    3603.85664                     299.63863                     135.73631
                    4673.17915                     372.38427                      88.55615
                    4705.71729                     364.96464                     -24.32651
                    6676.03347                     553.26835                    -122.56210
                    5992.95559                     540.45749                    -234.65264
                    2545.23651                     228.54871                    -251.37886
                     373.22248                     -18.43776                    -226.31338
                   -4145.58268                    -712.11012                      21.23469
                   -8877.73620                   -1649.09572                     387.49409
                  -12524.55030                   -2540.05554                     759.94507
                  -12701.77954                   -2812.02561                     954.08276
                  -15292.98629                   -3534.05680                    1242.16433
        </DataArray>
        <DataArray type="Float32" Name="Moment" NumberOfComponents="3" format="ascii">
                       0.00000                       0.00000                       0.00000
                       0.00000                       0.00000                       0.00000
                       0.00000                       0.00000                       0.00000
                       0.00000                       0.00000                       0.00000
                     114.71606                   -1574.37085                     515.87308
                     190.24953                   -2667.87237                     874.55213
                     238.72325                   -3392.87019                    1112.50255
                     377.37510                   -5330.49671                    1747.63079
                     569.10870                   -7745.38065                    2537.49795
                     693.34122                   -8748.93401                    2861.74263
                     869.09455                   -9780.16577                    3190.61176
                    1061.11961                  -10311.51044                    3350.95172
                     928.76142                   -7630.09218                    2466.67441
                    1076.23119                   -7404.75042                    2378.12141
                    1201.19596                   -6927.00072                    2207.23139
                    1291.60742                   -6472.21584                    2047.11899
                    1257.45242                   -5667.36275                    1781.19434
                     675.79962                   -2760.15676                     861.79771
                     716.74651                   -2795.78832                     870.02963
        </DataArray>
      </PointData>
      <Lines>
        <DataArray type="Int32" Name="connectivity" format="ascii">
      0      1
      1      2
      2      3
      3      4
      4      5
      5      6
      6      7
      7      8
      8      9
      9     10
     10     11
     11     12
     12     13
     13     14
     14     15
     15     16
     16     17
     17     18
        </DataArray>
        <DataArray type="Int32" Name="offsets" format="ascii">
      2
      4
      6
      8
     10
     12
     14
     16
     18
     20
     22
     24
     26
     28
     30
     32
     34
     36
        </DataArray>
      </Lines>
    </Piece>
  </PolyData>
</VTKFile>
