<?xml version="1.0"?>
<VTKFile type="PolyData" version="0.1" byte_order="LittleEndian">
  <PolyData>
    <Piece NumberOfPoints="      8" NumberOfVerts="  0" NumberOfLines="      0"
           NumberOfStrips="  0" NumberOfPolys="      6">
      <Points>
        <DataArray type="Float32" NumberOfComponents="3" format="ascii">
                      -3.37814                       2.39357                      87.60801
                       3.62184                       2.39357                      87.59260
                       3.62184                      -2.40644                      87.59177
                      -3.37815                      -2.40644                      87.60718
                      -3.36758                      -2.40727                      92.40717
                       3.63240                      -2.40727                      92.39176
                       3.63241                       2.39273                      92.39260
                      -3.36758                       2.39273                      92.40800
        </DataArray>
      </Points>
      <Polys>
        <DataArray type="Int32" Name="connectivity" format="ascii">
      0      1      2      3
      4      5      6      7
      7      6      1      0
      6      5      2      1
      5      4      3      2
      4      7      0      3
        </DataArray>
        <DataArray type="Int32" Name="offsets" format="ascii">
      4
      8
     12
     16
     20
     24
        </DataArray>
      </Polys>
    </Piece>
  </PolyData>
</VTKFile>
