<?xml version="1.0"?>
<VTKFile type="PolyData" version="0.1" byte_order="LittleEndian">
  <PolyData>
    <Piece NumberOfPoints="    550" NumberOfVerts="  0" NumberOfLines="     21"
           NumberOfStrips="  0" NumberOfPolys="    567">
      <Points>
        <DataArray type="Float32" NumberOfComponents="3" format="ascii">
                       2.97344                      -0.00001                       2.18983
                       2.88002                       0.73944                       2.18984
                       2.60565                       1.43243                       2.18986
                       2.16756                       2.03541                       2.18989
                       1.59328                       2.51050                       2.18992
                       0.91888                       2.82784                       2.18996
                       0.18676                       2.96750                       2.19001
                      -0.55709                       2.92070                       2.19005
                      -1.26594                       2.69038                       2.19009
                      -1.89524                       2.29102                       2.19012
                      -2.40545                       1.74770                       2.19015
                      -2.76451                       1.09457                       2.19017
                      -2.94987                       0.37266                       2.19017
                      -2.94987                      -0.37267                       2.19017
                      -2.76451                      -1.09458                       2.19015
                      -2.40545                      -1.74771                       2.19013
                      -1.89524                      -2.29103                       2.19010
                      -1.26594                      -2.69040                       2.19006
                      -0.55709                      -2.92071                       2.19002
                       0.18676                      -2.96751                       2.18997
                       0.91889                      -2.82785                       2.18993
                       1.59328                      -2.51051                       2.18989
                       2.16756                      -2.03542                       2.18986
                       2.60565                      -1.43244                       2.18984
                       2.88002                      -0.73945                       2.18983
                       2.92074                      -0.00005                       6.56942
                       2.82900                       0.72615                       6.56945
                       2.55954                       1.40673                       6.56951
                       2.12930                       1.99891                       6.56961
                       1.56530                       2.46549                       6.56973
                       0.90298                       2.77715                       6.56986
                       0.18397                       2.91431                       6.57001
                      -0.54656                       2.86835                       6.57016
                      -1.24271                       2.64215                       6.57029
                      -1.86074                       2.24994                       6.57041
                      -2.36181                       1.71635                       6.57050
                      -2.71445                       1.07492                       6.57056
                      -2.89648                       0.36593                       6.57058
                      -2.89648                      -0.36604                       6.57057
                      -2.71445                      -1.07502                       6.57052
                      -2.36181                      -1.71646                       6.57044
                      -1.86074                      -2.25005                       6.57034
                      -1.24271                      -2.64226                       6.57021
                      -0.54656                      -2.86846                       6.57006
                       0.18397                      -2.91442                       6.56992
                       0.90298                      -2.77726                       6.56978
                       1.56530                      -2.46560                       6.56965
                       2.12930                      -1.99902                       6.56954
                       2.55954                      -1.40684                       6.56947
                       2.82900                      -0.72626                       6.56942
                       2.86871                      -0.00015                      10.94897
                       2.77864                       0.71282                      10.94902
                       2.51410                       1.38098                      10.94913
                       2.09170                       1.96237                      10.94930
                       1.53799                       2.42044                      10.94951
                       0.88775                       2.72641                      10.94975
                       0.18185                       2.86107                      10.95001
                      -0.53536                       2.81595                      10.95026
                      -1.21882                       2.59388                      10.95050
                      -1.82558                       2.20882                      10.95071
                      -2.31751                       1.68496                      10.95088
                      -2.66371                       1.05522                      10.95099
                      -2.84243                       0.35917                      10.95103
                      -2.84243                      -0.35946                      10.95102
                      -2.66371                      -1.05551                      10.95093
                      -2.31751                      -1.68525                      10.95079
                      -1.82558                      -2.20911                      10.95060
                      -1.21882                      -2.59417                      10.95037
                      -0.53536                      -2.81624                      10.95012
                       0.18185                      -2.86136                      10.94986
                       0.88775                      -2.72671                      10.94961
                       1.53799                      -2.42073                      10.94939
                       2.09170                      -1.96266                      10.94920
                       2.51410                      -1.38127                      10.94906
                       2.77864                      -0.71311                      10.94898
                       2.81741                      -0.00027                      15.32852
                       2.72901                       0.69945                      15.32859
                       2.46938                       1.35520                      15.32875
                       2.05482                       1.92578                      15.32898
                       1.51140                       2.37535                      15.32929
                       0.87324                       2.67564                      15.32963
                       0.18045                       2.80780                      15.33000
                      -0.52344                       2.76351                      15.33037
                      -1.19420                       2.54557                      15.33072
                      -1.78969                       2.16766                      15.33102
                      -2.27249                       1.65353                      15.33125
                      -2.61226                       1.03549                      15.33141
                      -2.78766                       0.35237                      15.33148
                      -2.78766                      -0.35291                      15.33146
                      -2.61226                      -1.03604                      15.33134
                      -2.27249                      -1.65408                      15.33114
                      -1.78969                      -2.16821                      15.33087
                      -1.19420                      -2.54612                      15.33054
                      -0.52344                      -2.76406                      15.33018
                       0.18045                      -2.80835                      15.32981
                       0.87324                      -2.67619                      15.32945
                       1.51140                      -2.37590                      15.32912
                       2.05482                      -1.92633                      15.32885
                       2.46938                      -1.35575                      15.32865
                       2.72901                      -0.69999                      15.32854
                       2.76682                      -0.00044                      19.70809
                       2.68010                       0.68604                      19.70818
                       2.42538                       1.32938                      19.70838
                       2.01868                       1.88917                      19.70869
                       1.48553                       2.33022                      19.70907
                       0.85945                       2.62483                      19.70952
                       0.17978                       2.75449                      19.71000
                      -0.51079                       2.71104                      19.71047
                      -1.16886                       2.49722                      19.71092
                      -1.75308                       2.12646                      19.71130
                      -2.22674                       1.62207                      19.71161
                      -2.56008                       1.01572                      19.71182
                      -2.73216                       0.34553                      19.71191
                      -2.73216                      -0.34641                      19.71188
                      -2.56008                      -1.01660                      19.71173
                      -2.22674                      -1.62295                      19.71147
                      -1.75308                      -2.12735                      19.71112
                      -1.16886                      -2.49810                      19.71071
                      -0.51079                      -2.71192                      19.71024
                       0.17978                      -2.75537                      19.70976
                       0.85945                      -2.62571                      19.70930
                       1.48553                      -2.33110                      19.70888
                       2.01868                      -1.89005                      19.70853
                       2.42538                      -1.33026                      19.70827
                       2.68010                      -0.68692                      19.70812
                       2.71695                      -0.00065                      24.08770
                       2.63190                       0.67259                      24.08780
                       2.38210                       1.30352                      24.08805
                       1.98324                       1.85251                      24.08842
                       1.46038                       2.28506                      24.08888
                       0.84637                       2.57398                      24.08942
                       0.17981                       2.70114                      24.08999
                      -0.49744                       2.65853                      24.09056
                      -1.14281                       2.44883                      24.09110
                      -1.71576                       2.08523                      24.09157
                      -2.18028                       1.59056                      24.09194
                      -2.50719                       0.99591                      24.09219
                      -2.67595                       0.33865                      24.09230
                      -2.67595                      -0.33994                      24.09226
                      -2.50719                      -0.99720                      24.09208
                      -2.18028                      -1.59185                      24.09178
                      -1.71576                      -2.08652                      24.09136
                      -1.14281                      -2.45013                      24.09085
                      -0.49744                      -2.65982                      24.09029
                       0.17981                      -2.70243                      24.08971
                       0.84638                      -2.57527                      24.08915
                       1.46038                      -2.28635                      24.08865
                       1.98324                      -1.85380                      24.08823
                       2.38210                      -1.30481                      24.08792
                       2.63190                      -0.67388                      24.08774
                       2.66776                      -0.00089                      28.46734
                       2.58438                       0.65910                      28.46746
                       2.33949                       1.27762                      28.46775
                       1.94847                       1.81581                      28.46817
                       1.43590                       2.23985                      28.46871
                       0.83397                       2.52310                      28.46933
                       0.18052                       2.64775                      28.46999
                      -0.48340                       2.60598                      28.47065
                      -1.11608                       2.40041                      28.47127
                      -1.67776                       2.04396                      28.47181
                      -2.13315                       1.55902                      28.47224
                      -2.45363                       0.97607                      28.47252
                      -2.61907                       0.33173                      28.47265
                      -2.61907                      -0.33351                      28.47261
                      -2.45363                      -0.97785                      28.47240
                      -2.13315                      -1.56080                      28.47205
                      -1.67776                      -2.04574                      28.47156
                      -1.11608                      -2.40219                      28.47098
                      -0.48341                      -2.60776                      28.47034
                       0.18052                      -2.64953                      28.46967
                       0.83397                      -2.52487                      28.46902
                       1.43590                      -2.24163                      28.46844
                       1.94847                      -1.81759                      28.46795
                       2.33949                      -1.27940                      28.46759
                       2.58438                      -0.66088                      28.46738
                       2.61921                      -0.00118                      32.84701
                       2.53750                       0.64557                      32.84715
                       2.29753                       1.25168                      32.84747
                       1.91436                       1.77907                      32.84795
                       1.41207                       2.19460                      32.84855
                       0.82222                       2.47216                      32.84925
                       0.18188                       2.59432                      32.84999
                      -0.46873                       2.55338                      32.85073
                      -1.08871                       2.35194                      32.85143
                      -1.63912                       2.00264                      32.85203
                      -2.08537                       1.52743                      32.85251
                      -2.39942                       0.95618                      32.85283
                      -2.56153                       0.32477                      32.85297
                      -2.56153                      -0.32712                      32.85292
                      -2.39942                      -0.95853                      32.85269
                      -2.08537                      -1.52979                      32.85229
                      -1.63912                      -2.00499                      32.85175
                      -1.08871                      -2.35429                      32.85109
                      -0.46873                      -2.55574                      32.85037
                       0.18188                      -2.59667                      32.84962
                       0.82222                      -2.47452                      32.84890
                       1.41207                      -2.19696                      32.84824
                       1.91436                      -1.78143                      32.84770
                       2.29753                      -1.25404                      32.84729
                       2.53750                      -0.64793                      32.84706
                       2.57128                      -0.00151                      37.22671
                       2.49125                       0.63200                      37.22686
                       2.25619                       1.22570                      37.22722
                       1.88087                       1.74229                      37.22774
                       1.38886                       2.14931                      37.22841
                       0.81109                       2.42119                      37.22917
                       0.18386                       2.54084                      37.22999
                      -0.45342                       2.50074                      37.23081
                      -1.06071                       2.30342                      37.23157
                      -1.59985                       1.96128                      37.23224
                      -2.03696                       1.49580                      37.23276
                      -2.34458                       0.93624                      37.23311
                      -2.50338                       0.31776                      37.23327
                      -2.50338                      -0.32078                      37.23322
                      -2.34458                      -0.93926                      37.23296
                      -2.03696                      -1.49882                      37.23252
                      -1.59985                      -1.96430                      37.23192
                      -1.06071                      -2.30644                      37.23120
                      -0.45342                      -2.50376                      37.23040
                       0.18386                      -2.54386                      37.22958
                       0.81109                      -2.42421                      37.22878
                       1.38886                      -2.15233                      37.22806
                       1.88087                      -1.74531                      37.22746
                       2.25619                      -1.22872                      37.22702
                       2.49125                      -0.63502                      37.22676
                       2.52398                      -0.00189                      41.60642
                       2.44563                       0.61837                      41.60659
                       2.21548                       1.19966                      41.60697
                       1.84800                       1.70545                      41.60754
                       1.36628                       2.10397                      41.60827
                       0.80059                       2.37016                      41.60910
                       0.18647                       2.48731                      41.60999
                      -0.43749                       2.44806                      41.61088
                      -1.03209                       2.25486                      41.61171
                      -1.55995                       1.91986                      41.61244
                      -1.98793                       1.46412                      41.61301
                      -2.28912                       0.91626                      41.61339
                      -2.44460                       0.31070                      41.61355
                      -2.44460                      -0.31449                      41.61349
                      -2.28912                      -0.92004                      41.61322
                      -1.98793                      -1.46790                      41.61273
                      -1.55995                      -1.92365                      41.61208
                      -1.03209                      -2.25864                      41.61129
                      -0.43749                      -2.45184                      41.61043
                       0.18647                      -2.49109                      41.60953
                       0.80059                      -2.37395                      41.60866
                       1.36628                      -2.10775                      41.60788
                       1.84800                      -1.70924                      41.60723
                       2.21548                      -1.20345                      41.60675
                       2.44563                      -0.62215                      41.60647
                       2.47731                      -0.00233                      45.98613
                       2.40063                       0.60469                      45.98632
                       2.17539                       1.17357                      45.98673
                       1.81576                       1.66857                      45.98735
                       1.34433                       2.05857                      45.98814
                       0.79071                       2.31908                      45.98904
                       0.18971                       2.43373                      45.99000
                      -0.42093                       2.39531                      45.99095
                      -1.00283                       2.20624                      45.99185
                      -1.51943                       1.87840                      45.99263
                      -1.93827                       1.43238                      45.99324
                      -2.23302                       0.89622                      45.99365
                      -2.38518                       0.30360                      45.99383
                      -2.38518                      -0.30825                      45.99377
                      -2.23302                      -0.90087                      45.99346
                      -1.93827                      -1.43704                      45.99294
                      -1.51943                      -1.88305                      45.99223
                      -1.00283                      -2.21090                      45.99139
                      -0.42093                      -2.39997                      45.99045
                       0.18970                      -2.43839                      45.98948
                       0.79071                      -2.32374                      45.98855
                       1.34433                      -2.06323                      45.98770
                       1.81576                      -1.67322                      45.98700
                       2.17539                      -1.17823                      45.98648
                       2.40063                      -0.60935                      45.98619
                       2.43130                      -0.00282                      50.36585
                       2.35629                       0.59096                      50.36605
                       2.13597                       1.14743                      50.36649
                       1.78418                       1.63162                      50.36716
                       1.32303                       2.01312                      50.36800
                       0.78149                       2.26795                      50.36897
                       0.19360                       2.38010                      50.37000
                      -0.40372                       2.34252                      50.37103
                      -0.97292                       2.15757                      50.37199
                      -1.47825                       1.83688                      50.37282
                      -1.88795                       1.40059                      50.37348
                      -2.17628                       0.87613                      50.37392
                      -2.32512                       0.29643                      50.37411
                      -2.32512                      -0.30207                      50.37403
                      -2.17628                      -0.88176                      50.37371
                      -1.88795                      -1.40623                      50.37315
                      -1.47825                      -1.84251                      50.37239
                      -0.97292                      -2.16320                      50.37148
                      -0.40372                      -2.34815                      50.37047
                       0.19360                      -2.38573                      50.36943
                       0.78149                      -2.27358                      50.36843
                       1.32303                      -2.01876                      50.36752
                       1.78418                      -1.63726                      50.36677
                       2.13597                      -1.15306                      50.36622
                       2.35629                      -0.59660                      50.36591
                       2.38597                      -0.00337                      54.74556
                       2.31263                       0.57717                      54.74577
                       2.09722                       1.12123                      54.74625
                       1.75328                       1.59462                      54.74696
                       1.30242                       1.96761                      54.74786
                       0.77296                       2.21676                      54.74890
                       0.19817                       2.32640                      54.75000
                      -0.38582                       2.28966                      54.75110
                      -0.94233                       2.10884                      54.75212
                      -1.43639                       1.79530                      54.75301
                      -1.83695                       1.36875                      54.75371
                      -2.11885                       0.85597                      54.75418
                      -2.26437                       0.28921                      54.75438
                      -2.26437                      -0.29594                      54.75430
                      -2.11885                      -0.86271                      54.75395
                      -1.83695                      -1.37548                      54.75335
                      -1.43639                      -1.80203                      54.75254
                      -0.94233                      -2.11557                      54.75157
                      -0.38582                      -2.29639                      54.75049
                       0.19817                      -2.33313                      54.74938
                       0.77296                      -2.22349                      54.74831
                       1.30241                      -1.97434                      54.74734
                       1.75328                      -1.60136                      54.74654
                       2.09722                      -1.12796                      54.74596
                       2.31263                      -0.58390                      54.74562
                       2.34135                      -0.00397                      59.12528
                       2.26968                       0.56332                      59.12550
                       2.05919                       1.09497                      59.12601
                       1.72309                       1.55757                      59.12677
                       1.28251                       1.92205                      59.12773
                       0.76513                       2.16551                      59.12883
                       0.20346                       2.27265                      59.13000
                      -0.36721                       2.23675                      59.13116
                      -0.91103                       2.06005                      59.13225
                      -1.39381                       1.75366                      59.13320
                      -1.78524                       1.33684                      59.13394
                      -2.06070                       0.83577                      59.13444
                      -2.20290                       0.28193                      59.13465
                      -2.20290                      -0.28987                      59.13456
                      -2.06070                      -0.84371                      59.13419
                      -1.78524                      -1.34478                      59.13355
                      -1.39381                      -1.76161                      59.13269
                      -0.91103                      -2.06800                      59.13165
                      -0.36721                      -2.24469                      59.13051
                       0.20346                      -2.28060                      59.12933
                       0.76513                      -2.17345                      59.12820
                       1.28251                      -1.92999                      59.12717
                       1.72309                      -1.56551                      59.12632
                       2.05919                      -1.10291                      59.12569
                       2.26968                      -0.57126                      59.12534
                       2.29745                      -0.00464                      63.50501
                       2.22746                       0.54941                      63.50525
                       2.02188                       1.06865                      63.50579
                       1.69363                       1.52045                      63.50659
                       1.26333                       1.87642                      63.50760
                       0.75803                       2.11420                      63.50876
                       0.20947                       2.21884                      63.50999
                      -0.34788                       2.18378                      63.51122
                      -0.87900                       2.01120                      63.51237
                      -1.35052                       1.71197                      63.51337
                      -1.73280                       1.30487                      63.51415
                      -2.00184                       0.81550                      63.51467
                      -2.14072                       0.27459                      63.51489
                      -2.14072                      -0.28386                      63.51480
                      -2.00184                      -0.82477                      63.51441
                      -1.73280                      -1.31415                      63.51374
                      -1.35052                      -1.72125                      63.51283
                      -0.87900                      -2.02048                      63.51173
                      -0.34788                      -2.19305                      63.51053
                       0.20947                      -2.22812                      63.50929
                       0.75803                      -2.12347                      63.50809
                       1.26333                      -1.88569                      63.50700
                       1.69363                      -1.52972                      63.50611
                       2.02188                      -1.07792                      63.50545
                       2.22746                      -0.55869                      63.50508
                       2.25425                      -0.00536                      67.88478
                       2.18593                       0.53545                      67.88504
                       1.98527                       1.04227                      67.88560
                       1.66486                       1.48327                      67.88643
                       1.24485                       1.83074                      67.88749
                       0.75163                       2.06283                      67.88870
                       0.21618                       2.16497                      67.88998
                      -0.32785                       2.13075                      67.89127
                      -0.84627                       1.96230                      67.89247
                      -1.30652                       1.67022                      67.89351
                      -1.67967                       1.27285                      67.89433
                      -1.94227                       0.79517                      67.89487
                      -2.07784                       0.26719                      67.89510
                      -2.07784                      -0.27791                      67.89500
                      -1.94228                      -0.80589                      67.89459
                      -1.67967                      -1.28357                      67.89389
                      -1.30652                      -1.68094                      67.89294
                      -0.84627                      -1.97302                      67.89180
                      -0.32785                      -2.14147                      67.89054
                       0.21618                      -2.17569                      67.88924
                       0.75163                      -2.07355                      67.88799
                       1.24485                      -1.84146                      67.88686
                       1.66486                      -1.49399                      67.88592
                       1.98527                      -1.05299                      67.88524
                       2.18593                      -0.54617                      67.88485
                       2.21168                      -0.00613                      72.26462
                       2.14503                       0.52143                      72.26489
                       1.94928                       1.01585                      72.26547
                       1.63672                       1.44605                      72.26633
                       1.22700                       1.78500                      72.26741
                       0.74585                       2.01141                      72.26865
                       0.22351                       2.11105                      72.26998
                      -0.30719                       2.07767                      72.27130
                      -0.81293                       1.91334                      72.27253
                      -1.26190                       1.62841                      72.27360
                      -1.62591                       1.24078                      72.27444
                      -1.88209                       0.77480                      72.27499
                      -2.01433                       0.25974                      72.27523
                      -2.01433                      -0.27201                      72.27513
                      -1.88209                      -0.78706                      72.27471
                      -1.62591                      -1.25305                      72.27398
                      -1.26190                      -1.64068                      72.27300
                      -0.81293                      -1.92561                      72.27183
                      -0.30720                      -2.08993                      72.27054
                       0.22351                      -2.12332                      72.26920
                       0.74585                      -2.02368                      72.26792
                       1.22699                      -1.79727                      72.26676
                       1.63672                      -1.45832                      72.26580
                       1.94928                      -1.02811                      72.26509
                       2.14503                      -0.53370                      72.26469
                       2.16957                      -0.00696                      76.64457
                       2.10460                       0.50737                      76.64484
                       1.91376                       0.98937                      76.64543
                       1.60904                       1.40877                      76.64629
                       1.20960                       1.73922                      76.64739
                       0.74054                       1.95995                      76.64864
                       0.23131                       2.05709                      76.64997
                      -0.28607                       2.02454                      76.65130
                      -0.77911                       1.86434                      76.65254
                      -1.21682                       1.58656                      76.65362
                      -1.57169                       1.20866                      76.65446
                      -1.82144                       0.75437                      76.65502
                      -1.95036                       0.25225                      76.65525
                      -1.95036                      -0.26616                      76.65515
                      -1.82144                      -0.76828                      76.65472
                      -1.57169                      -1.22257                      76.65399
                      -1.21682                      -1.60047                      76.65300
                      -0.77911                      -1.87825                      76.65182
                      -0.28608                      -2.03845                      76.65052
                       0.23131                      -2.07100                      76.64918
                       0.74053                      -1.97386                      76.64788
                       1.20960                      -1.75313                      76.64671
                       1.60904                      -1.42269                      76.64575
                       1.91376                      -1.00328                      76.64504
                       2.10460                      -0.52128                      76.64464
                       2.12767                      -0.00782                      81.02468
                       2.06437                       0.49326                      81.02495
                       1.87844                       0.96285                      81.02552
                       1.58157                       1.37146                      81.02637
                       1.19242                       1.69340                      81.02744
                       0.73543                       1.90844                      81.02867
                       0.23931                       2.00308                      81.02997
                      -0.26475                       1.97137                      81.03127
                      -0.74509                       1.81529                      81.03248
                      -1.17153                       1.54467                      81.03353
                      -1.51726                       1.17649                      81.03435
                      -1.76058                       0.73391                      81.03489
                      -1.88618                       0.24471                      81.03512
                      -1.88618                      -0.26035                      81.03501
                      -1.76058                      -0.74954                      81.03459
                      -1.51726                      -1.19213                      81.03387
                      -1.17153                      -1.56031                      81.03290
                      -0.74509                      -1.83093                      81.03175
                      -0.26475                      -1.98701                      81.03047
                       0.23931                      -2.01872                      81.02916
                       0.73543                      -1.92408                      81.02790
                       1.19242                      -1.70903                      81.02676
                       1.58157                      -1.38710                      81.02582
                       1.87844                      -0.97849                      81.02513
                       2.06437                      -0.50890                      81.02475
                       2.08557                      -0.00871                      85.40501
                       2.02394                       0.47912                      85.40526
                       1.84293                       0.93631                      85.40581
                       1.55391                       1.33411                      85.40661
                       1.17504                       1.64754                      85.40761
                       0.73012                       1.85690                      85.40876
                       0.24712                       1.94904                      85.40998
                      -0.24362                       1.91817                      85.41119
                      -0.71127                       1.76622                      85.41232
                      -1.12643                       1.50274                      85.41330
                      -1.46303                       1.14430                      85.41406
                      -1.69992                       0.71341                      85.41456
                      -1.82220                       0.23714                      85.41477
                      -1.82220                      -0.25457                      85.41466
                      -1.69992                      -0.73084                      85.41426
                      -1.46303                      -1.16173                      85.41358
                      -1.12643                      -1.52017                      85.41267
                      -0.71127                      -1.78365                      85.41159
                      -0.24362                      -1.93559                      85.41040
                       0.24712                      -1.96647                      85.40917
                       0.73012                      -1.87433                      85.40799
                       1.17504                      -1.66497                      85.40693
                       1.55391                      -1.35154                      85.40605
                       1.84293                      -0.95373                      85.40542
                       2.02394                      -0.49655                      85.40506
                       2.06427                      -0.00917                      87.59527
                       2.00348                       0.47205                      87.59552
                       1.82493                       0.92302                      87.59604
                       1.53983                       1.31543                      87.59680
                       1.16610                       1.62460                      87.59775
                       0.72723                       1.83112                      87.59884
                       0.25078                       1.92201                      87.59999
                      -0.23330                       1.89156                      87.60113
                      -0.69460                       1.74167                      87.60220
                      -1.10413                       1.48177                      87.60312
                      -1.43616                       1.12819                      87.60383
                      -1.66983                       0.70315                      87.60430
                      -1.79046                       0.23335                      87.60449
                      -1.79046                      -0.25169                      87.60439
                      -1.66983                      -0.72149                      87.60400
                      -1.43616                      -1.14653                      87.60336
                      -1.10413                      -1.50011                      87.60250
                      -0.69460                      -1.76001                      87.60147
                      -0.23330                      -1.90990                      87.60034
                       0.25078                      -1.94035                      87.59918
                       0.72723                      -1.84946                      87.59807
                       1.16610                      -1.64294                      87.59707
                       1.53983                      -1.33377                      87.59624
                       1.82493                      -0.94136                      87.59565
                       2.00348                      -0.49038                      87.59532
                       3.00000                       0.00000                       0.00000
                       2.90575                       0.74607                       0.00000
                       2.62892                       1.44526                       0.00000
                       2.18691                       2.05364                       0.00000
                       1.60748                       2.53298                       0.00000
                       0.92705                       2.85317                       0.00000
                       0.18837                       2.99408                       0.00000
                      -0.56214                       2.94686                       0.00000
                      -1.27734                       2.71448                       0.00000
                      -1.91227                       2.31154                       0.00000
                      -2.42705                       1.76336                       0.00000
                      -2.78933                       1.10437                       0.00000
                      -2.97634                       0.37600                       0.00000
                      -2.97634                      -0.37600                       0.00000
                      -2.78933                      -1.10437                       0.00000
                      -2.42705                      -1.76336                       0.00000
                      -1.91227                      -2.31154                       0.00000
                      -1.27734                      -2.71448                       0.00000
                      -0.56214                      -2.94686                       0.00000
                       0.18837                      -2.99408                       0.00000
                       0.92705                      -2.85317                       0.00000
                       1.60748                      -2.53298                       0.00000
                       2.18691                      -2.05364                       0.00000
                       2.62892                      -1.44526                       0.00000
                       2.90575                      -0.74607                       0.00000
        </DataArray>
      </Points>
      <Polys>
        <DataArray type="Int32" Name="connectivity" format="ascii">
      0      1     26     25
      1      2     27     26
      2      3     28     27
      3      4     29     28
      4      5     30     29
      5      6     31     30
      6      7     32     31
      7      8     33     32
      8      9     34     33
      9     10     35     34
     10     11     36     35
     11     12     37     36
     12     13     38     37
     13     14     39     38
     14     15     40     39
     15     16     41     40
     16     17     42     41
     17     18     43     42
     18     19     44     43
     19     20     45     44
     20     21     46     45
     21     22     47     46
     22     23     48     47
     23     24     49     48
     24      0     25     49
     24     23     22     21     20     19     18     17     16     15     14     13     12     11     10      9      8      7      6      5      4      3      2      1      0
     25     26     27     28     29     30     31     32     33     34     35     36     37     38     39     40     41     42     43     44     45     46     47     48     49
     25     26     51     50
     26     27     52     51
     27     28     53     52
     28     29     54     53
     29     30     55     54
     30     31     56     55
     31     32     57     56
     32     33     58     57
     33     34     59     58
     34     35     60     59
     35     36     61     60
     36     37     62     61
     37     38     63     62
     38     39     64     63
     39     40     65     64
     40     41     66     65
     41     42     67     66
     42     43     68     67
     43     44     69     68
     44     45     70     69
     45     46     71     70
     46     47     72     71
     47     48     73     72
     48     49     74     73
     49     25     50     74
     49     48     47     46     45     44     43     42     41     40     39     38     37     36     35     34     33     32     31     30     29     28     27     26     25
     50     51     52     53     54     55     56     57     58     59     60     61     62     63     64     65     66     67     68     69     70     71     72     73     74
     50     51     76     75
     51     52     77     76
     52     53     78     77
     53     54     79     78
     54     55     80     79
     55     56     81     80
     56     57     82     81
     57     58     83     82
     58     59     84     83
     59     60     85     84
     60     61     86     85
     61     62     87     86
     62     63     88     87
     63     64     89     88
     64     65     90     89
     65     66     91     90
     66     67     92     91
     67     68     93     92
     68     69     94     93
     69     70     95     94
     70     71     96     95
     71     72     97     96
     72     73     98     97
     73     74     99     98
     74     50     75     99
     74     73     72     71     70     69     68     67     66     65     64     63     62     61     60     59     58     57     56     55     54     53     52     51     50
     75     76     77     78     79     80     81     82     83     84     85     86     87     88     89     90     91     92     93     94     95     96     97     98     99
     75     76    101    100
     76     77    102    101
     77     78    103    102
     78     79    104    103
     79     80    105    104
     80     81    106    105
     81     82    107    106
     82     83    108    107
     83     84    109    108
     84     85    110    109
     85     86    111    110
     86     87    112    111
     87     88    113    112
     88     89    114    113
     89     90    115    114
     90     91    116    115
     91     92    117    116
     92     93    118    117
     93     94    119    118
     94     95    120    119
     95     96    121    120
     96     97    122    121
     97     98    123    122
     98     99    124    123
     99     75    100    124
     99     98     97     96     95     94     93     92     91     90     89     88     87     86     85     84     83     82     81     80     79     78     77     76     75
    100    101    102    103    104    105    106    107    108    109    110    111    112    113    114    115    116    117    118    119    120    121    122    123    124
    100    101    126    125
    101    102    127    126
    102    103    128    127
    103    104    129    128
    104    105    130    129
    105    106    131    130
    106    107    132    131
    107    108    133    132
    108    109    134    133
    109    110    135    134
    110    111    136    135
    111    112    137    136
    112    113    138    137
    113    114    139    138
    114    115    140    139
    115    116    141    140
    116    117    142    141
    117    118    143    142
    118    119    144    143
    119    120    145    144
    120    121    146    145
    121    122    147    146
    122    123    148    147
    123    124    149    148
    124    100    125    149
    124    123    122    121    120    119    118    117    116    115    114    113    112    111    110    109    108    107    106    105    104    103    102    101    100
    125    126    127    128    129    130    131    132    133    134    135    136    137    138    139    140    141    142    143    144    145    146    147    148    149
    125    126    151    150
    126    127    152    151
    127    128    153    152
    128    129    154    153
    129    130    155    154
    130    131    156    155
    131    132    157    156
    132    133    158    157
    133    134    159    158
    134    135    160    159
    135    136    161    160
    136    137    162    161
    137    138    163    162
    138    139    164    163
    139    140    165    164
    140    141    166    165
    141    142    167    166
    142    143    168    167
    143    144    169    168
    144    145    170    169
    145    146    171    170
    146    147    172    171
    147    148    173    172
    148    149    174    173
    149    125    150    174
    149    148    147    146    145    144    143    142    141    140    139    138    137    136    135    134    133    132    131    130    129    128    127    126    125
    150    151    152    153    154    155    156    157    158    159    160    161    162    163    164    165    166    167    168    169    170    171    172    173    174
    150    151    176    175
    151    152    177    176
    152    153    178    177
    153    154    179    178
    154    155    180    179
    155    156    181    180
    156    157    182    181
    157    158    183    182
    158    159    184    183
    159    160    185    184
    160    161    186    185
    161    162    187    186
    162    163    188    187
    163    164    189    188
    164    165    190    189
    165    166    191    190
    166    167    192    191
    167    168    193    192
    168    169    194    193
    169    170    195    194
    170    171    196    195
    171    172    197    196
    172    173    198    197
    173    174    199    198
    174    150    175    199
    174    173    172    171    170    169    168    167    166    165    164    163    162    161    160    159    158    157    156    155    154    153    152    151    150
    175    176    177    178    179    180    181    182    183    184    185    186    187    188    189    190    191    192    193    194    195    196    197    198    199
    175    176    201    200
    176    177    202    201
    177    178    203    202
    178    179    204    203
    179    180    205    204
    180    181    206    205
    181    182    207    206
    182    183    208    207
    183    184    209    208
    184    185    210    209
    185    186    211    210
    186    187    212    211
    187    188    213    212
    188    189    214    213
    189    190    215    214
    190    191    216    215
    191    192    217    216
    192    193    218    217
    193    194    219    218
    194    195    220    219
    195    196    221    220
    196    197    222    221
    197    198    223    222
    198    199    224    223
    199    175    200    224
    199    198    197    196    195    194    193    192    191    190    189    188    187    186    185    184    183    182    181    180    179    178    177    176    175
    200    201    202    203    204    205    206    207    208    209    210    211    212    213    214    215    216    217    218    219    220    221    222    223    224
    200    201    226    225
    201    202    227    226
    202    203    228    227
    203    204    229    228
    204    205    230    229
    205    206    231    230
    206    207    232    231
    207    208    233    232
    208    209    234    233
    209    210    235    234
    210    211    236    235
    211    212    237    236
    212    213    238    237
    213    214    239    238
    214    215    240    239
    215    216    241    240
    216    217    242    241
    217    218    243    242
    218    219    244    243
    219    220    245    244
    220    221    246    245
    221    222    247    246
    222    223    248    247
    223    224    249    248
    224    200    225    249
    224    223    222    221    220    219    218    217    216    215    214    213    212    211    210    209    208    207    206    205    204    203    202    201    200
    225    226    227    228    229    230    231    232    233    234    235    236    237    238    239    240    241    242    243    244    245    246    247    248    249
    225    226    251    250
    226    227    252    251
    227    228    253    252
    228    229    254    253
    229    230    255    254
    230    231    256    255
    231    232    257    256
    232    233    258    257
    233    234    259    258
    234    235    260    259
    235    236    261    260
    236    237    262    261
    237    238    263    262
    238    239    264    263
    239    240    265    264
    240    241    266    265
    241    242    267    266
    242    243    268    267
    243    244    269    268
    244    245    270    269
    245    246    271    270
    246    247    272    271
    247    248    273    272
    248    249    274    273
    249    225    250    274
    249    248    247    246    245    244    243    242    241    240    239    238    237    236    235    234    233    232    231    230    229    228    227    226    225
    250    251    252    253    254    255    256    257    258    259    260    261    262    263    264    265    266    267    268    269    270    271    272    273    274
    250    251    276    275
    251    252    277    276
    252    253    278    277
    253    254    279    278
    254    255    280    279
    255    256    281    280
    256    257    282    281
    257    258    283    282
    258    259    284    283
    259    260    285    284
    260    261    286    285
    261    262    287    286
    262    263    288    287
    263    264    289    288
    264    265    290    289
    265    266    291    290
    266    267    292    291
    267    268    293    292
    268    269    294    293
    269    270    295    294
    270    271    296    295
    271    272    297    296
    272    273    298    297
    273    274    299    298
    274    250    275    299
    274    273    272    271    270    269    268    267    266    265    264    263    262    261    260    259    258    257    256    255    254    253    252    251    250
    275    276    277    278    279    280    281    282    283    284    285    286    287    288    289    290    291    292    293    294    295    296    297    298    299
    275    276    301    300
    276    277    302    301
    277    278    303    302
    278    279    304    303
    279    280    305    304
    280    281    306    305
    281    282    307    306
    282    283    308    307
    283    284    309    308
    284    285    310    309
    285    286    311    310
    286    287    312    311
    287    288    313    312
    288    289    314    313
    289    290    315    314
    290    291    316    315
    291    292    317    316
    292    293    318    317
    293    294    319    318
    294    295    320    319
    295    296    321    320
    296    297    322    321
    297    298    323    322
    298    299    324    323
    299    275    300    324
    299    298    297    296    295    294    293    292    291    290    289    288    287    286    285    284    283    282    281    280    279    278    277    276    275
    300    301    302    303    304    305    306    307    308    309    310    311    312    313    314    315    316    317    318    319    320    321    322    323    324
    300    301    326    325
    301    302    327    326
    302    303    328    327
    303    304    329    328
    304    305    330    329
    305    306    331    330
    306    307    332    331
    307    308    333    332
    308    309    334    333
    309    310    335    334
    310    311    336    335
    311    312    337    336
    312    313    338    337
    313    314    339    338
    314    315    340    339
    315    316    341    340
    316    317    342    341
    317    318    343    342
    318    319    344    343
    319    320    345    344
    320    321    346    345
    321    322    347    346
    322    323    348    347
    323    324    349    348
    324    300    325    349
    324    323    322    321    320    319    318    317    316    315    314    313    312    311    310    309    308    307    306    305    304    303    302    301    300
    325    326    327    328    329    330    331    332    333    334    335    336    337    338    339    340    341    342    343    344    345    346    347    348    349
    325    326    351    350
    326    327    352    351
    327    328    353    352
    328    329    354    353
    329    330    355    354
    330    331    356    355
    331    332    357    356
    332    333    358    357
    333    334    359    358
    334    335    360    359
    335    336    361    360
    336    337    362    361
    337    338    363    362
    338    339    364    363
    339    340    365    364
    340    341    366    365
    341    342    367    366
    342    343    368    367
    343    344    369    368
    344    345    370    369
    345    346    371    370
    346    347    372    371
    347    348    373    372
    348    349    374    373
    349    325    350    374
    349    348    347    346    345    344    343    342    341    340    339    338    337    336    335    334    333    332    331    330    329    328    327    326    325
    350    351    352    353    354    355    356    357    358    359    360    361    362    363    364    365    366    367    368    369    370    371    372    373    374
    350    351    376    375
    351    352    377    376
    352    353    378    377
    353    354    379    378
    354    355    380    379
    355    356    381    380
    356    357    382    381
    357    358    383    382
    358    359    384    383
    359    360    385    384
    360    361    386    385
    361    362    387    386
    362    363    388    387
    363    364    389    388
    364    365    390    389
    365    366    391    390
    366    367    392    391
    367    368    393    392
    368    369    394    393
    369    370    395    394
    370    371    396    395
    371    372    397    396
    372    373    398    397
    373    374    399    398
    374    350    375    399
    374    373    372    371    370    369    368    367    366    365    364    363    362    361    360    359    358    357    356    355    354    353    352    351    350
    375    376    377    378    379    380    381    382    383    384    385    386    387    388    389    390    391    392    393    394    395    396    397    398    399
    375    376    401    400
    376    377    402    401
    377    378    403    402
    378    379    404    403
    379    380    405    404
    380    381    406    405
    381    382    407    406
    382    383    408    407
    383    384    409    408
    384    385    410    409
    385    386    411    410
    386    387    412    411
    387    388    413    412
    388    389    414    413
    389    390    415    414
    390    391    416    415
    391    392    417    416
    392    393    418    417
    393    394    419    418
    394    395    420    419
    395    396    421    420
    396    397    422    421
    397    398    423    422
    398    399    424    423
    399    375    400    424
    399    398    397    396    395    394    393    392    391    390    389    388    387    386    385    384    383    382    381    380    379    378    377    376    375
    400    401    402    403    404    405    406    407    408    409    410    411    412    413    414    415    416    417    418    419    420    421    422    423    424
    400    401    426    425
    401    402    427    426
    402    403    428    427
    403    404    429    428
    404    405    430    429
    405    406    431    430
    406    407    432    431
    407    408    433    432
    408    409    434    433
    409    410    435    434
    410    411    436    435
    411    412    437    436
    412    413    438    437
    413    414    439    438
    414    415    440    439
    415    416    441    440
    416    417    442    441
    417    418    443    442
    418    419    444    443
    419    420    445    444
    420    421    446    445
    421    422    447    446
    422    423    448    447
    423    424    449    448
    424    400    425    449
    424    423    422    421    420    419    418    417    416    415    414    413    412    411    410    409    408    407    406    405    404    403    402    401    400
    425    426    427    428    429    430    431    432    433    434    435    436    437    438    439    440    441    442    443    444    445    446    447    448    449
    425    426    451    450
    426    427    452    451
    427    428    453    452
    428    429    454    453
    429    430    455    454
    430    431    456    455
    431    432    457    456
    432    433    458    457
    433    434    459    458
    434    435    460    459
    435    436    461    460
    436    437    462    461
    437    438    463    462
    438    439    464    463
    439    440    465    464
    440    441    466    465
    441    442    467    466
    442    443    468    467
    443    444    469    468
    444    445    470    469
    445    446    471    470
    446    447    472    471
    447    448    473    472
    448    449    474    473
    449    425    450    474
    449    448    447    446    445    444    443    442    441    440    439    438    437    436    435    434    433    432    431    430    429    428    427    426    425
    450    451    452    453    454    455    456    457    458    459    460    461    462    463    464    465    466    467    468    469    470    471    472    473    474
    450    451    476    475
    451    452    477    476
    452    453    478    477
    453    454    479    478
    454    455    480    479
    455    456    481    480
    456    457    482    481
    457    458    483    482
    458    459    484    483
    459    460    485    484
    460    461    486    485
    461    462    487    486
    462    463    488    487
    463    464    489    488
    464    465    490    489
    465    466    491    490
    466    467    492    491
    467    468    493    492
    468    469    494    493
    469    470    495    494
    470    471    496    495
    471    472    497    496
    472    473    498    497
    473    474    499    498
    474    450    475    499
    474    473    472    471    470    469    468    467    466    465    464    463    462    461    460    459    458    457    456    455    454    453    452    451    450
    475    476    477    478    479    480    481    482    483    484    485    486    487    488    489    490    491    492    493    494    495    496    497    498    499
    475    476    501    500
    476    477    502    501
    477    478    503    502
    478    479    504    503
    479    480    505    504
    480    481    506    505
    481    482    507    506
    482    483    508    507
    483    484    509    508
    484    485    510    509
    485    486    511    510
    486    487    512    511
    487    488    513    512
    488    489    514    513
    489    490    515    514
    490    491    516    515
    491    492    517    516
    492    493    518    517
    493    494    519    518
    494    495    520    519
    495    496    521    520
    496    497    522    521
    497    498    523    522
    498    499    524    523
    499    475    500    524
    499    498    497    496    495    494    493    492    491    490    489    488    487    486    485    484    483    482    481    480    479    478    477    476    475
    500    501    502    503    504    505    506    507    508    509    510    511    512    513    514    515    516    517    518    519    520    521    522    523    524
    525    526      1      0
    526    527      2      1
    527    528      3      2
    528    529      4      3
    529    530      5      4
    530    531      6      5
    531    532      7      6
    532    533      8      7
    533    534      9      8
    534    535     10      9
    535    536     11     10
    536    537     12     11
    537    538     13     12
    538    539     14     13
    539    540     15     14
    540    541     16     15
    541    542     17     16
    542    543     18     17
    543    544     19     18
    544    545     20     19
    545    546     21     20
    546    547     22     21
    547    548     23     22
    548    549     24     23
    549    525      0     24
    549    548    547    546    545    544    543    542    541    540    539    538    537    536    535    534    533    532    531    530    529    528    527    526    525
      0      1      2      3      4      5      6      7      8      9     10     11     12     13     14     15     16     17     18     19     20     21     22     23     24
        </DataArray>
        <DataArray type="Int32" Name="offsets" format="ascii">
      4
      8
     12
     16
     20
     24
     28
     32
     36
     40
     44
     48
     52
     56
     60
     64
     68
     72
     76
     80
     84
     88
     92
     96
    100
    125
    150
    154
    158
    162
    166
    170
    174
    178
    182
    186
    190
    194
    198
    202
    206
    210
    214
    218
    222
    226
    230
    234
    238
    242
    246
    250
    275
    300
    304
    308
    312
    316
    320
    324
    328
    332
    336
    340
    344
    348
    352
    356
    360
    364
    368
    372
    376
    380
    384
    388
    392
    396
    400
    425
    450
    454
    458
    462
    466
    470
    474
    478
    482
    486
    490
    494
    498
    502
    506
    510
    514
    518
    522
    526
    530
    534
    538
    542
    546
    550
    575
    600
    604
    608
    612
    616
    620
    624
    628
    632
    636
    640
    644
    648
    652
    656
    660
    664
    668
    672
    676
    680
    684
    688
    692
    696
    700
    725
    750
    754
    758
    762
    766
    770
    774
    778
    782
    786
    790
    794
    798
    802
    806
    810
    814
    818
    822
    826
    830
    834
    838
    842
    846
    850
    875
    900
    904
    908
    912
    916
    920
    924
    928
    932
    936
    940
    944
    948
    952
    956
    960
    964
    968
    972
    976
    980
    984
    988
    992
    996
   1000
   1025
   1050
   1054
   1058
   1062
   1066
   1070
   1074
   1078
   1082
   1086
   1090
   1094
   1098
   1102
   1106
   1110
   1114
   1118
   1122
   1126
   1130
   1134
   1138
   1142
   1146
   1150
   1175
   1200
   1204
   1208
   1212
   1216
   1220
   1224
   1228
   1232
   1236
   1240
   1244
   1248
   1252
   1256
   1260
   1264
   1268
   1272
   1276
   1280
   1284
   1288
   1292
   1296
   1300
   1325
   1350
   1354
   1358
   1362
   1366
   1370
   1374
   1378
   1382
   1386
   1390
   1394
   1398
   1402
   1406
   1410
   1414
   1418
   1422
   1426
   1430
   1434
   1438
   1442
   1446
   1450
   1475
   1500
   1504
   1508
   1512
   1516
   1520
   1524
   1528
   1532
   1536
   1540
   1544
   1548
   1552
   1556
   1560
   1564
   1568
   1572
   1576
   1580
   1584
   1588
   1592
   1596
   1600
   1625
   1650
   1654
   1658
   1662
   1666
   1670
   1674
   1678
   1682
   1686
   1690
   1694
   1698
   1702
   1706
   1710
   1714
   1718
   1722
   1726
   1730
   1734
   1738
   1742
   1746
   1750
   1775
   1800
   1804
   1808
   1812
   1816
   1820
   1824
   1828
   1832
   1836
   1840
   1844
   1848
   1852
   1856
   1860
   1864
   1868
   1872
   1876
   1880
   1884
   1888
   1892
   1896
   1900
   1925
   1950
   1954
   1958
   1962
   1966
   1970
   1974
   1978
   1982
   1986
   1990
   1994
   1998
   2002
   2006
   2010
   2014
   2018
   2022
   2026
   2030
   2034
   2038
   2042
   2046
   2050
   2075
   2100
   2104
   2108
   2112
   2116
   2120
   2124
   2128
   2132
   2136
   2140
   2144
   2148
   2152
   2156
   2160
   2164
   2168
   2172
   2176
   2180
   2184
   2188
   2192
   2196
   2200
   2225
   2250
   2254
   2258
   2262
   2266
   2270
   2274
   2278
   2282
   2286
   2290
   2294
   2298
   2302
   2306
   2310
   2314
   2318
   2322
   2326
   2330
   2334
   2338
   2342
   2346
   2350
   2375
   2400
   2404
   2408
   2412
   2416
   2420
   2424
   2428
   2432
   2436
   2440
   2444
   2448
   2452
   2456
   2460
   2464
   2468
   2472
   2476
   2480
   2484
   2488
   2492
   2496
   2500
   2525
   2550
   2554
   2558
   2562
   2566
   2570
   2574
   2578
   2582
   2586
   2590
   2594
   2598
   2602
   2606
   2610
   2614
   2618
   2622
   2626
   2630
   2634
   2638
   2642
   2646
   2650
   2675
   2700
   2704
   2708
   2712
   2716
   2720
   2724
   2728
   2732
   2736
   2740
   2744
   2748
   2752
   2756
   2760
   2764
   2768
   2772
   2776
   2780
   2784
   2788
   2792
   2796
   2800
   2825
   2850
   2854
   2858
   2862
   2866
   2870
   2874
   2878
   2882
   2886
   2890
   2894
   2898
   2902
   2906
   2910
   2914
   2918
   2922
   2926
   2930
   2934
   2938
   2942
   2946
   2950
   2975
   3000
   3004
   3008
   3012
   3016
   3020
   3024
   3028
   3032
   3036
   3040
   3044
   3048
   3052
   3056
   3060
   3064
   3068
   3072
   3076
   3080
   3084
   3088
   3092
   3096
   3100
   3125
   3150
        </DataArray>
      </Polys>
    </Piece>
  </PolyData>
</VTKFile>
