<?xml version="1.0"?>
<VTKFile type="PolyData" version="0.1" byte_order="LittleEndian">
  <PolyData>
    <Piece NumberOfPoints="    550" NumberOfVerts="  0" NumberOfLines="     21"
           NumberOfStrips="  0" NumberOfPolys="    567">
      <Points>
        <DataArray type="Float32" NumberOfComponents="3" format="ascii">
                       2.97344                      -0.00001                       2.18982
                       2.88002                       0.73944                       2.18983
                       2.60565                       1.43243                       2.18985
                       2.16756                       2.03541                       2.18988
                       1.59328                       2.51050                       2.18992
                       0.91889                       2.82784                       2.18996
                       0.18676                       2.96750                       2.19001
                      -0.55709                       2.92070                       2.19005
                      -1.26594                       2.69038                       2.19009
                      -1.89524                       2.29102                       2.19013
                      -2.40545                       1.74770                       2.19016
                      -2.76451                       1.09457                       2.19017
                      -2.94987                       0.37266                       2.19018
                      -2.94987                      -0.37267                       2.19018
                      -2.76451                      -1.09458                       2.19016
                      -2.40545                      -1.74771                       2.19013
                      -1.89524                      -2.29103                       2.19010
                      -1.26594                      -2.69040                       2.19006
                      -0.55709                      -2.92072                       2.19002
                       0.18676                      -2.96751                       2.18997
                       0.91889                      -2.82785                       2.18993
                       1.59328                      -2.51051                       2.18989
                       2.16756                      -2.03542                       2.18986
                       2.60565                      -1.43244                       2.18983
                       2.88002                      -0.73946                       2.18982
                       2.92076                      -0.00006                       6.56940
                       2.82902                       0.72615                       6.56943
                       2.55956                       1.40672                       6.56950
                       2.12932                       1.99890                       6.56960
                       1.56532                       2.46548                       6.56972
                       0.90301                       2.77714                       6.56986
                       0.18399                       2.91430                       6.57001
                      -0.54654                       2.86834                       6.57016
                      -1.24269                       2.64215                       6.57030
                      -1.86072                       2.24994                       6.57042
                      -2.36179                       1.71635                       6.57052
                      -2.71443                       1.07491                       6.57058
                      -2.89646                       0.36593                       6.57060
                      -2.89646                      -0.36605                       6.57059
                      -2.71443                      -1.07503                       6.57054
                      -2.36179                      -1.71647                       6.57046
                      -1.86072                      -2.25006                       6.57034
                      -1.24269                      -2.64227                       6.57021
                      -0.54654                      -2.86846                       6.57006
                       0.18399                      -2.91442                       6.56991
                       0.90301                      -2.77726                       6.56976
                       1.56532                      -2.46560                       6.56963
                       2.12932                      -1.99902                       6.56953
                       2.55956                      -1.40684                       6.56945
                       2.82902                      -0.72627                       6.56940
                       2.86877                      -0.00016                      10.94893
                       2.77871                       0.71280                      10.94899
                       2.51416                       1.38097                      10.94910
                       2.09176                       1.96235                      10.94928
                       1.53805                       2.42042                      10.94950
                       0.88781                       2.72640                      10.94975
                       0.18191                       2.86106                      10.95001
                      -0.53530                       2.81594                      10.95028
                      -1.21876                       2.59387                      10.95052
                      -1.82552                       2.20881                      10.95074
                      -2.31745                       1.68495                      10.95091
                      -2.66365                       1.05521                      10.95102
                      -2.84237                       0.35916                      10.95107
                      -2.84237                      -0.35947                      10.95105
                      -2.66365                      -1.05553                      10.95096
                      -2.31745                      -1.68527                      10.95081
                      -1.82552                      -2.20912                      10.95062
                      -1.21876                      -2.59418                      10.95038
                      -0.53530                      -2.81625                      10.95012
                       0.18191                      -2.86138                      10.94985
                       0.88781                      -2.72672                      10.94960
                       1.53805                      -2.42074                      10.94936
                       2.09176                      -1.96267                      10.94917
                       2.51416                      -1.38129                      10.94903
                       2.77871                      -0.71312                      10.94895
                       2.81752                      -0.00030                      15.32847
                       2.72913                       0.69942                      15.32855
                       2.46950                       1.35517                      15.32871
                       2.05494                       1.92576                      15.32896
                       1.51152                       2.37532                      15.32927
                       0.87336                       2.67562                      15.32963
                       0.18057                       2.80777                      15.33001
                      -0.52332                       2.76349                      15.33039
                      -1.19408                       2.54554                      15.33074
                      -1.78957                       2.16764                      15.33105
                      -2.27237                       1.65351                      15.33129
                      -2.61214                       1.03546                      15.33146
                      -2.78754                       0.35234                      15.33153
                      -2.78754                      -0.35294                      15.33150
                      -2.61214                      -1.03606                      15.33138
                      -2.27237                      -1.65411                      15.33117
                      -1.78957                      -2.16824                      15.33089
                      -1.19408                      -2.54614                      15.33055
                      -0.52332                      -2.76409                      15.33018
                       0.18057                      -2.80837                      15.32980
                       0.87336                      -2.67622                      15.32943
                       1.51151                      -2.37592                      15.32909
                       2.05494                      -1.92636                      15.32882
                       2.46950                      -1.35577                      15.32861
                       2.72913                      -0.70002                      15.32850
                       2.76702                      -0.00048                      19.70804
                       2.68030                       0.68600                      19.70813
                       2.42558                       1.32934                      19.70834
                       2.01887                       1.88913                      19.70866
                       1.48573                       2.33018                      19.70906
                       0.85965                       2.62479                      19.70951
                       0.17997                       2.75445                      19.71000
                      -0.51060                       2.71100                      19.71049
                      -1.16867                       2.49718                      19.71095
                      -1.75288                       2.12642                      19.71135
                      -2.22655                       1.62203                      19.71166
                      -2.55989                       1.01568                      19.71187
                      -2.73196                       0.34549                      19.71196
                      -2.73196                      -0.34645                      19.71193
                      -2.55989                      -1.01664                      19.71177
                      -2.22655                      -1.62299                      19.71151
                      -1.75288                      -2.12739                      19.71115
                      -1.16867                      -2.49814                      19.71072
                      -0.51060                      -2.71196                      19.71024
                       0.17997                      -2.75541                      19.70975
                       0.85965                      -2.62575                      19.70927
                       1.48573                      -2.33114                      19.70884
                       2.01887                      -1.89009                      19.70848
                       2.42558                      -1.33030                      19.70822
                       2.68030                      -0.68696                      19.70807
                       2.71723                      -0.00070                      24.08764
                       2.63218                       0.67253                      24.08775
                       2.38238                       1.30346                      24.08800
                       1.98352                       1.85245                      24.08838
                       1.46066                       2.28500                      24.08886
                       0.84666                       2.57393                      24.08941
                       0.18009                       2.70108                      24.09000
                      -0.49716                       2.65847                      24.09059
                      -1.14253                       2.44878                      24.09114
                      -1.71548                       2.08517                      24.09161
                      -2.18000                       1.59050                      24.09199
                      -2.50691                       0.99586                      24.09224
                      -2.67567                       0.33859                      24.09235
                      -2.67567                      -0.34000                      24.09232
                      -2.50691                      -0.99726                      24.09213
                      -2.18000                      -1.59191                      24.09181
                      -1.71548                      -2.08658                      24.09138
                      -1.14253                      -2.45018                      24.09086
                      -0.49716                      -2.65988                      24.09029
                       0.18009                      -2.70249                      24.08970
                       0.84666                      -2.57533                      24.08913
                       1.46066                      -2.28641                      24.08861
                       1.98352                      -1.85386                      24.08818
                       2.38238                      -1.30487                      24.08786
                       2.63218                      -0.67394                      24.08768
                       2.66813                      -0.00097                      28.46728
                       2.58475                       0.65902                      28.46741
                       2.33986                       1.27755                      28.46770
                       1.94885                       1.81573                      28.46814
                       1.43627                       2.23977                      28.46869
                       0.83435                       2.52302                      28.46932
                       0.18089                       2.64767                      28.47000
                      -0.48303                       2.60590                      28.47067
                      -1.11571                       2.40033                      28.47131
                      -1.67739                       2.04388                      28.47186
                      -2.13277                       1.55894                      28.47229
                      -2.45325                       0.97599                      28.47258
                      -2.61869                       0.33165                      28.47271
                      -2.61869                      -0.33359                      28.47267
                      -2.45325                      -0.97793                      28.47245
                      -2.13277                      -1.56088                      28.47209
                      -1.67739                      -2.04581                      28.47159
                      -1.11571                      -2.40227                      28.47099
                      -0.48303                      -2.60784                      28.47033
                       0.18089                      -2.64961                      28.46965
                       0.83435                      -2.52495                      28.46899
                       1.43627                      -2.24171                      28.46839
                       1.94885                      -1.81767                      28.46790
                       2.33986                      -1.27948                      28.46753
                       2.58475                      -0.66096                      28.46732
                       2.61968                      -0.00128                      32.84696
                       2.53797                       0.64547                      32.84710
                       2.29800                       1.25158                      32.84743
                       1.91483                       1.77897                      32.84791
                       1.41254                       2.19450                      32.84853
                       0.82269                       2.47206                      32.84924
                       0.18235                       2.59421                      32.85000
                      -0.46825                       2.55328                      32.85076
                      -1.08824                       2.35184                      32.85146
                      -1.63864                       2.00254                      32.85208
                      -2.08489                       1.52733                      32.85257
                      -2.39894                       0.95608                      32.85289
                      -2.56106                       0.32467                      32.85303
                      -2.56106                      -0.32722                      32.85298
                      -2.39894                      -0.95863                      32.85274
                      -2.08489                      -1.52989                      32.85233
                      -1.63864                      -2.00509                      32.85178
                      -1.08824                      -2.35439                      32.85111
                      -0.46825                      -2.55584                      32.85037
                       0.18235                      -2.59677                      32.84960
                       0.82269                      -2.47462                      32.84887
                       1.41254                      -2.19706                      32.84820
                       1.91483                      -1.78153                      32.84764
                       2.29800                      -1.25414                      32.84724
                       2.53797                      -0.64803                      32.84700
                       2.57185                      -0.00164                      37.22666
                       2.49182                       0.63187                      37.22682
                       2.25676                       1.22557                      37.22718
                       1.88143                       1.74216                      37.22771
                       1.38943                       2.14918                      37.22839
                       0.81166                       2.42106                      37.22917
                       0.18443                       2.54071                      37.23000
                      -0.45285                       2.50062                      37.23083
                      -1.06014                       2.30330                      37.23161
                      -1.59928                       1.96115                      37.23229
                      -2.03639                       1.49567                      37.23282
                      -2.34401                       0.93611                      37.23317
                      -2.50281                       0.31763                      37.23332
                      -2.50281                      -0.32091                      37.23327
                      -2.34401                      -0.93939                      37.23301
                      -2.03639                      -1.49895                      37.23255
                      -1.59928                      -1.96442                      37.23194
                      -1.06014                      -2.30657                      37.23121
                      -0.45285                      -2.50389                      37.23039
                       0.18443                      -2.54399                      37.22956
                       0.81166                      -2.42433                      37.22875
                       1.38943                      -2.15246                      37.22801
                       1.88143                      -1.74544                      37.22741
                       2.25676                      -1.22884                      37.22696
                       2.49182                      -0.63514                      37.22671
                       2.52464                      -0.00205                      41.60637
                       2.44628                       0.61822                      41.60655
                       2.21613                       1.19951                      41.60694
                       1.84865                       1.70530                      41.60752
                       1.36693                       2.10381                      41.60826
                       0.80124                       2.37001                      41.60911
                       0.18712                       2.48716                      41.61001
                      -0.43684                       2.44790                      41.61091
                      -1.03143                       2.25470                      41.61175
                      -1.55930                       1.91971                      41.61248
                      -1.98727                       1.46396                      41.61305
                      -2.28846                       0.91610                      41.61344
                      -2.44394                       0.31055                      41.61360
                      -2.44394                      -0.31464                      41.61354
                      -2.28846                      -0.92020                      41.61325
                      -1.98727                      -1.46806                      41.61276
                      -1.55930                      -1.92380                      41.61210
                      -1.03143                      -2.25880                      41.61130
                      -0.43684                      -2.45200                      41.61042
                       0.18712                      -2.49125                      41.60951
                       0.80124                      -2.37410                      41.60863
                       1.36693                      -2.10791                      41.60784
                       1.84865                      -1.70939                      41.60718
                       2.21613                      -1.20360                      41.60670
                       2.44628                      -0.62231                      41.60642
                       2.47804                      -0.00251                      45.98610
                       2.40136                       0.60451                      45.98629
                       2.17612                       1.17339                      45.98671
                       1.81649                       1.66838                      45.98734
                       1.34505                       2.05839                      45.98813
                       0.79144                       2.31890                      45.98904
                       0.19043                       2.43354                      45.99001
                      -0.42020                       2.39513                      45.99098
                      -1.00210                       2.20606                      45.99188
                      -1.51870                       1.87821                      45.99267
                      -1.93754                       1.43220                      45.99328
                      -2.23230                       0.89603                      45.99369
                      -2.38446                       0.30341                      45.99387
                      -2.38446                      -0.30844                      45.99380
                      -2.23230                      -0.90106                      45.99349
                      -1.93754                      -1.43722                      45.99296
                      -1.51870                      -1.88324                      45.99224
                      -1.00210                      -2.21108                      45.99138
                      -0.42020                      -2.40015                      45.99044
                       0.19043                      -2.43857                      45.98946
                       0.79144                      -2.32392                      45.98852
                       1.34505                      -2.06341                      45.98767
                       1.81649                      -1.67341                      45.98696
                       2.17612                      -1.17841                      45.98644
                       2.40136                      -0.60953                      45.98615
                       2.43208                      -0.00304                      50.36582
                       2.35707                       0.59074                      50.36603
                       2.13675                       1.14721                      50.36648
                       1.78496                       1.63140                      50.36715
                       1.32381                       2.01290                      50.36800
                       0.78228                       2.26773                      50.36898
                       0.19438                       2.37988                      50.37001
                      -0.40293                       2.34230                      50.37105
                      -0.97214                       2.15735                      50.37201
                      -1.47747                       1.83666                      50.37285
                      -1.88717                       1.40037                      50.37351
                      -2.17549                       0.87591                      50.37395
                      -2.32433                       0.29621                      50.37413
                      -2.32433                      -0.30229                      50.37406
                      -2.17549                      -0.88198                      50.37372
                      -1.88717                      -1.40645                      50.37316
                      -1.47747                      -1.84273                      50.37239
                      -0.97214                      -2.16343                      50.37147
                      -0.40294                      -2.34837                      50.37046
                       0.19438                      -2.38595                      50.36941
                       0.78228                      -2.27380                      50.36840
                       1.32381                      -2.01898                      50.36749
                       1.78496                      -1.63748                      50.36674
                       2.13675                      -1.15328                      50.36619
                       2.35707                      -0.59682                      50.36588
                       2.38679                      -0.00362                      54.74555
                       2.31345                       0.57691                      54.74577
                       2.09804                       1.12097                      54.74625
                       1.75410                       1.59437                      54.74697
                       1.30323                       1.96736                      54.74787
                       0.77378                       2.21650                      54.74891
                       0.19899                       2.32615                      54.75002
                      -0.38500                       2.28941                      54.75112
                      -0.94151                       2.10858                      54.75214
                      -1.43557                       1.79505                      54.75304
                      -1.83613                       1.36849                      54.75373
                      -2.11803                       0.85572                      54.75420
                      -2.26355                       0.28895                      54.75439
                      -2.26355                      -0.29620                      54.75431
                      -2.11803                      -0.86296                      54.75396
                      -1.83613                      -1.37573                      54.75335
                      -1.43557                      -1.80229                      54.75253
                      -0.94151                      -2.11583                      54.75155
                      -0.38500                      -2.29665                      54.75047
                       0.19899                      -2.33339                      54.74936
                       0.77378                      -2.22374                      54.74829
                       1.30323                      -1.97460                      54.74732
                       1.75410                      -1.60161                      54.74652
                       2.09804                      -1.12821                      54.74594
                       2.31345                      -0.58416                      54.74560
                       2.34218                      -0.00427                      59.12528
                       2.27051                       0.56303                      59.12551
                       2.06002                       1.09468                      59.12602
                       1.72392                       1.55727                      59.12679
                       1.28334                       1.92175                      59.12775
                       0.76596                       2.16521                      59.12885
                       0.20429                       2.27236                      59.13001
                      -0.36638                       2.23645                      59.13118
                      -0.91020                       2.05976                      59.13227
                      -1.39299                       1.75337                      59.13321
                      -1.78441                       1.33655                      59.13395
                      -2.05988                       0.83547                      59.13444
                      -2.20208                       0.28163                      59.13465
                      -2.20208                      -0.29017                      59.13456
                      -2.05988                      -0.84400                      59.13418
                      -1.78441                      -1.34508                      59.13354
                      -1.39299                      -1.76190                      59.13267
                      -0.91020                      -2.06829                      59.13163
                      -0.36638                      -2.24499                      59.13049
                       0.20429                      -2.28089                      59.12931
                       0.76596                      -2.17374                      59.12818
                       1.28334                      -1.93028                      59.12715
                       1.72392                      -1.56580                      59.12630
                       2.06002                      -1.10321                      59.12569
                       2.27051                      -0.57156                      59.12534
                       2.29826                      -0.00497                      63.50503
                       2.22827                       0.54908                      63.50527
                       2.02269                       1.06832                      63.50581
                       1.69444                       1.52012                      63.50661
                       1.26414                       1.87609                      63.50763
                       0.75884                       2.11387                      63.50878
                       0.21028                       2.21851                      63.51001
                      -0.34707                       2.18344                      63.51124
                      -0.87819                       2.01087                      63.51238
                      -1.34971                       1.71164                      63.51337
                      -1.73199                       1.30454                      63.51415
                      -2.00103                       0.81517                      63.51466
                      -2.13991                       0.27426                      63.51488
                      -2.13991                      -0.28420                      63.51478
                      -2.00103                      -0.82511                      63.51439
                      -1.73199                      -1.31448                      63.51371
                      -1.34971                      -1.72158                      63.51280
                      -0.87819                      -2.02081                      63.51171
                      -0.34707                      -2.19338                      63.51050
                       0.21028                      -2.22845                      63.50927
                       0.75884                      -2.12380                      63.50807
                       1.26414                      -1.88603                      63.50700
                       1.69444                      -1.53005                      63.50610
                       2.02269                      -1.07826                      63.50545
                       2.22827                      -0.55902                      63.50509
                       2.25501                      -0.00573                      67.88481
                       2.18669                       0.53508                      67.88507
                       1.98603                       1.04190                      67.88563
                       1.66562                       1.48290                      67.88647
                       1.24561                       1.83037                      67.88752
                       0.75239                       2.06246                      67.88873
                       0.21694                       2.16460                      67.89001
                      -0.32709                       2.13037                      67.89128
                      -0.84551                       1.96193                      67.89247
                      -1.30576                       1.66985                      67.89350
                      -1.67891                       1.27248                      67.89431
                      -1.94151                       0.79480                      67.89484
                      -2.07708                       0.26682                      67.89507
                      -2.07708                      -0.27828                      67.89497
                      -1.94151                      -0.80626                      67.89456
                      -1.67891                      -1.28394                      67.89385
                      -1.30576                      -1.68131                      67.89290
                      -0.84551                      -1.97339                      67.89176
                      -0.32709                      -2.14184                      67.89051
                       0.21694                      -2.17607                      67.88922
                       0.75239                      -2.07392                      67.88798
                       1.24561                      -1.84183                      67.88686
                       1.66562                      -1.49436                      67.88593
                       1.98603                      -1.05336                      67.88526
                       2.18669                      -0.54654                      67.88488
                       2.21236                      -0.00655                      72.26467
                       2.14572                       0.52102                      72.26493
                       1.94996                       1.01543                      72.26551
                       1.63741                       1.44563                      72.26637
                       1.22768                       1.78459                      72.26745
                       0.74653                       2.01100                      72.26869
                       0.22420                       2.11064                      72.27000
                      -0.30651                       2.07725                      72.27131
                      -0.81224                       1.91293                      72.27253
                      -1.26122                       1.62800                      72.27359
                      -1.62523                       1.24037                      72.27441
                      -1.88140                       0.77438                      72.27496
                      -2.01365                       0.25933                      72.27519
                      -2.01365                      -0.27243                      72.27509
                      -1.88140                      -0.78748                      72.27466
                      -1.62523                      -1.25346                      72.27394
                      -1.26122                      -1.64110                      72.27296
                      -0.81224                      -1.92602                      72.27179
                      -0.30651                      -2.09035                      72.27051
                       0.22420                      -2.12374                      72.26919
                       0.74653                      -2.02409                      72.26791
                       1.22768                      -1.79768                      72.26676
                       1.63740                      -1.45873                      72.26581
                       1.94996                      -1.02853                      72.26512
                       2.14572                      -0.53411                      72.26473
                       2.17015                      -0.00741                      76.64463
                       2.10518                       0.50691                      76.64490
                       1.91434                       0.98892                      76.64548
                       1.60963                       1.40832                      76.64635
                       1.21019                       1.73876                      76.64743
                       0.74112                       1.95949                      76.64868
                       0.23189                       2.05663                      76.65000
                      -0.28549                       2.02408                      76.65131
                      -0.77853                       1.86388                      76.65254
                      -1.21624                       1.58611                      76.65360
                      -1.57111                       1.20820                      76.65443
                      -1.82086                       0.75392                      76.65497
                      -1.94978                       0.25179                      76.65520
                      -1.94978                      -0.26662                      76.65509
                      -1.82086                      -0.76874                      76.65466
                      -1.57111                      -1.22303                      76.65393
                      -1.21624                      -1.60093                      76.65295
                      -0.77853                      -1.87871                      76.65178
                      -0.28550                      -2.03890                      76.65049
                       0.23189                      -2.07145                      76.64916
                       0.74112                      -1.97431                      76.64788
                       1.21018                      -1.75359                      76.64673
                       1.60962                      -1.42314                      76.64577
                       1.91434                      -1.00374                      76.64508
                       2.10518                      -0.52173                      76.64469
                       2.12812                      -0.00832                      81.02475
                       2.06482                       0.49276                      81.02502
                       1.87889                       0.96236                      81.02559
                       1.58203                       1.37096                      81.02643
                       1.19287                       1.69290                      81.02750
                       0.73588                       1.90794                      81.02871
                       0.23976                       2.00258                      81.03000
                      -0.26430                       1.97087                      81.03128
                      -0.74464                       1.81480                      81.03247
                      -1.17108                       1.54417                      81.03350
                      -1.51681                       1.17600                      81.03431
                      -1.76013                       0.73341                      81.03484
                      -1.88573                       0.24421                      81.03505
                      -1.88573                      -0.26085                      81.03495
                      -1.76013                      -0.75004                      81.03452
                      -1.51681                      -1.19263                      81.03381
                      -1.17108                      -1.56080                      81.03285
                      -0.74464                      -1.83143                      81.03170
                      -0.26430                      -1.98750                      81.03044
                       0.23976                      -2.01922                      81.02915
                       0.73588                      -1.92458                      81.02790
                       1.19287                      -1.70953                      81.02678
                       1.58202                      -1.38759                      81.02585
                       1.87889                      -0.97899                      81.02518
                       2.06482                      -0.50939                      81.02480
                       2.08587                      -0.00925                      85.40508
                       2.02424                       0.47858                      85.40534
                       1.84323                       0.93577                      85.40588
                       1.55421                       1.33357                      85.40667
                       1.17534                       1.64700                      85.40767
                       0.73042                       1.85636                      85.40880
                       0.24742                       1.94850                      85.41000
                      -0.24332                       1.91763                      85.41120
                      -0.71097                       1.76568                      85.41231
                      -1.12613                       1.50220                      85.41327
                      -1.46273                       1.14376                      85.41401
                      -1.69962                       0.71287                      85.41450
                      -1.82190                       0.23660                      85.41470
                      -1.82190                      -0.25511                      85.41459
                      -1.69962                      -0.73138                      85.41419
                      -1.46273                      -1.16227                      85.41352
                      -1.12613                      -1.52071                      85.41261
                      -0.71097                      -1.78418                      85.41154
                      -0.24332                      -1.93613                      85.41036
                       0.24742                      -1.96701                      85.40916
                       0.73042                      -1.87487                      85.40799
                       1.17534                      -1.66551                      85.40695
                       1.55421                      -1.35208                      85.40609
                       1.84323                      -0.95427                      85.40547
                       2.02424                      -0.49709                      85.40513
                       2.06449                      -0.00973                      87.59535
                       2.00370                       0.47148                      87.59559
                       1.82515                       0.92246                      87.59611
                       1.54005                       1.31487                      87.59686
                       1.16632                       1.62404                      87.59781
                       0.72745                       1.83056                      87.59888
                       0.25100                       1.92145                      87.60001
                      -0.23308                       1.89099                      87.60114
                      -0.69438                       1.74111                      87.60219
                      -1.10391                       1.48121                      87.60309
                      -1.43594                       1.12763                      87.60379
                      -1.66961                       0.70259                      87.60424
                      -1.79024                       0.23279                      87.60442
                      -1.79024                      -0.25225                      87.60431
                      -1.66961                      -0.72205                      87.60393
                      -1.43594                      -1.14710                      87.60329
                      -1.10391                      -1.50067                      87.60243
                      -0.69438                      -1.76057                      87.60142
                      -0.23308                      -1.91046                      87.60031
                       0.25100                      -1.94091                      87.59917
                       0.72744                      -1.85003                      87.59807
                       1.16632                      -1.64351                      87.59709
                       1.54005                      -1.33433                      87.59628
                       1.82515                      -0.94192                      87.59570
                       2.00370                      -0.49095                      87.59538
                       3.00000                       0.00000                       0.00000
                       2.90575                       0.74607                       0.00000
                       2.62892                       1.44526                       0.00000
                       2.18691                       2.05364                       0.00000
                       1.60748                       2.53298                       0.00000
                       0.92705                       2.85317                       0.00000
                       0.18837                       2.99408                       0.00000
                      -0.56214                       2.94686                       0.00000
                      -1.27734                       2.71448                       0.00000
                      -1.91227                       2.31154                       0.00000
                      -2.42705                       1.76336                       0.00000
                      -2.78933                       1.10437                       0.00000
                      -2.97634                       0.37600                       0.00000
                      -2.97634                      -0.37600                       0.00000
                      -2.78933                      -1.10437                       0.00000
                      -2.42705                      -1.76336                       0.00000
                      -1.91227                      -2.31154                       0.00000
                      -1.27734                      -2.71448                       0.00000
                      -0.56214                      -2.94686                       0.00000
                       0.18837                      -2.99408                       0.00000
                       0.92705                      -2.85317                       0.00000
                       1.60748                      -2.53298                       0.00000
                       2.18691                      -2.05364                       0.00000
                       2.62892                      -1.44526                       0.00000
                       2.90575                      -0.74607                       0.00000
        </DataArray>
      </Points>
      <Polys>
        <DataArray type="Int32" Name="connectivity" format="ascii">
      0      1     26     25
      1      2     27     26
      2      3     28     27
      3      4     29     28
      4      5     30     29
      5      6     31     30
      6      7     32     31
      7      8     33     32
      8      9     34     33
      9     10     35     34
     10     11     36     35
     11     12     37     36
     12     13     38     37
     13     14     39     38
     14     15     40     39
     15     16     41     40
     16     17     42     41
     17     18     43     42
     18     19     44     43
     19     20     45     44
     20     21     46     45
     21     22     47     46
     22     23     48     47
     23     24     49     48
     24      0     25     49
     24     23     22     21     20     19     18     17     16     15     14     13     12     11     10      9      8      7      6      5      4      3      2      1      0
     25     26     27     28     29     30     31     32     33     34     35     36     37     38     39     40     41     42     43     44     45     46     47     48     49
     25     26     51     50
     26     27     52     51
     27     28     53     52
     28     29     54     53
     29     30     55     54
     30     31     56     55
     31     32     57     56
     32     33     58     57
     33     34     59     58
     34     35     60     59
     35     36     61     60
     36     37     62     61
     37     38     63     62
     38     39     64     63
     39     40     65     64
     40     41     66     65
     41     42     67     66
     42     43     68     67
     43     44     69     68
     44     45     70     69
     45     46     71     70
     46     47     72     71
     47     48     73     72
     48     49     74     73
     49     25     50     74
     49     48     47     46     45     44     43     42     41     40     39     38     37     36     35     34     33     32     31     30     29     28     27     26     25
     50     51     52     53     54     55     56     57     58     59     60     61     62     63     64     65     66     67     68     69     70     71     72     73     74
     50     51     76     75
     51     52     77     76
     52     53     78     77
     53     54     79     78
     54     55     80     79
     55     56     81     80
     56     57     82     81
     57     58     83     82
     58     59     84     83
     59     60     85     84
     60     61     86     85
     61     62     87     86
     62     63     88     87
     63     64     89     88
     64     65     90     89
     65     66     91     90
     66     67     92     91
     67     68     93     92
     68     69     94     93
     69     70     95     94
     70     71     96     95
     71     72     97     96
     72     73     98     97
     73     74     99     98
     74     50     75     99
     74     73     72     71     70     69     68     67     66     65     64     63     62     61     60     59     58     57     56     55     54     53     52     51     50
     75     76     77     78     79     80     81     82     83     84     85     86     87     88     89     90     91     92     93     94     95     96     97     98     99
     75     76    101    100
     76     77    102    101
     77     78    103    102
     78     79    104    103
     79     80    105    104
     80     81    106    105
     81     82    107    106
     82     83    108    107
     83     84    109    108
     84     85    110    109
     85     86    111    110
     86     87    112    111
     87     88    113    112
     88     89    114    113
     89     90    115    114
     90     91    116    115
     91     92    117    116
     92     93    118    117
     93     94    119    118
     94     95    120    119
     95     96    121    120
     96     97    122    121
     97     98    123    122
     98     99    124    123
     99     75    100    124
     99     98     97     96     95     94     93     92     91     90     89     88     87     86     85     84     83     82     81     80     79     78     77     76     75
    100    101    102    103    104    105    106    107    108    109    110    111    112    113    114    115    116    117    118    119    120    121    122    123    124
    100    101    126    125
    101    102    127    126
    102    103    128    127
    103    104    129    128
    104    105    130    129
    105    106    131    130
    106    107    132    131
    107    108    133    132
    108    109    134    133
    109    110    135    134
    110    111    136    135
    111    112    137    136
    112    113    138    137
    113    114    139    138
    114    115    140    139
    115    116    141    140
    116    117    142    141
    117    118    143    142
    118    119    144    143
    119    120    145    144
    120    121    146    145
    121    122    147    146
    122    123    148    147
    123    124    149    148
    124    100    125    149
    124    123    122    121    120    119    118    117    116    115    114    113    112    111    110    109    108    107    106    105    104    103    102    101    100
    125    126    127    128    129    130    131    132    133    134    135    136    137    138    139    140    141    142    143    144    145    146    147    148    149
    125    126    151    150
    126    127    152    151
    127    128    153    152
    128    129    154    153
    129    130    155    154
    130    131    156    155
    131    132    157    156
    132    133    158    157
    133    134    159    158
    134    135    160    159
    135    136    161    160
    136    137    162    161
    137    138    163    162
    138    139    164    163
    139    140    165    164
    140    141    166    165
    141    142    167    166
    142    143    168    167
    143    144    169    168
    144    145    170    169
    145    146    171    170
    146    147    172    171
    147    148    173    172
    148    149    174    173
    149    125    150    174
    149    148    147    146    145    144    143    142    141    140    139    138    137    136    135    134    133    132    131    130    129    128    127    126    125
    150    151    152    153    154    155    156    157    158    159    160    161    162    163    164    165    166    167    168    169    170    171    172    173    174
    150    151    176    175
    151    152    177    176
    152    153    178    177
    153    154    179    178
    154    155    180    179
    155    156    181    180
    156    157    182    181
    157    158    183    182
    158    159    184    183
    159    160    185    184
    160    161    186    185
    161    162    187    186
    162    163    188    187
    163    164    189    188
    164    165    190    189
    165    166    191    190
    166    167    192    191
    167    168    193    192
    168    169    194    193
    169    170    195    194
    170    171    196    195
    171    172    197    196
    172    173    198    197
    173    174    199    198
    174    150    175    199
    174    173    172    171    170    169    168    167    166    165    164    163    162    161    160    159    158    157    156    155    154    153    152    151    150
    175    176    177    178    179    180    181    182    183    184    185    186    187    188    189    190    191    192    193    194    195    196    197    198    199
    175    176    201    200
    176    177    202    201
    177    178    203    202
    178    179    204    203
    179    180    205    204
    180    181    206    205
    181    182    207    206
    182    183    208    207
    183    184    209    208
    184    185    210    209
    185    186    211    210
    186    187    212    211
    187    188    213    212
    188    189    214    213
    189    190    215    214
    190    191    216    215
    191    192    217    216
    192    193    218    217
    193    194    219    218
    194    195    220    219
    195    196    221    220
    196    197    222    221
    197    198    223    222
    198    199    224    223
    199    175    200    224
    199    198    197    196    195    194    193    192    191    190    189    188    187    186    185    184    183    182    181    180    179    178    177    176    175
    200    201    202    203    204    205    206    207    208    209    210    211    212    213    214    215    216    217    218    219    220    221    222    223    224
    200    201    226    225
    201    202    227    226
    202    203    228    227
    203    204    229    228
    204    205    230    229
    205    206    231    230
    206    207    232    231
    207    208    233    232
    208    209    234    233
    209    210    235    234
    210    211    236    235
    211    212    237    236
    212    213    238    237
    213    214    239    238
    214    215    240    239
    215    216    241    240
    216    217    242    241
    217    218    243    242
    218    219    244    243
    219    220    245    244
    220    221    246    245
    221    222    247    246
    222    223    248    247
    223    224    249    248
    224    200    225    249
    224    223    222    221    220    219    218    217    216    215    214    213    212    211    210    209    208    207    206    205    204    203    202    201    200
    225    226    227    228    229    230    231    232    233    234    235    236    237    238    239    240    241    242    243    244    245    246    247    248    249
    225    226    251    250
    226    227    252    251
    227    228    253    252
    228    229    254    253
    229    230    255    254
    230    231    256    255
    231    232    257    256
    232    233    258    257
    233    234    259    258
    234    235    260    259
    235    236    261    260
    236    237    262    261
    237    238    263    262
    238    239    264    263
    239    240    265    264
    240    241    266    265
    241    242    267    266
    242    243    268    267
    243    244    269    268
    244    245    270    269
    245    246    271    270
    246    247    272    271
    247    248    273    272
    248    249    274    273
    249    225    250    274
    249    248    247    246    245    244    243    242    241    240    239    238    237    236    235    234    233    232    231    230    229    228    227    226    225
    250    251    252    253    254    255    256    257    258    259    260    261    262    263    264    265    266    267    268    269    270    271    272    273    274
    250    251    276    275
    251    252    277    276
    252    253    278    277
    253    254    279    278
    254    255    280    279
    255    256    281    280
    256    257    282    281
    257    258    283    282
    258    259    284    283
    259    260    285    284
    260    261    286    285
    261    262    287    286
    262    263    288    287
    263    264    289    288
    264    265    290    289
    265    266    291    290
    266    267    292    291
    267    268    293    292
    268    269    294    293
    269    270    295    294
    270    271    296    295
    271    272    297    296
    272    273    298    297
    273    274    299    298
    274    250    275    299
    274    273    272    271    270    269    268    267    266    265    264    263    262    261    260    259    258    257    256    255    254    253    252    251    250
    275    276    277    278    279    280    281    282    283    284    285    286    287    288    289    290    291    292    293    294    295    296    297    298    299
    275    276    301    300
    276    277    302    301
    277    278    303    302
    278    279    304    303
    279    280    305    304
    280    281    306    305
    281    282    307    306
    282    283    308    307
    283    284    309    308
    284    285    310    309
    285    286    311    310
    286    287    312    311
    287    288    313    312
    288    289    314    313
    289    290    315    314
    290    291    316    315
    291    292    317    316
    292    293    318    317
    293    294    319    318
    294    295    320    319
    295    296    321    320
    296    297    322    321
    297    298    323    322
    298    299    324    323
    299    275    300    324
    299    298    297    296    295    294    293    292    291    290    289    288    287    286    285    284    283    282    281    280    279    278    277    276    275
    300    301    302    303    304    305    306    307    308    309    310    311    312    313    314    315    316    317    318    319    320    321    322    323    324
    300    301    326    325
    301    302    327    326
    302    303    328    327
    303    304    329    328
    304    305    330    329
    305    306    331    330
    306    307    332    331
    307    308    333    332
    308    309    334    333
    309    310    335    334
    310    311    336    335
    311    312    337    336
    312    313    338    337
    313    314    339    338
    314    315    340    339
    315    316    341    340
    316    317    342    341
    317    318    343    342
    318    319    344    343
    319    320    345    344
    320    321    346    345
    321    322    347    346
    322    323    348    347
    323    324    349    348
    324    300    325    349
    324    323    322    321    320    319    318    317    316    315    314    313    312    311    310    309    308    307    306    305    304    303    302    301    300
    325    326    327    328    329    330    331    332    333    334    335    336    337    338    339    340    341    342    343    344    345    346    347    348    349
    325    326    351    350
    326    327    352    351
    327    328    353    352
    328    329    354    353
    329    330    355    354
    330    331    356    355
    331    332    357    356
    332    333    358    357
    333    334    359    358
    334    335    360    359
    335    336    361    360
    336    337    362    361
    337    338    363    362
    338    339    364    363
    339    340    365    364
    340    341    366    365
    341    342    367    366
    342    343    368    367
    343    344    369    368
    344    345    370    369
    345    346    371    370
    346    347    372    371
    347    348    373    372
    348    349    374    373
    349    325    350    374
    349    348    347    346    345    344    343    342    341    340    339    338    337    336    335    334    333    332    331    330    329    328    327    326    325
    350    351    352    353    354    355    356    357    358    359    360    361    362    363    364    365    366    367    368    369    370    371    372    373    374
    350    351    376    375
    351    352    377    376
    352    353    378    377
    353    354    379    378
    354    355    380    379
    355    356    381    380
    356    357    382    381
    357    358    383    382
    358    359    384    383
    359    360    385    384
    360    361    386    385
    361    362    387    386
    362    363    388    387
    363    364    389    388
    364    365    390    389
    365    366    391    390
    366    367    392    391
    367    368    393    392
    368    369    394    393
    369    370    395    394
    370    371    396    395
    371    372    397    396
    372    373    398    397
    373    374    399    398
    374    350    375    399
    374    373    372    371    370    369    368    367    366    365    364    363    362    361    360    359    358    357    356    355    354    353    352    351    350
    375    376    377    378    379    380    381    382    383    384    385    386    387    388    389    390    391    392    393    394    395    396    397    398    399
    375    376    401    400
    376    377    402    401
    377    378    403    402
    378    379    404    403
    379    380    405    404
    380    381    406    405
    381    382    407    406
    382    383    408    407
    383    384    409    408
    384    385    410    409
    385    386    411    410
    386    387    412    411
    387    388    413    412
    388    389    414    413
    389    390    415    414
    390    391    416    415
    391    392    417    416
    392    393    418    417
    393    394    419    418
    394    395    420    419
    395    396    421    420
    396    397    422    421
    397    398    423    422
    398    399    424    423
    399    375    400    424
    399    398    397    396    395    394    393    392    391    390    389    388    387    386    385    384    383    382    381    380    379    378    377    376    375
    400    401    402    403    404    405    406    407    408    409    410    411    412    413    414    415    416    417    418    419    420    421    422    423    424
    400    401    426    425
    401    402    427    426
    402    403    428    427
    403    404    429    428
    404    405    430    429
    405    406    431    430
    406    407    432    431
    407    408    433    432
    408    409    434    433
    409    410    435    434
    410    411    436    435
    411    412    437    436
    412    413    438    437
    413    414    439    438
    414    415    440    439
    415    416    441    440
    416    417    442    441
    417    418    443    442
    418    419    444    443
    419    420    445    444
    420    421    446    445
    421    422    447    446
    422    423    448    447
    423    424    449    448
    424    400    425    449
    424    423    422    421    420    419    418    417    416    415    414    413    412    411    410    409    408    407    406    405    404    403    402    401    400
    425    426    427    428    429    430    431    432    433    434    435    436    437    438    439    440    441    442    443    444    445    446    447    448    449
    425    426    451    450
    426    427    452    451
    427    428    453    452
    428    429    454    453
    429    430    455    454
    430    431    456    455
    431    432    457    456
    432    433    458    457
    433    434    459    458
    434    435    460    459
    435    436    461    460
    436    437    462    461
    437    438    463    462
    438    439    464    463
    439    440    465    464
    440    441    466    465
    441    442    467    466
    442    443    468    467
    443    444    469    468
    444    445    470    469
    445    446    471    470
    446    447    472    471
    447    448    473    472
    448    449    474    473
    449    425    450    474
    449    448    447    446    445    444    443    442    441    440    439    438    437    436    435    434    433    432    431    430    429    428    427    426    425
    450    451    452    453    454    455    456    457    458    459    460    461    462    463    464    465    466    467    468    469    470    471    472    473    474
    450    451    476    475
    451    452    477    476
    452    453    478    477
    453    454    479    478
    454    455    480    479
    455    456    481    480
    456    457    482    481
    457    458    483    482
    458    459    484    483
    459    460    485    484
    460    461    486    485
    461    462    487    486
    462    463    488    487
    463    464    489    488
    464    465    490    489
    465    466    491    490
    466    467    492    491
    467    468    493    492
    468    469    494    493
    469    470    495    494
    470    471    496    495
    471    472    497    496
    472    473    498    497
    473    474    499    498
    474    450    475    499
    474    473    472    471    470    469    468    467    466    465    464    463    462    461    460    459    458    457    456    455    454    453    452    451    450
    475    476    477    478    479    480    481    482    483    484    485    486    487    488    489    490    491    492    493    494    495    496    497    498    499
    475    476    501    500
    476    477    502    501
    477    478    503    502
    478    479    504    503
    479    480    505    504
    480    481    506    505
    481    482    507    506
    482    483    508    507
    483    484    509    508
    484    485    510    509
    485    486    511    510
    486    487    512    511
    487    488    513    512
    488    489    514    513
    489    490    515    514
    490    491    516    515
    491    492    517    516
    492    493    518    517
    493    494    519    518
    494    495    520    519
    495    496    521    520
    496    497    522    521
    497    498    523    522
    498    499    524    523
    499    475    500    524
    499    498    497    496    495    494    493    492    491    490    489    488    487    486    485    484    483    482    481    480    479    478    477    476    475
    500    501    502    503    504    505    506    507    508    509    510    511    512    513    514    515    516    517    518    519    520    521    522    523    524
    525    526      1      0
    526    527      2      1
    527    528      3      2
    528    529      4      3
    529    530      5      4
    530    531      6      5
    531    532      7      6
    532    533      8      7
    533    534      9      8
    534    535     10      9
    535    536     11     10
    536    537     12     11
    537    538     13     12
    538    539     14     13
    539    540     15     14
    540    541     16     15
    541    542     17     16
    542    543     18     17
    543    544     19     18
    544    545     20     19
    545    546     21     20
    546    547     22     21
    547    548     23     22
    548    549     24     23
    549    525      0     24
    549    548    547    546    545    544    543    542    541    540    539    538    537    536    535    534    533    532    531    530    529    528    527    526    525
      0      1      2      3      4      5      6      7      8      9     10     11     12     13     14     15     16     17     18     19     20     21     22     23     24
        </DataArray>
        <DataArray type="Int32" Name="offsets" format="ascii">
      4
      8
     12
     16
     20
     24
     28
     32
     36
     40
     44
     48
     52
     56
     60
     64
     68
     72
     76
     80
     84
     88
     92
     96
    100
    125
    150
    154
    158
    162
    166
    170
    174
    178
    182
    186
    190
    194
    198
    202
    206
    210
    214
    218
    222
    226
    230
    234
    238
    242
    246
    250
    275
    300
    304
    308
    312
    316
    320
    324
    328
    332
    336
    340
    344
    348
    352
    356
    360
    364
    368
    372
    376
    380
    384
    388
    392
    396
    400
    425
    450
    454
    458
    462
    466
    470
    474
    478
    482
    486
    490
    494
    498
    502
    506
    510
    514
    518
    522
    526
    530
    534
    538
    542
    546
    550
    575
    600
    604
    608
    612
    616
    620
    624
    628
    632
    636
    640
    644
    648
    652
    656
    660
    664
    668
    672
    676
    680
    684
    688
    692
    696
    700
    725
    750
    754
    758
    762
    766
    770
    774
    778
    782
    786
    790
    794
    798
    802
    806
    810
    814
    818
    822
    826
    830
    834
    838
    842
    846
    850
    875
    900
    904
    908
    912
    916
    920
    924
    928
    932
    936
    940
    944
    948
    952
    956
    960
    964
    968
    972
    976
    980
    984
    988
    992
    996
   1000
   1025
   1050
   1054
   1058
   1062
   1066
   1070
   1074
   1078
   1082
   1086
   1090
   1094
   1098
   1102
   1106
   1110
   1114
   1118
   1122
   1126
   1130
   1134
   1138
   1142
   1146
   1150
   1175
   1200
   1204
   1208
   1212
   1216
   1220
   1224
   1228
   1232
   1236
   1240
   1244
   1248
   1252
   1256
   1260
   1264
   1268
   1272
   1276
   1280
   1284
   1288
   1292
   1296
   1300
   1325
   1350
   1354
   1358
   1362
   1366
   1370
   1374
   1378
   1382
   1386
   1390
   1394
   1398
   1402
   1406
   1410
   1414
   1418
   1422
   1426
   1430
   1434
   1438
   1442
   1446
   1450
   1475
   1500
   1504
   1508
   1512
   1516
   1520
   1524
   1528
   1532
   1536
   1540
   1544
   1548
   1552
   1556
   1560
   1564
   1568
   1572
   1576
   1580
   1584
   1588
   1592
   1596
   1600
   1625
   1650
   1654
   1658
   1662
   1666
   1670
   1674
   1678
   1682
   1686
   1690
   1694
   1698
   1702
   1706
   1710
   1714
   1718
   1722
   1726
   1730
   1734
   1738
   1742
   1746
   1750
   1775
   1800
   1804
   1808
   1812
   1816
   1820
   1824
   1828
   1832
   1836
   1840
   1844
   1848
   1852
   1856
   1860
   1864
   1868
   1872
   1876
   1880
   1884
   1888
   1892
   1896
   1900
   1925
   1950
   1954
   1958
   1962
   1966
   1970
   1974
   1978
   1982
   1986
   1990
   1994
   1998
   2002
   2006
   2010
   2014
   2018
   2022
   2026
   2030
   2034
   2038
   2042
   2046
   2050
   2075
   2100
   2104
   2108
   2112
   2116
   2120
   2124
   2128
   2132
   2136
   2140
   2144
   2148
   2152
   2156
   2160
   2164
   2168
   2172
   2176
   2180
   2184
   2188
   2192
   2196
   2200
   2225
   2250
   2254
   2258
   2262
   2266
   2270
   2274
   2278
   2282
   2286
   2290
   2294
   2298
   2302
   2306
   2310
   2314
   2318
   2322
   2326
   2330
   2334
   2338
   2342
   2346
   2350
   2375
   2400
   2404
   2408
   2412
   2416
   2420
   2424
   2428
   2432
   2436
   2440
   2444
   2448
   2452
   2456
   2460
   2464
   2468
   2472
   2476
   2480
   2484
   2488
   2492
   2496
   2500
   2525
   2550
   2554
   2558
   2562
   2566
   2570
   2574
   2578
   2582
   2586
   2590
   2594
   2598
   2602
   2606
   2610
   2614
   2618
   2622
   2626
   2630
   2634
   2638
   2642
   2646
   2650
   2675
   2700
   2704
   2708
   2712
   2716
   2720
   2724
   2728
   2732
   2736
   2740
   2744
   2748
   2752
   2756
   2760
   2764
   2768
   2772
   2776
   2780
   2784
   2788
   2792
   2796
   2800
   2825
   2850
   2854
   2858
   2862
   2866
   2870
   2874
   2878
   2882
   2886
   2890
   2894
   2898
   2902
   2906
   2910
   2914
   2918
   2922
   2926
   2930
   2934
   2938
   2942
   2946
   2950
   2975
   3000
   3004
   3008
   3012
   3016
   3020
   3024
   3028
   3032
   3036
   3040
   3044
   3048
   3052
   3056
   3060
   3064
   3068
   3072
   3076
   3080
   3084
   3088
   3092
   3096
   3100
   3125
   3150
        </DataArray>
      </Polys>
    </Piece>
  </PolyData>
</VTKFile>
