<?xml version="1.0"?>
<VTKFile type="PolyData" version="0.1" byte_order="LittleEndian">
  <PolyData>
    <Piece NumberOfPoints="     19" NumberOfVerts="  0" NumberOfLines="     18"
           NumberOfStrips="  0" NumberOfPolys="      0">
      <Points>
        <DataArray type="Float32" NumberOfComponents="3" format="ascii">
                      -4.79820                      -0.28562                      91.48466
                      -4.73754                      -0.53823                      92.82669
                      -4.63993                      -1.13678                      95.49491
                      -4.55160                      -1.77976                      98.15576
                      -4.44267                      -2.61028                     101.47738
                      -4.24745                      -3.46731                     105.48647
                      -4.01668                      -4.19739                     109.51768
                      -3.78354                      -4.92546                     113.54957
                      -3.55339                      -5.64949                     117.58299
                      -3.33771                      -6.37080                     121.61838
                      -3.15100                      -7.09196                     125.65580
                      -3.00767                      -7.80998                     129.69585
                      -2.92529                      -8.52258                     133.73847
                      -2.92297                      -9.22662                     137.78297
                      -3.01854                      -9.91838                     141.82782
                      -3.18994                     -10.48145                     145.19715
                      -3.39143                     -10.91352                     147.89169
                      -3.64758                     -11.28083                     150.59287
                      -3.81159                     -11.49927                     151.93417
        </DataArray>
      </Points>
      <PointData>
        <DataArray type="Float32" Name="TranslationalVelocity" NumberOfComponents="3" format="ascii">
                       0.02335                      -4.13160                      -0.75650
                      -0.03745                      -7.91176                      -1.46523
                      -0.18014                     -15.42542                      -3.14555
                      -0.33129                     -22.92170                      -4.95234
                      -0.52324                     -32.28837                      -7.28889
                      -0.71202                     -43.62370                      -9.70436
                      -0.85904                     -55.04601                     -11.76614
                      -0.99103                     -66.48635                     -13.82566
                      -1.10133                     -77.94472                     -15.87738
                      -1.18280                     -89.41821                     -17.92486
                      -1.22755                    -100.90218                     -19.97485
                      -1.22548                    -112.39401                     -22.01775
                      -1.16608                    -123.88915                     -24.04513
                      -1.03834                    -135.38193                     -26.04509
                      -0.83099                    -146.86591                     -28.00317
                      -0.58739                    -156.42346                     -29.58746
                      -0.34205                    -164.06204                     -30.79428
                      -0.03693                    -171.71788                     -31.80809
                       0.12506                    -175.51624                     -32.40847
        </DataArray>
        <DataArray type="Float32" Name="RotationalVelocity" NumberOfComponents="3" format="ascii">
                       2.80465                       0.00221                      -0.25185
                       2.80529                       0.00244                      -0.25183
                       2.80704                       0.00313                      -0.25178
                       2.80925                       0.00406                      -0.25170
                       2.81238                       0.00549                      -0.25154
                       2.81634                       0.00767                      -0.25115
                       2.82023                       0.01055                      -0.25044
                       2.82386                       0.01447                      -0.24928
                       2.82718                       0.01982                      -0.24753
                       2.83023                       0.02703                      -0.24509
                       2.83309                       0.03645                      -0.24188
                       2.83590                       0.04834                      -0.23787
                       2.83880                       0.06279                      -0.23310
                       2.84193                       0.07966                      -0.22767
                       2.84538                       0.09854                      -0.22179
                       2.84851                       0.11525                      -0.21675
                       2.85118                       0.12885                      -0.21279
                       2.85394                       0.14218                      -0.20907
                       2.85533                       0.14857                      -0.20735
        </DataArray>
        <DataArray type="Float32" Name="TranslationalAcceleration" NumberOfComponents="3" format="ascii">
                      -0.96706                       2.18082                     -11.55199
                      -1.22085                       2.65668                     -14.04834
                      -3.48368                       8.35096                     -40.08988
                      -5.56929                      14.01223                     -64.00003
                      -8.02336                      20.94582                     -91.92201
                     -10.86933                      27.84276                    -123.95565
                     -13.69597                      33.58947                    -155.44205
                     -16.54318                      39.31943                    -186.92374
                     -19.42946                      45.08666                    -218.78556
                     -22.34781                      50.92110                    -251.14057
                     -25.27581                      56.82580                    -283.90723
                     -28.18586                      62.73614                    -316.89703
                     -31.05460                      68.58454                    -349.88036
                     -33.87298                      74.30205                    -382.66561
                     -36.65664                      79.83563                    -415.17745
                     -38.98623                      84.27944                    -442.13730
                     -40.88894                      87.66771                    -463.75913
                     -42.85186                      90.54690                    -485.70030
                     -43.88995                      92.28766                    -496.76486
        </DataArray>
        <DataArray type="Float32" Name="OrientationX" NumberOfComponents="3" format="ascii">
                       0.96831                      -0.23405                      -0.08721
                       0.96829                      -0.23402                      -0.08743
                       0.96820                      -0.23412                      -0.08818
                       0.96803                      -0.23438                      -0.08932
                       0.96772                      -0.23496                      -0.09116
                       0.97462                      -0.20569                      -0.08835
                       0.97870                      -0.18606                      -0.08677
                       0.98160                      -0.17111                      -0.08479
                       0.98414                      -0.15779                      -0.08103
                       0.98624                      -0.14741                      -0.07487
                       0.98761                      -0.14240                      -0.06599
                       0.98838                      -0.14222                      -0.05369
                       0.98816                      -0.14864                      -0.03792
                       0.98631                      -0.16378                      -0.01902
                       0.98319                      -0.18255                       0.00359
                       0.97956                      -0.19961                       0.02490
                       0.97588                      -0.21399                       0.04318
                       0.97092                      -0.23135                       0.06154
                       0.96781                      -0.24161                       0.07046
        </DataArray>
        <DataArray type="Float32" Name="OrientationY" NumberOfComponents="3" format="ascii">
                       0.24579                       0.95498                       0.16612
                       0.24580                       0.95498                       0.16611
                       0.24603                       0.95494                       0.16603
                       0.24649                       0.95485                       0.16586
                       0.24738                       0.95467                       0.16554
                       0.21812                       0.96137                       0.16792
                       0.19854                       0.96533                       0.16946
                       0.18351                       0.96808                       0.17074
                       0.16975                       0.97034                       0.17211
                       0.15846                       0.97201                       0.17348
                       0.15194                       0.97283                       0.17466
                       0.14955                       0.97302                       0.17569
                       0.15303                       0.97234                       0.17648
                       0.16455                       0.97034                       0.17710
                       0.17901                       0.96763                       0.17790
                       0.19209                       0.96496                       0.17878
                       0.20311                       0.96253                       0.17965
                       0.21710                       0.95924                       0.18091
                       0.22570                       0.95708                       0.18179
        </DataArray>
        <DataArray type="Float32" Name="OrientationZ" NumberOfComponents="3" format="ascii">
                       0.04441                      -0.18229                       0.98224
                       0.04462                      -0.18234                       0.98222
                       0.04533                      -0.18245                       0.98217
                       0.04641                      -0.18258                       0.98210
                       0.04813                      -0.18274                       0.98198
                       0.05039                      -0.18293                       0.98183
                       0.05223                      -0.18308                       0.98171
                       0.05287                      -0.18316                       0.98166
                       0.05147                      -0.18314                       0.98174
                       0.04720                      -0.18296                       0.98199
                       0.03932                      -0.18253                       0.98241
                       0.02725                      -0.18168                       0.98298
                       0.01064                      -0.18019                       0.98357
                      -0.01055                      -0.17781                       0.98401
                      -0.03595                      -0.17427                       0.98404
                      -0.05971                      -0.17034                       0.98357
                      -0.08001                      -0.16655                       0.98278
                      -0.10089                      -0.16229                       0.98157
                      -0.11136                      -0.16004                       0.98081
        </DataArray>
        <DataArray type="Float32" Name="Force" NumberOfComponents="3" format="ascii">
                     165.44504                      58.31490                       3.34302
                     190.52359                     126.24984                      14.77555
                     289.61953                     367.27409                      54.79912
                     296.17204                     549.42178                      87.98710
                    3508.62605                   -1245.94458                    -403.28383
                    3686.75091                    -947.33133                    -365.13452
                    3421.11942                    -649.27696                    -302.59691
                    4554.87078                    -735.29583                    -381.86907
                    5778.39476                    -827.52448                    -456.58669
                    6086.87387                    -741.01547                    -430.07784
                    8288.05978                    -913.29634                    -501.02802
                    7843.15311                    -754.73983                    -357.05805
                    4535.35843                    -319.80423                    -107.96809
                     684.75277                     130.42492                      31.49983
                   -2450.58674                     455.79509                      -6.07864
                   -7663.20966                     961.71670                    -291.08540
                  -11920.80654                    1356.98940                    -727.32528
                  -12792.79624                    1374.02364                   -1071.82006
                  -15805.48832                    1661.58364                   -1502.76956
        </DataArray>
        <DataArray type="Float32" Name="Moment" NumberOfComponents="3" format="ascii">
                       0.00000                       0.00000                       0.00000
                       0.00000                       0.00000                       0.00000
                       0.00000                       0.00000                       0.00000
                       0.00000                       0.00000                       0.00000
                     -73.73528                     279.27320                   -1504.32134
                    -141.93018                     513.46367                   -2765.23136
                    -192.13285                     670.67619                   -3611.28607
                    -305.98633                    1055.23459                   -5681.62748
                    -431.36437                    1528.11234                   -8228.76377
                    -447.44454                    1728.32884                   -9310.53981
                    -415.25503                    1925.19706                  -10378.52931
                    -304.13052                    2034.85447                  -10981.76609
                     -88.48080                    1521.39860                   -8223.18747
                      84.69848                    1444.08295                   -7820.42083
                     274.07325                    1374.08576                   -7458.70104
                     424.99181                    1279.57257                   -6960.89559
                     500.10620                    1120.38262                   -6106.37638
                     307.11627                     543.62977                   -2968.70327
                     342.94100                     548.83397                   -3000.07167
        </DataArray>
      </PointData>
      <Lines>
        <DataArray type="Int32" Name="connectivity" format="ascii">
      0      1
      1      2
      2      3
      3      4
      4      5
      5      6
      6      7
      7      8
      8      9
      9     10
     10     11
     11     12
     12     13
     13     14
     14     15
     15     16
     16     17
     17     18
        </DataArray>
        <DataArray type="Int32" Name="offsets" format="ascii">
      2
      4
      6
      8
     10
     12
     14
     16
     18
     20
     22
     24
     26
     28
     30
     32
     34
     36
        </DataArray>
      </Lines>
    </Piece>
  </PolyData>
</VTKFile>
