<?xml version="1.0"?>
<VTKFile type="PolyData" version="0.1" byte_order="LittleEndian">
  <PolyData>
    <Piece NumberOfPoints="     22" NumberOfVerts="  0" NumberOfLines="     21"
           NumberOfStrips="  0" NumberOfPolys="      0">
      <Points>
        <DataArray type="Float32" NumberOfComponents="3" format="ascii">
                       0.00006                      -0.00001                       2.19000
                       0.00062                      -0.00010                       6.57000
                       0.00184                      -0.00026                      10.95000
                       0.00378                      -0.00050                      15.33000
                       0.00645                      -0.00080                      19.71000
                       0.00983                      -0.00116                      24.09000
                       0.01387                      -0.00159                      28.47000
                       0.01856                      -0.00209                      32.84999
                       0.02387                      -0.00266                      37.22999
                       0.02979                      -0.00331                      41.60999
                       0.03633                      -0.00403                      45.98998
                       0.04352                      -0.00484                      50.36997
                       0.05137                      -0.00573                      54.74997
                       0.05992                      -0.00671                      59.12996
                       0.06917                      -0.00777                      63.50995
                       0.07911                      -0.00890                      67.88994
                       0.08965                      -0.01010                      72.26992
                       0.10065                      -0.01137                      76.64991
                       0.11184                      -0.01269                      81.02990
                       0.12283                      -0.01404                      85.40988
                       0.12808                      -0.01474                      87.59988
                       0.00000                       0.00000                       0.00000
        </DataArray>
      </Points>
      <PointData>
        <DataArray type="Float32" Name="TranslationalVelocity" NumberOfComponents="3" format="ascii">
                       0.00003                      -0.00001                      -0.00000
                       0.00028                      -0.00008                      -0.00000
                       0.00078                      -0.00020                      -0.00000
                       0.00152                      -0.00036                      -0.00000
                       0.00244                      -0.00057                      -0.00000
                       0.00350                      -0.00081                      -0.00000
                       0.00463                      -0.00107                      -0.00000
                       0.00576                      -0.00136                      -0.00000
                       0.00681                      -0.00166                      -0.00001
                       0.00770                      -0.00197                      -0.00001
                       0.00834                      -0.00228                      -0.00001
                       0.00868                      -0.00259                      -0.00001
                       0.00865                      -0.00288                      -0.00001
                       0.00819                      -0.00316                      -0.00001
                       0.00727                      -0.00340                      -0.00001
                       0.00587                      -0.00362                      -0.00000
                       0.00399                      -0.00379                       0.00000
                       0.00167                      -0.00393                       0.00001
                      -0.00103                      -0.00403                       0.00001
                      -0.00405                      -0.00410                       0.00002
                      -0.00563                      -0.00413                       0.00003
                       0.00000                      -0.00000                       0.00000
        </DataArray>
        <DataArray type="Float32" Name="RotationalVelocity" NumberOfComponents="3" format="ascii">
                       0.00001                       0.00003                       0.00000
                       0.00002                       0.00009                       0.00000
                       0.00003                       0.00014                       0.00000
                       0.00004                       0.00019                       0.00000
                       0.00005                       0.00023                       0.00000
                       0.00006                       0.00025                       0.00000
                       0.00006                       0.00026                       0.00000
                       0.00007                       0.00025                       0.00000
                       0.00007                       0.00022                       0.00000
                       0.00007                       0.00018                       0.00000
                       0.00007                       0.00012                       0.00000
                       0.00007                       0.00004                       0.00000
                       0.00007                      -0.00005                       0.00000
                       0.00006                      -0.00016                       0.00000
                       0.00005                      -0.00026                       0.00000
                       0.00004                      -0.00037                       0.00000
                       0.00004                      -0.00048                       0.00000
                       0.00003                      -0.00058                       0.00000
                       0.00002                      -0.00066                       0.00000
                       0.00001                      -0.00071                       0.00000
                       0.00001                      -0.00073                       0.00000
                       0.00000                      -0.00000                       0.00000
        </DataArray>
        <DataArray type="Float32" Name="TranslationalAcceleration" NumberOfComponents="3" format="ascii">
                       0.00046                       0.00002                      -0.00000
                       0.00426                       0.00018                      -0.00000
                       0.01193                       0.00048                      -0.00000
                       0.02321                       0.00091                      -0.00001
                       0.03754                       0.00147                      -0.00002
                       0.05416                       0.00215                      -0.00003
                       0.07212                       0.00296                      -0.00005
                       0.09039                       0.00391                      -0.00007
                       0.10785                       0.00501                      -0.00009
                       0.12338                       0.00627                      -0.00011
                       0.13590                       0.00771                      -0.00013
                       0.14442                       0.00933                      -0.00014
                       0.14808                       0.01113                      -0.00015
                       0.14616                       0.01313                      -0.00014
                       0.13818                       0.01531                      -0.00012
                       0.12387                       0.01768                      -0.00009
                       0.10325                       0.02022                      -0.00004
                       0.07663                       0.02292                       0.00002
                       0.04467                       0.02575                       0.00010
                       0.00834                       0.02867                       0.00019
                      -0.01103                       0.03017                       0.00024
                       0.00000                      -0.00000                       0.00000
        </DataArray>
        <DataArray type="Float32" Name="RotationalAcceleration" NumberOfComponents="3" format="ascii">
                      -0.00002                       0.00043                       0.00000
                      -0.00005                       0.00131                       0.00000
                      -0.00008                       0.00218                       0.00000
                      -0.00011                       0.00295                       0.00000
                      -0.00014                       0.00357                       0.00000
                      -0.00017                       0.00399                       0.00000
                      -0.00020                       0.00418                       0.00000
                      -0.00023                       0.00412                       0.00000
                      -0.00027                       0.00381                       0.00000
                      -0.00031                       0.00324                       0.00000
                      -0.00035                       0.00244                       0.00000
                      -0.00039                       0.00142                       0.00000
                      -0.00043                       0.00022                       0.00000
                      -0.00048                      -0.00112                       0.00000
                      -0.00052                      -0.00254                       0.00000
                      -0.00056                      -0.00399                       0.00000
                      -0.00060                      -0.00541                       0.00000
                      -0.00063                      -0.00672                       0.00000
                      -0.00066                      -0.00784                       0.00000
                      -0.00068                      -0.00869                       0.00000
                      -0.00068                      -0.00899                       0.00000
                       0.00000                      -0.00000                       0.00000
        </DataArray>
        <DataArray type="Float32" Name="OrientationX" NumberOfComponents="3" format="ascii">
                       1.00000                       0.00000                      -0.00006
                       1.00000                       0.00000                      -0.00020
                       1.00000                       0.00000                      -0.00036
                       1.00000                       0.00000                      -0.00053
                       1.00000                       0.00000                      -0.00069
                       1.00000                       0.00000                      -0.00085
                       1.00000                       0.00000                      -0.00100
                       1.00000                       0.00000                      -0.00114
                       1.00000                       0.00000                      -0.00128
                       1.00000                       0.00000                      -0.00142
                       1.00000                       0.00000                      -0.00157
                       1.00000                       0.00000                      -0.00172
                       1.00000                       0.00000                      -0.00187
                       1.00000                       0.00000                      -0.00203
                       1.00000                       0.00000                      -0.00219
                       1.00000                       0.00000                      -0.00234
                       1.00000                       0.00000                      -0.00247
                       1.00000                       0.00000                      -0.00254
                       1.00000                       0.00000                      -0.00255
                       1.00000                       0.00000                      -0.00245
                       1.00000                       0.00000                      -0.00234
                       1.00000                      -0.00000                       0.00000
        </DataArray>
        <DataArray type="Float32" Name="OrientationY" NumberOfComponents="3" format="ascii">
                       0.00000                       1.00000                       0.00001
                       0.00000                       1.00000                       0.00003
                       0.00000                       1.00000                       0.00005
                       0.00000                       1.00000                       0.00006
                       0.00000                       1.00000                       0.00008
                       0.00000                       1.00000                       0.00009
                       0.00000                       1.00000                       0.00011
                       0.00000                       1.00000                       0.00012
                       0.00000                       1.00000                       0.00014
                       0.00000                       1.00000                       0.00016
                       0.00000                       1.00000                       0.00018
                       0.00000                       1.00000                       0.00019
                       0.00000                       1.00000                       0.00021
                       0.00000                       1.00000                       0.00023
                       0.00000                       1.00000                       0.00025
                       0.00000                       1.00000                       0.00027
                       0.00000                       1.00000                       0.00028
                       0.00000                       1.00000                       0.00030
                       0.00000                       1.00000                       0.00031
                       0.00000                       1.00000                       0.00031
                       0.00000                       1.00000                       0.00032
                      -0.00000                       1.00000                      -0.00000
        </DataArray>
        <DataArray type="Float32" Name="OrientationZ" NumberOfComponents="3" format="ascii">
                       0.00006                      -0.00001                       1.00000
                       0.00020                      -0.00003                       1.00000
                       0.00036                      -0.00005                       1.00000
                       0.00053                      -0.00006                       1.00000
                       0.00069                      -0.00008                       1.00000
                       0.00085                      -0.00009                       1.00000
                       0.00100                      -0.00011                       1.00000
                       0.00114                      -0.00012                       1.00000
                       0.00128                      -0.00014                       1.00000
                       0.00142                      -0.00016                       1.00000
                       0.00157                      -0.00018                       1.00000
                       0.00172                      -0.00019                       1.00000
                       0.00187                      -0.00021                       1.00000
                       0.00203                      -0.00023                       1.00000
                       0.00219                      -0.00025                       1.00000
                       0.00234                      -0.00027                       1.00000
                       0.00247                      -0.00028                       1.00000
                       0.00254                      -0.00030                       1.00000
                       0.00255                      -0.00031                       1.00000
                       0.00245                      -0.00031                       1.00000
                       0.00234                      -0.00032                       1.00000
                       0.00000                      -0.00000                       1.00000
        </DataArray>
      </PointData>
      <Lines>
        <DataArray type="Int32" Name="connectivity" format="ascii">
      0      1
      1      2
      2      3
      3      4
      4      5
      5      6
      6      7
      7      8
      8      9
      9     10
     10     11
     11     12
     12     13
     13     14
     14     15
     15     16
     16     17
     17     18
     18     19
     19     20
     21      0
        </DataArray>
        <DataArray type="Int32" Name="offsets" format="ascii">
      2
      4
      6
      8
     10
     12
     14
     16
     18
     20
     22
     24
     26
     28
     30
     32
     34
     36
     38
     40
     42
        </DataArray>
      </Lines>
    </Piece>
  </PolyData>
</VTKFile>
