<?xml version="1.0"?>
<VTKFile type="PolyData" version="0.1" byte_order="LittleEndian">
  <PolyData>
    <Piece NumberOfPoints="     19" NumberOfVerts="  0" NumberOfLines="     18"
           NumberOfStrips="  0" NumberOfPolys="      0">
      <Points>
        <DataArray type="Float32" NumberOfComponents="3" format="ascii">
                      -4.83364                      -0.05163                      91.50608
                      -4.77253                      -0.10050                      92.87056
                      -4.67058                      -0.29286                      95.59719
                      -4.57588                      -0.53009                      98.32272
                      -4.45781                      -0.85349                     101.72904
                      -4.25157                      -1.09886                     105.81840
                      -4.00461                      -1.21459                     109.91002
                      -3.73831                      -1.32808                     114.00054
                      -3.44475                      -1.43760                     118.08933
                      -3.11898                      -1.54509                     122.17569
                      -2.75667                      -1.65425                     126.25885
                      -2.35179                      -1.76355                     130.33796
                      -1.90040                      -1.87299                     134.41220
                      -1.39963                      -1.98254                     138.48072
                      -0.84547                      -2.09222                     142.54234
                      -0.34128                      -2.18361                     145.92091
                       0.08777                      -2.24876                     148.61976
                       0.53817                      -2.25879                     151.31656
                       0.77118                      -2.30538                     152.66187
        </DataArray>
      </Points>
      <PointData>
        <DataArray type="Float32" Name="TranslationalVelocity" NumberOfComponents="3" format="ascii">
                       0.19215                      -1.08891                      -0.01982
                       0.19368                      -2.08547                      -0.05556
                       0.19190                      -4.07645                      -0.19595
                       0.18923                      -6.06747                      -0.36919
                       0.18793                      -8.55789                      -0.60568
                       0.20266                     -11.55503                      -0.78637
                       0.23574                     -14.55991                      -0.87342
                       0.28162                     -17.56851                      -0.95988
                       0.34304                     -20.58050                      -1.04491
                       0.42253                     -23.59519                      -1.13051
                       0.52233                     -26.61175                      -1.21996
                       0.64478                     -29.62942                      -1.31291
                       0.79167                     -32.64737                      -1.41010
                       0.96431                     -35.66479                      -1.51233
                       1.16335                     -38.68088                      -1.62058
                       1.34978                     -41.19275                      -1.71611
                       1.51185                     -43.20120                      -1.79040
                       1.68825                     -45.20990                      -1.82783
                       1.77753                     -46.21269                      -1.87851
        </DataArray>
        <DataArray type="Float32" Name="RotationalVelocity" NumberOfComponents="3" format="ascii">
                       0.72729                       0.00339                      -0.06488
                       0.72744                       0.00356                      -0.06489
                       0.72783                       0.00411                      -0.06490
                       0.72832                       0.00494                      -0.06491
                       0.72899                       0.00633                      -0.06494
                       0.72984                       0.00850                      -0.06498
                       0.73066                       0.01123                      -0.06503
                       0.73139                       0.01454                      -0.06508
                       0.73202                       0.01848                      -0.06511
                       0.73252                       0.02308                      -0.06512
                       0.73292                       0.02832                      -0.06510
                       0.73321                       0.03415                      -0.06503
                       0.73342                       0.04046                      -0.06492
                       0.73358                       0.04706                      -0.06475
                       0.73371                       0.05363                      -0.06452
                       0.73381                       0.05881                      -0.06428
                       0.73389                       0.06253                      -0.06406
                       0.73397                       0.06566                      -0.06381
                       0.73401                       0.06694                      -0.06368
        </DataArray>
        <DataArray type="Float32" Name="TranslationalAcceleration" NumberOfComponents="3" format="ascii">
                       0.29985                      -0.08773                      -0.80817
                       0.02267                      -0.09885                      -0.96901
                       0.01818                      -0.23893                      -2.77701
                      -0.03618                      -0.34220                      -4.44698
                      -0.14144                      -0.45123                      -6.40440
                      -0.28138                      -0.65734                      -8.62511
                      -0.39829                      -0.94244                     -10.78454
                      -0.46767                      -1.24242                     -12.94637
                      -0.47780                      -1.55985                     -15.13974
                      -0.42865                      -1.89269                     -17.37390
                      -0.33091                      -2.23612                     -19.64342
                      -0.20459                      -2.58683                     -21.93346
                      -0.07788                      -2.94024                     -24.22535
                       0.01425                      -3.29202                     -26.50200
                       0.03125                      -3.63866                     -28.75318
                      -0.04681                      -3.92197                     -30.60977
                      -0.18687                      -4.15032                     -32.08766
                      -0.41189                      -4.40772                     -33.56542
                      -0.56095                      -4.51381                     -34.31367
        </DataArray>
        <DataArray type="Float32" Name="OrientationX" NumberOfComponents="3" format="ascii">
                       0.97147                      -0.23147                      -0.05175
                       0.97145                      -0.23146                      -0.05203
                       0.97141                      -0.23142                      -0.05293
                       0.97135                      -0.23136                      -0.05425
                       0.97125                      -0.23127                      -0.05645
                       0.97800                      -0.20000                      -0.05926
                       0.98214                      -0.17722                      -0.06326
                       0.98520                      -0.15713                      -0.06846
                       0.98791                      -0.13570                      -0.07493
                       0.99009                      -0.11341                      -0.08278
                       0.99149                      -0.09200                      -0.09211
                       0.99220                      -0.07046                      -0.10282
                       0.99211                      -0.05056                      -0.11472
                       0.99123                      -0.03492                      -0.12749
                       0.98991                      -0.01938                      -0.14035
                       0.98858                      -0.00640                      -0.15053
                       0.98746                       0.00324                      -0.15784
                       0.98641                       0.00873                      -0.16407
                       0.98597                       0.00908                      -0.16667
        </DataArray>
        <DataArray type="Float32" Name="OrientationY" NumberOfComponents="3" format="ascii">
                       0.23282                       0.97228                       0.02181
                       0.23282                       0.97228                       0.02175
                       0.23280                       0.97229                       0.02155
                       0.23278                       0.97230                       0.02126
                       0.23274                       0.97232                       0.02078
                       0.20158                       0.97923                       0.02192
                       0.17894                       0.98360                       0.02254
                       0.15902                       0.98701                       0.02300
                       0.13780                       0.99018                       0.02361
                       0.11578                       0.99298                       0.02441
                       0.09469                       0.99518                       0.02535
                       0.07355                       0.99694                       0.02660
                       0.05411                       0.99814                       0.02806
                       0.03896                       0.99881                       0.02939
                       0.02397                       0.99923                       0.03108
                       0.01146                       0.99940                       0.03277
                       0.00218                       0.99941                       0.03418
                      -0.00302                       0.99938                       0.03502
                      -0.00328                       0.99938                       0.03506
        </DataArray>
        <DataArray type="Float32" Name="OrientationZ" NumberOfComponents="3" format="ascii">
                       0.04527                      -0.03324                       0.99842
                       0.04556                      -0.03324                       0.99841
                       0.04647                      -0.03326                       0.99837
                       0.04783                      -0.03328                       0.99830
                       0.05008                      -0.03333                       0.99819
                       0.05365                      -0.03339                       0.99800
                       0.05823                      -0.03346                       0.99774
                       0.06396                      -0.03355                       0.99739
                       0.07099                      -0.03365                       0.99691
                       0.07943                      -0.03375                       0.99627
                       0.08934                      -0.03386                       0.99543
                       0.10063                      -0.03396                       0.99434
                       0.11309                      -0.03404                       0.99300
                       0.12631                      -0.03410                       0.99140
                       0.13964                      -0.03413                       0.98961
                       0.15023                      -0.03412                       0.98806
                       0.15786                      -0.03409                       0.98687
                       0.16428                      -0.03405                       0.98583
                       0.16689                      -0.03403                       0.98539
        </DataArray>
        <DataArray type="Float32" Name="Force" NumberOfComponents="3" format="ascii">
                     152.46036                      14.26222                      -6.43797
                     155.02639                      27.49225                      -6.15840
                     177.57788                      61.00390                      -6.23507
                     144.09099                      73.21271                      -4.46539
                    1188.91722                    -405.75430                     -73.16140
                    1215.28984                    -354.30527                     -77.12350
                    1444.26883                    -384.13741                     -97.08358
                    1371.33029                    -338.19986                     -99.20769
                    1448.56722                    -367.78094                    -115.41061
                    1783.64144                    -468.28168                    -157.82908
                    2048.89065                    -564.48082                    -202.71989
                    2370.90122                    -619.53208                    -260.62653
                    2893.83130                    -650.54021                    -351.30340
                    3143.24923                    -649.63158                    -422.17184
                    3317.24658                    -625.06182                    -488.98048
                    3434.64229                    -598.73802                    -542.23734
                    3405.79882                    -559.77223                    -563.49936
                    2570.01797                    -411.38225                    -442.01624
                    2672.69584                    -424.17200                    -466.82436
        </DataArray>
        <DataArray type="Float32" Name="Moment" NumberOfComponents="3" format="ascii">
                       0.00000                       0.00000                       0.00000
                       0.00000                       0.00000                       0.00000
                       0.00000                       0.00000                       0.00000
                       0.00000                       0.00000                       0.00000
                     -31.48683                      20.90049                    -627.59448
                     -38.12036                      23.62667                    -709.23048
                     -44.01680                      25.13776                    -754.28255
                     -52.33842                      27.21671                    -816.24671
                     -59.58840                      27.92292                    -836.90157
                     -65.96816                      27.62974                    -827.49033
                     -62.21266                      23.16966                    -693.30030
                     -66.74078                      22.06531                    -659.58738
                     -75.86651                      22.31361                    -666.26392
                     -83.43620                      21.96300                    -655.01441
                     -89.61545                      21.32468                    -635.21099
                     -92.94403                      20.54549                    -611.41282
                     -87.98573                      18.50022                    -550.16497
                     -47.09303                       9.51065                    -282.66485
                     -49.73702                       9.88566                    -293.74035
        </DataArray>
      </PointData>
      <Lines>
        <DataArray type="Int32" Name="connectivity" format="ascii">
      0      1
      1      2
      2      3
      3      4
      4      5
      5      6
      6      7
      7      8
      8      9
      9     10
     10     11
     11     12
     12     13
     13     14
     14     15
     15     16
     16     17
     17     18
        </DataArray>
        <DataArray type="Int32" Name="offsets" format="ascii">
      2
      4
      6
      8
     10
     12
     14
     16
     18
     20
     22
     24
     26
     28
     30
     32
     34
     36
        </DataArray>
      </Lines>
    </Piece>
  </PolyData>
</VTKFile>
