<?xml version="1.0"?>
<VTKFile type="PolyData" version="0.1" byte_order="LittleEndian">
  <PolyData>
    <Piece NumberOfPoints="     22" NumberOfVerts="  0" NumberOfLines="     21"
           NumberOfStrips="  0" NumberOfPolys="      0">
      <Points>
        <DataArray type="Float32" NumberOfComponents="3" format="ascii">
                       0.00007                      -0.00000                       2.19000
                       0.00066                      -0.00003                       6.57000
                       0.00196                      -0.00007                      10.95000
                       0.00402                      -0.00014                      15.33000
                       0.00683                      -0.00022                      19.71000
                       0.01038                      -0.00032                      24.09000
                       0.01463                      -0.00045                      28.46999
                       0.01953                      -0.00060                      32.84999
                       0.02505                      -0.00078                      37.22999
                       0.03118                      -0.00098                      41.60998
                       0.03791                      -0.00122                      45.98998
                       0.04527                      -0.00149                      50.36997
                       0.05327                      -0.00180                      54.74997
                       0.06194                      -0.00215                      59.12996
                       0.07127                      -0.00254                      63.50995
                       0.08125                      -0.00296                      67.88994
                       0.09181                      -0.00342                      72.26992
                       0.10277                      -0.00391                      76.64991
                       0.11389                      -0.00443                      81.02990
                       0.12478                      -0.00497                      85.40988
                       0.12996                      -0.00524                      87.59988
                       0.00000                       0.00000                       0.00000
        </DataArray>
      </Points>
      <PointData>
        <DataArray type="Float32" Name="TranslationalVelocity" NumberOfComponents="3" format="ascii">
                      -0.00004                       0.00001                       0.00000
                      -0.00040                       0.00011                       0.00000
                      -0.00113                       0.00028                       0.00000
                      -0.00219                       0.00051                       0.00000
                      -0.00356                       0.00080                       0.00000
                      -0.00515                       0.00114                       0.00000
                      -0.00687                       0.00151                       0.00000
                      -0.00864                       0.00192                       0.00001
                      -0.01036                       0.00234                       0.00001
                      -0.01191                       0.00279                       0.00001
                      -0.01321                       0.00324                       0.00001
                      -0.01416                       0.00368                       0.00001
                      -0.01468                       0.00411                       0.00002
                      -0.01472                       0.00452                       0.00002
                      -0.01423                       0.00489                       0.00001
                      -0.01319                       0.00522                       0.00001
                      -0.01158                       0.00550                       0.00001
                      -0.00945                       0.00573                       0.00000
                      -0.00683                       0.00591                      -0.00000
                      -0.00382                       0.00605                      -0.00001
                      -0.00220                       0.00612                      -0.00001
                       0.00000                      -0.00000                       0.00000
        </DataArray>
        <DataArray type="Float32" Name="RotationalVelocity" NumberOfComponents="3" format="ascii">
                      -0.00001                      -0.00004                       0.00000
                      -0.00003                      -0.00012                       0.00000
                      -0.00005                      -0.00021                       0.00000
                      -0.00006                      -0.00028                       0.00000
                      -0.00007                      -0.00034                       0.00000
                      -0.00008                      -0.00038                       0.00000
                      -0.00009                      -0.00040                       0.00000
                      -0.00010                      -0.00040                       0.00000
                      -0.00010                      -0.00038                       0.00000
                      -0.00010                      -0.00033                       0.00000
                      -0.00010                      -0.00026                       0.00000
                      -0.00010                      -0.00017                       0.00000
                      -0.00010                      -0.00007                       0.00000
                      -0.00009                       0.00005                       0.00000
                      -0.00008                       0.00018                       0.00000
                      -0.00007                       0.00030                       0.00000
                      -0.00006                       0.00043                       0.00000
                      -0.00005                       0.00054                       0.00000
                      -0.00004                       0.00065                       0.00000
                      -0.00003                       0.00073                       0.00000
                      -0.00003                       0.00076                       0.00000
                       0.00000                      -0.00000                       0.00000
        </DataArray>
        <DataArray type="Float32" Name="TranslationalAcceleration" NumberOfComponents="3" format="ascii">
                      -0.00051                      -0.00009                       0.00000
                      -0.00468                      -0.00076                       0.00000
                      -0.01309                      -0.00198                       0.00000
                      -0.02542                      -0.00366                       0.00001
                      -0.04106                      -0.00571                       0.00002
                      -0.05914                      -0.00806                       0.00003
                      -0.07863                      -0.01065                       0.00005
                      -0.09834                      -0.01342                       0.00007
                      -0.11703                      -0.01628                       0.00009
                      -0.13345                      -0.01918                       0.00012
                      -0.14638                      -0.02202                       0.00014
                      -0.15470                      -0.02471                       0.00015
                      -0.15744                      -0.02718                       0.00015
                      -0.15380                      -0.02933                       0.00015
                      -0.14321                      -0.03108                       0.00012
                      -0.12540                      -0.03236                       0.00008
                      -0.10039                      -0.03314                       0.00002
                      -0.06857                      -0.03341                      -0.00006
                      -0.03069                      -0.03321                      -0.00016
                       0.01204                      -0.03264                      -0.00027
                       0.03473                      -0.03226                      -0.00032
                       0.00000                      -0.00000                       0.00000
        </DataArray>
        <DataArray type="Float32" Name="RotationalAcceleration" NumberOfComponents="3" format="ascii">
                       0.00008                      -0.00047                       0.00000
                       0.00022                      -0.00144                       0.00000
                       0.00033                      -0.00238                       0.00000
                       0.00043                      -0.00322                       0.00000
                       0.00050                      -0.00389                       0.00000
                       0.00057                      -0.00433                       0.00000
                       0.00061                      -0.00452                       0.00000
                       0.00065                      -0.00443                       0.00000
                       0.00066                      -0.00406                       0.00000
                       0.00066                      -0.00340                       0.00000
                       0.00064                      -0.00247                       0.00000
                       0.00059                      -0.00130                       0.00000
                       0.00053                       0.00008                       0.00000
                       0.00045                       0.00161                       0.00000
                       0.00035                       0.00324                       0.00000
                       0.00024                       0.00490                       0.00000
                       0.00012                       0.00651                       0.00000
                       0.00001                       0.00799                       0.00000
                      -0.00009                       0.00926                       0.00000
                      -0.00016                       0.01019                       0.00000
                      -0.00018                       0.01051                       0.00000
                       0.00000                      -0.00000                       0.00000
        </DataArray>
        <DataArray type="Float32" Name="OrientationX" NumberOfComponents="3" format="ascii">
                       1.00000                       0.00000                      -0.00006
                       1.00000                       0.00000                      -0.00021
                       1.00000                       0.00000                      -0.00038
                       1.00000                       0.00000                      -0.00056
                       1.00000                       0.00000                      -0.00073
                       1.00000                       0.00000                      -0.00089
                       1.00000                       0.00000                      -0.00104
                       1.00000                       0.00000                      -0.00119
                       1.00000                       0.00000                      -0.00133
                       1.00000                       0.00000                      -0.00147
                       1.00000                       0.00000                      -0.00161
                       1.00000                       0.00000                      -0.00175
                       1.00000                       0.00000                      -0.00190
                       1.00000                       0.00000                      -0.00206
                       1.00000                       0.00000                      -0.00221
                       1.00000                       0.00000                      -0.00235
                       1.00000                       0.00000                      -0.00246
                       1.00000                       0.00000                      -0.00253
                       1.00000                       0.00000                      -0.00253
                       1.00000                       0.00000                      -0.00242
                       1.00000                       0.00000                      -0.00231
                       1.00000                      -0.00000                       0.00000
        </DataArray>
        <DataArray type="Float32" Name="OrientationY" NumberOfComponents="3" format="ascii">
                       0.00000                       1.00000                       0.00000
                       0.00000                       1.00000                       0.00001
                       0.00000                       1.00000                       0.00001
                       0.00000                       1.00000                       0.00002
                       0.00000                       1.00000                       0.00002
                       0.00000                       1.00000                       0.00003
                       0.00000                       1.00000                       0.00003
                       0.00000                       1.00000                       0.00004
                       0.00000                       1.00000                       0.00004
                       0.00000                       1.00000                       0.00005
                       0.00000                       1.00000                       0.00006
                       0.00000                       1.00000                       0.00007
                       0.00000                       1.00000                       0.00007
                       0.00000                       1.00000                       0.00008
                       0.00000                       1.00000                       0.00009
                       0.00000                       1.00000                       0.00010
                       0.00000                       1.00000                       0.00011
                       0.00000                       1.00000                       0.00012
                       0.00000                       1.00000                       0.00012
                       0.00000                       1.00000                       0.00013
                       0.00000                       1.00000                       0.00013
                      -0.00000                       1.00000                      -0.00000
        </DataArray>
        <DataArray type="Float32" Name="OrientationZ" NumberOfComponents="3" format="ascii">
                       0.00006                      -0.00000                       1.00000
                       0.00021                      -0.00001                       1.00000
                       0.00038                      -0.00001                       1.00000
                       0.00056                      -0.00002                       1.00000
                       0.00073                      -0.00002                       1.00000
                       0.00089                      -0.00003                       1.00000
                       0.00104                      -0.00003                       1.00000
                       0.00119                      -0.00004                       1.00000
                       0.00133                      -0.00004                       1.00000
                       0.00147                      -0.00005                       1.00000
                       0.00161                      -0.00006                       1.00000
                       0.00175                      -0.00007                       1.00000
                       0.00190                      -0.00007                       1.00000
                       0.00206                      -0.00008                       1.00000
                       0.00221                      -0.00009                       1.00000
                       0.00235                      -0.00010                       1.00000
                       0.00246                      -0.00011                       1.00000
                       0.00253                      -0.00012                       1.00000
                       0.00253                      -0.00012                       1.00000
                       0.00242                      -0.00013                       1.00000
                       0.00231                      -0.00013                       1.00000
                       0.00000                      -0.00000                       1.00000
        </DataArray>
      </PointData>
      <Lines>
        <DataArray type="Int32" Name="connectivity" format="ascii">
      0      1
      1      2
      2      3
      3      4
      4      5
      5      6
      6      7
      7      8
      8      9
      9     10
     10     11
     11     12
     12     13
     13     14
     14     15
     15     16
     16     17
     17     18
     18     19
     19     20
     21      0
        </DataArray>
        <DataArray type="Int32" Name="offsets" format="ascii">
      2
      4
      6
      8
     10
     12
     14
     16
     18
     20
     22
     24
     26
     28
     30
     32
     34
     36
     38
     40
     42
        </DataArray>
      </Lines>
    </Piece>
  </PolyData>
</VTKFile>
