<?xml version="1.0"?>
<VTKFile type="PolyData" version="0.1" byte_order="LittleEndian">
  <PolyData>
    <Piece NumberOfPoints="     19" NumberOfVerts="  0" NumberOfLines="     18"
           NumberOfStrips="  0" NumberOfPolys="      0">
      <Points>
        <DataArray type="Float32" NumberOfComponents="3" format="ascii">
                      -4.99042                       1.30948                      89.31567
                      -5.10710                       2.51629                      88.68428
                      -5.35557                       4.97344                      87.50602
                      -5.61000                       7.45107                      86.36633
                      -5.92889                      10.55996                      84.96247
                      -6.26428                      14.22371                      83.14137
                      -6.58075                      17.82491                      81.19827
                      -6.89965                      21.42267                      79.24840
                      -7.22663                      25.01614                      77.29089
                      -7.57283                      28.60588                      75.32871
                      -7.95205                      32.19278                      73.36652
                      -8.37816                      35.77464                      71.40431
                      -8.86783                      39.34899                      69.44343
                      -9.43896                      42.91210                      67.48502
                     -10.10789                      46.45927                      65.52995
                     -10.75574                      49.39799                      63.90362
                     -11.33738                      51.73127                      62.59756
                     -11.97635                      54.02407                      61.24451
                     -12.32703                      55.18231                      60.60538
        </DataArray>
      </Points>
      <PointData>
        <DataArray type="Float32" Name="TranslationalVelocity" NumberOfComponents="3" format="ascii">
                       0.33301                       2.01871                       3.75655
                       0.64173                       3.84246                       7.18556
                       1.27009                       7.25304                      14.16561
                       1.90451                      10.55469                      21.20128
                       2.70304                      14.62155                      30.02516
                       3.64844                      19.87438                      40.41726
                       4.58135                      25.46471                      50.62447
                       5.51328                      31.07064                      60.81429
                       6.43889                      36.69579                      70.98455
                       7.35187                      42.33415                      81.13722
                       8.24505                      47.97521                      91.27532
                       9.11000                      53.62127                     101.39336
                       9.93809                      59.27083                     111.48498
                      10.72060                      64.92245                     121.54038
                      11.44923                      70.57430                     131.54695
                      12.00847                      75.28363                     139.83449
                      12.42266                      79.06958                     146.41315
                      12.80210                      82.99070                     152.87640
                      12.98215                      84.84766                     156.14097
        </DataArray>
        <DataArray type="Float32" Name="RotationalVelocity" NumberOfComponents="3" format="ascii">
                       2.84166                      -0.00030                      -0.25531
                       2.84137                      -0.00036                      -0.25535
                       2.84059                      -0.00061                      -0.25556
                       2.83957                      -0.00103                      -0.25590
                       2.83807                      -0.00173                      -0.25639
                       2.83612                      -0.00279                      -0.25682
                       2.83414                      -0.00404                      -0.25666
                       2.83224                      -0.00541                      -0.25546
                       2.83050                      -0.00686                      -0.25275
                       2.82895                      -0.00831                      -0.24812
                       2.82761                      -0.00972                      -0.24127
                       2.82646                      -0.01098                      -0.23203
                       2.82550                      -0.01200                      -0.22046
                       2.82468                      -0.01266                      -0.20686
                       2.82400                      -0.01281                      -0.19182
                       2.82351                      -0.01242                      -0.17884
                       2.82318                      -0.01167                      -0.16868
                       2.82289                      -0.01045                      -0.15927
                       2.82278                      -0.00963                      -0.15501
        </DataArray>
        <DataArray type="Float32" Name="TranslationalAcceleration" NumberOfComponents="3" format="ascii">
                       0.59031                     -10.74254                       5.82345
                       0.62476                     -13.02323                       6.92291
                       1.71056                     -37.61425                      19.12490
                       2.65655                     -60.40534                      29.96591
                       3.71405                     -87.12279                      42.35662
                       4.97294                    -116.94086                      57.39335
                       6.26648                    -145.42238                      72.97234
                       7.56289                    -173.73163                      88.55231
                       8.89445                    -202.21992                     104.33687
                      10.27874                    -231.00492                     120.36892
                      11.72313                    -260.03013                     136.58186
                      13.23273                    -289.10793                     152.88647
                      14.80959                    -318.01229                     169.16226
                      16.45714                    -346.54200                     185.30627
                      18.18361                    -374.59346                     201.27081
                      19.69647                    -397.63258                     214.46633
                      20.96785                    -415.91425                     225.06802
                      22.33681                    -434.04039                     236.13858
                      23.02286                    -443.33304                     241.45016
        </DataArray>
        <DataArray type="Float32" Name="OrientationX" NumberOfComponents="3" format="ascii">
                       0.98471                       0.14571                       0.09547
                       0.98472                       0.14563                       0.09553
                       0.98471                       0.14543                       0.09593
                       0.98468                       0.14515                       0.09666
                       0.98460                       0.14478                       0.09799
                       0.98885                       0.13020                       0.07222
                       0.99116                       0.12061                       0.05520
                       0.99257                       0.11427                       0.04187
                       0.99347                       0.11035                       0.02893
                       0.99377                       0.11011                       0.01702
                       0.99331                       0.11524                       0.00784
                       0.99205                       0.12588                       0.00050
                       0.98970                       0.14309                      -0.00366
                       0.98582                       0.16780                      -0.00280
                       0.98037                       0.19717                      -0.00137
                       0.97459                       0.22400                      -0.00063
                       0.96914                       0.24651                      -0.00032
                       0.96270                       0.27055                       0.00222
                       0.95905                       0.28320                       0.00485
        </DataArray>
        <DataArray type="Float32" Name="OrientationY" NumberOfComponents="3" format="ascii">
                       0.15178                      -0.44866                      -0.88072
                       0.15182                      -0.44886                      -0.88061
                       0.15212                      -0.44937                      -0.88030
                       0.15270                      -0.45002                      -0.87987
                       0.15381                      -0.45093                      -0.87921
                       0.12444                      -0.45637                      -0.88104
                       0.10508                      -0.46007                      -0.88164
                       0.09048                      -0.46280                      -0.88183
                       0.07733                      -0.46495                      -0.88195
                       0.06678                      -0.46642                      -0.88204
                       0.06114                      -0.46702                      -0.88213
                       0.05969                      -0.46690                      -0.88229
                       0.06409                      -0.46585                      -0.88254
                       0.07637                      -0.46339                      -0.88286
                       0.09130                      -0.46007                      -0.88318
                       0.10443                      -0.45683                      -0.88340
                       0.11517                      -0.45391                      -0.88357
                       0.12849                      -0.44997                      -0.88375
                       0.13659                      -0.44740                      -0.88384
        </DataArray>
        <DataArray type="Float32" Name="OrientationZ" NumberOfComponents="3" format="ascii">
                      -0.08550                       0.88174                      -0.46392
                      -0.08536                       0.88166                      -0.46411
                      -0.08491                       0.88143                      -0.46462
                      -0.08421                       0.88114                      -0.46529
                      -0.08311                       0.88074                      -0.46625
                      -0.08175                       0.88021                      -0.46749
                      -0.08094                       0.87965                      -0.46868
                      -0.08139                       0.87907                      -0.46970
                      -0.08388                       0.87843                      -0.47045
                      -0.08918                       0.87769                      -0.47087
                      -0.09799                       0.87671                      -0.47094
                      -0.11083                       0.87531                      -0.47070
                      -0.12799                       0.87322                      -0.47023
                      -0.14944                       0.87012                      -0.46963
                      -0.17477                       0.86571                      -0.46904
                      -0.19817                       0.86089                      -0.46861
                      -0.21795                       0.85627                      -0.46829
                      -0.23810                       0.85107                      -0.46795
                      -0.24813                       0.84831                      -0.46776
        </DataArray>
        <DataArray type="Float32" Name="Force" NumberOfComponents="3" format="ascii">
                     153.76609                     -14.76256                     -56.39589
                     160.49153                     -42.18419                    -109.69839
                     235.04721                    -142.98823                    -314.71917
                     231.37337                    -232.10905                    -482.96816
                    3240.73158                     640.49921                     637.82833
                    3223.71364                     474.06926                     334.73063
                    2703.51554                     305.31480                     110.79561
                    3484.06987                     354.89964                      66.90836
                    4542.37602                     432.78659                       6.87772
                    4556.15533                     404.39497                    -101.02944
                    6532.56807                     598.79778                    -232.51131
                    5884.27325                     558.75982                    -336.26887
                    2579.20183                     219.19383                    -293.56486
                     395.87631                     -40.49242                    -206.57659
                   -3903.54079                    -708.94732                     123.98846
                   -8484.80834                   -1589.19722                     625.29144
                  -12023.86867                   -2411.68617                    1122.77725
                  -12254.37085                   -2645.45506                    1355.66405
                  -14785.97604                   -3314.20347                    1747.76283
        </DataArray>
        <DataArray type="Float32" Name="Moment" NumberOfComponents="3" format="ascii">
                       0.00000                       0.00000                       0.00000
                       0.00000                       0.00000                       0.00000
                       0.00000                       0.00000                       0.00000
                       0.00000                       0.00000                       0.00000
                     138.36262                   -1471.38078                     774.53774
                     229.67881                   -2486.15578                    1309.08643
                     287.36703                   -3145.79439                    1656.71149
                     452.76382                   -4934.72771                    2598.66348
                     677.81986                   -7174.16953                    3776.21040
                     813.50750                   -8101.22709                    4259.85758
                    1000.18973                   -9064.01313                    4758.03327
                    1194.55373                   -9565.44880                    5008.76601
                    1023.43773                   -7088.23369                    3699.20080
                    1163.37866                   -6888.25223                    3579.66996
                    1277.07148                   -6448.55753                    3334.28656
                    1357.36096                   -6026.71369                    3101.45130
                    1313.19178                   -5285.86370                    2709.17597
                     703.19123                   -2582.02652                    1317.82716
                     744.13491                   -2616.99449                    1332.85177
        </DataArray>
      </PointData>
      <Lines>
        <DataArray type="Int32" Name="connectivity" format="ascii">
      0      1
      1      2
      2      3
      3      4
      4      5
      5      6
      6      7
      7      8
      8      9
      9     10
     10     11
     11     12
     12     13
     13     14
     14     15
     15     16
     16     17
     17     18
        </DataArray>
        <DataArray type="Int32" Name="offsets" format="ascii">
      2
      4
      6
      8
     10
     12
     14
     16
     18
     20
     22
     24
     26
     28
     30
     32
     34
     36
        </DataArray>
      </Lines>
    </Piece>
  </PolyData>
</VTKFile>
