<?xml version="1.0"?>
<VTKFile type="PolyData" version="0.1" byte_order="LittleEndian">
  <PolyData>
    <Piece NumberOfPoints="     19" NumberOfVerts="  0" NumberOfLines="     18"
           NumberOfStrips="  0" NumberOfPolys="      0">
      <Points>
        <DataArray type="Float32" NumberOfComponents="3" format="ascii">
                      -4.88877                      -1.44540                      90.45556
                      -4.91255                      -2.75206                      90.85644
                      -4.98987                      -5.39296                      91.56851
                      -5.07898                      -8.04753                      92.23679
                      -5.19272                     -11.37464                      93.04395
                      -5.25310                     -15.32923                      94.13972
                      -5.26610                     -19.24902                      95.35199
                      -5.27240                     -23.17009                      96.56193
                      -5.27577                     -27.09179                      97.77217
                      -5.28618                     -31.01424                      98.98254
                      -5.31664                     -34.93758                     100.19178
                      -5.37966                     -38.86008                     101.40383
                      -5.49105                     -42.77965                     102.62181
                      -5.66823                     -46.69341                     103.84931
                      -5.92756                     -50.59780                     105.08987
                      -6.22215                     -53.84065                     106.13716
                      -6.51301                     -56.42362                     106.99255
                      -6.84691                     -58.98176                     107.90960
                      -7.04941                     -60.26718                     108.33418
        </DataArray>
      </Points>
      <PointData>
        <DataArray type="Float32" Name="TranslationalVelocity" NumberOfComponents="3" format="ascii">
                      -0.36214                      -1.26216                      -4.06374
                      -0.69529                      -2.39481                      -7.77504
                      -1.36786                      -4.39791                     -15.27682
                      -2.04298                      -6.27390                     -22.81873
                      -2.88792                      -8.53873                     -32.27357
                      -3.89001                     -11.63824                     -43.51514
                      -4.88002                     -15.08223                     -54.66187
                      -5.86568                     -18.52269                     -65.81655
                      -6.84461                     -21.96608                     -76.97760
                      -7.81400                     -25.40952                     -88.14545
                      -8.77045                     -28.84640                     -99.32079
                      -9.70952                     -32.28530                    -110.49888
                     -10.62617                     -35.73212                    -121.67424
                     -11.51465                     -39.19416                    -132.83909
                     -12.36858                     -42.67936                    -143.98401
                     -13.04787                     -45.60956                    -153.24664
                     -13.56754                     -47.99568                    -160.62866
                     -14.06077                     -50.55277                    -167.94398
                     -14.29991                     -51.72878                    -171.62152
        </DataArray>
        <DataArray type="Float32" Name="RotationalVelocity" NumberOfComponents="3" format="ascii">
                       2.84019                       0.00110                      -0.25526
                       2.84033                       0.00113                      -0.25519
                       2.84073                       0.00120                      -0.25496
                       2.84126                       0.00129                      -0.25465
                       2.84202                       0.00146                      -0.25419
                       2.84304                       0.00172                      -0.25352
                       2.84409                       0.00204                      -0.25262
                       2.84516                       0.00241                      -0.25135
                       2.84625                       0.00279                      -0.24949
                       2.84740                       0.00315                      -0.24683
                       2.84864                       0.00345                      -0.24316
                       2.85002                       0.00364                      -0.23828
                       2.85157                       0.00369                      -0.23208
                       2.85332                       0.00357                      -0.22451
                       2.85527                       0.00325                      -0.21563
                       2.85701                       0.00281                      -0.20737
                       2.85847                       0.00235                      -0.20030
                       2.85993                       0.00179                      -0.19299
                       2.86066                       0.00147                      -0.18929
        </DataArray>
        <DataArray type="Float32" Name="TranslationalAcceleration" NumberOfComponents="3" format="ascii">
                      -0.33035                      11.65780                      -3.52471
                      -0.39072                      14.10140                      -4.26685
                      -1.05138                      40.58523                     -11.45075
                      -1.61626                      65.07531                     -17.61236
                      -2.23661                      93.77990                     -24.45056
                      -3.01951                     126.15268                     -33.15467
                      -3.87829                     157.43942                     -42.53987
                      -4.77804                     188.67558                     -51.84613
                      -5.76820                     220.24485                     -61.21790
                      -6.88895                     252.27010                     -70.69447
                      -8.16953                     284.68320                     -80.24867
                      -9.63043                     317.28663                     -89.86358
                     -11.27588                     349.84402                     -99.50494
                     -13.09193                     382.15336                    -109.15611
                     -15.04308                     414.12553                    -118.83771
                     -16.73028                     440.57097                    -126.99302
                     -18.09086                     461.70163                    -133.69211
                     -19.48276                     482.89381                    -140.98716
                     -20.11070                     493.71636                    -144.41655
        </DataArray>
        <DataArray type="Float32" Name="OrientationX" NumberOfComponents="3" format="ascii">
                       0.94973                      -0.10810                      -0.29380
                       0.94974                      -0.10779                      -0.29391
                       0.94967                      -0.10689                      -0.29444
                       0.94954                      -0.10560                      -0.29533
                       0.94927                      -0.10361                      -0.29689
                       0.95833                      -0.09226                      -0.27035
                       0.96388                      -0.08386                      -0.25280
                       0.96786                      -0.07764                      -0.23920
                       0.97130                      -0.07343                      -0.22624
                       0.97398                      -0.07230                      -0.21481
                       0.97544                      -0.07559                      -0.20691
                       0.97586                      -0.08366                      -0.20175
                       0.97477                      -0.09736                      -0.20088
                       0.97142                      -0.11741                      -0.20631
                       0.96659                      -0.14220                      -0.21326
                       0.96151                      -0.16568                      -0.21918
                       0.95668                      -0.18602                      -0.22399
                       0.95038                      -0.20796                      -0.23135
                       0.94650                      -0.21953                      -0.23651
        </DataArray>
        <DataArray type="Float32" Name="OrientationY" NumberOfComponents="3" format="ascii">
                       0.31259                       0.27595                       0.90892
                       0.31259                       0.27581                       0.90896
                       0.31283                       0.27545                       0.90899
                       0.31329                       0.27506                       0.90895
                       0.31419                       0.27455                       0.90879
                       0.28549                       0.27700                       0.91748
                       0.26626                       0.27819                       0.92288
                       0.25143                       0.27878                       0.92686
                       0.23781                       0.27906                       0.93036
                       0.22653                       0.27900                       0.93319
                       0.21990                       0.27848                       0.93493
                       0.21727                       0.27761                       0.93580
                       0.22038                       0.27624                       0.93548
                       0.23137                       0.27398                       0.93349
                       0.24524                       0.27115                       0.93077
                       0.25783                       0.26840                       0.92816
                       0.26848                       0.26593                       0.92585
                       0.28208                       0.26261                       0.92275
                       0.29048                       0.26043                       0.92076
        </DataArray>
        <DataArray type="Float32" Name="OrientationZ" NumberOfComponents="3" format="ascii">
                      -0.01718                      -0.95507                       0.29587
                      -0.01692                      -0.95515                       0.29564
                      -0.01605                      -0.95535                       0.29503
                      -0.01475                      -0.95561                       0.29426
                      -0.01265                      -0.95598                       0.29318
                      -0.00976                      -0.95643                       0.29179
                      -0.00706                      -0.95686                       0.29047
                      -0.00528                      -0.95721                       0.28934
                      -0.00518                      -0.95746                       0.28851
                      -0.00754                      -0.95757                       0.28812
                      -0.01305                      -0.95746                       0.28826
                      -0.02228                      -0.95704                       0.28908
                      -0.03559                      -0.95615                       0.29072
                      -0.05308                      -0.95454                       0.29331
                      -0.07453                      -0.95198                       0.29696
                      -0.09495                      -0.94895                       0.30079
                      -0.11266                      -0.94587                       0.30435
                      -0.13115                      -0.94222                       0.30824
                      -0.14054                      -0.94020                       0.31027
        </DataArray>
        <DataArray type="Float32" Name="Force" NumberOfComponents="3" format="ascii">
                     175.56176                      14.98955                      58.57939
                     208.19598                      36.05774                     128.29589
                     329.17772                     110.38784                     374.25378
                     347.14945                     167.25504                     557.49012
                    3387.71146                    -473.08862                   -1386.75580
                    3444.03029                    -370.10033                   -1087.32569
                    3098.04934                    -259.69020                    -771.10446
                    4198.48434                    -313.12793                    -946.50336
                    5481.49726                    -378.51400                   -1140.75172
                    5807.78386                    -376.04646                   -1081.45271
                    8137.71692                    -542.23401                   -1411.19883
                    7810.87053                    -554.40255                   -1216.37607
                    4753.07271                    -361.15943                    -599.48040
                     882.60296                     -20.33051                      90.76051
                   -1728.09573                     279.28815                     457.79205
                   -6599.94413                     993.98397                    1051.49339
                  -10593.64206                    1725.10392                    1447.43197
                  -11598.72139                    2066.20894                    1397.72430
                  -14445.20066                    2692.41769                    1641.49910
        </DataArray>
        <DataArray type="Float32" Name="Moment" NumberOfComponents="3" format="ascii">
                       0.00000                       0.00000                       0.00000
                       0.00000                       0.00000                       0.00000
                       0.00000                       0.00000                       0.00000
                       0.00000                       0.00000                       0.00000
                      19.28266                    1481.05648                    -458.15338
                      26.85383                    2716.11142                    -839.44335
                      24.62561                    3536.15407                   -1091.95736
                      28.11733                    5617.11482                   -1733.56525
                      39.64855                    8210.24324                   -2533.73151
                      67.19598                    9276.69411                   -2864.85783
                     134.25916                   10336.98829                   -3197.63842
                     247.68855                   10925.91842                   -3389.32504
                     299.80758                    8169.09186                   -2544.43232
                     431.15385                    7805.74891                   -2444.26526
                     579.94727                    7423.99940                   -2339.99393
                     692.07129                    6915.56805                   -2193.38702
                     725.90182                    6086.08254                   -1940.80334
                     416.97925                    2989.23920                    -958.67732
                     454.15134                    3030.93903                    -974.86899
        </DataArray>
      </PointData>
      <Lines>
        <DataArray type="Int32" Name="connectivity" format="ascii">
      0      1
      1      2
      2      3
      3      4
      4      5
      5      6
      6      7
      7      8
      8      9
      9     10
     10     11
     11     12
     12     13
     13     14
     14     15
     15     16
     16     17
     17     18
        </DataArray>
        <DataArray type="Int32" Name="offsets" format="ascii">
      2
      4
      6
      8
     10
     12
     14
     16
     18
     20
     22
     24
     26
     28
     30
     32
     34
     36
        </DataArray>
      </Lines>
    </Piece>
  </PolyData>
</VTKFile>
