<?xml version="1.0"?>
<VTKFile type="PolyData" version="0.1" byte_order="LittleEndian">
  <PolyData>
    <Piece NumberOfPoints="    550" NumberOfVerts="  0" NumberOfLines="     21"
           NumberOfStrips="  0" NumberOfPolys="    567">
      <Points>
        <DataArray type="Float32" NumberOfComponents="3" format="ascii">
                       2.97344                      -0.00001                       2.18982
                       2.88003                       0.73944                       2.18983
                       2.60565                       1.43243                       2.18985
                       2.16756                       2.03541                       2.18988
                       1.59328                       2.51050                       2.18992
                       0.91889                       2.82784                       2.18996
                       0.18677                       2.96750                       2.19001
                      -0.55709                       2.92070                       2.19006
                      -1.26594                       2.69038                       2.19010
                      -1.89524                       2.29102                       2.19013
                      -2.40545                       1.74770                       2.19016
                      -2.76451                       1.09456                       2.19018
                      -2.94986                       0.37265                       2.19018
                      -2.94986                      -0.37267                       2.19018
                      -2.76451                      -1.09458                       2.19016
                      -2.40545                      -1.74771                       2.19013
                      -1.89523                      -2.29103                       2.19010
                      -1.26594                      -2.69040                       2.19006
                      -0.55709                      -2.92072                       2.19001
                       0.18677                      -2.96752                       2.18997
                       0.91889                      -2.82786                       2.18992
                       1.59328                      -2.51051                       2.18988
                       2.16756                      -2.03542                       2.18985
                       2.60565                      -1.43244                       2.18983
                       2.88003                      -0.73946                       2.18982
                       2.92078                      -0.00007                       6.56939
                       2.82904                       0.72613                       6.56942
                       2.55958                       1.40671                       6.56949
                       2.12933                       1.99889                       6.56959
                       1.56533                       2.46547                       6.56972
                       0.90302                       2.77713                       6.56987
                       0.18401                       2.91429                       6.57002
                      -0.54653                       2.86833                       6.57018
                      -1.24268                       2.64214                       6.57032
                      -1.86071                       2.24992                       6.57044
                      -2.36178                       1.71633                       6.57053
                      -2.71441                       1.07490                       6.57059
                      -2.89645                       0.36592                       6.57062
                      -2.89645                      -0.36606                       6.57060
                      -2.71441                      -1.07504                       6.57055
                      -2.36178                      -1.71648                       6.57046
                      -1.86071                      -2.25007                       6.57034
                      -1.24268                      -2.64228                       6.57021
                      -0.54653                      -2.86847                       6.57005
                       0.18401                      -2.91444                       6.56990
                       0.90302                      -2.77728                       6.56975
                       1.56533                      -2.46562                       6.56962
                       2.12933                      -1.99904                       6.56951
                       2.55958                      -1.40685                       6.56943
                       2.82904                      -0.72628                       6.56939
                       2.86881                      -0.00019                      10.94892
                       2.77874                       0.71277                      10.94897
                       2.51420                       1.38094                      10.94909
                       2.09180                       1.96232                      10.94927
                       1.53809                       2.42039                      10.94950
                       0.88785                       2.72637                      10.94975
                       0.18195                       2.86103                      10.95003
                      -0.53526                       2.81590                      10.95030
                      -1.21872                       2.59383                      10.95055
                      -1.82548                       2.20877                      10.95076
                      -2.31741                       1.68492                      10.95093
                      -2.66362                       1.05518                      10.95104
                      -2.84233                       0.35912                      10.95109
                      -2.84233                      -0.35951                      10.95106
                      -2.66362                      -1.05556                      10.95097
                      -2.31741                      -1.68530                      10.95082
                      -1.82548                      -2.20916                      10.95062
                      -1.21872                      -2.59422                      10.95038
                      -0.53526                      -2.81629                      10.95011
                       0.18195                      -2.86141                      10.94984
                       0.88785                      -2.72675                      10.94957
                       1.53808                      -2.42077                      10.94934
                       2.09180                      -1.96270                      10.94914
                       2.51420                      -1.38132                      10.94900
                       2.77874                      -0.71315                      10.94893
                       2.81760                      -0.00036                      15.32845
                       2.72920                       0.69936                      15.32853
                       2.46957                       1.35512                      15.32870
                       2.05502                       1.92570                      15.32895
                       1.51159                       2.37526                      15.32927
                       0.87343                       2.67556                      15.32964
                       0.18064                       2.80771                      15.33002
                      -0.52325                       2.76343                      15.33041
                      -1.19401                       2.54548                      15.33077
                      -1.78950                       2.16758                      15.33108
                      -2.27230                       1.65345                      15.33133
                      -2.61207                       1.03541                      15.33149
                      -2.78747                       0.35228                      15.33155
                      -2.78747                      -0.35300                      15.33152
                      -2.61207                      -1.03612                      15.33140
                      -2.27230                      -1.65417                      15.33118
                      -1.78950                      -2.16829                      15.33089
                      -1.19401                      -2.54620                      15.33055
                      -0.52325                      -2.76415                      15.33017
                       0.18064                      -2.80843                      15.32978
                       0.87343                      -2.67628                      15.32940
                       1.51159                      -2.37598                      15.32906
                       2.05502                      -1.92642                      15.32878
                       2.46957                      -1.35583                      15.32858
                       2.72920                      -0.70008                      15.32847
                       2.76713                      -0.00057                      19.70801
                       2.68041                       0.68590                      19.70811
                       2.42569                       1.32925                      19.70833
                       2.01899                       1.88903                      19.70865
                       1.48584                       2.33009                      19.70906
                       0.85976                       2.62470                      19.70953
                       0.18009                       2.75435                      19.71002
                      -0.51048                       2.71091                      19.71052
                      -1.16855                       2.49709                      19.71098
                      -1.75277                       2.12633                      19.71138
                      -2.22643                       1.62193                      19.71170
                      -2.55977                       1.01559                      19.71190
                      -2.73185                       0.34539                      19.71199
                      -2.73185                      -0.34654                      19.71195
                      -2.55977                      -1.01674                      19.71179
                      -2.22643                      -1.62308                      19.71152
                      -1.75277                      -2.12748                      19.71115
                      -1.16855                      -2.49824                      19.71071
                      -0.51048                      -2.71206                      19.71022
                       0.18009                      -2.75550                      19.70972
                       0.85976                      -2.62585                      19.70924
                       1.48584                      -2.33124                      19.70881
                       2.01899                      -1.89018                      19.70845
                       2.42569                      -1.33039                      19.70818
                       2.68041                      -0.68705                      19.70803
                       2.71740                      -0.00083                      24.08761
                       2.63235                       0.67240                      24.08773
                       2.38254                       1.30333                      24.08799
                       1.98368                       1.85232                      24.08838
                       1.46082                       2.28487                      24.08887
                       0.84682                       2.57379                      24.08943
                       0.18026                       2.70095                      24.09002
                      -0.49699                       2.65834                      24.09062
                      -1.14236                       2.44865                      24.09117
                      -1.71531                       2.08504                      24.09165
                      -2.17984                       1.59037                      24.09203
                      -2.50675                       0.99572                      24.09228
                      -2.67550                       0.33846                      24.09239
                      -2.67550                      -0.34013                      24.09234
                      -2.50675                      -0.99739                      24.09215
                      -2.17984                      -1.59204                      24.09183
                      -1.71531                      -2.08671                      24.09138
                      -1.14236                      -2.45031                      24.09085
                      -0.49699                      -2.66001                      24.09027
                       0.18026                      -2.70262                      24.08967
                       0.84682                      -2.57546                      24.08909
                       1.46082                      -2.28654                      24.08857
                       1.98368                      -1.85399                      24.08814
                       2.38254                      -1.30500                      24.08782
                       2.63235                      -0.67407                      24.08764
                       2.66835                      -0.00114                      28.46725
                       2.58497                       0.65885                      28.46739
                       2.34008                       1.27737                      28.46769
                       1.94906                       1.81556                      28.46813
                       1.43649                       2.23960                      28.46869
                       0.83457                       2.52284                      28.46934
                       0.18111                       2.64750                      28.47002
                      -0.48281                       2.60573                      28.47071
                      -1.11549                       2.40016                      28.47135
                      -1.67717                       2.04370                      28.47190
                      -2.13255                       1.55877                      28.47233
                      -2.45304                       0.97581                      28.47262
                      -2.61847                       0.33148                      28.47274
                      -2.61847                      -0.33376                      28.47269
                      -2.45304                      -0.97810                      28.47247
                      -2.13255                      -1.56105                      28.47210
                      -1.67717                      -2.04599                      28.47159
                      -1.11549                      -2.40244                      28.47098
                      -0.48281                      -2.60801                      28.47031
                       0.18111                      -2.64978                      28.46962
                       0.83457                      -2.52513                      28.46896
                       1.43649                      -2.24188                      28.46835
                       1.94906                      -1.81784                      28.46786
                       2.34008                      -1.27966                      28.46749
                       2.58497                      -0.66113                      28.46729
                       2.61995                      -0.00150                      32.84693
                       2.53824                       0.64525                      32.84708
                       2.29827                       1.25136                      32.84742
                       1.91510                       1.77875                      32.84791
                       1.41281                       2.19428                      32.84854
                       0.82296                       2.47184                      32.84926
                       0.18262                       2.59400                      32.85003
                      -0.46799                       2.55306                      32.85079
                      -1.08797                       2.35162                      32.85150
                      -1.63838                       2.00232                      32.85212
                      -2.08463                       1.52711                      32.85260
                      -2.39868                       0.95586                      32.85293
                      -2.56079                       0.32445                      32.85306
                      -2.56079                      -0.32744                      32.85300
                      -2.39868                      -0.95885                      32.85276
                      -2.08463                      -1.53011                      32.85234
                      -1.63838                      -2.00531                      32.85177
                      -1.08797                      -2.35461                      32.85109
                      -0.46799                      -2.55606                      32.85034
                       0.18262                      -2.59699                      32.84957
                       0.82296                      -2.47484                      32.84883
                       1.41281                      -2.19728                      32.84816
                       1.91510                      -1.78175                      32.84760
                       2.29827                      -1.25436                      32.84720
                       2.53824                      -0.64825                      32.84697
                       2.57216                      -0.00190                      37.22663
                       2.49213                       0.63160                      37.22680
                       2.25707                       1.22530                      37.22717
                       1.88174                       1.74189                      37.22771
                       1.38974                       2.14891                      37.22840
                       0.81197                       2.42079                      37.22919
                       0.18474                       2.54044                      37.23003
                      -0.45254                       2.50035                      37.23086
                      -1.05983                       2.30303                      37.23165
                      -1.59897                       1.96088                      37.23232
                      -2.03608                       1.49540                      37.23285
                      -2.34370                       0.93585                      37.23320
                      -2.50250                       0.31737                      37.23335
                      -2.50250                      -0.32118                      37.23329
                      -2.34370                      -0.93966                      37.23302
                      -2.03608                      -1.49921                      37.23256
                      -1.59897                      -1.96469                      37.23193
                      -1.05983                      -2.30684                      37.23119
                      -0.45254                      -2.50416                      37.23037
                       0.18474                      -2.54425                      37.22953
                       0.81197                      -2.42460                      37.22871
                       1.38974                      -2.15272                      37.22798
                       1.88174                      -1.74570                      37.22737
                       2.25707                      -1.22911                      37.22693
                       2.49213                      -0.63541                      37.22668
                       2.52498                      -0.00236                      41.60636
                       2.44663                       0.61790                      41.60654
                       2.21648                       1.19919                      41.60694
                       1.84900                       1.70498                      41.60753
                       1.36728                       2.10349                      41.60827
                       0.80159                       2.36969                      41.60913
                       0.18747                       2.48684                      41.61003
                      -0.43649                       2.44758                      41.61094
                      -1.03108                       2.25439                      41.61178
                      -1.55895                       1.91939                      41.61251
                      -1.98693                       1.46364                      41.61308
                      -2.28811                       0.91578                      41.61346
                      -2.44359                       0.31023                      41.61362
                      -2.44359                      -0.31496                      41.61355
                      -2.28812                      -0.92051                      41.61326
                      -1.98693                      -1.46838                      41.61276
                      -1.55895                      -1.92412                      41.61208
                      -1.03108                      -2.25912                      41.61128
                      -0.43649                      -2.45231                      41.61039
                       0.18747                      -2.49157                      41.60948
                       0.80159                      -2.37442                      41.60860
                       1.36728                      -2.10822                      41.60781
                       1.84900                      -1.70971                      41.60715
                       2.21648                      -1.20392                      41.60667
                       2.44663                      -0.62263                      41.60640
                       2.47841                      -0.00288                      45.98609
                       2.40172                       0.60414                      45.98629
                       2.17649                       1.17302                      45.98672
                       1.81686                       1.66801                      45.98735
                       1.34542                       2.05802                      45.98815
                       0.79181                       2.31853                      45.98907
                       0.19080                       2.43318                      45.99004
                      -0.41984                       2.39476                      45.99101
                      -1.00174                       2.20569                      45.99191
                      -1.51833                       1.87785                      45.99269
                      -1.93717                       1.43183                      45.99330
                      -2.23193                       0.89567                      45.99371
                      -2.38409                       0.30304                      45.99388
                      -2.38409                      -0.30880                      45.99380
                      -2.23193                      -0.90143                      45.99349
                      -1.93717                      -1.43759                      45.99295
                      -1.51833                      -1.88361                      45.99223
                      -1.00174                      -2.21145                      45.99136
                      -0.41984                      -2.40052                      45.99041
                       0.19080                      -2.43894                      45.98943
                       0.79181                      -2.32429                      45.98849
                       1.34542                      -2.06378                      45.98764
                       1.81686                      -1.67377                      45.98694
                       2.17649                      -1.17878                      45.98642
                       2.40172                      -0.60990                      45.98614
                       2.43245                      -0.00345                      50.36582
                       2.35744                       0.59033                      50.36604
                       2.13712                       1.14680                      50.36650
                       1.78533                       1.63099                      50.36717
                       1.32418                       2.01249                      50.36803
                       0.78265                       2.26731                      50.36900
                       0.19475                       2.37946                      50.37004
                      -0.40256                       2.34188                      50.37107
                      -0.97177                       2.15694                      50.37204
                      -1.47710                       1.83624                      50.37287
                      -1.88680                       1.39996                      50.37352
                      -2.17512                       0.87549                      50.37395
                      -2.32396                       0.29580                      50.37413
                      -2.32396                      -0.30270                      50.37405
                      -2.17512                      -0.88240                      50.37371
                      -1.88680                      -1.40686                      50.37314
                      -1.47710                      -1.84315                      50.37237
                      -0.97177                      -2.16384                      50.37144
                      -0.40256                      -2.34879                      50.37043
                       0.19475                      -2.38637                      50.36939
                       0.78265                      -2.27422                      50.36838
                       1.32418                      -2.01939                      50.36747
                       1.78533                      -1.63789                      50.36672
                       2.13712                      -1.15370                      50.36618
                       2.35744                      -0.59723                      50.36587
                       2.38714                      -0.00408                      54.74556
                       2.31380                       0.57646                      54.74579
                       2.09839                       1.12051                      54.74628
                       1.75445                       1.59391                      54.74700
                       1.30359                       1.96690                      54.74790
                       0.77413                       2.21604                      54.74894
                       0.19934                       2.32569                      54.75004
                      -0.38465                       2.28895                      54.75114
                      -0.94116                       2.10812                      54.75216
                      -1.43522                       1.79459                      54.75304
                      -1.83578                       1.36803                      54.75373
                      -2.11768                       0.85526                      54.75419
                      -2.26320                       0.28849                      54.75438
                      -2.26320                      -0.29666                      54.75429
                      -2.11768                      -0.86342                      54.75393
                      -1.83578                      -1.37619                      54.75332
                      -1.43522                      -1.80275                      54.75250
                      -0.94116                      -2.11629                      54.75152
                      -0.38465                      -2.29711                      54.75045
                       0.19934                      -2.33385                      54.74934
                       0.77413                      -2.22420                      54.74827
                       1.30358                      -1.97506                      54.74731
                       1.75445                      -1.60207                      54.74652
                       2.09839                      -1.12867                      54.74594
                       2.31380                      -0.58462                      54.74561
                       2.34248                      -0.00477                      59.12531
                       2.27082                       0.56253                      59.12554
                       2.06032                       1.09417                      59.12606
                       1.72423                       1.55677                      59.12682
                       1.28365                       1.92125                      59.12778
                       0.76627                       2.16471                      59.12887
                       0.20460                       2.27186                      59.13004
                      -0.36608                       2.23595                      59.13119
                      -0.90989                       2.05926                      59.13227
                      -1.39268                       1.75287                      59.13321
                      -1.78410                       1.33605                      59.13394
                      -2.05957                       0.83497                      59.13442
                      -2.20177                       0.28113                      59.13462
                      -2.20177                      -0.29067                      59.13453
                      -2.05957                      -0.84450                      59.13415
                      -1.78410                      -1.34558                      59.13350
                      -1.39268                      -1.76240                      59.13264
                      -0.90989                      -2.06879                      59.13160
                      -0.36608                      -2.24549                      59.13046
                       0.20460                      -2.28139                      59.12929
                       0.76627                      -2.17424                      59.12817
                       1.28365                      -1.93078                      59.12715
                       1.72423                      -1.56630                      59.12631
                       2.06032                      -1.10371                      59.12570
                       2.27082                      -0.57206                      59.12536
                       2.29850                      -0.00551                      63.50507
                       2.22851                       0.54854                      63.50532
                       2.02293                       1.06778                      63.50586
                       1.69468                       1.51958                      63.50666
                       1.26438                       1.87555                      63.50766
                       0.75908                       2.11333                      63.50881
                       0.21052                       2.21797                      63.51003
                      -0.34683                       2.18291                      63.51125
                      -0.87795                       2.01034                      63.51238
                      -1.34947                       1.71110                      63.51336
                      -1.73175                       1.30401                      63.51413
                      -2.00079                       0.81463                      63.51463
                      -2.13967                       0.27372                      63.51484
                      -2.13967                      -0.28473                      63.51474
                      -2.00079                      -0.82564                      63.51434
                      -1.73175                      -1.31502                      63.51367
                      -1.34947                      -1.72211                      63.51276
                      -0.87795                      -2.02135                      63.51167
                      -0.34683                      -2.19392                      63.51048
                       0.21052                      -2.22898                      63.50925
                       0.75908                      -2.12434                      63.50807
                       1.26438                      -1.88656                      63.50700
                       1.69468                      -1.53059                      63.50612
                       2.02293                      -1.07879                      63.50548
                       2.22851                      -0.55956                      63.50512
                       2.25516                      -0.00630                      67.88487
                       2.18684                       0.53451                      67.88513
                       1.98617                       1.04134                      67.88569
                       1.66577                       1.48234                      67.88652
                       1.24576                       1.82980                      67.88756
                       0.75253                       2.06189                      67.88876
                       0.21708                       2.16404                      67.89002
                      -0.32694                       2.12981                      67.89128
                      -0.84537                       1.96136                      67.89246
                      -1.30562                       1.66928                      67.89348
                      -1.67876                       1.27191                      67.89428
                      -1.94137                       0.79423                      67.89480
                      -2.07693                       0.26625                      67.89502
                      -2.07693                      -0.27885                      67.89492
                      -1.94137                      -0.80683                      67.89450
                      -1.67877                      -1.28451                      67.89380
                      -1.30562                      -1.68188                      67.89286
                      -0.84537                      -1.97396                      67.89173
                      -0.32694                      -2.14240                      67.89049
                       0.21708                      -2.17663                      67.88921
                       0.75253                      -2.07449                      67.88798
                       1.24576                      -1.84239                      67.88688
                       1.66577                      -1.49493                      67.88596
                       1.98617                      -1.05393                      67.88530
                       2.18684                      -0.54710                      67.88493
                       2.21238                      -0.00714                      72.26473
                       2.14574                       0.52043                      72.26500
                       1.94998                       1.01484                      72.26558
                       1.63743                       1.44505                      72.26643
                       1.22770                       1.78400                      72.26749
                       0.74655                       2.01041                      72.26872
                       0.22422                       2.11005                      72.27001
                      -0.30649                       2.07666                      72.27131
                      -0.81222                       1.91234                      72.27251
                      -1.26120                       1.62741                      72.27355
                      -1.62521                       1.23978                      72.27437
                      -1.88138                       0.77379                      72.27490
                      -2.01363                       0.25874                      72.27513
                      -2.01363                      -0.27302                      72.27502
                      -1.88138                      -0.78807                      72.27460
                      -1.62521                      -1.25405                      72.27388
                      -1.26120                      -1.64168                      72.27291
                      -0.81222                      -1.92661                      72.27176
                      -0.30649                      -2.09094                      72.27049
                       0.22422                      -2.12433                      72.26918
                       0.74655                      -2.02468                      72.26792
                       1.22770                      -1.79827                      72.26679
                       1.63743                      -1.45932                      72.26585
                       1.94998                      -1.02912                      72.26517
                       2.14574                      -0.53470                      72.26479
                       2.17002                      -0.00802                      76.64471
                       2.10505                       0.50631                      76.64497
                       1.91421                       0.98831                      76.64555
                       1.60950                       1.40771                      76.64641
                       1.21006                       1.73816                      76.64748
                       0.74099                       1.95889                      76.64871
                       0.23176                       2.05603                      76.65001
                      -0.28562                       2.02348                      76.65130
                      -0.77866                       1.86328                      76.65251
                      -1.21636                       1.58550                      76.65355
                      -1.57124                       1.20760                      76.65437
                      -1.82098                       0.75331                      76.65491
                      -1.94991                       0.25119                      76.65513
                      -1.94991                      -0.26722                      76.65502
                      -1.82098                      -0.76934                      76.65459
                      -1.57124                      -1.22363                      76.65387
                      -1.21636                      -1.60153                      76.65290
                      -0.77866                      -1.87931                      76.65174
                      -0.28562                      -2.03951                      76.65047
                       0.23176                      -2.07206                      76.64916
                       0.74099                      -1.97492                      76.64790
                       1.21006                      -1.75419                      76.64676
                       1.60950                      -1.42375                      76.64583
                       1.91421                      -1.00434                      76.64515
                       2.10505                      -0.52234                      76.64476
                       2.12782                      -0.00893                      81.02483
                       2.06452                       0.49215                      81.02510
                       1.87860                       0.96174                      81.02566
                       1.58173                       1.37035                      81.02650
                       1.19257                       1.69228                      81.02754
                       0.73558                       1.90733                      81.02874
                       0.23947                       2.00197                      81.03000
                      -0.26459                       1.97025                      81.03127
                      -0.74494                       1.81418                      81.03244
                      -1.17137                       1.54356                      81.03345
                      -1.51711                       1.17538                      81.03425
                      -1.76042                       0.73279                      81.03476
                      -1.88603                       0.24360                      81.03497
                      -1.88603                      -0.26146                      81.03487
                      -1.76042                      -0.75066                      81.03445
                      -1.51711                      -1.19325                      81.03374
                      -1.17137                      -1.56142                      81.03280
                      -0.74494                      -1.83204                      81.03167
                      -0.26460                      -1.98812                      81.03043
                       0.23947                      -2.01983                      81.02915
                       0.73558                      -1.92519                      81.02792
                       1.19257                      -1.71015                      81.02682
                       1.58173                      -1.38821                      81.02591
                       1.87860                      -0.97960                      81.02525
                       2.06452                      -0.51001                      81.02488
                       2.08539                      -0.00987                      85.40517
                       2.02376                       0.47796                      85.40542
                       1.84275                       0.93515                      85.40596
                       1.55373                       1.33295                      85.40674
                       1.17486                       1.64638                      85.40772
                       0.72994                       1.85574                      85.40883
                       0.24694                       1.94788                      85.41001
                      -0.24380                       1.91701                      85.41119
                      -0.71145                       1.76506                      85.41228
                      -1.12661                       1.50158                      85.41322
                      -1.46321                       1.14314                      85.41395
                      -1.70010                       0.71225                      85.41442
                      -1.82238                       0.23598                      85.41461
                      -1.82238                      -0.25573                      85.41451
                      -1.70010                      -0.73200                      85.41411
                      -1.46321                      -1.16289                      85.41345
                      -1.12661                      -1.52133                      85.41256
                      -0.71145                      -1.78480                      85.41150
                      -0.24380                      -1.93675                      85.41035
                       0.24694                      -1.96763                      85.40916
                       0.72994                      -1.87549                      85.40802
                       1.17486                      -1.66613                      85.40700
                       1.55373                      -1.35270                      85.40615
                       1.84275                      -0.95489                      85.40555
                       2.02376                      -0.49771                      85.40521
                       2.06392                      -0.01035                      87.59543
                       2.00313                       0.47086                      87.59568
                       1.82457                       0.92184                      87.59619
                       1.53947                       1.31425                      87.59693
                       1.16575                       1.62342                      87.59785
                       0.72687                       1.82994                      87.59891
                       0.25042                       1.92083                      87.60002
                      -0.23366                       1.89037                      87.60113
                      -0.69496                       1.74049                      87.60215
                      -1.10449                       1.48059                      87.60303
                      -1.43652                       1.12701                      87.60372
                      -1.67019                       0.70197                      87.60416
                      -1.79081                       0.23217                      87.60434
                      -1.79081                      -0.25287                      87.60423
                      -1.67019                      -0.72267                      87.60385
                      -1.43652                      -1.14772                      87.60322
                      -1.10449                      -1.50130                      87.60238
                      -0.69496                      -1.76119                      87.60138
                      -0.23366                      -1.91108                      87.60029
                       0.25042                      -1.94153                      87.59917
                       0.72687                      -1.85065                      87.59810
                       1.16574                      -1.64413                      87.59714
                       1.53947                      -1.33495                      87.59635
                       1.82457                      -0.94254                      87.59578
                       2.00313                      -0.49157                      87.59547
                       3.00000                       0.00000                       0.00000
                       2.90575                       0.74607                       0.00000
                       2.62892                       1.44526                       0.00000
                       2.18691                       2.05364                       0.00000
                       1.60748                       2.53298                       0.00000
                       0.92705                       2.85317                       0.00000
                       0.18837                       2.99408                       0.00000
                      -0.56214                       2.94686                       0.00000
                      -1.27734                       2.71448                       0.00000
                      -1.91227                       2.31154                       0.00000
                      -2.42705                       1.76336                       0.00000
                      -2.78933                       1.10437                       0.00000
                      -2.97634                       0.37600                       0.00000
                      -2.97634                      -0.37600                       0.00000
                      -2.78933                      -1.10437                       0.00000
                      -2.42705                      -1.76336                       0.00000
                      -1.91227                      -2.31154                       0.00000
                      -1.27734                      -2.71448                       0.00000
                      -0.56214                      -2.94686                       0.00000
                       0.18837                      -2.99408                       0.00000
                       0.92705                      -2.85317                       0.00000
                       1.60748                      -2.53298                       0.00000
                       2.18691                      -2.05364                       0.00000
                       2.62892                      -1.44526                       0.00000
                       2.90575                      -0.74607                       0.00000
        </DataArray>
      </Points>
      <Polys>
        <DataArray type="Int32" Name="connectivity" format="ascii">
      0      1     26     25
      1      2     27     26
      2      3     28     27
      3      4     29     28
      4      5     30     29
      5      6     31     30
      6      7     32     31
      7      8     33     32
      8      9     34     33
      9     10     35     34
     10     11     36     35
     11     12     37     36
     12     13     38     37
     13     14     39     38
     14     15     40     39
     15     16     41     40
     16     17     42     41
     17     18     43     42
     18     19     44     43
     19     20     45     44
     20     21     46     45
     21     22     47     46
     22     23     48     47
     23     24     49     48
     24      0     25     49
     24     23     22     21     20     19     18     17     16     15     14     13     12     11     10      9      8      7      6      5      4      3      2      1      0
     25     26     27     28     29     30     31     32     33     34     35     36     37     38     39     40     41     42     43     44     45     46     47     48     49
     25     26     51     50
     26     27     52     51
     27     28     53     52
     28     29     54     53
     29     30     55     54
     30     31     56     55
     31     32     57     56
     32     33     58     57
     33     34     59     58
     34     35     60     59
     35     36     61     60
     36     37     62     61
     37     38     63     62
     38     39     64     63
     39     40     65     64
     40     41     66     65
     41     42     67     66
     42     43     68     67
     43     44     69     68
     44     45     70     69
     45     46     71     70
     46     47     72     71
     47     48     73     72
     48     49     74     73
     49     25     50     74
     49     48     47     46     45     44     43     42     41     40     39     38     37     36     35     34     33     32     31     30     29     28     27     26     25
     50     51     52     53     54     55     56     57     58     59     60     61     62     63     64     65     66     67     68     69     70     71     72     73     74
     50     51     76     75
     51     52     77     76
     52     53     78     77
     53     54     79     78
     54     55     80     79
     55     56     81     80
     56     57     82     81
     57     58     83     82
     58     59     84     83
     59     60     85     84
     60     61     86     85
     61     62     87     86
     62     63     88     87
     63     64     89     88
     64     65     90     89
     65     66     91     90
     66     67     92     91
     67     68     93     92
     68     69     94     93
     69     70     95     94
     70     71     96     95
     71     72     97     96
     72     73     98     97
     73     74     99     98
     74     50     75     99
     74     73     72     71     70     69     68     67     66     65     64     63     62     61     60     59     58     57     56     55     54     53     52     51     50
     75     76     77     78     79     80     81     82     83     84     85     86     87     88     89     90     91     92     93     94     95     96     97     98     99
     75     76    101    100
     76     77    102    101
     77     78    103    102
     78     79    104    103
     79     80    105    104
     80     81    106    105
     81     82    107    106
     82     83    108    107
     83     84    109    108
     84     85    110    109
     85     86    111    110
     86     87    112    111
     87     88    113    112
     88     89    114    113
     89     90    115    114
     90     91    116    115
     91     92    117    116
     92     93    118    117
     93     94    119    118
     94     95    120    119
     95     96    121    120
     96     97    122    121
     97     98    123    122
     98     99    124    123
     99     75    100    124
     99     98     97     96     95     94     93     92     91     90     89     88     87     86     85     84     83     82     81     80     79     78     77     76     75
    100    101    102    103    104    105    106    107    108    109    110    111    112    113    114    115    116    117    118    119    120    121    122    123    124
    100    101    126    125
    101    102    127    126
    102    103    128    127
    103    104    129    128
    104    105    130    129
    105    106    131    130
    106    107    132    131
    107    108    133    132
    108    109    134    133
    109    110    135    134
    110    111    136    135
    111    112    137    136
    112    113    138    137
    113    114    139    138
    114    115    140    139
    115    116    141    140
    116    117    142    141
    117    118    143    142
    118    119    144    143
    119    120    145    144
    120    121    146    145
    121    122    147    146
    122    123    148    147
    123    124    149    148
    124    100    125    149
    124    123    122    121    120    119    118    117    116    115    114    113    112    111    110    109    108    107    106    105    104    103    102    101    100
    125    126    127    128    129    130    131    132    133    134    135    136    137    138    139    140    141    142    143    144    145    146    147    148    149
    125    126    151    150
    126    127    152    151
    127    128    153    152
    128    129    154    153
    129    130    155    154
    130    131    156    155
    131    132    157    156
    132    133    158    157
    133    134    159    158
    134    135    160    159
    135    136    161    160
    136    137    162    161
    137    138    163    162
    138    139    164    163
    139    140    165    164
    140    141    166    165
    141    142    167    166
    142    143    168    167
    143    144    169    168
    144    145    170    169
    145    146    171    170
    146    147    172    171
    147    148    173    172
    148    149    174    173
    149    125    150    174
    149    148    147    146    145    144    143    142    141    140    139    138    137    136    135    134    133    132    131    130    129    128    127    126    125
    150    151    152    153    154    155    156    157    158    159    160    161    162    163    164    165    166    167    168    169    170    171    172    173    174
    150    151    176    175
    151    152    177    176
    152    153    178    177
    153    154    179    178
    154    155    180    179
    155    156    181    180
    156    157    182    181
    157    158    183    182
    158    159    184    183
    159    160    185    184
    160    161    186    185
    161    162    187    186
    162    163    188    187
    163    164    189    188
    164    165    190    189
    165    166    191    190
    166    167    192    191
    167    168    193    192
    168    169    194    193
    169    170    195    194
    170    171    196    195
    171    172    197    196
    172    173    198    197
    173    174    199    198
    174    150    175    199
    174    173    172    171    170    169    168    167    166    165    164    163    162    161    160    159    158    157    156    155    154    153    152    151    150
    175    176    177    178    179    180    181    182    183    184    185    186    187    188    189    190    191    192    193    194    195    196    197    198    199
    175    176    201    200
    176    177    202    201
    177    178    203    202
    178    179    204    203
    179    180    205    204
    180    181    206    205
    181    182    207    206
    182    183    208    207
    183    184    209    208
    184    185    210    209
    185    186    211    210
    186    187    212    211
    187    188    213    212
    188    189    214    213
    189    190    215    214
    190    191    216    215
    191    192    217    216
    192    193    218    217
    193    194    219    218
    194    195    220    219
    195    196    221    220
    196    197    222    221
    197    198    223    222
    198    199    224    223
    199    175    200    224
    199    198    197    196    195    194    193    192    191    190    189    188    187    186    185    184    183    182    181    180    179    178    177    176    175
    200    201    202    203    204    205    206    207    208    209    210    211    212    213    214    215    216    217    218    219    220    221    222    223    224
    200    201    226    225
    201    202    227    226
    202    203    228    227
    203    204    229    228
    204    205    230    229
    205    206    231    230
    206    207    232    231
    207    208    233    232
    208    209    234    233
    209    210    235    234
    210    211    236    235
    211    212    237    236
    212    213    238    237
    213    214    239    238
    214    215    240    239
    215    216    241    240
    216    217    242    241
    217    218    243    242
    218    219    244    243
    219    220    245    244
    220    221    246    245
    221    222    247    246
    222    223    248    247
    223    224    249    248
    224    200    225    249
    224    223    222    221    220    219    218    217    216    215    214    213    212    211    210    209    208    207    206    205    204    203    202    201    200
    225    226    227    228    229    230    231    232    233    234    235    236    237    238    239    240    241    242    243    244    245    246    247    248    249
    225    226    251    250
    226    227    252    251
    227    228    253    252
    228    229    254    253
    229    230    255    254
    230    231    256    255
    231    232    257    256
    232    233    258    257
    233    234    259    258
    234    235    260    259
    235    236    261    260
    236    237    262    261
    237    238    263    262
    238    239    264    263
    239    240    265    264
    240    241    266    265
    241    242    267    266
    242    243    268    267
    243    244    269    268
    244    245    270    269
    245    246    271    270
    246    247    272    271
    247    248    273    272
    248    249    274    273
    249    225    250    274
    249    248    247    246    245    244    243    242    241    240    239    238    237    236    235    234    233    232    231    230    229    228    227    226    225
    250    251    252    253    254    255    256    257    258    259    260    261    262    263    264    265    266    267    268    269    270    271    272    273    274
    250    251    276    275
    251    252    277    276
    252    253    278    277
    253    254    279    278
    254    255    280    279
    255    256    281    280
    256    257    282    281
    257    258    283    282
    258    259    284    283
    259    260    285    284
    260    261    286    285
    261    262    287    286
    262    263    288    287
    263    264    289    288
    264    265    290    289
    265    266    291    290
    266    267    292    291
    267    268    293    292
    268    269    294    293
    269    270    295    294
    270    271    296    295
    271    272    297    296
    272    273    298    297
    273    274    299    298
    274    250    275    299
    274    273    272    271    270    269    268    267    266    265    264    263    262    261    260    259    258    257    256    255    254    253    252    251    250
    275    276    277    278    279    280    281    282    283    284    285    286    287    288    289    290    291    292    293    294    295    296    297    298    299
    275    276    301    300
    276    277    302    301
    277    278    303    302
    278    279    304    303
    279    280    305    304
    280    281    306    305
    281    282    307    306
    282    283    308    307
    283    284    309    308
    284    285    310    309
    285    286    311    310
    286    287    312    311
    287    288    313    312
    288    289    314    313
    289    290    315    314
    290    291    316    315
    291    292    317    316
    292    293    318    317
    293    294    319    318
    294    295    320    319
    295    296    321    320
    296    297    322    321
    297    298    323    322
    298    299    324    323
    299    275    300    324
    299    298    297    296    295    294    293    292    291    290    289    288    287    286    285    284    283    282    281    280    279    278    277    276    275
    300    301    302    303    304    305    306    307    308    309    310    311    312    313    314    315    316    317    318    319    320    321    322    323    324
    300    301    326    325
    301    302    327    326
    302    303    328    327
    303    304    329    328
    304    305    330    329
    305    306    331    330
    306    307    332    331
    307    308    333    332
    308    309    334    333
    309    310    335    334
    310    311    336    335
    311    312    337    336
    312    313    338    337
    313    314    339    338
    314    315    340    339
    315    316    341    340
    316    317    342    341
    317    318    343    342
    318    319    344    343
    319    320    345    344
    320    321    346    345
    321    322    347    346
    322    323    348    347
    323    324    349    348
    324    300    325    349
    324    323    322    321    320    319    318    317    316    315    314    313    312    311    310    309    308    307    306    305    304    303    302    301    300
    325    326    327    328    329    330    331    332    333    334    335    336    337    338    339    340    341    342    343    344    345    346    347    348    349
    325    326    351    350
    326    327    352    351
    327    328    353    352
    328    329    354    353
    329    330    355    354
    330    331    356    355
    331    332    357    356
    332    333    358    357
    333    334    359    358
    334    335    360    359
    335    336    361    360
    336    337    362    361
    337    338    363    362
    338    339    364    363
    339    340    365    364
    340    341    366    365
    341    342    367    366
    342    343    368    367
    343    344    369    368
    344    345    370    369
    345    346    371    370
    346    347    372    371
    347    348    373    372
    348    349    374    373
    349    325    350    374
    349    348    347    346    345    344    343    342    341    340    339    338    337    336    335    334    333    332    331    330    329    328    327    326    325
    350    351    352    353    354    355    356    357    358    359    360    361    362    363    364    365    366    367    368    369    370    371    372    373    374
    350    351    376    375
    351    352    377    376
    352    353    378    377
    353    354    379    378
    354    355    380    379
    355    356    381    380
    356    357    382    381
    357    358    383    382
    358    359    384    383
    359    360    385    384
    360    361    386    385
    361    362    387    386
    362    363    388    387
    363    364    389    388
    364    365    390    389
    365    366    391    390
    366    367    392    391
    367    368    393    392
    368    369    394    393
    369    370    395    394
    370    371    396    395
    371    372    397    396
    372    373    398    397
    373    374    399    398
    374    350    375    399
    374    373    372    371    370    369    368    367    366    365    364    363    362    361    360    359    358    357    356    355    354    353    352    351    350
    375    376    377    378    379    380    381    382    383    384    385    386    387    388    389    390    391    392    393    394    395    396    397    398    399
    375    376    401    400
    376    377    402    401
    377    378    403    402
    378    379    404    403
    379    380    405    404
    380    381    406    405
    381    382    407    406
    382    383    408    407
    383    384    409    408
    384    385    410    409
    385    386    411    410
    386    387    412    411
    387    388    413    412
    388    389    414    413
    389    390    415    414
    390    391    416    415
    391    392    417    416
    392    393    418    417
    393    394    419    418
    394    395    420    419
    395    396    421    420
    396    397    422    421
    397    398    423    422
    398    399    424    423
    399    375    400    424
    399    398    397    396    395    394    393    392    391    390    389    388    387    386    385    384    383    382    381    380    379    378    377    376    375
    400    401    402    403    404    405    406    407    408    409    410    411    412    413    414    415    416    417    418    419    420    421    422    423    424
    400    401    426    425
    401    402    427    426
    402    403    428    427
    403    404    429    428
    404    405    430    429
    405    406    431    430
    406    407    432    431
    407    408    433    432
    408    409    434    433
    409    410    435    434
    410    411    436    435
    411    412    437    436
    412    413    438    437
    413    414    439    438
    414    415    440    439
    415    416    441    440
    416    417    442    441
    417    418    443    442
    418    419    444    443
    419    420    445    444
    420    421    446    445
    421    422    447    446
    422    423    448    447
    423    424    449    448
    424    400    425    449
    424    423    422    421    420    419    418    417    416    415    414    413    412    411    410    409    408    407    406    405    404    403    402    401    400
    425    426    427    428    429    430    431    432    433    434    435    436    437    438    439    440    441    442    443    444    445    446    447    448    449
    425    426    451    450
    426    427    452    451
    427    428    453    452
    428    429    454    453
    429    430    455    454
    430    431    456    455
    431    432    457    456
    432    433    458    457
    433    434    459    458
    434    435    460    459
    435    436    461    460
    436    437    462    461
    437    438    463    462
    438    439    464    463
    439    440    465    464
    440    441    466    465
    441    442    467    466
    442    443    468    467
    443    444    469    468
    444    445    470    469
    445    446    471    470
    446    447    472    471
    447    448    473    472
    448    449    474    473
    449    425    450    474
    449    448    447    446    445    444    443    442    441    440    439    438    437    436    435    434    433    432    431    430    429    428    427    426    425
    450    451    452    453    454    455    456    457    458    459    460    461    462    463    464    465    466    467    468    469    470    471    472    473    474
    450    451    476    475
    451    452    477    476
    452    453    478    477
    453    454    479    478
    454    455    480    479
    455    456    481    480
    456    457    482    481
    457    458    483    482
    458    459    484    483
    459    460    485    484
    460    461    486    485
    461    462    487    486
    462    463    488    487
    463    464    489    488
    464    465    490    489
    465    466    491    490
    466    467    492    491
    467    468    493    492
    468    469    494    493
    469    470    495    494
    470    471    496    495
    471    472    497    496
    472    473    498    497
    473    474    499    498
    474    450    475    499
    474    473    472    471    470    469    468    467    466    465    464    463    462    461    460    459    458    457    456    455    454    453    452    451    450
    475    476    477    478    479    480    481    482    483    484    485    486    487    488    489    490    491    492    493    494    495    496    497    498    499
    475    476    501    500
    476    477    502    501
    477    478    503    502
    478    479    504    503
    479    480    505    504
    480    481    506    505
    481    482    507    506
    482    483    508    507
    483    484    509    508
    484    485    510    509
    485    486    511    510
    486    487    512    511
    487    488    513    512
    488    489    514    513
    489    490    515    514
    490    491    516    515
    491    492    517    516
    492    493    518    517
    493    494    519    518
    494    495    520    519
    495    496    521    520
    496    497    522    521
    497    498    523    522
    498    499    524    523
    499    475    500    524
    499    498    497    496    495    494    493    492    491    490    489    488    487    486    485    484    483    482    481    480    479    478    477    476    475
    500    501    502    503    504    505    506    507    508    509    510    511    512    513    514    515    516    517    518    519    520    521    522    523    524
    525    526      1      0
    526    527      2      1
    527    528      3      2
    528    529      4      3
    529    530      5      4
    530    531      6      5
    531    532      7      6
    532    533      8      7
    533    534      9      8
    534    535     10      9
    535    536     11     10
    536    537     12     11
    537    538     13     12
    538    539     14     13
    539    540     15     14
    540    541     16     15
    541    542     17     16
    542    543     18     17
    543    544     19     18
    544    545     20     19
    545    546     21     20
    546    547     22     21
    547    548     23     22
    548    549     24     23
    549    525      0     24
    549    548    547    546    545    544    543    542    541    540    539    538    537    536    535    534    533    532    531    530    529    528    527    526    525
      0      1      2      3      4      5      6      7      8      9     10     11     12     13     14     15     16     17     18     19     20     21     22     23     24
        </DataArray>
        <DataArray type="Int32" Name="offsets" format="ascii">
      4
      8
     12
     16
     20
     24
     28
     32
     36
     40
     44
     48
     52
     56
     60
     64
     68
     72
     76
     80
     84
     88
     92
     96
    100
    125
    150
    154
    158
    162
    166
    170
    174
    178
    182
    186
    190
    194
    198
    202
    206
    210
    214
    218
    222
    226
    230
    234
    238
    242
    246
    250
    275
    300
    304
    308
    312
    316
    320
    324
    328
    332
    336
    340
    344
    348
    352
    356
    360
    364
    368
    372
    376
    380
    384
    388
    392
    396
    400
    425
    450
    454
    458
    462
    466
    470
    474
    478
    482
    486
    490
    494
    498
    502
    506
    510
    514
    518
    522
    526
    530
    534
    538
    542
    546
    550
    575
    600
    604
    608
    612
    616
    620
    624
    628
    632
    636
    640
    644
    648
    652
    656
    660
    664
    668
    672
    676
    680
    684
    688
    692
    696
    700
    725
    750
    754
    758
    762
    766
    770
    774
    778
    782
    786
    790
    794
    798
    802
    806
    810
    814
    818
    822
    826
    830
    834
    838
    842
    846
    850
    875
    900
    904
    908
    912
    916
    920
    924
    928
    932
    936
    940
    944
    948
    952
    956
    960
    964
    968
    972
    976
    980
    984
    988
    992
    996
   1000
   1025
   1050
   1054
   1058
   1062
   1066
   1070
   1074
   1078
   1082
   1086
   1090
   1094
   1098
   1102
   1106
   1110
   1114
   1118
   1122
   1126
   1130
   1134
   1138
   1142
   1146
   1150
   1175
   1200
   1204
   1208
   1212
   1216
   1220
   1224
   1228
   1232
   1236
   1240
   1244
   1248
   1252
   1256
   1260
   1264
   1268
   1272
   1276
   1280
   1284
   1288
   1292
   1296
   1300
   1325
   1350
   1354
   1358
   1362
   1366
   1370
   1374
   1378
   1382
   1386
   1390
   1394
   1398
   1402
   1406
   1410
   1414
   1418
   1422
   1426
   1430
   1434
   1438
   1442
   1446
   1450
   1475
   1500
   1504
   1508
   1512
   1516
   1520
   1524
   1528
   1532
   1536
   1540
   1544
   1548
   1552
   1556
   1560
   1564
   1568
   1572
   1576
   1580
   1584
   1588
   1592
   1596
   1600
   1625
   1650
   1654
   1658
   1662
   1666
   1670
   1674
   1678
   1682
   1686
   1690
   1694
   1698
   1702
   1706
   1710
   1714
   1718
   1722
   1726
   1730
   1734
   1738
   1742
   1746
   1750
   1775
   1800
   1804
   1808
   1812
   1816
   1820
   1824
   1828
   1832
   1836
   1840
   1844
   1848
   1852
   1856
   1860
   1864
   1868
   1872
   1876
   1880
   1884
   1888
   1892
   1896
   1900
   1925
   1950
   1954
   1958
   1962
   1966
   1970
   1974
   1978
   1982
   1986
   1990
   1994
   1998
   2002
   2006
   2010
   2014
   2018
   2022
   2026
   2030
   2034
   2038
   2042
   2046
   2050
   2075
   2100
   2104
   2108
   2112
   2116
   2120
   2124
   2128
   2132
   2136
   2140
   2144
   2148
   2152
   2156
   2160
   2164
   2168
   2172
   2176
   2180
   2184
   2188
   2192
   2196
   2200
   2225
   2250
   2254
   2258
   2262
   2266
   2270
   2274
   2278
   2282
   2286
   2290
   2294
   2298
   2302
   2306
   2310
   2314
   2318
   2322
   2326
   2330
   2334
   2338
   2342
   2346
   2350
   2375
   2400
   2404
   2408
   2412
   2416
   2420
   2424
   2428
   2432
   2436
   2440
   2444
   2448
   2452
   2456
   2460
   2464
   2468
   2472
   2476
   2480
   2484
   2488
   2492
   2496
   2500
   2525
   2550
   2554
   2558
   2562
   2566
   2570
   2574
   2578
   2582
   2586
   2590
   2594
   2598
   2602
   2606
   2610
   2614
   2618
   2622
   2626
   2630
   2634
   2638
   2642
   2646
   2650
   2675
   2700
   2704
   2708
   2712
   2716
   2720
   2724
   2728
   2732
   2736
   2740
   2744
   2748
   2752
   2756
   2760
   2764
   2768
   2772
   2776
   2780
   2784
   2788
   2792
   2796
   2800
   2825
   2850
   2854
   2858
   2862
   2866
   2870
   2874
   2878
   2882
   2886
   2890
   2894
   2898
   2902
   2906
   2910
   2914
   2918
   2922
   2926
   2930
   2934
   2938
   2942
   2946
   2950
   2975
   3000
   3004
   3008
   3012
   3016
   3020
   3024
   3028
   3032
   3036
   3040
   3044
   3048
   3052
   3056
   3060
   3064
   3068
   3072
   3076
   3080
   3084
   3088
   3092
   3096
   3100
   3125
   3150
        </DataArray>
      </Polys>
    </Piece>
  </PolyData>
</VTKFile>
