<?xml version="1.0"?>
<VTKFile type="PolyData" version="0.1" byte_order="LittleEndian">
  <PolyData>
    <Piece NumberOfPoints="     22" NumberOfVerts="  0" NumberOfLines="     21"
           NumberOfStrips="  0" NumberOfPolys="      0">
      <Points>
        <DataArray type="Float32" NumberOfComponents="3" format="ascii">
                       0.00002                      -0.00001                       2.19000
                       0.00023                      -0.00008                       6.57000
                       0.00069                      -0.00022                      10.95000
                       0.00141                      -0.00042                      15.33000
                       0.00239                      -0.00067                      19.71000
                       0.00361                      -0.00097                      24.09000
                       0.00505                      -0.00134                      28.47000
                       0.00671                      -0.00176                      32.85000
                       0.00855                      -0.00224                      37.23000
                       0.01057                      -0.00279                      41.61000
                       0.01275                      -0.00341                      45.99000
                       0.01511                      -0.00410                      50.37000
                       0.01763                      -0.00487                      54.75000
                       0.02033                      -0.00571                      59.13000
                       0.02319                      -0.00662                      63.50999
                       0.02621                      -0.00759                      67.88999
                       0.02937                      -0.00864                      72.26999
                       0.03261                      -0.00973                      76.64999
                       0.03587                      -0.01088                      81.02999
                       0.03903                      -0.01206                      85.40999
                       0.04051                      -0.01266                      87.59999
                       0.00000                       0.00000                       0.00000
        </DataArray>
      </Points>
      <PointData>
        <DataArray type="Float32" Name="TranslationalVelocity" NumberOfComponents="3" format="ascii">
                      -0.00003                      -0.00000                       0.00000
                      -0.00022                      -0.00002                       0.00000
                      -0.00054                      -0.00005                       0.00000
                      -0.00092                      -0.00011                       0.00000
                      -0.00128                      -0.00021                       0.00000
                      -0.00154                      -0.00034                       0.00000
                      -0.00157                      -0.00053                       0.00000
                      -0.00126                      -0.00079                       0.00000
                      -0.00046                      -0.00114                      -0.00000
                       0.00098                      -0.00160                      -0.00000
                       0.00321                      -0.00218                      -0.00000
                       0.00639                      -0.00290                      -0.00000
                       0.01064                      -0.00378                      -0.00001
                       0.01609                      -0.00483                      -0.00001
                       0.02280                      -0.00606                      -0.00001
                       0.03080                      -0.00748                      -0.00002
                       0.04004                      -0.00909                      -0.00003
                       0.05039                      -0.01087                      -0.00004
                       0.06159                      -0.01280                      -0.00004
                       0.07327                      -0.01486                      -0.00005
                       0.07914                      -0.01591                      -0.00006
                       0.00000                      -0.00000                       0.00000
        </DataArray>
        <DataArray type="Float32" Name="RotationalVelocity" NumberOfComponents="3" format="ascii">
                       0.00000                      -0.00002                       0.00000
                       0.00001                      -0.00006                       0.00000
                       0.00001                      -0.00008                       0.00000
                       0.00002                      -0.00009                       0.00000
                       0.00003                      -0.00007                       0.00000
                       0.00004                      -0.00004                       0.00000
                       0.00005                       0.00003                       0.00000
                       0.00007                       0.00012                       0.00000
                       0.00009                       0.00025                       0.00000
                       0.00012                       0.00041                       0.00000
                       0.00015                       0.00061                       0.00000
                       0.00018                       0.00084                       0.00000
                       0.00022                       0.00110                       0.00000
                       0.00026                       0.00139                       0.00000
                       0.00030                       0.00168                       0.00000
                       0.00035                       0.00197                       0.00000
                       0.00039                       0.00224                       0.00000
                       0.00042                       0.00247                       0.00000
                       0.00046                       0.00263                       0.00000
                       0.00048                       0.00269                       0.00000
                       0.00049                       0.00266                       0.00000
                       0.00000                      -0.00000                       0.00000
        </DataArray>
        <DataArray type="Float32" Name="TranslationalAcceleration" NumberOfComponents="3" format="ascii">
                      -0.00019                      -0.00009                       0.00000
                      -0.00177                      -0.00078                       0.00000
                      -0.00498                      -0.00201                       0.00000
                      -0.00972                      -0.00366                       0.00000
                      -0.01579                      -0.00561                       0.00000
                      -0.02288                      -0.00775                       0.00000
                      -0.03063                      -0.00995                       0.00001
                      -0.03862                      -0.01210                       0.00001
                      -0.04642                      -0.01406                       0.00001
                      -0.05359                      -0.01567                       0.00001
                      -0.05972                      -0.01679                       0.00002
                      -0.06443                      -0.01726                       0.00002
                      -0.06739                      -0.01690                       0.00001
                      -0.06833                      -0.01559                       0.00001
                      -0.06706                      -0.01320                      -0.00000
                      -0.06348                      -0.00964                      -0.00002
                      -0.05757                      -0.00487                      -0.00004
                      -0.04944                       0.00108                      -0.00007
                      -0.03927                       0.00809                      -0.00011
                      -0.02738                       0.01593                      -0.00015
                      -0.02092                       0.02007                      -0.00017
                       0.00000                      -0.00000                       0.00000
        </DataArray>
        <DataArray type="Float32" Name="RotationalAcceleration" NumberOfComponents="3" format="ascii">
                       0.00008                      -0.00018                       0.00000
                       0.00022                      -0.00055                       0.00000
                       0.00033                      -0.00091                       0.00000
                       0.00042                      -0.00124                       0.00000
                       0.00047                      -0.00152                       0.00000
                       0.00050                      -0.00171                       0.00000
                       0.00050                      -0.00181                       0.00000
                       0.00047                      -0.00182                       0.00000
                       0.00041                      -0.00173                       0.00000
                       0.00032                      -0.00153                       0.00000
                       0.00019                      -0.00125                       0.00000
                       0.00002                      -0.00089                       0.00000
                      -0.00018                      -0.00045                       0.00000
                      -0.00042                       0.00003                       0.00000
                      -0.00068                       0.00055                       0.00000
                      -0.00095                       0.00108                       0.00000
                      -0.00123                       0.00161                       0.00000
                      -0.00149                       0.00210                       0.00000
                      -0.00171                       0.00253                       0.00000
                      -0.00186                       0.00288                       0.00000
                      -0.00190                       0.00302                       0.00000
                       0.00000                      -0.00000                       0.00000
        </DataArray>
        <DataArray type="Float32" Name="OrientationX" NumberOfComponents="3" format="ascii">
                       1.00000                       0.00000                      -0.00002
                       1.00000                       0.00000                      -0.00008
                       1.00000                       0.00000                      -0.00013
                       1.00000                       0.00000                      -0.00019
                       1.00000                       0.00000                      -0.00025
                       1.00000                       0.00000                      -0.00031
                       1.00000                       0.00000                      -0.00035
                       1.00000                       0.00000                      -0.00040
                       1.00000                       0.00000                      -0.00044
                       1.00000                       0.00000                      -0.00048
                       1.00000                       0.00000                      -0.00052
                       1.00000                       0.00000                      -0.00056
                       1.00000                       0.00000                      -0.00060
                       1.00000                       0.00000                      -0.00063
                       1.00000                       0.00000                      -0.00067
                       1.00000                       0.00000                      -0.00071
                       1.00000                       0.00000                      -0.00073
                       1.00000                       0.00000                      -0.00075
                       1.00000                       0.00000                      -0.00074
                       1.00000                       0.00000                      -0.00070
                       1.00000                       0.00000                      -0.00066
                       1.00000                      -0.00000                       0.00000
        </DataArray>
        <DataArray type="Float32" Name="OrientationY" NumberOfComponents="3" format="ascii">
                       0.00000                       1.00000                       0.00001
                       0.00000                       1.00000                       0.00002
                       0.00000                       1.00000                       0.00004
                       0.00000                       1.00000                       0.00005
                       0.00000                       1.00000                       0.00006
                       0.00000                       1.00000                       0.00008
                       0.00000                       1.00000                       0.00009
                       0.00000                       1.00000                       0.00010
                       0.00000                       1.00000                       0.00012
                       0.00000                       1.00000                       0.00013
                       0.00000                       1.00000                       0.00015
                       0.00000                       1.00000                       0.00017
                       0.00000                       1.00000                       0.00018
                       0.00000                       1.00000                       0.00020
                       0.00000                       1.00000                       0.00022
                       0.00000                       1.00000                       0.00023
                       0.00000                       1.00000                       0.00024
                       0.00000                       1.00000                       0.00026
                       0.00000                       1.00000                       0.00027
                       0.00000                       1.00000                       0.00027
                       0.00000                       1.00000                       0.00028
                      -0.00000                       1.00000                      -0.00000
        </DataArray>
        <DataArray type="Float32" Name="OrientationZ" NumberOfComponents="3" format="ascii">
                       0.00002                      -0.00001                       1.00000
                       0.00008                      -0.00002                       1.00000
                       0.00013                      -0.00004                       1.00000
                       0.00019                      -0.00005                       1.00000
                       0.00025                      -0.00006                       1.00000
                       0.00031                      -0.00008                       1.00000
                       0.00035                      -0.00009                       1.00000
                       0.00040                      -0.00010                       1.00000
                       0.00044                      -0.00012                       1.00000
                       0.00048                      -0.00013                       1.00000
                       0.00052                      -0.00015                       1.00000
                       0.00056                      -0.00017                       1.00000
                       0.00060                      -0.00018                       1.00000
                       0.00063                      -0.00020                       1.00000
                       0.00067                      -0.00022                       1.00000
                       0.00071                      -0.00023                       1.00000
                       0.00073                      -0.00024                       1.00000
                       0.00075                      -0.00026                       1.00000
                       0.00074                      -0.00027                       1.00000
                       0.00070                      -0.00027                       1.00000
                       0.00066                      -0.00028                       1.00000
                       0.00000                      -0.00000                       1.00000
        </DataArray>
      </PointData>
      <Lines>
        <DataArray type="Int32" Name="connectivity" format="ascii">
      0      1
      1      2
      2      3
      3      4
      4      5
      5      6
      6      7
      7      8
      8      9
      9     10
     10     11
     11     12
     12     13
     13     14
     14     15
     15     16
     16     17
     17     18
     18     19
     19     20
     21      0
        </DataArray>
        <DataArray type="Int32" Name="offsets" format="ascii">
      2
      4
      6
      8
     10
     12
     14
     16
     18
     20
     22
     24
     26
     28
     30
     32
     34
     36
     38
     40
     42
        </DataArray>
      </Lines>
    </Piece>
  </PolyData>
</VTKFile>
