<?xml version="1.0"?>
<VTKFile type="PolyData" version="0.1" byte_order="LittleEndian">
  <PolyData>
    <Piece NumberOfPoints="     19" NumberOfVerts="  0" NumberOfLines="     18"
           NumberOfStrips="  0" NumberOfPolys="      0">
      <Points>
        <DataArray type="Float32" NumberOfComponents="3" format="ascii">
                      -4.79834                       0.43114                      91.44313
                      -4.74074                       0.83405                      92.74809
                      -4.64538                       1.54960                      95.38745
                      -4.55756                       2.22295                      98.04088
                      -4.44846                       3.04035                     101.36596
                      -4.25979                       4.16037                     105.31035
                      -4.04216                       5.40685                     109.21408
                      -3.82376                       6.65795                     113.11672
                      -3.61065                       7.91549                     117.01823
                      -3.41491                       9.17781                     120.91978
                      -3.25166                      10.44184                     124.82281
                      -3.13614                      11.70968                     128.72656
                      -3.08676                      12.98241                     132.62999
                      -3.12339                      14.26158                     136.53093
                      -3.26459                      15.54901                     140.42608
                      -3.47975                      16.63034                     143.66397
                      -3.72033                      17.50933                     146.24426
                      -4.02106                      18.44708                     148.79922
                      -4.20729                      18.87985                     150.08451
        </DataArray>
      </Points>
      <PointData>
        <DataArray type="Float32" Name="TranslationalVelocity" NumberOfComponents="3" format="ascii">
                       0.10898                      -4.08016                       1.25971
                       0.21079                      -7.79954                       2.40355
                       0.39306                     -15.32052                       4.43587
                       0.56732                     -22.88509                       6.34947
                       0.78399                     -32.37338                       8.67398
                       1.08865                     -43.65824                      11.86196
                       1.43774                     -54.85036                      15.41407
                       1.80251                     -66.05512                      18.98373
                       2.18548                     -77.26988                      22.57591
                       2.58808                     -88.49365                      26.18578
                       3.01108                     -99.72508                      29.80450
                       3.45616                    -110.95648                      33.43829
                       3.92427                    -122.17852                      37.09082
                       4.41594                    -133.37860                      40.76762
                       4.93115                    -144.54155                      44.47544
                       5.37863                    -153.80055                      47.59704
                       5.74912                    -161.16440                      50.14004
                       6.14098                    -168.44295                      52.85786
                       6.33122                    -172.09686                      54.11611
        </DataArray>
        <DataArray type="Float32" Name="RotationalVelocity" NumberOfComponents="3" format="ascii">
                       2.83829                      -0.00097                      -0.25541
                       2.83892                      -0.00075                      -0.25550
                       2.84061                      -0.00004                      -0.25577
                       2.84273                       0.00100                      -0.25613
                       2.84575                       0.00270                      -0.25666
                       2.84966                       0.00530                      -0.25728
                       2.85359                       0.00848                      -0.25775
                       2.85735                       0.01225                      -0.25794
                       2.86081                       0.01661                      -0.25775
                       2.86392                       0.02158                      -0.25712
                       2.86666                       0.02710                      -0.25606
                       2.86906                       0.03310                      -0.25462
                       2.87116                       0.03941                      -0.25297
                       2.87299                       0.04577                      -0.25137
                       2.87460                       0.05181                      -0.25019
                       2.87577                       0.05625                      -0.24986
                       2.87658                       0.05913                      -0.25031
                       2.87725                       0.06116                      -0.25163
                       2.87753                       0.06178                      -0.25270
        </DataArray>
        <DataArray type="Float32" Name="TranslationalAcceleration" NumberOfComponents="3" format="ascii">
                      -1.11211                      -3.60379                     -11.64547
                      -1.30523                      -4.34865                     -14.02875
                      -3.75408                     -11.71334                     -40.38121
                      -6.01786                     -18.08489                     -64.76019
                      -8.67549                     -25.23996                     -93.35805
                     -11.67559                     -34.41981                    -125.63385
                     -14.56555                     -44.40092                    -156.84873
                     -17.42186                     -54.42901                    -188.04648
                     -20.25495                     -64.64938                    -219.60584
                     -23.04847                     -75.09733                    -251.64243
                     -25.76835                     -85.73691                    -284.07733
                     -28.37081                     -96.53904                    -316.69688
                     -30.81350                    -107.45395                    -349.24331
                     -33.06470                    -118.44696                    -381.48716
                     -35.11320                    -129.51959                    -413.30697
                     -36.67429                    -138.85657                    -439.52839
                     -37.85078                    -146.50735                    -460.39931
                     -38.97755                    -154.76460                    -481.23156
                     -39.54796                    -158.66425                    -491.84561
        </DataArray>
        <DataArray type="Float32" Name="OrientationX" NumberOfComponents="3" format="ascii">
                       0.97808                      -0.20712                       0.02141
                       0.97807                      -0.20719                       0.02124
                       0.97799                      -0.20761                       0.02073
                       0.97785                      -0.20835                       0.01999
                       0.97758                      -0.20971                       0.01886
                       0.98322                      -0.18225                       0.00799
                       0.98645                      -0.16406                       0.00061
                       0.98869                      -0.14994                      -0.00409
                       0.99062                      -0.13652                      -0.00631
                       0.99219                      -0.12467                      -0.00484
                       0.99320                      -0.11639                       0.00178
                       0.99374                      -0.11086                       0.01390
                       0.99345                      -0.10961                       0.03241
                       0.99171                      -0.11465                       0.05796
                       0.98867                      -0.12114                       0.08860
                       0.98503                      -0.12661                       0.11699
                       0.98130                      -0.13098                       0.14107
                       0.97635                      -0.13790                       0.16650
                       0.97330                      -0.14286                       0.17967
        </DataArray>
        <DataArray type="Float32" Name="OrientationY" NumberOfComponents="3" format="ascii">
                       0.20394                       0.93212                      -0.29928
                       0.20395                       0.93208                      -0.29938
                       0.20418                       0.93193                      -0.29968
                       0.20466                       0.93169                      -0.30011
                       0.20558                       0.93128                      -0.30076
                       0.17612                       0.93689                      -0.30202
                       0.15654                       0.94009                      -0.30285
                       0.14165                       0.94229                      -0.30335
                       0.12818                       0.94417                      -0.30350
                       0.11734                       0.94563                      -0.30333
                       0.11146                       0.94648                      -0.30292
                       0.10986                       0.94686                      -0.30230
                       0.11428                       0.94661                      -0.30146
                       0.12684                       0.94544                      -0.30010
                       0.14237                       0.94383                      -0.29818
                       0.15628                       0.94227                      -0.29615
                       0.16788                       0.94089                      -0.29419
                       0.18234                       0.93905                      -0.29144
                       0.19112                       0.93788                      -0.28958
        </DataArray>
        <DataArray type="Float32" Name="OrientationZ" NumberOfComponents="3" format="ascii">
                       0.04203                       0.29709                       0.95392
                       0.04223                       0.29715                       0.95390
                       0.04290                       0.29732                       0.95381
                       0.04390                       0.29755                       0.95370
                       0.04550                       0.29789                       0.95351
                       0.04756                       0.29836                       0.95327
                       0.04911                       0.29884                       0.95304
                       0.04934                       0.29934                       0.95287
                       0.04739                       0.29985                       0.95281
                       0.04239                       0.30039                       0.95287
                       0.03358                       0.30106                       0.95302
                       0.02035                       0.30194                       0.95311
                       0.00236                       0.30319                       0.95293
                      -0.02039                       0.30497                       0.95214
                      -0.04750                       0.30742                       0.95039
                      -0.07274                       0.31000                       0.94795
                      -0.09419                       0.31237                       0.94528
                      -0.11617                       0.31491                       0.94199
                      -0.12714                       0.31619                       0.94014
        </DataArray>
        <DataArray type="Float32" Name="Force" NumberOfComponents="3" format="ascii">
                     163.52038                      53.94284                     -24.00535
                     184.77282                     119.29424                     -45.33433
                     273.55956                     352.16893                    -121.99071
                     273.36340                     531.31886                    -178.08649
                    3561.38695                   -1160.36009                     191.50647
                    3726.50602                    -859.88965                      81.96535
                    3434.01406                    -572.31543                       1.35376
                    4556.36909                    -633.01552                     -38.75492
                    5777.79552                    -700.28080                     -69.31332
                    6040.60029                    -592.98830                     -84.26445
                    8221.77059                    -684.49994                     -77.14171
                    7680.22348                    -489.34494                     -12.66297
                    4194.51130                    -115.23473                      24.60344
                    1101.87641                      90.27976                      -4.70462
                   -3063.10893                     329.14542                    -253.03630
                   -8379.14949                     431.82529                    -768.62784
                  -12654.43190                     407.75507                   -1370.78601
                  -13348.47987                     226.22936                   -1693.25753
                  -16360.63433                     167.47669                   -2232.47518
        </DataArray>
        <DataArray type="Float32" Name="Moment" NumberOfComponents="3" format="ascii">
                       0.00000                       0.00000                       0.00000
                       0.00000                       0.00000                       0.00000
                       0.00000                       0.00000                       0.00000
                       0.00000                       0.00000                       0.00000
                     -71.66736                    -467.76575                   -1501.47148
                    -136.19775                    -850.37858                   -2729.08009
                    -183.57131                   -1109.89100                   -3561.39787
                    -289.89841                   -1744.04372                   -5596.12570
                    -402.89192                   -2522.76724                   -8096.30291
                    -407.95276                   -2853.67878                   -9162.59960
                    -360.64271                   -3180.12315                  -10219.21264
                    -231.86973                   -3359.46645                  -10808.95645
                     -21.47750                   -2506.60149                   -8078.54375
                     162.77040                   -2388.67415                   -7714.97911
                     362.50749                   -2265.15263                   -7334.77576
                     519.85614                   -2111.43509                   -6853.41218
                     591.27958                   -1847.14523                   -6007.85965
                     355.03459                    -895.40638                   -2918.48062
                     393.24307                    -904.01993                   -2949.68938
        </DataArray>
      </PointData>
      <Lines>
        <DataArray type="Int32" Name="connectivity" format="ascii">
      0      1
      1      2
      2      3
      3      4
      4      5
      5      6
      6      7
      7      8
      8      9
      9     10
     10     11
     11     12
     12     13
     13     14
     14     15
     15     16
     16     17
     17     18
        </DataArray>
        <DataArray type="Int32" Name="offsets" format="ascii">
      2
      4
      6
      8
     10
     12
     14
     16
     18
     20
     22
     24
     26
     28
     30
     32
     34
     36
        </DataArray>
      </Lines>
    </Piece>
  </PolyData>
</VTKFile>
