<?xml version="1.0"?>
<VTKFile type="PolyData" version="0.1" byte_order="LittleEndian">
  <PolyData>
    <Piece NumberOfPoints="      8" NumberOfVerts="  0" NumberOfLines="      0"
           NumberOfStrips="  0" NumberOfPolys="      6">
      <Points>
        <DataArray type="Float32" NumberOfComponents="3" format="ascii">
                      -3.22498                       2.39429                      87.61772
                       3.77493                       2.39429                      87.58194
                       3.77493                      -2.40571                      87.58114
                      -3.22498                      -2.40572                      87.61692
                      -3.20044                      -2.40652                      92.41686
                       3.79947                      -2.40651                      92.38108
                       3.79947                       2.39349                      92.38188
                      -3.20044                       2.39349                      92.41767
        </DataArray>
      </Points>
      <Polys>
        <DataArray type="Int32" Name="connectivity" format="ascii">
      0      1      2      3
      4      5      6      7
      7      6      1      0
      6      5      2      1
      5      4      3      2
      4      7      0      3
        </DataArray>
        <DataArray type="Int32" Name="offsets" format="ascii">
      4
      8
     12
     16
     20
     24
        </DataArray>
      </Polys>
    </Piece>
  </PolyData>
</VTKFile>
