<?xml version="1.0"?>
<VTKFile type="PolyData" version="0.1" byte_order="LittleEndian">
  <PolyData>
    <Piece NumberOfPoints="     19" NumberOfVerts="  0" NumberOfLines="     18"
           NumberOfStrips="  0" NumberOfPolys="      0">
      <Points>
        <DataArray type="Float32" NumberOfComponents="3" format="ascii">
                      -5.06206                      -0.28744                      88.55039
                      -5.24167                      -0.53576                      87.21818
                      -5.62433                      -0.93892                      84.53887
                      -6.01627                      -1.29764                      81.85195
                      -6.50805                      -1.71934                      78.48801
                      -7.03466                      -2.36581                      74.46903
                      -7.52610                      -3.13956                      70.46912
                      -8.01434                      -3.91521                      66.46873
                      -8.50328                      -4.69473                      62.46856
                      -9.00244                      -5.47659                      58.46944
                      -9.52402                      -6.25783                      54.47250
                     -10.07982                      -7.04084                      50.48018
                     -10.68455                      -7.82700                      46.49559
                     -11.35427                      -8.61814                      42.52275
                     -12.10369                      -9.41631                      38.56620
                     -12.80336                     -10.08912                      35.28614
                     -13.41585                     -10.64111                      32.67688
                     -14.07184                     -11.25307                      30.09031
                     -14.43092                     -11.52168                      28.79739
        </DataArray>
      </Points>
      <PointData>
        <DataArray type="Float32" Name="TranslationalVelocity" NumberOfComponents="3" format="ascii">
                      -0.06896                       4.20409                      -0.78778
                      -0.13166                       8.03255                      -1.49295
                      -0.23535                      15.73403                      -2.63702
                      -0.33078                      23.45406                      -3.65403
                      -0.44852                      33.11104                      -4.84810
                      -0.63482                      44.62022                      -6.67638
                      -0.86625                      56.05290                      -8.86095
                      -1.11445                      67.47348                     -11.04623
                      -1.38361                      78.88252                     -13.23752
                      -1.67719                      90.28194                     -15.43015
                      -1.99825                     101.67361                     -17.61518
                      -2.35096                     113.05555                     -19.79850
                      -2.73876                     124.42428                     -21.98259
                      -3.16455                     135.77354                     -24.17067
                      -3.63048                     147.09454                     -26.36610
                      -4.05110                     156.49719                     -28.20502
                      -4.40978                     163.98881                     -29.70573
                      -4.80053                     171.42449                     -31.36596
                      -4.99197                     175.14789                     -32.08633
        </DataArray>
        <DataArray type="Float32" Name="RotationalVelocity" NumberOfComponents="3" format="ascii">
                       2.84004                      -0.00056                      -0.25515
                       2.83943                      -0.00029                      -0.25512
                       2.83781                       0.00053                      -0.25509
                       2.83578                       0.00172                      -0.25510
                       2.83297                       0.00362                      -0.25516
                       2.82949                       0.00652                      -0.25529
                       2.82619                       0.01010                      -0.25554
                       2.82324                       0.01443                      -0.25598
                       2.82070                       0.01960                      -0.25668
                       2.81854                       0.02568                      -0.25773
                       2.81668                       0.03270                      -0.25922
                       2.81500                       0.04065                      -0.26118
                       2.81336                       0.04938                      -0.26361
                       2.81165                       0.05864                      -0.26648
                       2.80976                       0.06803                      -0.26965
                       2.80805                       0.07554                      -0.27239
                       2.80661                       0.08102                      -0.27453
                       2.80513                       0.08571                      -0.27649
                       2.80440                       0.08766                      -0.27737
        </DataArray>
        <DataArray type="Float32" Name="TranslationalAcceleration" NumberOfComponents="3" format="ascii">
                       1.07343                       2.26241                      11.94738
                       1.29194                       2.69732                      14.43190
                       3.69407                       6.94440                      41.41377
                       5.89323                      10.40698                      66.26672
                       8.44863                      14.11033                      95.28380
                      11.32195                      19.30879                     128.00662
                      14.09408                      25.32860                     159.61667
                      16.85078                      31.29956                     191.06189
                      19.62398                      37.31604                     222.74906
                      22.41622                      43.39321                     254.81763
                      25.20723                      49.49718                     287.21187
                      27.95967                      55.61353                     319.74890
                      30.62693                      61.70953                     352.20409
                      33.15972                      67.76033                     384.38620
                      35.51318                      73.76147                     416.21631
                      37.30852                      78.74737                     442.54029
                      38.63014                      82.81672                     463.58351
                      39.83440                      87.37028                     484.74054
                      40.41098                      89.36085                     495.51374
        </DataArray>
        <DataArray type="Float32" Name="OrientationX" NumberOfComponents="3" format="ascii">
                       0.96079                       0.21843                      -0.17081
                       0.96081                       0.21849                      -0.17059
                       0.96084                       0.21886                      -0.16994
                       0.96086                       0.21953                      -0.16898
                       0.96084                       0.22077                      -0.16750
                       0.96807                       0.19233                      -0.16078
                       0.97244                       0.17347                      -0.15580
                       0.97545                       0.15895                      -0.15241
                       0.97781                       0.14540                      -0.15083
                       0.97929                       0.13379                      -0.15194
                       0.97953                       0.12628                      -0.15677
                       0.97859                       0.12207                      -0.16570
                       0.97609                       0.12279                      -0.17934
                       0.97146                       0.13049                      -0.19809
                       0.96519                       0.14017                      -0.22083
                       0.95879                       0.14859                      -0.24215
                       0.95289                       0.15547                      -0.26044
                       0.94578                       0.16504                      -0.27975
                       0.94165                       0.17135                      -0.28970
        </DataArray>
        <DataArray type="Float32" Name="OrientationY" NumberOfComponents="3" format="ascii">
                       0.24423                      -0.95831                       0.14827
                       0.24425                      -0.95831                       0.14827
                       0.24449                      -0.95825                       0.14827
                       0.24498                      -0.95812                       0.14829
                       0.24594                      -0.95787                       0.14833
                       0.21702                      -0.96402                       0.15352
                       0.19774                      -0.96763                       0.15684
                       0.18296                      -0.97014                       0.15920
                       0.16943                      -0.97229                       0.16111
                       0.15826                      -0.97395                       0.16242
                       0.15175                      -0.97492                       0.16282
                       0.14918                      -0.97537                       0.16248
                       0.15226                      -0.97512                       0.16110
                       0.16306                      -0.97385                       0.15817
                       0.17651                      -0.97211                       0.15445
                       0.18851                      -0.97040                       0.15094
                       0.19849                      -0.96888                       0.14787
                       0.21124                      -0.96680                       0.14380
                       0.21911                      -0.96543                       0.14117
        </DataArray>
        <DataArray type="Float32" Name="OrientationZ" NumberOfComponents="3" format="ascii">
                      -0.13130                      -0.18417                      -0.97408
                      -0.13108                      -0.18413                      -0.97412
                      -0.13039                      -0.18401                      -0.97424
                      -0.12935                      -0.18389                      -0.97440
                      -0.12769                      -0.18371                      -0.97465
                      -0.12547                      -0.18351                      -0.97498
                      -0.12354                      -0.18332                      -0.97526
                      -0.12256                      -0.18317                      -0.97541
                      -0.12323                      -0.18309                      -0.97534
                      -0.12625                      -0.18310                      -0.97495
                      -0.13227                      -0.18328                      -0.97412
                      -0.14179                      -0.18372                      -0.97270
                      -0.15510                      -0.18456                      -0.97051
                      -0.17227                      -0.18595                      -0.96734
                      -0.19302                      -0.18805                      -0.96301
                      -0.21255                      -0.19037                      -0.95843
                      -0.22934                      -0.19260                      -0.95410
                      -0.24673                      -0.19510                      -0.94924
                      -0.25550                      -0.19641                      -0.94665
        </DataArray>
        <DataArray type="Float32" Name="Force" NumberOfComponents="3" format="ascii">
                     141.83084                     -58.93518                      -7.97474
                     151.63334                    -125.21918                       3.27014
                     247.58459                    -378.05905                      38.33779
                     260.35328                    -571.14044                      73.40472
                    2932.59178                     842.75919                    -543.50574
                    2792.47770                     568.28651                    -466.77110
                    2268.70296                     302.44687                    -344.54305
                    3129.36146                     371.95866                    -463.46723
                    4334.25246                     458.72805                    -634.25859
                    4487.05679                     379.18026                    -652.70075
                    6688.32540                     509.10451                   -1004.39404
                    6293.34349                     374.27323                    -988.08000
                    3335.49883                      64.27252                    -545.12656
                     646.77348                    -140.71807                     -88.42616
                   -2476.49639                    -364.80472                     565.39932
                   -6769.27511                    -557.85476                    1605.93640
                  -10172.00273                    -655.44767                    2566.63531
                  -10761.60605                    -556.02370                    2898.08275
                  -13222.54592                    -614.83307                    3678.61330
        </DataArray>
        <DataArray type="Float32" Name="Moment" NumberOfComponents="3" format="ascii">
                       0.00000                       0.00000                       0.00000
                       0.00000                       0.00000                       0.00000
                       0.00000                       0.00000                       0.00000
                       0.00000                       0.00000                       0.00000
                     175.08017                     252.57718                    1336.32520
                     321.36156                     471.86697                    2497.04965
                     415.79088                     620.12668                    3282.20633
                     675.00461                    1014.90775                    5372.19679
                    1013.81830                    1516.07063                    8024.50086
                    1176.35985                    1716.79065                    9084.35697
                    1381.23375                    1923.54889                   10172.72877
                    1565.43365                    2032.73345                   10740.63781
                    1275.14296                    1512.25956                    7980.59557
                    1362.44186                    1452.64102                    7653.59931
                    1455.77844                    1382.22614                    7268.26607
                    1503.06740                    1292.68839                    6784.70776
                    1432.75924                    1139.15911                    5969.17295
                     761.97197                     561.49326                    2937.19898
                     805.53262                     572.29203                    2991.08801
        </DataArray>
      </PointData>
      <Lines>
        <DataArray type="Int32" Name="connectivity" format="ascii">
      0      1
      1      2
      2      3
      3      4
      4      5
      5      6
      6      7
      7      8
      8      9
      9     10
     10     11
     11     12
     12     13
     13     14
     14     15
     15     16
     16     17
     17     18
        </DataArray>
        <DataArray type="Int32" Name="offsets" format="ascii">
      2
      4
      6
      8
     10
     12
     14
     16
     18
     20
     22
     24
     26
     28
     30
     32
     34
     36
        </DataArray>
      </Lines>
    </Piece>
  </PolyData>
</VTKFile>
