<?xml version="1.0"?>
<VTKFile type="PolyData" version="0.1" byte_order="LittleEndian">
  <PolyData>
    <Piece NumberOfPoints="     19" NumberOfVerts="  0" NumberOfLines="     18"
           NumberOfStrips="  0" NumberOfPolys="      0">
      <Points>
        <DataArray type="Float32" NumberOfComponents="3" format="ascii">
                      -4.86713                       1.31696                      90.71511
                      -4.86919                       2.52268                      91.35918
                      -4.88860                       4.88996                      92.73143
                      -4.91401                       7.23740                      94.14248
                      -4.94657                      10.16137                      95.92764
                      -4.93812                      13.74185                      97.93554
                      -4.91082                      17.38665                      99.82195
                      -4.88648                      21.03546                     101.70147
                      -4.87134                      24.68894                     103.57315
                      -4.87734                      28.34578                     105.43957
                      -4.91926                      32.00358                     107.30461
                      -5.01212                      35.66206                     109.16693
                      -5.17389                      39.31976                     111.02574
                      -5.42393                      42.97473                     112.87908
                      -5.78016                      46.62450                     114.72382
                      -6.17526                      49.65971                     116.25076
                      -6.56029                      52.08598                     117.45633
                      -7.00802                      54.53169                     118.60310
                      -7.26560                      55.73222                     119.20803
        </DataArray>
      </Points>
      <PointData>
        <DataArray type="Float32" Name="TranslationalVelocity" NumberOfComponents="3" format="ascii">
                       0.33895                      -1.99521                       3.76174
                       0.64666                      -3.82432                       7.18678
                       1.25160                      -7.71856                      13.91311
                       1.85307                     -11.72303                      20.58544
                       2.60543                     -16.79167                      28.90025
                       3.53205                     -22.50810                      39.08771
                       4.48153                     -27.88747                      49.46494
                       5.43845                     -33.24993                      59.86047
                       6.40227                     -38.59089                      70.27595
                       7.37152                     -43.91423                      80.70716
                       8.34406                     -49.22676                      91.14672
                       9.31802                     -54.52041                     101.59311
                      10.29107                     -59.78782                     112.04150
                      11.26066                     -65.01806                     122.48552
                      12.22413                     -70.19738                     132.91747
                      13.02027                     -74.45936                     141.59450
                      13.65278                     -77.80596                     148.53155
                      14.28662                     -80.96885                     155.52484
                      14.59600                     -82.63198                     158.95790
        </DataArray>
        <DataArray type="Float32" Name="RotationalVelocity" NumberOfComponents="3" format="ascii">
                       2.84036                      -0.00013                      -0.25510
                       2.84069                      -0.00006                      -0.25522
                       2.84154                       0.00016                      -0.25561
                       2.84257                       0.00049                      -0.25618
                       2.84404                       0.00104                      -0.25707
                       2.84592                       0.00192                      -0.25826
                       2.84781                       0.00295                      -0.25946
                       2.84960                       0.00405                      -0.26056
                       2.85124                       0.00511                      -0.26148
                       2.85271                       0.00598                      -0.26214
                       2.85399                       0.00654                      -0.26253
                       2.85511                       0.00664                      -0.26265
                       2.85609                       0.00614                      -0.26252
                       2.85695                       0.00494                      -0.26223
                       2.85774                       0.00294                      -0.26186
                       2.85836                       0.00064                      -0.26160
                       2.85883                      -0.00165                      -0.26149
                       2.85928                      -0.00435                      -0.26155
                       2.85949                      -0.00584                      -0.26166
        </DataArray>
        <DataArray type="Float32" Name="TranslationalAcceleration" NumberOfComponents="3" format="ascii">
                      -0.48154                     -10.80029                      -5.60299
                      -0.59887                     -13.03191                      -6.85771
                      -1.76599                     -36.94410                     -20.29814
                      -2.85146                     -58.75654                     -33.02653
                      -4.09738                     -84.12225                     -48.14549
                      -5.35503                    -113.53131                     -64.36919
                      -6.41572                    -142.73880                     -79.20963
                      -7.40186                    -171.94493                     -93.93581
                      -8.35121                    -201.51356                    -108.72200
                      -9.29893                    -231.54476                    -123.63841
                     -10.27623                    -261.95153                    -138.67149
                     -11.30568                    -292.55743                    -153.70994
                     -12.40494                    -323.14207                    -168.62657
                     -13.58539                    -353.51813                    -183.30290
                     -14.85206                    -383.60333                    -197.66892
                     -15.97320                    -408.51048                    -209.40011
                     -16.90278                    -428.47198                    -218.61469
                     -17.83772                    -448.82060                    -227.40759
                     -18.33274                    -458.97274                    -232.11436
        </DataArray>
        <DataArray type="Float32" Name="OrientationX" NumberOfComponents="3" format="ascii">
                       0.98830                      -0.07009                       0.13546
                       0.98830                      -0.07018                       0.13543
                       0.98826                      -0.07060                       0.13550
                       0.98818                      -0.07134                       0.13569
                       0.98802                      -0.07261                       0.13615
                       0.99219                      -0.05980                       0.10943
                       0.99445                      -0.05121                       0.09187
                       0.99590                      -0.04372                       0.07916
                       0.99702                      -0.03503                       0.06879
                       0.99775                      -0.02494                       0.06219
                       0.99799                      -0.01386                       0.06179
                       0.99774                      -0.00093                       0.06723
                       0.99669                       0.01334                       0.08017
                       0.99435                       0.02800                       0.10244
                       0.99060                       0.04508                       0.12915
                       0.98629                       0.06118                       0.15328
                       0.98200                       0.07496                       0.17339
                       0.97665                       0.08783                       0.19607
                       0.97350                       0.09350                       0.20871
        </DataArray>
        <DataArray type="Float32" Name="OrientationY" NumberOfComponents="3" format="ascii">
                       0.15251                       0.46388                      -0.87267
                       0.15253                       0.46367                      -0.87278
                       0.15278                       0.46307                      -0.87305
                       0.15330                       0.46228                      -0.87338
                       0.15430                       0.46109                      -0.87383
                       0.12469                       0.46166                      -0.87825
                       0.10514                       0.46145                      -0.88092
                       0.09041                       0.46109                      -0.88274
                       0.07719                       0.46090                      -0.88409
                       0.06668                       0.46089                      -0.88495
                       0.06122                       0.46101                      -0.88528
                       0.06008                       0.46131                      -0.88520
                       0.06497                       0.46179                      -0.88461
                       0.07795                       0.46259                      -0.88314
                       0.09376                       0.46373                      -0.88100
                       0.10774                       0.46491                      -0.87878
                       0.11922                       0.46604                      -0.87669
                       0.13338                       0.46761                      -0.87381
                       0.14192                       0.46866                      -0.87190
        </DataArray>
        <DataArray type="Float32" Name="OrientationZ" NumberOfComponents="3" format="ascii">
                      -0.00167                       0.88312                       0.46914
                      -0.00154                       0.88323                       0.46894
                      -0.00111                       0.88350                       0.46842
                      -0.00042                       0.88386                       0.46775
                       0.00067                       0.88438                       0.46677
                       0.00200                       0.88504                       0.46551
                       0.00272                       0.88569                       0.46427
                       0.00209                       0.88628                       0.46315
                      -0.00074                       0.88676                       0.46223
                      -0.00659                       0.88711                       0.46152
                      -0.01622                       0.88728                       0.46094
                      -0.03019                       0.88724                       0.46032
                      -0.04882                       0.88689                       0.45940
                      -0.07211                       0.88613                       0.45779
                      -0.09961                       0.88483                       0.45515
                      -0.12503                       0.88324                       0.45194
                      -0.14653                       0.88158                       0.44871
                      -0.16843                       0.87956                       0.44498
                      -0.17934                       0.87841                       0.44297
        </DataArray>
        <DataArray type="Float32" Name="Force" NumberOfComponents="3" format="ascii">
                     157.50275                      27.17078                     -50.58577
                     172.94403                      58.22844                    -109.05151
                     245.68384                     169.68173                    -318.90648
                     236.36686                     256.09292                    -482.05161
                    3456.23435                    -443.63584                     829.13674
                    3562.50139                    -290.97102                     530.71154
                    3209.76353                    -162.24200                     284.27435
                    4240.42100                    -153.99156                     266.60060
                    5410.25465                    -142.62216                     270.06081
                    5588.57963                     -59.69439                     182.38384
                    7666.37220                      26.64509                     201.27445
                    7037.61587                     165.61694                     127.03584
                    3506.98936                     205.51714                     -28.81082
                     738.04033                     112.74223                     -98.96421
                   -3679.43996                    -207.66095                    -377.29310
                   -8839.38285                    -866.18363                    -701.59903
                  -12908.46825                   -1588.29065                   -1017.95458
                  -13340.81208                   -1960.10677                   -1091.73196
                  -16200.97308                   -2566.23371                   -1365.17907
        </DataArray>
        <DataArray type="Float32" Name="Moment" NumberOfComponents="3" format="ascii">
                       0.00000                       0.00000                       0.00000
                       0.00000                       0.00000                       0.00000
                       0.00000                       0.00000                       0.00000
                       0.00000                       0.00000                       0.00000
                      -1.37206                   -1398.40378                    -742.50705
                      -6.45328                   -2483.36885                   -1318.22753
                     -11.43870                   -3230.03645                   -1714.30182
                     -14.93902                   -5075.01241                   -2693.77241
                       1.08327                   -7337.41416                   -3896.67286
                      55.32140                   -8295.17185                   -4410.16722
                     161.50350                   -9250.34222                   -4926.95319
                     323.84995                   -9762.46695                   -5213.50195
                     393.27976                   -7256.16384                   -3888.75162
                     569.83798                   -7071.80418                   -3806.70488
                     735.71156                   -6573.31515                   -3556.87825
                     866.36999                   -6137.99840                   -3337.43660
                     891.72232                   -5368.65857                   -2931.15145
                     499.28405                   -2603.23411                   -1427.30813
                     538.32915                   -2629.85951                   -1444.95474
        </DataArray>
      </PointData>
      <Lines>
        <DataArray type="Int32" Name="connectivity" format="ascii">
      0      1
      1      2
      2      3
      3      4
      4      5
      5      6
      6      7
      7      8
      8      9
      9     10
     10     11
     11     12
     12     13
     13     14
     14     15
     15     16
     16     17
     17     18
        </DataArray>
        <DataArray type="Int32" Name="offsets" format="ascii">
      2
      4
      6
      8
     10
     12
     14
     16
     18
     20
     22
     24
     26
     28
     30
     32
     34
     36
        </DataArray>
      </Lines>
    </Piece>
  </PolyData>
</VTKFile>
