<?xml version="1.0"?>
<VTKFile type="PolyData" version="0.1" byte_order="LittleEndian">
  <PolyData>
    <Piece NumberOfPoints="     19" NumberOfVerts="  0" NumberOfLines="     18"
           NumberOfStrips="  0" NumberOfPolys="      0">
      <Points>
        <DataArray type="Float32" NumberOfComponents="3" format="ascii">
                      -5.01439                       1.16073                      89.08406
                      -5.15008                       2.22844                      88.24129
                      -5.43741                       4.42203                      86.63092
                      -5.73117                       6.64283                      85.05487
                      -6.09961                       9.43445                      83.10331
                      -6.49348                      12.69456                      80.63997
                      -6.86753                      15.87141                      78.06865
                      -7.24409                      19.04395                      75.49177
                      -7.62852                      22.21111                      72.90863
                      -8.03164                      25.37381                      70.32201
                      -8.46684                      28.53359                      67.73631
                      -8.94747                      31.68812                      65.15188
                      -9.48965                      34.83502                      62.57045
                     -10.11067                      37.97072                      59.99377
                     -10.82629                      41.09069                      57.42350
                     -11.51005                      43.67368                      55.28773
                     -12.11824                      45.72145                      53.57748
                     -12.78133                      47.72062                      51.82846
                     -13.14347                      48.73855                      50.98856
        </DataArray>
      </Points>
      <PointData>
        <DataArray type="Float32" Name="TranslationalVelocity" NumberOfComponents="3" format="ascii">
                       0.29305                       2.67620                       3.31474
                       0.56711                       5.10437                       6.34705
                       1.12935                       9.74997                      12.57480
                       1.69874                      14.29782                      18.87658
                       2.41620                      19.92718                      26.79258
                       3.25788                      27.00913                      36.02879
                       4.08153                      34.38513                      45.02026
                       4.90410                      41.77040                      53.99104
                       5.72048                      49.16857                      62.93895
                       6.52440                      56.57460                      71.86776
                       7.30828                      63.97926                      80.78330
                       8.06243                      71.38414                      89.68080
                       8.77618                      78.78677                      98.55548
                       9.43781                      86.18372                     107.39928
                      10.03486                      93.57028                     116.20155
                      10.47205                      99.71358                     123.49265
                      10.77768                     104.63489                     129.27615
                      11.03393                     109.66519                     134.92590
                      11.14909                     112.08346                     137.80406
        </DataArray>
        <DataArray type="Float32" Name="RotationalVelocity" NumberOfComponents="3" format="ascii">
                       2.84059                      -0.00134                      -0.25523
                       2.84018                      -0.00140                      -0.25522
                       2.83906                      -0.00161                      -0.25526
                       2.83762                      -0.00195                      -0.25537
                       2.83555                      -0.00254                      -0.25558
                       2.83290                      -0.00341                      -0.25576
                       2.83029                      -0.00432                      -0.25552
                       2.82789                      -0.00510                      -0.25442
                       2.82582                      -0.00557                      -0.25195
                       2.82412                      -0.00550                      -0.24765
                       2.82279                      -0.00470                      -0.24109
                       2.82180                      -0.00297                      -0.23199
                       2.82106                      -0.00011                      -0.22022
                       2.82045                       0.00403                      -0.20590
                       2.81985                       0.00958                      -0.18944
                       2.81925                       0.01529                      -0.17462
                       2.81864                       0.02063                      -0.16243
                       2.81785                       0.02664                      -0.15044
                       2.81737                       0.02988                      -0.14467
        </DataArray>
        <DataArray type="Float32" Name="TranslationalAcceleration" NumberOfComponents="3" format="ascii">
                       0.69956                      -9.52519                       7.62750
                       0.81711                     -11.51460                       9.18000
                       2.29238                     -33.40281                      25.67131
                       3.63449                     -53.75356                      40.51044
                       5.20534                     -77.63753                      57.60960
                       7.09948                    -104.02741                      77.89167
                       9.04422                    -128.97807                      98.45546
                      10.99900                    -153.75332                     118.96955
                      12.97593                    -178.68198                     139.68354
                      14.97386                    -203.89338                     160.64697
                      16.98738                    -229.36421                     181.77104
                      19.01919                    -254.94295                     202.92229
                      21.08441                    -280.44034                     223.93163
                      23.21969                    -305.68040                     244.65426
                      25.49150                    -330.56261                     265.02070
                      27.56834                    -351.03308                     281.75226
                      29.40768                    -367.27092                     295.11114
                      31.49014                    -383.27685                     308.86918
                      32.60886                    -391.53714                     315.55380
        </DataArray>
        <DataArray type="Float32" Name="OrientationX" NumberOfComponents="3" format="ascii">
                       0.98202                       0.17708                       0.06547
                       0.98202                       0.17702                       0.06554
                       0.98202                       0.17690                       0.06596
                       0.98199                       0.17677                       0.06671
                       0.98191                       0.17668                       0.06805
                       0.98645                       0.15770                       0.04534
                       0.98894                       0.14518                       0.03030
                       0.99047                       0.13648                       0.01830
                       0.99148                       0.13014                       0.00623
                       0.99183                       0.12748                      -0.00549
                       0.99133                       0.13046                      -0.01548
                       0.98998                       0.13906                      -0.02464
                       0.98748                       0.15453                      -0.03183
                       0.98337                       0.17815                      -0.03540
                       0.97770                       0.20633                      -0.03920
                       0.97176                       0.23200                      -0.04319
                       0.96620                       0.25350                      -0.04680
                       0.95966                       0.27694                      -0.04848
                       0.95596                       0.28954                      -0.04807
        </DataArray>
        <DataArray type="Float32" Name="OrientationY" NumberOfComponents="3" format="ascii">
                       0.16054                      -0.60071                      -0.78318
                       0.16058                      -0.60087                      -0.78306
                       0.16088                      -0.60126                      -0.78269
                       0.16146                      -0.60175                      -0.78220
                       0.16256                      -0.60241                      -0.78145
                       0.13324                      -0.60848                      -0.78230
                       0.11388                      -0.61244                      -0.78227
                       0.09923                      -0.61530                      -0.78202
                       0.08597                      -0.61758                      -0.78180
                       0.07525                      -0.61915                      -0.78166
                       0.06937                      -0.61981                      -0.78168
                       0.06759                      -0.61972                      -0.78190
                       0.07160                      -0.61868                      -0.78238
                       0.08343                      -0.61617                      -0.78318
                       0.09789                      -0.61281                      -0.78415
                       0.11064                      -0.60956                      -0.78498
                       0.12110                      -0.60664                      -0.78570
                       0.13420                      -0.60271                      -0.78659
                       0.14219                      -0.60014                      -0.78715
        </DataArray>
        <DataArray type="Float32" Name="OrientationZ" NumberOfComponents="3" format="ascii">
                      -0.09936                       0.77961                      -0.61833
                      -0.09923                       0.77950                      -0.61849
                      -0.09880                       0.77923                      -0.61891
                      -0.09813                       0.77888                      -0.61945
                      -0.09707                       0.77838                      -0.62024
                      -0.09578                       0.77774                      -0.62125
                      -0.09502                       0.77707                      -0.62220
                      -0.09547                       0.77639                      -0.62298
                      -0.09790                       0.77567                      -0.62350
                      -0.10304                       0.77486                      -0.62368
                      -0.11157                       0.77383                      -0.62348
                      -0.12400                       0.77240                      -0.62291
                      -0.14059                       0.77030                      -0.62199
                      -0.16133                       0.76720                      -0.62078
                      -0.18581                       0.76282                      -0.61934
                      -0.20844                       0.75804                      -0.61801
                      -0.22757                       0.75347                      -0.61684
                      -0.24706                       0.74836                      -0.61557
                      -0.25677                       0.74565                      -0.61488
        </DataArray>
        <DataArray type="Float32" Name="Force" NumberOfComponents="3" format="ascii">
                     150.29885                     -22.73430                     -52.81591
                     151.21540                     -56.21459                     -95.13856
                     232.84930                    -192.60800                    -280.00547
                     232.99709                    -312.09946                    -430.36062
                    3149.71024                     775.09995                     483.40399
                    3132.10856                     560.80848                     222.98879
                    2624.76554                     350.99421                      40.51956
                    3393.89929                     404.71573                     -11.59730
                    4458.87663                     488.74503                     -86.45462
                    4469.43622                     440.27543                    -186.19604
                    6452.22981                     637.10994                    -356.08931
                    5834.25113                     569.18076                    -448.99696
                    2629.19764                     203.63651                    -341.17950
                     393.83171                     -59.04269                    -178.64335
                   -3670.97170                    -697.16797                     228.05544
                   -8112.91142                   -1502.46214                     864.48765
                  -11540.26316                   -2236.45071                    1483.02235
                  -11792.70008                   -2418.56897                    1746.71906
                  -14251.50401                   -3015.82857                    2236.28015
        </DataArray>
        <DataArray type="Float32" Name="Moment" NumberOfComponents="3" format="ascii">
                       0.00000                       0.00000                       0.00000
                       0.00000                       0.00000                       0.00000
                       0.00000                       0.00000                       0.00000
                       0.00000                       0.00000                       0.00000
                     161.41173                   -1298.39890                    1030.17093
                     270.11636                   -2204.07266                    1749.09631
                     338.32526                   -2785.21661                    2210.54805
                     531.78536                   -4360.32904                    3460.47926
                     790.32878                   -6322.91738                    5016.32078
                     937.86316                   -7130.16117                    5652.56282
                    1135.95487                   -7974.95679                    6314.47675
                    1332.89509                   -8415.62674                    6651.34108
                    1120.55387                   -6233.47999                    4914.69591
                    1253.52941                   -6066.72365                    4768.58089
                    1355.85805                   -5683.35871                    4450.93915
                    1427.50877                   -5319.39545                    4151.66358
                    1374.76176                   -4679.24864                    3641.35011
                     734.58453                   -2295.53152                    1780.95827
                     776.04581                   -2329.27909                    1804.38645
        </DataArray>
      </PointData>
      <Lines>
        <DataArray type="Int32" Name="connectivity" format="ascii">
      0      1
      1      2
      2      3
      3      4
      4      5
      5      6
      6      7
      7      8
      8      9
      9     10
     10     11
     11     12
     12     13
     13     14
     14     15
     15     16
     16     17
     17     18
        </DataArray>
        <DataArray type="Int32" Name="offsets" format="ascii">
      2
      4
      6
      8
     10
     12
     14
     16
     18
     20
     22
     24
     26
     28
     30
     32
     34
     36
        </DataArray>
      </Lines>
    </Piece>
  </PolyData>
</VTKFile>
