<?xml version="1.0"?>
<VTKFile type="PolyData" version="0.1" byte_order="LittleEndian">
  <PolyData>
    <Piece NumberOfPoints="     19" NumberOfVerts="  0" NumberOfLines="     18"
           NumberOfStrips="  0" NumberOfPolys="      0">
      <Points>
        <DataArray type="Float32" NumberOfComponents="3" format="ascii">
                      -4.83261                      -1.02163                      91.12104
                      -4.80180                      -1.94371                      92.12970
                      -4.76776                      -3.85822                      94.08439
                      -4.74457                      -5.80689                      96.00884
                      -4.71755                      -8.26418                      98.39533
                      -4.61310                     -11.11131                     101.34946
                      -4.46562                     -13.86606                     104.38671
                      -4.31333                     -16.62167                     107.42359
                      -4.16098                     -19.37654                     110.46207
                      -4.01950                     -22.13133                     113.50213
                      -3.90295                     -24.88746                     116.54286
                      -3.82501                     -27.64192                     119.58679
                      -3.80260                     -30.39193                     122.63560
                      -3.85417                     -33.13365                     125.69095
                      -3.99694                     -35.86252                     128.75405
                      -4.20198                     -38.12203                     131.31374
                      -4.42630                     -39.91193                     133.37142
                      -4.69937                     -41.64939                     135.46988
                      -4.87224                     -42.54165                     136.49344
        </DataArray>
      </Points>
      <PointData>
        <DataArray type="Float32" Name="TranslationalVelocity" NumberOfComponents="3" format="ascii">
                      -0.25606                      -3.16706                      -2.86755
                      -0.49177                      -6.03970                      -5.48636
                      -0.97974                     -11.60190                     -10.92570
                      -1.47444                     -17.07814                     -16.46500
                      -2.09477                     -23.87301                     -23.45496
                      -2.80671                     -32.30884                     -31.56126
                      -3.48540                     -41.00031                     -39.41264
                      -4.15122                     -49.70033                     -47.27464
                      -4.80023                     -58.41309                     -55.14257
                      -5.42890                     -67.13558                     -63.01807
                      -6.03397                     -75.86154                     -70.90461
                      -6.61132                     -84.59493                     -78.79299
                      -7.15736                     -93.33693                     -86.67430
                      -7.66890                    -102.08884                     -94.53649
                      -8.14343                    -110.85167                    -102.36532
                      -8.50848                    -118.16387                    -108.84939
                      -8.78001                    -124.03523                    -113.98638
                      -9.02580                    -130.01948                    -118.97312
                      -9.14835                    -132.93328                    -121.53369
        </DataArray>
        <DataArray type="Float32" Name="RotationalVelocity" NumberOfComponents="3" format="ascii">
                       2.83970                      -0.00048                      -0.25510
                       2.84014                      -0.00035                      -0.25501
                       2.84131                       0.00004                      -0.25467
                       2.84280                       0.00061                      -0.25415
                       2.84493                       0.00157                      -0.25327
                       2.84769                       0.00306                      -0.25182
                       2.85050                       0.00492                      -0.24981
                       2.85324                       0.00710                      -0.24707
                       2.85589                       0.00956                      -0.24343
                       2.85844                       0.01226                      -0.23872
                       2.86092                       0.01515                      -0.23283
                       2.86337                       0.01815                      -0.22574
                       2.86579                       0.02120                      -0.21755
                       2.86818                       0.02421                      -0.20851
                       2.87047                       0.02708                      -0.19908
                       2.87222                       0.02930                      -0.19135
                       2.87343                       0.03092                      -0.18563
                       2.87437                       0.03234                      -0.18067
                       2.87471                       0.03296                      -0.17860
        </DataArray>
        <DataArray type="Float32" Name="TranslationalAcceleration" NumberOfComponents="3" format="ascii">
                      -0.82777                       8.21808                      -8.99964
                      -0.98558                       9.94914                     -10.83966
                      -2.77393                      29.05763                     -30.49373
                      -4.40195                      46.97277                     -48.27157
                      -6.31046                      68.16721                     -68.81050
                      -8.59189                      91.55857                     -92.87431
                     -10.92206                     113.66176                    -117.01697
                     -13.26911                     135.76677                    -141.10780
                     -15.63195                     158.13856                    -165.45715
                     -17.98457                     180.87224                    -190.14956
                     -20.28675                     203.93187                    -215.11257
                     -22.49734                     227.16269                    -240.21487
                     -24.58106                     250.38237                    -265.28913
                     -26.51919                     273.42505                    -290.19983
                     -28.31970                     296.19826                    -314.90205
                     -29.74574                     314.98134                    -335.39949
                     -30.87755                     329.90240                    -351.89150
                     -32.06000                     344.56527                    -368.89523
                     -32.66088                     352.20284                    -377.29772
        </DataArray>
        <DataArray type="Float32" Name="OrientationX" NumberOfComponents="3" format="ascii">
                       0.95727                      -0.19876                      -0.21007
                       0.95726                      -0.19858                      -0.21029
                       0.95717                      -0.19814                      -0.21112
                       0.95699                      -0.19759                      -0.21243
                       0.95666                      -0.19682                      -0.21461
                       0.96487                      -0.17340                      -0.19736
                       0.96983                      -0.15731                      -0.18623
                       0.97338                      -0.14529                      -0.17727
                       0.97648                      -0.13550                      -0.16770
                       0.97898                      -0.12935                      -0.15772
                       0.98048                      -0.12906                      -0.14834
                       0.98115                      -0.13454                      -0.13870
                       0.98054                      -0.14734                      -0.12972
                       0.97793                      -0.16905                      -0.12277
                       0.97392                      -0.19577                      -0.11466
                       0.96953                      -0.22056                      -0.10659
                       0.96523                      -0.24172                      -0.09947
                       0.95953                      -0.26551                      -0.09383
                       0.95598                      -0.27863                      -0.09204
        </DataArray>
        <DataArray type="Float32" Name="OrientationY" NumberOfComponents="3" format="ascii">
                       0.28831                       0.71284                       0.63933
                       0.28832                       0.71277                       0.63940
                       0.28856                       0.71259                       0.63949
                       0.28904                       0.71236                       0.63953
                       0.28995                       0.71205                       0.63947
                       0.26104                       0.71746                       0.64584
                       0.24168                       0.72055                       0.64993
                       0.22678                       0.72255                       0.65306
                       0.21313                       0.72408                       0.65596
                       0.20188                       0.72503                       0.65847
                       0.19535                       0.72520                       0.66025
                       0.19289                       0.72476                       0.66144
                       0.19627                       0.72350                       0.66184
                       0.20763                       0.72090                       0.66120
                       0.22196                       0.71751                       0.66024
                       0.23496                       0.71420                       0.65933
                       0.24597                       0.71119                       0.65856
                       0.25997                       0.70714                       0.65755
                       0.26858                       0.70448                       0.65694
        </DataArray>
        <DataArray type="Float32" Name="OrientationZ" NumberOfComponents="3" format="ascii">
                       0.02267                      -0.67257                       0.73968
                       0.02292                      -0.67270                       0.73956
                       0.02373                      -0.67302                       0.73924
                       0.02497                      -0.67342                       0.73884
                       0.02695                      -0.67398                       0.73826
                       0.02961                      -0.67468                       0.73752
                       0.03195                      -0.67533                       0.73683
                       0.03320                      -0.67588                       0.73627
                       0.03255                      -0.67628                       0.73593
                       0.02918                      -0.67646                       0.73590
                       0.02236                      -0.67634                       0.73625
                       0.01153                      -0.67573                       0.73706
                      -0.00366                      -0.67442                       0.73834
                      -0.02327                      -0.67210                       0.74009
                      -0.04698                      -0.66847                       0.74225
                      -0.06929                      -0.66429                       0.74426
                      -0.08844                      -0.66013                       0.74592
                      -0.10824                      -0.65533                       0.74754
                      -0.11820                      -0.65274                       0.74831
        </DataArray>
        <DataArray type="Float32" Name="Force" NumberOfComponents="3" format="ascii">
                     173.21906                      47.23299                      37.63884
                     203.57566                     101.13693                      85.65422
                     318.02663                     291.89877                     255.23193
                     332.24659                     434.05236                     383.54026
                    3495.52496                    -998.76722                   -1036.53557
                    3619.28632                    -762.84782                    -839.96161
                    3316.38117                    -523.60991                    -620.90729
                    4461.79939                    -611.25235                    -758.43290
                    5740.05527                    -709.42443                    -900.75781
                    6074.73487                    -663.70823                    -846.13620
                    8388.36025                    -877.57073                   -1054.89053
                    8015.79096                    -802.73743                    -856.76837
                    4830.59200                    -436.75594                    -373.38944
                     793.85294                      72.90345                      90.72314
                   -1971.17134                     438.56288                     270.41673
                   -7056.44783                    1211.59203                     427.83448
                  -11220.13154                    1933.55099                     389.40400
                  -12198.60964                    2175.52627                     153.67928
                  -15151.49516                    2762.22004                      33.97777
        </DataArray>
        <DataArray type="Float32" Name="Moment" NumberOfComponents="3" format="ascii">
                       0.00000                       0.00000                       0.00000
                       0.00000                       0.00000                       0.00000
                       0.00000                       0.00000                       0.00000
                       0.00000                       0.00000                       0.00000
                     -42.11369                    1047.12646                   -1150.99287
                     -85.37252                    1929.63412                   -2120.34066
                    -120.24791                    2516.57517                   -2764.48937
                    -197.80752                    3979.78936                   -4371.16202
                    -282.69058                    5795.44523                   -6365.85099
                    -286.93619                    6550.75713                   -7198.43055
                    -245.80242                    7296.74629                   -8024.80445
                    -135.46061                    7714.07332                   -8494.94401
                      29.62779                    5769.00350                   -6364.74000
                     190.02164                    5499.84877                   -6082.31998
                     367.65478                    5227.35210                   -5797.76270
                     507.64855                    4868.64717                   -5414.75425
                     572.07832                    4280.79083                   -4772.25042
                     343.75486                    2092.70938                   -2338.72027
                     380.66095                    2117.16517                   -2369.00471
        </DataArray>
      </PointData>
      <Lines>
        <DataArray type="Int32" Name="connectivity" format="ascii">
      0      1
      1      2
      2      3
      3      4
      4      5
      5      6
      6      7
      7      8
      8      9
      9     10
     10     11
     11     12
     12     13
     13     14
     14     15
     15     16
     16     17
     17     18
        </DataArray>
        <DataArray type="Int32" Name="offsets" format="ascii">
      2
      4
      6
      8
     10
     12
     14
     16
     18
     20
     22
     24
     26
     28
     30
     32
     34
     36
        </DataArray>
      </Lines>
    </Piece>
  </PolyData>
</VTKFile>
