<?xml version="1.0"?>
<VTKFile type="PolyData" version="0.1" byte_order="LittleEndian">
  <PolyData>
    <Piece NumberOfPoints="    550" NumberOfVerts="  0" NumberOfLines="     21"
           NumberOfStrips="  0" NumberOfPolys="    567">
      <Points>
        <DataArray type="Float32" NumberOfComponents="3" format="ascii">
                       2.97344                      -0.00001                       2.18983
                       2.88002                       0.73944                       2.18984
                       2.60565                       1.43243                       2.18986
                       2.16756                       2.03541                       2.18989
                       1.59328                       2.51050                       2.18992
                       0.91889                       2.82784                       2.18997
                       0.18676                       2.96750                       2.19001
                      -0.55709                       2.92070                       2.19005
                      -1.26594                       2.69038                       2.19009
                      -1.89524                       2.29102                       2.19013
                      -2.40545                       1.74770                       2.19015
                      -2.76451                       1.09457                       2.19017
                      -2.94987                       0.37266                       2.19018
                      -2.94987                      -0.37267                       2.19017
                      -2.76451                      -1.09458                       2.19015
                      -2.40545                      -1.74771                       2.19013
                      -1.89524                      -2.29103                       2.19010
                      -1.26594                      -2.69040                       2.19006
                      -0.55709                      -2.92072                       2.19001
                       0.18676                      -2.96752                       2.18997
                       0.91889                      -2.82786                       2.18993
                       1.59328                      -2.51051                       2.18989
                       2.16756                      -2.03542                       2.18986
                       2.60565                      -1.43244                       2.18984
                       2.88002                      -0.73946                       2.18983
                       2.92075                      -0.00006                       6.56941
                       2.82901                       0.72614                       6.56944
                       2.55955                       1.40672                       6.56951
                       2.12930                       1.99890                       6.56961
                       1.56530                       2.46548                       6.56973
                       0.90299                       2.77714                       6.56987
                       0.18398                       2.91430                       6.57002
                      -0.54656                       2.86834                       6.57016
                      -1.24271                       2.64214                       6.57030
                      -1.86074                       2.24993                       6.57042
                      -2.36181                       1.71634                       6.57051
                      -2.71444                       1.07491                       6.57057
                      -2.89648                       0.36593                       6.57059
                      -2.89648                      -0.36605                       6.57058
                      -2.71444                      -1.07503                       6.57053
                      -2.36181                      -1.71647                       6.57044
                      -1.86074                      -2.25006                       6.57033
                      -1.24271                      -2.64227                       6.57020
                      -0.54656                      -2.86846                       6.57006
                       0.18398                      -2.91443                       6.56991
                       0.90299                      -2.77727                       6.56977
                       1.56530                      -2.46561                       6.56964
                       2.12930                      -1.99903                       6.56953
                       2.55955                      -1.40684                       6.56946
                       2.82901                      -0.72627                       6.56942
                       2.86873                      -0.00017                      10.94896
                       2.77866                       0.71279                      10.94901
                       2.51411                       1.38096                      10.94913
                       2.09171                       1.96234                      10.94930
                       1.53800                       2.42041                      10.94951
                       0.88777                       2.72639                      10.94976
                       0.18187                       2.86105                      10.95002
                      -0.53535                       2.81593                      10.95028
                      -1.21880                       2.59386                      10.95052
                      -1.82556                       2.20880                      10.95073
                      -2.31750                       1.68494                      10.95089
                      -2.66370                       1.05520                      10.95100
                      -2.84242                       0.35915                      10.95104
                      -2.84242                      -0.35948                      10.95102
                      -2.66370                      -1.05554                      10.95094
                      -2.31750                      -1.68528                      10.95079
                      -1.82556                      -2.20913                      10.95060
                      -1.21880                      -2.59419                      10.95037
                      -0.53535                      -2.81626                      10.95011
                       0.18187                      -2.86139                      10.94985
                       0.88777                      -2.72673                      10.94960
                       1.53800                      -2.42075                      10.94937
                       2.09171                      -1.96268                      10.94918
                       2.51411                      -1.38130                      10.94905
                       2.77866                      -0.71313                      10.94897
                       2.81743                      -0.00032                      15.32851
                       2.72904                       0.69940                      15.32858
                       2.46941                       1.35516                      15.32874
                       2.05485                       1.92574                      15.32899
                       1.51143                       2.37531                      15.32929
                       0.87327                       2.67560                      15.32964
                       0.18048                       2.80776                      15.33001
                      -0.52341                       2.76347                      15.33039
                      -1.19417                       2.54553                      15.33073
                      -1.78966                       2.16762                      15.33104
                      -2.27246                       1.65349                      15.33127
                      -2.61223                       1.03545                      15.33143
                      -2.78763                       0.35232                      15.33149
                      -2.78763                      -0.35296                      15.33147
                      -2.61223                      -1.03608                      15.33135
                      -2.27246                      -1.65412                      15.33114
                      -1.78966                      -2.16825                      15.33087
                      -1.19417                      -2.54616                      15.33054
                      -0.52341                      -2.76411                      15.33017
                       0.18048                      -2.80839                      15.32980
                       0.87327                      -2.67623                      15.32943
                       1.51143                      -2.37594                      15.32911
                       2.05485                      -1.92638                      15.32884
                       2.46941                      -1.35579                      15.32864
                       2.72904                      -0.70004                      15.32853
                       2.76687                      -0.00051                      19.70808
                       2.68015                       0.68597                      19.70817
                       2.42543                       1.32931                      19.70838
                       2.01873                       1.88910                      19.70869
                       1.48558                       2.33015                      19.70908
                       0.85950                       2.62476                      19.70953
                       0.17983                       2.75442                      19.71001
                      -0.51074                       2.71097                      19.71049
                      -1.16881                       2.49715                      19.71094
                      -1.75303                       2.12640                      19.71133
                      -2.22669                       1.62200                      19.71163
                      -2.56003                       1.01565                      19.71184
                      -2.73211                       0.34546                      19.71192
                      -2.73211                      -0.34648                      19.71189
                      -2.56003                      -1.01667                      19.71174
                      -2.22669                      -1.62302                      19.71147
                      -1.75303                      -2.12741                      19.71112
                      -1.16881                      -2.49817                      19.71070
                      -0.51074                      -2.71199                      19.71023
                       0.17983                      -2.75544                      19.70974
                       0.85950                      -2.62578                      19.70928
                       1.48558                      -2.33117                      19.70886
                       2.01873                      -1.89012                      19.70851
                       2.42543                      -1.33033                      19.70825
                       2.68015                      -0.68699                      19.70810
                       2.71703                      -0.00074                      24.08768
                       2.63198                       0.67249                      24.08779
                       2.38217                       1.30342                      24.08804
                       1.98331                       1.85241                      24.08842
                       1.46045                       2.28496                      24.08889
                       0.84645                       2.57389                      24.08943
                       0.17988                       2.70104                      24.09001
                      -0.49736                       2.65843                      24.09059
                      -1.14274                       2.44874                      24.09113
                      -1.71568                       2.08513                      24.09160
                      -2.18021                       1.59046                      24.09196
                      -2.50712                       0.99582                      24.09221
                      -2.67588                       0.33855                      24.09232
                      -2.67588                      -0.34004                      24.09228
                      -2.50712                      -0.99730                      24.09209
                      -2.18021                      -1.59195                      24.09178
                      -1.71568                      -2.08662                      24.09135
                      -1.14274                      -2.45022                      24.09084
                      -0.49736                      -2.65992                      24.09028
                       0.17988                      -2.70253                      24.08969
                       0.84645                      -2.57537                      24.08913
                       1.46045                      -2.28644                      24.08862
                       1.98331                      -1.85390                      24.08820
                       2.38217                      -1.30491                      24.08789
                       2.63198                      -0.67398                      24.08771
                       2.66786                      -0.00102                      28.46732
                       2.58448                       0.65897                      28.46745
                       2.33959                       1.27749                      28.46774
                       1.94857                       1.81568                      28.46817
                       1.43600                       2.23972                      28.46872
                       0.83408                       2.52296                      28.46934
                       0.18062                       2.64762                      28.47001
                      -0.48330                       2.60584                      28.47068
                      -1.11598                       2.40028                      28.47130
                      -1.67766                       2.04382                      28.47184
                      -2.13304                       1.55889                      28.47227
                      -2.45352                       0.97593                      28.47255
                      -2.61896                       0.33160                      28.47267
                      -2.61896                      -0.33364                      28.47262
                      -2.45352                      -0.97798                      28.47241
                      -2.13304                      -1.56093                      28.47205
                      -1.67766                      -2.04587                      28.47156
                      -1.11598                      -2.40232                      28.47097
                      -0.48330                      -2.60789                      28.47032
                       0.18062                      -2.64966                      28.46964
                       0.83408                      -2.52501                      28.46899
                       1.43600                      -2.24176                      28.46841
                       1.94857                      -1.81773                      28.46792
                       2.33959                      -1.27954                      28.46756
                       2.58448                      -0.66101                      28.46736
                       2.61934                      -0.00135                      32.84699
                       2.53764                       0.64540                      32.84714
                       2.29766                       1.25151                      32.84747
                       1.91449                       1.77890                      32.84795
                       1.41220                       2.19443                      32.84856
                       0.82235                       2.47199                      32.84926
                       0.18201                       2.59414                      32.85001
                      -0.46859                       2.55321                      32.85076
                      -1.08857                       2.35177                      32.85146
                      -1.63898                       2.00247                      32.85206
                      -2.08523                       1.52726                      32.85254
                      -2.39928                       0.95600                      32.85286
                      -2.56140                       0.32460                      32.85299
                      -2.56140                      -0.32729                      32.85294
                      -2.39928                      -0.95870                      32.85270
                      -2.08523                      -1.52996                      32.85230
                      -1.63898                      -2.00517                      32.85174
                      -1.08857                      -2.35446                      32.85108
                      -0.46859                      -2.55591                      32.85035
                       0.18201                      -2.59684                      32.84960
                       0.82235                      -2.47469                      32.84887
                       1.41220                      -2.19713                      32.84821
                       1.91449                      -1.78160                      32.84766
                       2.29766                      -1.25421                      32.84726
                       2.53764                      -0.64810                      32.84704
                       2.57145                      -0.00173                      37.22669
                       2.49142                       0.63178                      37.22685
                       2.25636                       1.22548                      37.22721
                       1.88104                       1.74207                      37.22774
                       1.38903                       2.14909                      37.22842
                       0.81126                       2.42097                      37.22919
                       0.18403                       2.54062                      37.23002
                      -0.45325                       2.50053                      37.23084
                      -1.06054                       2.30321                      37.23161
                      -1.59968                       1.96106                      37.23227
                      -2.03679                       1.49558                      37.23280
                      -2.34441                       0.93602                      37.23314
                      -2.50321                       0.31754                      37.23329
                      -2.50321                      -0.32100                      37.23323
                      -2.34441                      -0.93948                      37.23297
                      -2.03679                      -1.49904                      37.23252
                      -1.59968                      -1.96451                      37.23191
                      -1.06054                      -2.30666                      37.23118
                      -0.45325                      -2.50398                      37.23038
                       0.18403                      -2.54407                      37.22955
                       0.81126                      -2.42442                      37.22875
                       1.38903                      -2.15255                      37.22802
                       1.88104                      -1.74552                      37.22742
                       2.25636                      -1.22893                      37.22698
                       2.49142                      -0.63523                      37.22673
                       2.52419                      -0.00216                      41.60640
                       2.44583                       0.61811                      41.60658
                       2.21568                       1.19940                      41.60697
                       1.84820                       1.70519                      41.60755
                       1.36649                       2.10370                      41.60828
                       0.80079                       2.36990                      41.60913
                       0.18667                       2.48705                      41.61002
                      -0.43728                       2.44779                      41.61091
                      -1.03188                       2.25459                      41.61175
                      -1.55975                       1.91960                      41.61247
                      -1.98772                       1.46385                      41.61304
                      -2.28891                       0.91599                      41.61342
                      -2.44439                       0.31044                      41.61358
                      -2.44439                      -0.31475                      41.61351
                      -2.28891                      -0.92031                      41.61322
                      -1.98772                      -1.46817                      41.61273
                      -1.55975                      -1.92391                      41.61207
                      -1.03188                      -2.25891                      41.61128
                      -0.43728                      -2.45211                      41.61040
                       0.18667                      -2.49136                      41.60950
                       0.80079                      -2.37421                      41.60863
                       1.36648                      -2.10802                      41.60784
                       1.84820                      -1.70950                      41.60719
                       2.21568                      -1.20371                      41.60671
                       2.44583                      -0.62242                      41.60644
                       2.47756                      -0.00265                      45.98611
                       2.40088                       0.60437                      45.98630
                       2.17564                       1.17325                      45.98673
                       1.81601                       1.66825                      45.98736
                       1.34457                       2.05825                      45.98815
                       0.79096                       2.31876                      45.98906
                       0.18995                       2.43341                      45.99003
                      -0.42069                       2.39499                      45.99099
                      -1.00258                       2.20592                      45.99189
                      -1.51918                       1.87808                      45.99267
                      -1.93802                       1.43206                      45.99328
                      -2.23278                       0.89590                      45.99368
                      -2.38494                       0.30328                      45.99386
                      -2.38494                      -0.30857                      45.99378
                      -2.23278                      -0.90119                      45.99347
                      -1.93802                      -1.43736                      45.99294
                      -1.51918                      -1.88337                      45.99222
                      -1.00259                      -2.21122                      45.99137
                      -0.42069                      -2.40029                      45.99042
                       0.18995                      -2.43871                      45.98945
                       0.79096                      -2.32406                      45.98851
                       1.34457                      -2.06355                      45.98766
                       1.81601                      -1.67354                      45.98696
                       2.17564                      -1.17855                      45.98645
                       2.40088                      -0.60967                      45.98616
                       2.43159                      -0.00320                      50.36582
                       2.35657                       0.59058                      50.36603
                       2.13625                       1.14705                      50.36649
                       1.78447                       1.63125                      50.36716
                       1.32332                       2.01274                      50.36802
                       0.78178                       2.26757                      50.36899
                       0.19388                       2.37972                      50.37003
                      -0.40343                       2.34214                      50.37106
                      -0.97264                       2.15719                      50.37203
                      -1.47796                       1.83650                      50.37286
                      -1.88766                       1.40021                      50.37352
                      -2.17599                       0.87575                      50.37395
                      -2.32483                       0.29605                      50.37413
                      -2.32483                      -0.30245                      50.37405
                      -2.17599                      -0.88214                      50.37372
                      -1.88766                      -1.40661                      50.37315
                      -1.47796                      -1.84289                      50.37238
                      -0.97264                      -2.16358                      50.37146
                      -0.40343                      -2.34853                      50.37044
                       0.19388                      -2.38611                      50.36940
                       0.78178                      -2.27396                      50.36839
                       1.32332                      -2.01914                      50.36748
                       1.78447                      -1.63764                      50.36673
                       2.13625                      -1.15344                      50.36618
                       2.35657                      -0.59697                      50.36588
                       2.38630                      -0.00381                      54.74554
                       2.31296                       0.57673                      54.74576
                       2.09755                       1.12079                      54.74625
                       1.75361                       1.59418                      54.74697
                       1.30275                       1.96717                      54.74788
                       0.77329                       2.21631                      54.74892
                       0.19850                       2.32596                      54.75003
                      -0.38549                       2.28922                      54.75113
                      -0.94200                       2.10840                      54.75216
                      -1.43606                       1.79486                      54.75306
                      -1.83662                       1.36830                      54.75375
                      -2.11852                       0.85553                      54.75421
                      -2.26404                       0.28877                      54.75441
                      -2.26404                      -0.29638                      54.75432
                      -2.11852                      -0.86315                      54.75396
                      -1.83662                      -1.37592                      54.75335
                      -1.43606                      -1.80247                      54.75253
                      -0.94200                      -2.11601                      54.75154
                      -0.38549                      -2.29683                      54.75046
                       0.19850                      -2.33358                      54.74935
                       0.77329                      -2.22393                      54.74827
                       1.30274                      -1.97479                      54.74730
                       1.75361                      -1.60180                      54.74650
                       2.09755                      -1.12840                      54.74592
                       2.31296                      -0.58434                      54.74559
                       2.34172                      -0.00448                      59.12525
                       2.27006                       0.56281                      59.12549
                       2.05956                       1.09446                      59.12601
                       1.72347                       1.55706                      59.12678
                       1.28289                       1.92154                      59.12775
                       0.76551                       2.16500                      59.12885
                       0.20383                       2.27214                      59.13003
                      -0.36684                       2.23624                      59.13120
                      -0.91065                       2.05954                      59.13229
                      -1.39344                       1.75316                      59.13324
                      -1.78486                       1.33633                      59.13398
                      -2.06033                       0.83526                      59.13447
                      -2.20253                       0.28142                      59.13467
                      -2.20253                      -0.29038                      59.13458
                      -2.06033                      -0.84422                      59.13420
                      -1.78486                      -1.34529                      59.13355
                      -1.39344                      -1.76212                      59.13268
                      -0.91065                      -2.06851                      59.13163
                      -0.36684                      -2.24520                      59.13048
                       0.20383                      -2.28111                      59.12930
                       0.76551                      -2.17396                      59.12815
                       1.28289                      -1.93050                      59.12713
                       1.72347                      -1.56602                      59.12628
                       2.05956                      -1.10342                      59.12566
                       2.27006                      -0.57177                      59.12531
                       2.29787                      -0.00522                      63.50499
                       2.22788                       0.54883                      63.50524
                       2.02230                       1.06807                      63.50579
                       1.69405                       1.51987                      63.50660
                       1.26375                       1.87584                      63.50762
                       0.75845                       2.11362                      63.50879
                       0.20989                       2.21826                      63.51003
                      -0.34746                       2.18320                      63.51126
                      -0.87858                       2.01062                      63.51241
                      -1.35010                       1.71139                      63.51341
                      -1.73238                       1.30429                      63.51419
                      -2.00142                       0.81492                      63.51471
                      -2.14030                       0.27401                      63.51492
                      -2.14030                      -0.28444                      63.51482
                      -2.00142                      -0.82535                      63.51442
                      -1.73239                      -1.31473                      63.51373
                      -1.35010                      -1.72183                      63.51281
                      -0.87858                      -2.02106                      63.51171
                      -0.34746                      -2.19363                      63.51049
                       0.20989                      -2.22870                      63.50925
                       0.75845                      -2.12405                      63.50804
                       1.26375                      -1.88627                      63.50696
                       1.69405                      -1.53030                      63.50606
                       2.02230                      -1.07850                      63.50541
                       2.22788                      -0.55927                      63.50504
                       2.25472                      -0.00601                      67.88476
                       2.18640                       0.53479                      67.88502
                       1.98573                       1.04162                      67.88560
                       1.66533                       1.48262                      67.88644
                       1.24532                       1.83008                      67.88751
                       0.75209                       2.06218                      67.88873
                       0.21664                       2.16432                      67.89002
                      -0.32739                       2.13009                      67.89131
                      -0.84581                       1.96165                      67.89251
                      -1.30606                       1.66956                      67.89355
                      -1.67921                       1.27220                      67.89437
                      -1.94181                       0.79452                      67.89490
                      -2.07737                       0.26654                      67.89512
                      -2.07737                      -0.27857                      67.89502
                      -1.94181                      -0.80655                      67.89460
                      -1.67921                      -1.28423                      67.89388
                      -1.30606                      -1.68159                      67.89292
                      -0.84581                      -1.97367                      67.89177
                      -0.32739                      -2.14212                      67.89050
                       0.21664                      -2.17635                      67.88920
                       0.75209                      -2.07420                      67.88795
                       1.24532                      -1.84211                      67.88682
                       1.66533                      -1.49465                      67.88588
                       1.98573                      -1.05365                      67.88520
                       2.18640                      -0.54682                      67.88482
                       2.21219                      -0.00686                      72.26460
                       2.14554                       0.52070                      72.26487
                       1.94979                       1.01512                      72.26546
                       1.63723                       1.44532                      72.26633
                       1.22750                       1.78427                      72.26743
                       0.74636                       2.01068                      72.26868
                       0.22402                       2.11033                      72.27001
                      -0.30669                       2.07694                      72.27134
                      -0.81242                       1.91261                      72.27257
                      -1.26139                       1.62768                      72.27364
                      -1.62540                       1.24005                      72.27448
                      -1.88158                       0.77407                      72.27503
                      -2.01382                       0.25901                      72.27526
                      -2.01382                      -0.27274                      72.27515
                      -1.88158                      -0.78779                      72.27471
                      -1.62541                      -1.25378                      72.27398
                      -1.26139                      -1.64141                      72.27299
                      -0.81242                      -1.92634                      72.27180
                      -0.30669                      -2.09066                      72.27050
                       0.22402                      -2.12405                      72.26916
                       0.74636                      -2.02441                      72.26787
                       1.22750                      -1.79800                      72.26671
                       1.63723                      -1.45904                      72.26575
                       1.94979                      -1.02884                      72.26505
                       2.14554                      -0.53443                      72.26466
                       2.17012                      -0.00776                      76.64455
                       2.10515                       0.50656                      76.64483
                       1.91431                       0.98856                      76.64543
                       1.60960                       1.40796                      76.64630
                       1.21016                       1.73841                      76.64741
                       0.74109                       1.95914                      76.64867
                       0.23186                       2.05628                      76.65001
                      -0.28552                       2.02373                      76.65134
                      -0.77856                       1.86353                      76.65258
                      -1.21626                       1.58575                      76.65366
                      -1.57114                       1.20785                      76.65450
                      -1.82088                       0.75356                      76.65505
                      -1.94980                       0.25144                      76.65528
                      -1.94980                      -0.26697                      76.65517
                      -1.82088                      -0.76909                      76.65473
                      -1.57114                      -1.22338                      76.65399
                      -1.21626                      -1.60128                      76.65299
                      -0.77856                      -1.87906                      76.65179
                      -0.28552                      -2.03926                      76.65048
                       0.23186                      -2.07181                      76.64914
                       0.74109                      -1.97467                      76.64784
                       1.21016                      -1.75394                      76.64667
                       1.60960                      -1.42349                      76.64571
                       1.91431                      -1.00409                      76.64501
                       2.10515                      -0.52209                      76.64461
                       2.12826                      -0.00871                      81.02466
                       2.06496                       0.49237                      81.02494
                       1.87904                       0.96197                      81.02552
                       1.58217                       1.37057                      81.02638
                       1.19302                       1.69251                      81.02746
                       0.73603                       1.90755                      81.02870
                       0.23991                       2.00219                      81.03001
                      -0.26415                       1.97048                      81.03131
                      -0.74449                       1.81440                      81.03252
                      -1.17093                       1.54378                      81.03357
                      -1.51667                       1.17561                      81.03439
                      -1.75998                       0.73302                      81.03492
                      -1.88558                       0.24382                      81.03514
                      -1.88558                      -0.26124                      81.03503
                      -1.75998                      -0.75043                      81.03460
                      -1.51667                      -1.19302                      81.03387
                      -1.17093                      -1.56120                      81.03289
                      -0.74449                      -1.83182                      81.03172
                      -0.26415                      -1.98789                      81.03044
                       0.23991                      -2.01961                      81.02912
                       0.73602                      -1.92497                      81.02786
                       1.19302                      -1.70992                      81.02672
                       1.58217                      -1.38798                      81.02578
                       1.87904                      -0.97938                      81.02510
                       2.06496                      -0.50979                      81.02472
                       2.08621                      -0.00968                      85.40499
                       2.02458                       0.47815                      85.40525
                       1.84357                       0.93534                      85.40581
                       1.55455                       1.33314                      85.40662
                       1.17568                       1.64657                      85.40763
                       0.73076                       1.85593                      85.40879
                       0.24776                       1.94807                      85.41001
                      -0.24298                       1.91720                      85.41123
                      -0.71063                       1.76525                      85.41236
                      -1.12579                       1.50177                      85.41334
                      -1.46239                       1.14333                      85.41410
                      -1.69928                       0.71244                      85.41459
                      -1.82156                       0.23617                      85.41479
                      -1.82156                      -0.25554                      85.41468
                      -1.69928                      -0.73181                      85.41426
                      -1.46239                      -1.16270                      85.41358
                      -1.12579                      -1.52114                      85.41266
                      -0.71063                      -1.78461                      85.41156
                      -0.24298                      -1.93656                      85.41036
                       0.24776                      -1.96744                      85.40913
                       0.73076                      -1.87530                      85.40795
                       1.17568                      -1.66594                      85.40689
                       1.55455                      -1.35251                      85.40601
                       1.84357                      -0.95470                      85.40538
                       2.02458                      -0.49752                      85.40503
                       2.06493                      -0.01018                      87.59526
                       2.00414                       0.47103                      87.59551
                       1.82559                       0.92201                      87.59604
                       1.54049                       1.31442                      87.59681
                       1.16676                       1.62359                      87.59777
                       0.72789                       1.83011                      87.59887
                       0.25144                       1.92100                      87.60002
                      -0.23264                       1.89054                      87.60117
                      -0.69394                       1.74066                      87.60224
                      -1.10347                       1.48076                      87.60316
                      -1.43550                       1.12718                      87.60387
                      -1.66917                       0.70214                      87.60433
                      -1.78980                       0.23234                      87.60451
                      -1.78980                      -0.25270                      87.60440
                      -1.66917                      -0.72250                      87.60400
                      -1.43551                      -1.14755                      87.60335
                      -1.10347                      -1.50112                      87.60248
                      -0.69394                      -1.76102                      87.60144
                      -0.23264                      -1.91091                      87.60031
                       0.25144                      -1.94136                      87.59914
                       0.72788                      -1.85048                      87.59803
                       1.16676                      -1.64396                      87.59703
                       1.54049                      -1.33478                      87.59621
                       1.82559                      -0.94237                      87.59561
                       2.00414                      -0.49140                      87.59529
                       3.00000                       0.00000                       0.00000
                       2.90575                       0.74607                       0.00000
                       2.62892                       1.44526                       0.00000
                       2.18691                       2.05364                       0.00000
                       1.60748                       2.53298                       0.00000
                       0.92705                       2.85317                       0.00000
                       0.18837                       2.99408                       0.00000
                      -0.56214                       2.94686                       0.00000
                      -1.27734                       2.71448                       0.00000
                      -1.91227                       2.31154                       0.00000
                      -2.42705                       1.76336                       0.00000
                      -2.78933                       1.10437                       0.00000
                      -2.97634                       0.37600                       0.00000
                      -2.97634                      -0.37600                       0.00000
                      -2.78933                      -1.10437                       0.00000
                      -2.42705                      -1.76336                       0.00000
                      -1.91227                      -2.31154                       0.00000
                      -1.27734                      -2.71448                       0.00000
                      -0.56214                      -2.94686                       0.00000
                       0.18837                      -2.99408                       0.00000
                       0.92705                      -2.85317                       0.00000
                       1.60748                      -2.53298                       0.00000
                       2.18691                      -2.05364                       0.00000
                       2.62892                      -1.44526                       0.00000
                       2.90575                      -0.74607                       0.00000
        </DataArray>
      </Points>
      <Polys>
        <DataArray type="Int32" Name="connectivity" format="ascii">
      0      1     26     25
      1      2     27     26
      2      3     28     27
      3      4     29     28
      4      5     30     29
      5      6     31     30
      6      7     32     31
      7      8     33     32
      8      9     34     33
      9     10     35     34
     10     11     36     35
     11     12     37     36
     12     13     38     37
     13     14     39     38
     14     15     40     39
     15     16     41     40
     16     17     42     41
     17     18     43     42
     18     19     44     43
     19     20     45     44
     20     21     46     45
     21     22     47     46
     22     23     48     47
     23     24     49     48
     24      0     25     49
     24     23     22     21     20     19     18     17     16     15     14     13     12     11     10      9      8      7      6      5      4      3      2      1      0
     25     26     27     28     29     30     31     32     33     34     35     36     37     38     39     40     41     42     43     44     45     46     47     48     49
     25     26     51     50
     26     27     52     51
     27     28     53     52
     28     29     54     53
     29     30     55     54
     30     31     56     55
     31     32     57     56
     32     33     58     57
     33     34     59     58
     34     35     60     59
     35     36     61     60
     36     37     62     61
     37     38     63     62
     38     39     64     63
     39     40     65     64
     40     41     66     65
     41     42     67     66
     42     43     68     67
     43     44     69     68
     44     45     70     69
     45     46     71     70
     46     47     72     71
     47     48     73     72
     48     49     74     73
     49     25     50     74
     49     48     47     46     45     44     43     42     41     40     39     38     37     36     35     34     33     32     31     30     29     28     27     26     25
     50     51     52     53     54     55     56     57     58     59     60     61     62     63     64     65     66     67     68     69     70     71     72     73     74
     50     51     76     75
     51     52     77     76
     52     53     78     77
     53     54     79     78
     54     55     80     79
     55     56     81     80
     56     57     82     81
     57     58     83     82
     58     59     84     83
     59     60     85     84
     60     61     86     85
     61     62     87     86
     62     63     88     87
     63     64     89     88
     64     65     90     89
     65     66     91     90
     66     67     92     91
     67     68     93     92
     68     69     94     93
     69     70     95     94
     70     71     96     95
     71     72     97     96
     72     73     98     97
     73     74     99     98
     74     50     75     99
     74     73     72     71     70     69     68     67     66     65     64     63     62     61     60     59     58     57     56     55     54     53     52     51     50
     75     76     77     78     79     80     81     82     83     84     85     86     87     88     89     90     91     92     93     94     95     96     97     98     99
     75     76    101    100
     76     77    102    101
     77     78    103    102
     78     79    104    103
     79     80    105    104
     80     81    106    105
     81     82    107    106
     82     83    108    107
     83     84    109    108
     84     85    110    109
     85     86    111    110
     86     87    112    111
     87     88    113    112
     88     89    114    113
     89     90    115    114
     90     91    116    115
     91     92    117    116
     92     93    118    117
     93     94    119    118
     94     95    120    119
     95     96    121    120
     96     97    122    121
     97     98    123    122
     98     99    124    123
     99     75    100    124
     99     98     97     96     95     94     93     92     91     90     89     88     87     86     85     84     83     82     81     80     79     78     77     76     75
    100    101    102    103    104    105    106    107    108    109    110    111    112    113    114    115    116    117    118    119    120    121    122    123    124
    100    101    126    125
    101    102    127    126
    102    103    128    127
    103    104    129    128
    104    105    130    129
    105    106    131    130
    106    107    132    131
    107    108    133    132
    108    109    134    133
    109    110    135    134
    110    111    136    135
    111    112    137    136
    112    113    138    137
    113    114    139    138
    114    115    140    139
    115    116    141    140
    116    117    142    141
    117    118    143    142
    118    119    144    143
    119    120    145    144
    120    121    146    145
    121    122    147    146
    122    123    148    147
    123    124    149    148
    124    100    125    149
    124    123    122    121    120    119    118    117    116    115    114    113    112    111    110    109    108    107    106    105    104    103    102    101    100
    125    126    127    128    129    130    131    132    133    134    135    136    137    138    139    140    141    142    143    144    145    146    147    148    149
    125    126    151    150
    126    127    152    151
    127    128    153    152
    128    129    154    153
    129    130    155    154
    130    131    156    155
    131    132    157    156
    132    133    158    157
    133    134    159    158
    134    135    160    159
    135    136    161    160
    136    137    162    161
    137    138    163    162
    138    139    164    163
    139    140    165    164
    140    141    166    165
    141    142    167    166
    142    143    168    167
    143    144    169    168
    144    145    170    169
    145    146    171    170
    146    147    172    171
    147    148    173    172
    148    149    174    173
    149    125    150    174
    149    148    147    146    145    144    143    142    141    140    139    138    137    136    135    134    133    132    131    130    129    128    127    126    125
    150    151    152    153    154    155    156    157    158    159    160    161    162    163    164    165    166    167    168    169    170    171    172    173    174
    150    151    176    175
    151    152    177    176
    152    153    178    177
    153    154    179    178
    154    155    180    179
    155    156    181    180
    156    157    182    181
    157    158    183    182
    158    159    184    183
    159    160    185    184
    160    161    186    185
    161    162    187    186
    162    163    188    187
    163    164    189    188
    164    165    190    189
    165    166    191    190
    166    167    192    191
    167    168    193    192
    168    169    194    193
    169    170    195    194
    170    171    196    195
    171    172    197    196
    172    173    198    197
    173    174    199    198
    174    150    175    199
    174    173    172    171    170    169    168    167    166    165    164    163    162    161    160    159    158    157    156    155    154    153    152    151    150
    175    176    177    178    179    180    181    182    183    184    185    186    187    188    189    190    191    192    193    194    195    196    197    198    199
    175    176    201    200
    176    177    202    201
    177    178    203    202
    178    179    204    203
    179    180    205    204
    180    181    206    205
    181    182    207    206
    182    183    208    207
    183    184    209    208
    184    185    210    209
    185    186    211    210
    186    187    212    211
    187    188    213    212
    188    189    214    213
    189    190    215    214
    190    191    216    215
    191    192    217    216
    192    193    218    217
    193    194    219    218
    194    195    220    219
    195    196    221    220
    196    197    222    221
    197    198    223    222
    198    199    224    223
    199    175    200    224
    199    198    197    196    195    194    193    192    191    190    189    188    187    186    185    184    183    182    181    180    179    178    177    176    175
    200    201    202    203    204    205    206    207    208    209    210    211    212    213    214    215    216    217    218    219    220    221    222    223    224
    200    201    226    225
    201    202    227    226
    202    203    228    227
    203    204    229    228
    204    205    230    229
    205    206    231    230
    206    207    232    231
    207    208    233    232
    208    209    234    233
    209    210    235    234
    210    211    236    235
    211    212    237    236
    212    213    238    237
    213    214    239    238
    214    215    240    239
    215    216    241    240
    216    217    242    241
    217    218    243    242
    218    219    244    243
    219    220    245    244
    220    221    246    245
    221    222    247    246
    222    223    248    247
    223    224    249    248
    224    200    225    249
    224    223    222    221    220    219    218    217    216    215    214    213    212    211    210    209    208    207    206    205    204    203    202    201    200
    225    226    227    228    229    230    231    232    233    234    235    236    237    238    239    240    241    242    243    244    245    246    247    248    249
    225    226    251    250
    226    227    252    251
    227    228    253    252
    228    229    254    253
    229    230    255    254
    230    231    256    255
    231    232    257    256
    232    233    258    257
    233    234    259    258
    234    235    260    259
    235    236    261    260
    236    237    262    261
    237    238    263    262
    238    239    264    263
    239    240    265    264
    240    241    266    265
    241    242    267    266
    242    243    268    267
    243    244    269    268
    244    245    270    269
    245    246    271    270
    246    247    272    271
    247    248    273    272
    248    249    274    273
    249    225    250    274
    249    248    247    246    245    244    243    242    241    240    239    238    237    236    235    234    233    232    231    230    229    228    227    226    225
    250    251    252    253    254    255    256    257    258    259    260    261    262    263    264    265    266    267    268    269    270    271    272    273    274
    250    251    276    275
    251    252    277    276
    252    253    278    277
    253    254    279    278
    254    255    280    279
    255    256    281    280
    256    257    282    281
    257    258    283    282
    258    259    284    283
    259    260    285    284
    260    261    286    285
    261    262    287    286
    262    263    288    287
    263    264    289    288
    264    265    290    289
    265    266    291    290
    266    267    292    291
    267    268    293    292
    268    269    294    293
    269    270    295    294
    270    271    296    295
    271    272    297    296
    272    273    298    297
    273    274    299    298
    274    250    275    299
    274    273    272    271    270    269    268    267    266    265    264    263    262    261    260    259    258    257    256    255    254    253    252    251    250
    275    276    277    278    279    280    281    282    283    284    285    286    287    288    289    290    291    292    293    294    295    296    297    298    299
    275    276    301    300
    276    277    302    301
    277    278    303    302
    278    279    304    303
    279    280    305    304
    280    281    306    305
    281    282    307    306
    282    283    308    307
    283    284    309    308
    284    285    310    309
    285    286    311    310
    286    287    312    311
    287    288    313    312
    288    289    314    313
    289    290    315    314
    290    291    316    315
    291    292    317    316
    292    293    318    317
    293    294    319    318
    294    295    320    319
    295    296    321    320
    296    297    322    321
    297    298    323    322
    298    299    324    323
    299    275    300    324
    299    298    297    296    295    294    293    292    291    290    289    288    287    286    285    284    283    282    281    280    279    278    277    276    275
    300    301    302    303    304    305    306    307    308    309    310    311    312    313    314    315    316    317    318    319    320    321    322    323    324
    300    301    326    325
    301    302    327    326
    302    303    328    327
    303    304    329    328
    304    305    330    329
    305    306    331    330
    306    307    332    331
    307    308    333    332
    308    309    334    333
    309    310    335    334
    310    311    336    335
    311    312    337    336
    312    313    338    337
    313    314    339    338
    314    315    340    339
    315    316    341    340
    316    317    342    341
    317    318    343    342
    318    319    344    343
    319    320    345    344
    320    321    346    345
    321    322    347    346
    322    323    348    347
    323    324    349    348
    324    300    325    349
    324    323    322    321    320    319    318    317    316    315    314    313    312    311    310    309    308    307    306    305    304    303    302    301    300
    325    326    327    328    329    330    331    332    333    334    335    336    337    338    339    340    341    342    343    344    345    346    347    348    349
    325    326    351    350
    326    327    352    351
    327    328    353    352
    328    329    354    353
    329    330    355    354
    330    331    356    355
    331    332    357    356
    332    333    358    357
    333    334    359    358
    334    335    360    359
    335    336    361    360
    336    337    362    361
    337    338    363    362
    338    339    364    363
    339    340    365    364
    340    341    366    365
    341    342    367    366
    342    343    368    367
    343    344    369    368
    344    345    370    369
    345    346    371    370
    346    347    372    371
    347    348    373    372
    348    349    374    373
    349    325    350    374
    349    348    347    346    345    344    343    342    341    340    339    338    337    336    335    334    333    332    331    330    329    328    327    326    325
    350    351    352    353    354    355    356    357    358    359    360    361    362    363    364    365    366    367    368    369    370    371    372    373    374
    350    351    376    375
    351    352    377    376
    352    353    378    377
    353    354    379    378
    354    355    380    379
    355    356    381    380
    356    357    382    381
    357    358    383    382
    358    359    384    383
    359    360    385    384
    360    361    386    385
    361    362    387    386
    362    363    388    387
    363    364    389    388
    364    365    390    389
    365    366    391    390
    366    367    392    391
    367    368    393    392
    368    369    394    393
    369    370    395    394
    370    371    396    395
    371    372    397    396
    372    373    398    397
    373    374    399    398
    374    350    375    399
    374    373    372    371    370    369    368    367    366    365    364    363    362    361    360    359    358    357    356    355    354    353    352    351    350
    375    376    377    378    379    380    381    382    383    384    385    386    387    388    389    390    391    392    393    394    395    396    397    398    399
    375    376    401    400
    376    377    402    401
    377    378    403    402
    378    379    404    403
    379    380    405    404
    380    381    406    405
    381    382    407    406
    382    383    408    407
    383    384    409    408
    384    385    410    409
    385    386    411    410
    386    387    412    411
    387    388    413    412
    388    389    414    413
    389    390    415    414
    390    391    416    415
    391    392    417    416
    392    393    418    417
    393    394    419    418
    394    395    420    419
    395    396    421    420
    396    397    422    421
    397    398    423    422
    398    399    424    423
    399    375    400    424
    399    398    397    396    395    394    393    392    391    390    389    388    387    386    385    384    383    382    381    380    379    378    377    376    375
    400    401    402    403    404    405    406    407    408    409    410    411    412    413    414    415    416    417    418    419    420    421    422    423    424
    400    401    426    425
    401    402    427    426
    402    403    428    427
    403    404    429    428
    404    405    430    429
    405    406    431    430
    406    407    432    431
    407    408    433    432
    408    409    434    433
    409    410    435    434
    410    411    436    435
    411    412    437    436
    412    413    438    437
    413    414    439    438
    414    415    440    439
    415    416    441    440
    416    417    442    441
    417    418    443    442
    418    419    444    443
    419    420    445    444
    420    421    446    445
    421    422    447    446
    422    423    448    447
    423    424    449    448
    424    400    425    449
    424    423    422    421    420    419    418    417    416    415    414    413    412    411    410    409    408    407    406    405    404    403    402    401    400
    425    426    427    428    429    430    431    432    433    434    435    436    437    438    439    440    441    442    443    444    445    446    447    448    449
    425    426    451    450
    426    427    452    451
    427    428    453    452
    428    429    454    453
    429    430    455    454
    430    431    456    455
    431    432    457    456
    432    433    458    457
    433    434    459    458
    434    435    460    459
    435    436    461    460
    436    437    462    461
    437    438    463    462
    438    439    464    463
    439    440    465    464
    440    441    466    465
    441    442    467    466
    442    443    468    467
    443    444    469    468
    444    445    470    469
    445    446    471    470
    446    447    472    471
    447    448    473    472
    448    449    474    473
    449    425    450    474
    449    448    447    446    445    444    443    442    441    440    439    438    437    436    435    434    433    432    431    430    429    428    427    426    425
    450    451    452    453    454    455    456    457    458    459    460    461    462    463    464    465    466    467    468    469    470    471    472    473    474
    450    451    476    475
    451    452    477    476
    452    453    478    477
    453    454    479    478
    454    455    480    479
    455    456    481    480
    456    457    482    481
    457    458    483    482
    458    459    484    483
    459    460    485    484
    460    461    486    485
    461    462    487    486
    462    463    488    487
    463    464    489    488
    464    465    490    489
    465    466    491    490
    466    467    492    491
    467    468    493    492
    468    469    494    493
    469    470    495    494
    470    471    496    495
    471    472    497    496
    472    473    498    497
    473    474    499    498
    474    450    475    499
    474    473    472    471    470    469    468    467    466    465    464    463    462    461    460    459    458    457    456    455    454    453    452    451    450
    475    476    477    478    479    480    481    482    483    484    485    486    487    488    489    490    491    492    493    494    495    496    497    498    499
    475    476    501    500
    476    477    502    501
    477    478    503    502
    478    479    504    503
    479    480    505    504
    480    481    506    505
    481    482    507    506
    482    483    508    507
    483    484    509    508
    484    485    510    509
    485    486    511    510
    486    487    512    511
    487    488    513    512
    488    489    514    513
    489    490    515    514
    490    491    516    515
    491    492    517    516
    492    493    518    517
    493    494    519    518
    494    495    520    519
    495    496    521    520
    496    497    522    521
    497    498    523    522
    498    499    524    523
    499    475    500    524
    499    498    497    496    495    494    493    492    491    490    489    488    487    486    485    484    483    482    481    480    479    478    477    476    475
    500    501    502    503    504    505    506    507    508    509    510    511    512    513    514    515    516    517    518    519    520    521    522    523    524
    525    526      1      0
    526    527      2      1
    527    528      3      2
    528    529      4      3
    529    530      5      4
    530    531      6      5
    531    532      7      6
    532    533      8      7
    533    534      9      8
    534    535     10      9
    535    536     11     10
    536    537     12     11
    537    538     13     12
    538    539     14     13
    539    540     15     14
    540    541     16     15
    541    542     17     16
    542    543     18     17
    543    544     19     18
    544    545     20     19
    545    546     21     20
    546    547     22     21
    547    548     23     22
    548    549     24     23
    549    525      0     24
    549    548    547    546    545    544    543    542    541    540    539    538    537    536    535    534    533    532    531    530    529    528    527    526    525
      0      1      2      3      4      5      6      7      8      9     10     11     12     13     14     15     16     17     18     19     20     21     22     23     24
        </DataArray>
        <DataArray type="Int32" Name="offsets" format="ascii">
      4
      8
     12
     16
     20
     24
     28
     32
     36
     40
     44
     48
     52
     56
     60
     64
     68
     72
     76
     80
     84
     88
     92
     96
    100
    125
    150
    154
    158
    162
    166
    170
    174
    178
    182
    186
    190
    194
    198
    202
    206
    210
    214
    218
    222
    226
    230
    234
    238
    242
    246
    250
    275
    300
    304
    308
    312
    316
    320
    324
    328
    332
    336
    340
    344
    348
    352
    356
    360
    364
    368
    372
    376
    380
    384
    388
    392
    396
    400
    425
    450
    454
    458
    462
    466
    470
    474
    478
    482
    486
    490
    494
    498
    502
    506
    510
    514
    518
    522
    526
    530
    534
    538
    542
    546
    550
    575
    600
    604
    608
    612
    616
    620
    624
    628
    632
    636
    640
    644
    648
    652
    656
    660
    664
    668
    672
    676
    680
    684
    688
    692
    696
    700
    725
    750
    754
    758
    762
    766
    770
    774
    778
    782
    786
    790
    794
    798
    802
    806
    810
    814
    818
    822
    826
    830
    834
    838
    842
    846
    850
    875
    900
    904
    908
    912
    916
    920
    924
    928
    932
    936
    940
    944
    948
    952
    956
    960
    964
    968
    972
    976
    980
    984
    988
    992
    996
   1000
   1025
   1050
   1054
   1058
   1062
   1066
   1070
   1074
   1078
   1082
   1086
   1090
   1094
   1098
   1102
   1106
   1110
   1114
   1118
   1122
   1126
   1130
   1134
   1138
   1142
   1146
   1150
   1175
   1200
   1204
   1208
   1212
   1216
   1220
   1224
   1228
   1232
   1236
   1240
   1244
   1248
   1252
   1256
   1260
   1264
   1268
   1272
   1276
   1280
   1284
   1288
   1292
   1296
   1300
   1325
   1350
   1354
   1358
   1362
   1366
   1370
   1374
   1378
   1382
   1386
   1390
   1394
   1398
   1402
   1406
   1410
   1414
   1418
   1422
   1426
   1430
   1434
   1438
   1442
   1446
   1450
   1475
   1500
   1504
   1508
   1512
   1516
   1520
   1524
   1528
   1532
   1536
   1540
   1544
   1548
   1552
   1556
   1560
   1564
   1568
   1572
   1576
   1580
   1584
   1588
   1592
   1596
   1600
   1625
   1650
   1654
   1658
   1662
   1666
   1670
   1674
   1678
   1682
   1686
   1690
   1694
   1698
   1702
   1706
   1710
   1714
   1718
   1722
   1726
   1730
   1734
   1738
   1742
   1746
   1750
   1775
   1800
   1804
   1808
   1812
   1816
   1820
   1824
   1828
   1832
   1836
   1840
   1844
   1848
   1852
   1856
   1860
   1864
   1868
   1872
   1876
   1880
   1884
   1888
   1892
   1896
   1900
   1925
   1950
   1954
   1958
   1962
   1966
   1970
   1974
   1978
   1982
   1986
   1990
   1994
   1998
   2002
   2006
   2010
   2014
   2018
   2022
   2026
   2030
   2034
   2038
   2042
   2046
   2050
   2075
   2100
   2104
   2108
   2112
   2116
   2120
   2124
   2128
   2132
   2136
   2140
   2144
   2148
   2152
   2156
   2160
   2164
   2168
   2172
   2176
   2180
   2184
   2188
   2192
   2196
   2200
   2225
   2250
   2254
   2258
   2262
   2266
   2270
   2274
   2278
   2282
   2286
   2290
   2294
   2298
   2302
   2306
   2310
   2314
   2318
   2322
   2326
   2330
   2334
   2338
   2342
   2346
   2350
   2375
   2400
   2404
   2408
   2412
   2416
   2420
   2424
   2428
   2432
   2436
   2440
   2444
   2448
   2452
   2456
   2460
   2464
   2468
   2472
   2476
   2480
   2484
   2488
   2492
   2496
   2500
   2525
   2550
   2554
   2558
   2562
   2566
   2570
   2574
   2578
   2582
   2586
   2590
   2594
   2598
   2602
   2606
   2610
   2614
   2618
   2622
   2626
   2630
   2634
   2638
   2642
   2646
   2650
   2675
   2700
   2704
   2708
   2712
   2716
   2720
   2724
   2728
   2732
   2736
   2740
   2744
   2748
   2752
   2756
   2760
   2764
   2768
   2772
   2776
   2780
   2784
   2788
   2792
   2796
   2800
   2825
   2850
   2854
   2858
   2862
   2866
   2870
   2874
   2878
   2882
   2886
   2890
   2894
   2898
   2902
   2906
   2910
   2914
   2918
   2922
   2926
   2930
   2934
   2938
   2942
   2946
   2950
   2975
   3000
   3004
   3008
   3012
   3016
   3020
   3024
   3028
   3032
   3036
   3040
   3044
   3048
   3052
   3056
   3060
   3064
   3068
   3072
   3076
   3080
   3084
   3088
   3092
   3096
   3100
   3125
   3150
        </DataArray>
      </Polys>
    </Piece>
  </PolyData>
</VTKFile>
