<?xml version="1.0"?>
<VTKFile type="PolyData" version="0.1" byte_order="LittleEndian">
  <PolyData>
    <Piece NumberOfPoints="     19" NumberOfVerts="  0" NumberOfLines="     18"
           NumberOfStrips="  0" NumberOfPolys="      0">
      <Points>
        <DataArray type="Float32" NumberOfComponents="3" format="ascii">
                      -4.33588                      -0.85723                      88.84017
                      -4.51177                      -1.61418                      87.71547
                      -4.88408                      -3.04850                      85.41540
                      -5.25802                      -4.44500                      83.08953
                      -5.71215                      -6.16795                      80.16381
                      -6.15828                      -8.35455                      76.71839
                      -6.52107                     -10.64806                      73.33399
                      -6.82262                     -12.94151                      69.94303
                      -7.05017                     -15.23551                      66.54634
                      -7.19482                     -17.52730                      63.14343
                      -7.24924                     -19.81241                      59.73320
                      -7.20496                     -22.09033                      56.31766
                      -7.05656                     -24.35899                      52.89843
                      -6.80062                     -26.61603                      49.47747
                      -6.43354                     -28.85830                      46.05705
                      -6.04116                     -30.71292                      43.20911
                      -5.67405                     -32.19294                      40.93795
                      -5.25458                     -33.70808                      38.70048
                      -5.03468                     -34.42702                      37.56061
        </DataArray>
      </Points>
      <PointData>
        <DataArray type="Float32" Name="TranslationalVelocity" NumberOfComponents="3" format="ascii">
                      -0.23012                       3.26116                      -2.16704
                      -0.43290                       6.23026                      -4.13363
                      -0.81874                      12.30301                      -7.85837
                      -1.19659                      18.43928                     -11.48255
                      -1.66645                      26.14750                     -15.95015
                      -2.26936                      35.19161                     -21.61377
                      -2.91274                      44.04476                     -27.54635
                      -3.57360                      52.88756                     -33.47020
                      -4.25867                      61.71417                     -39.38731
                      -4.97459                      70.52313                     -45.29142
                      -5.72805                      79.31467                     -51.17244
                      -6.52697                      88.08046                     -57.03089
                      -7.37877                      96.81353                     -62.86386
                      -8.29040                     105.50602                     -68.66808
                      -9.26793                     114.14839                     -74.43895
                     -10.13793                     121.30365                     -79.21870
                     -10.87169                     126.98258                     -83.03891
                     -11.65053                     132.54804                     -86.95612
                     -12.04380                     135.37704                     -88.81827
        </DataArray>
        <DataArray type="Float32" Name="RotationalVelocity" NumberOfComponents="3" format="ascii">
                       2.59849                       0.00005                      -0.26796
                       2.59801                       0.00019                      -0.26802
                       2.59666                       0.00069                      -0.26827
                       2.59492                       0.00139                      -0.26874
                       2.59240                       0.00252                      -0.26972
                       2.58911                       0.00430                      -0.27160
                       2.58577                       0.00672                      -0.27436
                       2.58250                       0.01007                      -0.27805
                       2.57934                       0.01470                      -0.28268
                       2.57630                       0.02097                      -0.28822
                       2.57331                       0.02917                      -0.29455
                       2.57030                       0.03952                      -0.30154
                       2.56719                       0.05207                      -0.30898
                       2.56392                       0.06668                      -0.31661
                       2.56046                       0.08295                      -0.32412
                       2.55745                       0.09729                      -0.33003
                       2.55500                       0.10888                      -0.33434
                       2.55257                       0.12016                      -0.33814
                       2.55138                       0.12553                      -0.33979
        </DataArray>
        <DataArray type="Float32" Name="TranslationalAcceleration" NumberOfComponents="3" format="ascii">
                       0.88517                       5.88225                       8.32252
                       1.05338                       7.06185                      10.09721
                       3.04149                      19.66188                      29.24714
                       4.87715                      30.93042                      47.05462
                       7.01805                      43.84428                      67.97505
                       9.38098                      59.20211                      91.21678
                      11.62361                      74.81264                     113.31110
                      13.86851                      90.33546                     135.27959
                      16.15783                     105.97436                     157.39141
                      18.51104                     121.77703                     179.73729
                      20.92734                     137.68443                     202.27510
                      23.38530                     153.60702                     224.85734
                      25.84917                     169.42774                     247.31194
                      28.27137                     185.04895                     269.49087
                      30.59555                     200.42873                     291.32228
                      32.40961                     213.09454                     309.28401
                      33.74973                     223.23958                     323.55676
                      34.93024                     233.75216                     337.68975
                      35.50650                     238.84728                     344.98873
        </DataArray>
        <DataArray type="Float32" Name="OrientationX" NumberOfComponents="3" format="ascii">
                       0.95033                       0.16769                      -0.26221
                       0.95045                       0.16826                      -0.26143
                       0.95081                       0.17014                      -0.25888
                       0.95130                       0.17298                      -0.25516
                       0.95201                       0.17774                      -0.24918
                       0.96151                       0.15924                      -0.22391
                       0.96797                       0.14991                      -0.20141
                       0.97312                       0.14502                      -0.17889
                       0.97785                       0.14142                      -0.15433
                       0.98188                       0.13966                      -0.12807
                       0.98479                       0.14121                      -0.10121
                       0.98669                       0.14509                      -0.07341
                       0.98726                       0.15235                      -0.04595
                       0.98617                       0.16443                      -0.02075
                       0.98423                       0.17683                       0.00380
                       0.98222                       0.18631                       0.02321
                       0.98047                       0.19315                       0.03714
                       0.97835                       0.20146                       0.04728
                       0.97712                       0.20663                       0.05034
        </DataArray>
        <DataArray type="Float32" Name="OrientationY" NumberOfComponents="3" format="ascii">
                       0.28348                      -0.81416                       0.50673
                       0.28352                      -0.81410                       0.50682
                       0.28371                      -0.81382                       0.50716
                       0.28408                      -0.81335                       0.50770
                       0.28482                      -0.81252                       0.50861
                       0.25573                      -0.81662                       0.51742
                       0.23574                      -0.81872                       0.52357
                       0.21938                      -0.82002                       0.52862
                       0.20294                      -0.82120                       0.53333
                       0.18706                      -0.82225                       0.53750
                       0.17360                      -0.82301                       0.54085
                       0.16156                      -0.82371                       0.54351
                       0.15257                      -0.82419                       0.54538
                       0.14890                      -0.82408                       0.54655
                       0.14595                      -0.82409                       0.54733
                       0.14341                      -0.82432                       0.54766
                       0.14168                      -0.82456                       0.54774
                       0.14325                      -0.82423                       0.54784
                       0.14595                      -0.82367                       0.54797
        </DataArray>
        <DataArray type="Float32" Name="OrientationZ" NumberOfComponents="3" format="ascii">
                      -0.12851                      -0.55589                      -0.82126
                      -0.12755                      -0.55582                      -0.82146
                      -0.12439                      -0.55566                      -0.82205
                      -0.11971                      -0.55546                      -0.82288
                      -0.11206                      -0.55518                      -0.82415
                      -0.10046                      -0.55477                      -0.82592
                      -0.08642                      -0.55428                      -0.82783
                      -0.07004                      -0.55366                      -0.82979
                      -0.05131                      -0.55284                      -0.83171
                      -0.03024                      -0.55172                      -0.83348
                      -0.00692                      -0.55019                      -0.83501
                       0.01839                      -0.54813                      -0.83619
                       0.04522                      -0.54544                      -0.83693
                       0.07277                      -0.54208                      -0.83717
                       0.09991                      -0.53815                      -0.83691
                       0.12117                      -0.53459                      -0.83638
                       0.13642                      -0.53178                      -0.83582
                       0.14934                      -0.52921                      -0.83524
                       0.15469                      -0.52809                      -0.83498
        </DataArray>
        <DataArray type="Float32" Name="Force" NumberOfComponents="3" format="ascii">
                     153.16824                     -55.97923                      13.92314
                     165.36062                    -112.85353                      50.70224
                     277.26850                    -312.60144                     169.52392
                     293.12705                    -446.19684                     259.03436
                    3311.16729                     931.72001                   -1079.66674
                    3576.14290                     757.88443                    -946.22547
                    3380.70049                     548.58412                    -722.25423
                    4487.33068                     652.37128                    -816.85586
                    5747.17078                     792.89383                    -885.35998
                    6663.86766                     881.19364                    -829.44875
                    9645.43086                    1300.48863                    -943.46433
                   11209.47303                    1561.08320                    -784.73039
                   11556.66038                    1676.00514                    -476.37251
                   11885.41844                    1822.81432                    -156.32630
                   12033.17745                    2006.48165                     135.72059
                   12127.05507                    2135.97503                     379.91510
                   11752.07527                    2145.34395                     541.18529
                    8129.05994                    1521.86441                     480.68880
                    7911.19143                    1492.39393                     513.43610
        </DataArray>
        <DataArray type="Float32" Name="Moment" NumberOfComponents="3" format="ascii">
                       0.00000                       0.00000                       0.00000
                       0.00000                       0.00000                       0.00000
                       0.00000                       0.00000                       0.00000
                       0.00000                       0.00000                       0.00000
                     142.17430                     706.14323                    1045.40655
                     248.75657                    1379.20973                    2044.83043
                     277.10805                    1787.39653                    2654.68388
                     349.95032                    2787.61273                    4148.71396
                     370.15218                    4030.27198                    6012.13710
                     246.15173                    4564.34580                    6826.69670
                      60.28327                    5069.23507                    7603.82817
                    -182.91772                    5391.82939                    8113.21073
                    -354.18699                    4278.05568                    6458.86262
                    -561.30765                    4206.46632                    6372.76457
                    -741.26180                    4030.96481                    6127.86788
                    -852.69730                    3808.60635                    5805.55780
                    -853.48754                    3375.02240                    5154.73343
                    -467.48791                    1683.56270                    2575.64367
                    -500.23259                    1736.90973                    2659.10846
        </DataArray>
      </PointData>
      <Lines>
        <DataArray type="Int32" Name="connectivity" format="ascii">
      0      1
      1      2
      2      3
      3      4
      4      5
      5      6
      6      7
      7      8
      8      9
      9     10
     10     11
     11     12
     12     13
     13     14
     14     15
     15     16
     16     17
     17     18
        </DataArray>
        <DataArray type="Int32" Name="offsets" format="ascii">
      2
      4
      6
      8
     10
     12
     14
     16
     18
     20
     22
     24
     26
     28
     30
     32
     34
     36
        </DataArray>
      </Lines>
    </Piece>
  </PolyData>
</VTKFile>
