<?xml version="1.0"?>
<VTKFile type="PolyData" version="0.1" byte_order="LittleEndian">
  <PolyData>
    <Piece NumberOfPoints="     19" NumberOfVerts="  0" NumberOfLines="     18"
           NumberOfStrips="  0" NumberOfPolys="      0">
      <Points>
        <DataArray type="Float32" NumberOfComponents="3" format="ascii">
                      -4.69124                       0.15256                      91.50950
                      -4.62658                       0.30283                      92.86665
                      -4.51733                       0.50929                      95.59294
                      -4.41462                       0.67145                      98.32511
                      -4.28443                       0.84816                     101.74387
                      -4.06295                       1.20354                     105.82722
                      -3.80290                       1.68922                     109.89389
                      -3.53184                       2.17858                     113.95983
                      -3.25279                       2.67345                     118.02515
                      -2.97445                       3.17213                     122.09067
                      -2.70839                       3.67142                     126.15747
                      -2.46615                       4.17350                     130.22573
                      -2.26248                       4.67951                     134.29559
                      -2.11381                       5.19108                     138.36672
                      -2.03560                       5.71011                     142.43823
                      -2.03921                       6.15056                     145.83039
                      -2.09182                       6.51690                     148.54171
                      -2.18721                       6.94391                     151.24442
                      -2.26413                       7.11972                     152.59953
        </DataArray>
      </Points>
      <PointData>
        <DataArray type="Float32" Name="TranslationalVelocity" NumberOfComponents="3" format="ascii">
                       0.03875                      -4.22272                       0.47068
                       0.07595                      -8.08421                       0.89647
                       0.12713                     -15.83998                       1.48171
                       0.16844                     -23.61664                       1.94144
                       0.21624                     -33.35762                       2.44225
                       0.31671                     -45.02397                       3.45040
                       0.46028                     -56.66924                       4.83009
                       0.61777                     -68.33140                       6.22147
                       0.79368                     -80.00901                       7.62947
                       0.99167                     -91.70088                       9.04892
                       1.21480                    -103.40554                      10.47050
                       1.46697                    -115.11902                      11.90055
                       1.75093                    -126.83653                      13.34286
                       2.06842                    -138.55193                      14.80319
                       2.41974                    -150.25816                      16.28848
                       2.73811                    -159.99977                      17.55342
                       3.00932                    -167.77762                      18.60943
                       3.30541                    -175.52412                      19.84380
                       3.44760                    -179.40260                      20.35538
        </DataArray>
        <DataArray type="Float32" Name="RotationalVelocity" NumberOfComponents="3" format="ascii">
                       2.83224                      -0.00132                      -0.25986
                       2.83290                      -0.00118                      -0.25990
                       2.83466                      -0.00076                      -0.26003
                       2.83686                      -0.00012                      -0.26020
                       2.83999                       0.00099                      -0.26044
                       2.84398                       0.00289                      -0.26071
                       2.84793                       0.00553                      -0.26084
                       2.85166                       0.00903                      -0.26073
                       2.85509                       0.01350                      -0.26028
                       2.85820                       0.01902                      -0.25943
                       2.86102                       0.02556                      -0.25815
                       2.86361                       0.03301                      -0.25648
                       2.86600                       0.04111                      -0.25454
                       2.86824                       0.04947                      -0.25254
                       2.87030                       0.05750                      -0.25082
                       2.87181                       0.06340                      -0.24988
                       2.87282                       0.06717                      -0.24972
                       2.87356                       0.06970                      -0.25031
                       2.87379                       0.07038                      -0.25095
        </DataArray>
        <DataArray type="Float32" Name="TranslationalAcceleration" NumberOfComponents="3" format="ascii">
                      -1.12509                      -1.34675                     -11.98560
                      -1.33980                      -1.63502                     -14.50966
                      -3.84081                      -3.92252                     -41.62777
                      -6.14955                      -5.61176                     -66.64731
                      -8.86316                      -7.29108                     -95.95254
                     -11.96628                     -10.28067                    -129.24286
                     -15.00691                     -14.25957                    -161.64526
                     -18.05489                     -18.28287                    -194.03782
                     -21.13043                     -22.40680                    -226.81754
                     -24.22412                     -26.62694                    -260.10818
                     -27.30558                     -30.90473                    -293.83470
                     -30.33204                     -35.23398                    -327.79584
                     -33.25790                     -39.59840                    -361.74846
                     -36.04371                     -43.99429                    -395.48496
                     -38.66555                     -48.43757                    -428.91405
                     -40.72202                     -52.21542                    -456.59978
                     -42.29712                     -55.38213                    -478.75355
                     -43.82595                     -59.10617                    -501.06317
                     -44.58473                     -60.69101                    -512.40311
        </DataArray>
        <DataArray type="Float32" Name="OrientationX" NumberOfComponents="3" format="ascii">
                       0.97438                      -0.22392                      -0.02103
                       0.97436                      -0.22397                      -0.02135
                       0.97426                      -0.22432                      -0.02239
                       0.97408                      -0.22495                      -0.02391
                       0.97374                      -0.22612                      -0.02634
                       0.97977                      -0.19727                      -0.03357
                       0.98322                      -0.17809                      -0.03957
                       0.98558                      -0.16333                      -0.04431
                       0.98760                      -0.14963                      -0.04746
                       0.98925                      -0.13804                      -0.04817
                       0.99037                      -0.13076                      -0.04547
                       0.99114                      -0.12702                      -0.03890
                       0.99132                      -0.12849                      -0.02786
                       0.99047                      -0.13722                      -0.01190
                       0.98893                      -0.14812                       0.00825
                       0.98711                      -0.15764                       0.02775
                       0.98520                      -0.16540                       0.04489
                       0.98238                      -0.17582                       0.06335
                       0.98048                      -0.18255                       0.07299
        </DataArray>
        <DataArray type="Float32" Name="OrientationY" NumberOfComponents="3" format="ascii">
                       0.21988                       0.96810                      -0.12010
                       0.21989                       0.96809                      -0.12020
                       0.22011                       0.96800                      -0.12052
                       0.22054                       0.96784                      -0.12100
                       0.22139                       0.96755                      -0.12178
                       0.19189                       0.97382                      -0.12187
                       0.17214                       0.97748                      -0.12206
                       0.15692                       0.98003                      -0.12217
                       0.14294                       0.98218                      -0.12203
                       0.13136                       0.98384                      -0.12170
                       0.12445                       0.98478                      -0.12134
                       0.12151                       0.98519                      -0.12096
                       0.12426                       0.98489                      -0.12066
                       0.13482                       0.98353                      -0.12040
                       0.14804                       0.98168                      -0.11992
                       0.15984                       0.97991                      -0.11930
                       0.16966                       0.97834                      -0.11862
                       0.18230                       0.97619                      -0.11755
                       0.19018                       0.97478                      -0.11677
        </DataArray>
        <DataArray type="Float32" Name="OrientationZ" NumberOfComponents="3" format="ascii">
                       0.04725                       0.11240                       0.99254
                       0.04759                       0.11242                       0.99252
                       0.04871                       0.11249                       0.99246
                       0.05036                       0.11259                       0.99236
                       0.05303                       0.11275                       0.99221
                       0.05674                       0.11296                       0.99198
                       0.06042                       0.11320                       0.99173
                       0.06338                       0.11345                       0.99152
                       0.06488                       0.11373                       0.99139
                       0.06419                       0.11407                       0.99140
                       0.06064                       0.11451                       0.99157
                       0.05369                       0.11516                       0.99189
                       0.04294                       0.11615                       0.99230
                       0.02823                       0.11765                       0.99265
                       0.00966                       0.11982                       0.99275
                      -0.00839                       0.12220                       0.99247
                      -0.02430                       0.12448                       0.99192
                      -0.04117                       0.12703                       0.99104
                      -0.04983                       0.12837                       0.99047
        </DataArray>
        <DataArray type="Float32" Name="Force" NumberOfComponents="3" format="ascii">
                     165.18591                      57.36401                     -14.36055
                     188.07928                     125.97169                     -23.28564
                     281.49360                     370.02551                     -55.72568
                     284.05104                     556.55856                     -77.46398
                    3581.19981                   -1246.51859                     -50.14744
                    3770.39959                    -940.79999                    -109.01321
                    3518.29507                    -644.05765                    -141.31478
                    4710.74414                    -728.75859                    -218.45312
                    6010.07896                    -821.66968                    -300.08263
                    6426.23596                    -737.03940                    -332.43768
                    8813.31471                    -893.52971                    -437.64692
                    8603.39537                    -733.64062                    -382.51402
                    5689.87767                    -356.06280                    -205.91052
                    1824.78167                      67.52214                     -59.54819
                    -315.16045                     246.76317                     -24.76796
                   -4854.68589                     543.57641                    -101.84099
                   -8564.83516                     728.20287                    -290.56072
                   -9807.46144                     685.42024                    -482.33126
                  -12403.20249                     795.22502                    -710.15649
        </DataArray>
        <DataArray type="Float32" Name="Moment" NumberOfComponents="3" format="ascii">
                       0.00000                       0.00000                       0.00000
                       0.00000                       0.00000                       0.00000
                       0.00000                       0.00000                       0.00000
                       0.00000                       0.00000                       0.00000
                     -82.98276                    -175.93972                   -1552.73524
                    -162.82048                    -322.67082                   -2846.71506
                    -226.89657                    -422.29449                   -3724.35975
                    -374.09066                    -663.78509                   -5852.54312
                    -553.53928                    -959.53591                   -8458.98075
                    -619.94274                   -1086.15321                   -9575.81182
                    -652.54410                   -1209.93627                  -10670.61666
                    -611.89449                   -1281.09854                  -11305.47915
                    -368.51073                    -964.03924                   -8515.94398
                    -232.76739                    -924.93976                   -8181.66891
                     -76.18523                    -879.53864                   -7793.42334
                      60.56636                    -816.01696                   -7242.64603
                     155.46545                    -718.00101                   -6382.09581
                     131.01545                    -356.07433                   -3169.99875
                     163.11261                    -365.70281                   -3258.34481
        </DataArray>
      </PointData>
      <Lines>
        <DataArray type="Int32" Name="connectivity" format="ascii">
      0      1
      1      2
      2      3
      3      4
      4      5
      5      6
      6      7
      7      8
      8      9
      9     10
     10     11
     11     12
     12     13
     13     14
     14     15
     15     16
     16     17
     17     18
        </DataArray>
        <DataArray type="Int32" Name="offsets" format="ascii">
      2
      4
      6
      8
     10
     12
     14
     16
     18
     20
     22
     24
     26
     28
     30
     32
     34
     36
        </DataArray>
      </Lines>
    </Piece>
  </PolyData>
</VTKFile>
