<?xml version="1.0"?>
<VTKFile type="PolyData" version="0.1" byte_order="LittleEndian">
  <PolyData>
    <Piece NumberOfPoints="    550" NumberOfVerts="  0" NumberOfLines="     21"
           NumberOfStrips="  0" NumberOfPolys="    567">
      <Points>
        <DataArray type="Float32" NumberOfComponents="3" format="ascii">
                       2.97344                      -0.00001                       2.18983
                       2.88002                       0.73944                       2.18984
                       2.60565                       1.43243                       2.18986
                       2.16756                       2.03541                       2.18989
                       1.59328                       2.51049                       2.18993
                       0.91889                       2.82784                       2.18997
                       0.18676                       2.96750                       2.19001
                      -0.55709                       2.92070                       2.19006
                      -1.26594                       2.69038                       2.19010
                      -1.89524                       2.29102                       2.19013
                      -2.40545                       1.74770                       2.19016
                      -2.76451                       1.09456                       2.19017
                      -2.94987                       0.37265                       2.19018
                      -2.94987                      -0.37267                       2.19017
                      -2.76451                      -1.09458                       2.19015
                      -2.40545                      -1.74772                       2.19013
                      -1.89524                      -2.29103                       2.19009
                      -1.26594                      -2.69040                       2.19005
                      -0.55709                      -2.92072                       2.19001
                       0.18676                      -2.96752                       2.18996
                       0.91889                      -2.82786                       2.18992
                       1.59328                      -2.51051                       2.18989
                       2.16756                      -2.03542                       2.18986
                       2.60565                      -1.43244                       2.18984
                       2.88002                      -0.73946                       2.18983
                       2.92074                      -0.00008                       6.56941
                       2.82900                       0.72613                       6.56945
                       2.55954                       1.40670                       6.56952
                       2.12930                       1.99888                       6.56962
                       1.56530                       2.46546                       6.56974
                       0.90299                       2.77713                       6.56988
                       0.18398                       2.91428                       6.57003
                      -0.54656                       2.86832                       6.57018
                      -1.24271                       2.64213                       6.57031
                      -1.86074                       2.24992                       6.57043
                      -2.36181                       1.71633                       6.57051
                      -2.71444                       1.07489                       6.57057
                      -2.89648                       0.36591                       6.57059
                      -2.89648                      -0.36607                       6.57057
                      -2.71444                      -1.07505                       6.57052
                      -2.36181                      -1.71649                       6.57043
                      -1.86074                      -2.25007                       6.57032
                      -1.24271                      -2.64229                       6.57019
                      -0.54656                      -2.86848                       6.57004
                       0.18398                      -2.91444                       6.56990
                       0.90299                      -2.77728                       6.56975
                       1.56530                      -2.46562                       6.56963
                       2.12930                      -1.99904                       6.56953
                       2.55954                      -1.40686                       6.56945
                       2.82900                      -0.72628                       6.56942
                       2.86872                      -0.00021                      10.94896
                       2.77865                       0.71275                      10.94902
                       2.51411                       1.38092                      10.94914
                       2.09171                       1.96230                      10.94931
                       1.53800                       2.42037                      10.94953
                       0.88776                       2.72635                      10.94978
                       0.18186                       2.86101                      10.95004
                      -0.53535                       2.81589                      10.95030
                      -1.21881                       2.59382                      10.95053
                      -1.82557                       2.20876                      10.95074
                      -2.31750                       1.68490                      10.95090
                      -2.66371                       1.05516                      10.95100
                      -2.84242                       0.35911                      10.95104
                      -2.84242                      -0.35952                      10.95102
                      -2.66371                      -1.05558                      10.95093
                      -2.31750                      -1.68532                      10.95078
                      -1.82557                      -2.20917                      10.95058
                      -1.21881                      -2.59424                      10.95035
                      -0.53535                      -2.81630                      10.95009
                       0.18186                      -2.86143                      10.94983
                       0.88776                      -2.72677                      10.94958
                       1.53799                      -2.42079                      10.94936
                       2.09171                      -1.96272                      10.94917
                       2.51411                      -1.38134                      10.94904
                       2.77865                      -0.71317                      10.94897
                       2.81742                      -0.00039                      15.32851
                       2.72903                       0.69933                      15.32859
                       2.46939                       1.35508                      15.32876
                       2.05484                       1.92566                      15.32901
                       1.51141                       2.37523                      15.32932
                       0.87325                       2.67552                      15.32967
                       0.18046                       2.80768                      15.33004
                      -0.52343                       2.76339                      15.33041
                      -1.19419                       2.54545                      15.33075
                      -1.78968                       2.16754                      15.33105
                      -2.27247                       1.65341                      15.33128
                      -2.61225                       1.03537                      15.33143
                      -2.78764                       0.35225                      15.33149
                      -2.78764                      -0.35303                      15.33146
                      -2.61225                      -1.03616                      15.33133
                      -2.27247                      -1.65420                      15.33112
                      -1.78968                      -2.16833                      15.33084
                      -1.19419                      -2.54624                      15.33051
                      -0.52343                      -2.76418                      15.33014
                       0.18046                      -2.80847                      15.32977
                       0.87325                      -2.67631                      15.32941
                       1.51141                      -2.37602                      15.32909
                       2.05484                      -1.92645                      15.32882
                       2.46939                      -1.35587                      15.32863
                       2.72903                      -0.70011                      15.32853
                       2.76685                      -0.00063                      19.70809
                       2.68012                       0.68585                      19.70819
                       2.42541                       1.32919                      19.70840
                       2.01870                       1.88898                      19.70872
                       1.48555                       2.33003                      19.70911
                       0.85947                       2.62464                      19.70957
                       0.17980                       2.75430                      19.71004
                      -0.51077                       2.71085                      19.71052
                      -1.16884                       2.49703                      19.71096
                      -1.75306                       2.12627                      19.71134
                      -2.22672                       1.62188                      19.71164
                      -2.56006                       1.01553                      19.71184
                      -2.73214                       0.34534                      19.71192
                      -2.73214                      -0.34660                      19.71187
                      -2.56006                      -1.01679                      19.71171
                      -2.22672                      -1.62314                      19.71145
                      -1.75306                      -2.12754                      19.71109
                      -1.16884                      -2.49829                      19.71066
                      -0.51077                      -2.71211                      19.71019
                       0.17980                      -2.75556                      19.70971
                       0.85947                      -2.62590                      19.70925
                       1.48555                      -2.33129                      19.70883
                       2.01870                      -1.89024                      19.70849
                       2.42541                      -1.33045                      19.70824
                       2.68012                      -0.68711                      19.70811
                       2.71697                      -0.00092                      24.08770
                       2.63193                       0.67231                      24.08782
                       2.38212                       1.30325                      24.08808
                       1.98326                       1.85223                      24.08845
                       1.46040                       2.28478                      24.08893
                       0.84640                       2.57371                      24.08947
                       0.17983                       2.70086                      24.09005
                      -0.49741                       2.65825                      24.09062
                      -1.14279                       2.44856                      24.09115
                      -1.71573                       2.08495                      24.09161
                      -2.18026                       1.59029                      24.09197
                      -2.50717                       0.99564                      24.09221
                      -2.67593                       0.33837                      24.09230
                      -2.67593                      -0.34021                      24.09226
                      -2.50717                      -0.99748                      24.09206
                      -2.18026                      -1.59213                      24.09174
                      -1.71573                      -2.08680                      24.09131
                      -1.14279                      -2.45040                      24.09080
                      -0.49741                      -2.66010                      24.09024
                       0.17983                      -2.70270                      24.08966
                       0.84640                      -2.57555                      24.08910
                       1.46040                      -2.28662                      24.08860
                       1.98326                      -1.85408                      24.08819
                       2.38212                      -1.30509                      24.08789
                       2.63193                      -0.67416                      24.08772
                       2.66778                      -0.00126                      28.46734
                       2.58440                       0.65873                      28.46748
                       2.33951                       1.27725                      28.46778
                       1.94849                       1.81544                      28.46822
                       1.43592                       2.23948                      28.46876
                       0.83400                       2.52272                      28.46939
                       0.18054                       2.64737                      28.47005
                      -0.48338                       2.60560                      28.47071
                      -1.11606                       2.40003                      28.47133
                      -1.67774                       2.04358                      28.47186
                      -2.13313                       1.55864                      28.47227
                      -2.45361                       0.97569                      28.47254
                      -2.61904                       0.33135                      28.47265
                      -2.61904                      -0.33388                      28.47260
                      -2.45361                      -0.97822                      28.47238
                      -2.13313                      -1.56117                      28.47201
                      -1.67774                      -2.04611                      28.47151
                      -1.11606                      -2.40256                      28.47092
                      -0.48338                      -2.60813                      28.47027
                       0.18054                      -2.64990                      28.46960
                       0.83400                      -2.52525                      28.46896
                       1.43592                      -2.24200                      28.46838
                       1.94849                      -1.81797                      28.46791
                       2.33951                      -1.27978                      28.46756
                       2.58440                      -0.66126                      28.46737
                       2.61922                      -0.00166                      32.84702
                       2.53752                       0.64509                      32.84718
                       2.29754                       1.25120                      32.84751
                       1.91437                       1.77859                      32.84800
                       1.41208                       2.19412                      32.84862
                       0.82223                       2.47168                      32.84932
                       0.18189                       2.59383                      32.85006
                      -0.46871                       2.55290                      32.85080
                      -1.08870                       2.35145                      32.85149
                      -1.63910                       2.00215                      32.85208
                      -2.08535                       1.52695                      32.85255
                      -2.39940                       0.95569                      32.85285
                      -2.56152                       0.32428                      32.85297
                      -2.56152                      -0.32761                      32.85291
                      -2.39940                      -0.95902                      32.85266
                      -2.08535                      -1.53027                      32.85225
                      -1.63910                      -2.00548                      32.85169
                      -1.08870                      -2.35478                      32.85103
                      -0.46871                      -2.55622                      32.85030
                       0.18189                      -2.59716                      32.84955
                       0.82223                      -2.47500                      32.84883
                       1.41208                      -2.19744                      32.84819
                       1.91437                      -1.78191                      32.84765
                       2.29754                      -1.25452                      32.84727
                       2.53752                      -0.64841                      32.84705
                       2.57128                      -0.00212                      37.22672
                       2.49125                       0.63138                      37.22690
                       2.25619                       1.22508                      37.22726
                       1.88086                       1.74167                      37.22780
                       1.38886                       2.14870                      37.22848
                       0.81109                       2.42057                      37.22925
                       0.18386                       2.54022                      37.23007
                      -0.45342                       2.50013                      37.23088
                      -1.06071                       2.30281                      37.23164
                      -1.59985                       1.96066                      37.23229
                      -2.03696                       1.49519                      37.23280
                      -2.34458                       0.93563                      37.23313
                      -2.50338                       0.31715                      37.23327
                      -2.50338                      -0.32139                      37.23319
                      -2.34458                      -0.93987                      37.23292
                      -2.03696                      -1.49943                      37.23246
                      -1.59985                      -1.96491                      37.23185
                      -1.06071                      -2.30706                      37.23112
                      -0.45342                      -2.50438                      37.23032
                       0.18386                      -2.54447                      37.22950
                       0.81109                      -2.42482                      37.22871
                       1.38886                      -2.15294                      37.22800
                       1.88086                      -1.74592                      37.22741
                       2.25619                      -1.22933                      37.22699
                       2.49125                      -0.63563                      37.22675
                       2.52395                      -0.00265                      41.60644
                       2.44559                       0.61762                      41.60663
                       2.21544                       1.19891                      41.60703
                       1.84797                       1.70470                      41.60762
                       1.36625                       2.10321                      41.60835
                       0.80055                       2.36941                      41.60919
                       0.18644                       2.48656                      41.61008
                      -0.43752                       2.44730                      41.61096
                      -1.03212                       2.25410                      41.61178
                      -1.55999                       1.91911                      41.61249
                      -1.98796                       1.46336                      41.61304
                      -2.28915                       0.91550                      41.61340
                      -2.44463                       0.30995                      41.61354
                      -2.44463                      -0.31524                      41.61346
                      -2.28915                      -0.92080                      41.61317
                      -1.98796                      -1.46866                      41.61267
                      -1.55999                      -1.92440                      41.61200
                      -1.03212                      -2.25940                      41.61121
                      -0.43752                      -2.45259                      41.61034
                       0.18644                      -2.49185                      41.60945
                       0.80055                      -2.37470                      41.60859
                       1.36624                      -2.10851                      41.60782
                       1.84796                      -1.70999                      41.60718
                       2.21544                      -1.20420                      41.60673
                       2.44559                      -0.62291                      41.60647
                       2.47724                      -0.00324                      45.98616
                       2.40055                       0.60378                      45.98637
                       2.17532                       1.17266                      45.98680
                       1.81568                       1.66766                      45.98744
                       1.34425                       2.05766                      45.98823
                       0.79064                       2.31817                      45.98913
                       0.18963                       2.43282                      45.99009
                      -0.42101                       2.39440                      45.99104
                      -1.00291                       2.20533                      45.99192
                      -1.51950                       1.87749                      45.99268
                      -1.93834                       1.43147                      45.99327
                      -2.23310                       0.89531                      45.99366
                      -2.38526                       0.30269                      45.99381
                      -2.38526                      -0.30916                      45.99373
                      -2.23310                      -0.90178                      45.99340
                      -1.93834                      -1.43795                      45.99286
                      -1.51950                      -1.88396                      45.99215
                      -1.00291                      -2.21181                      45.99129
                      -0.42101                      -2.40088                      45.99035
                       0.18963                      -2.43930                      45.98939
                       0.79064                      -2.32465                      45.98847
                       1.34425                      -2.06414                      45.98764
                       1.81568                      -1.67413                      45.98696
                       2.17532                      -1.17914                      45.98647
                       2.40055                      -0.61026                      45.98620
                       2.43116                      -0.00390                      50.36589
                       2.35615                       0.58988                      50.36611
                       2.13583                       1.14635                      50.36657
                       1.78404                       1.63054                      50.36725
                       1.32289                       2.01204                      50.36810
                       0.78136                       2.26687                      50.36907
                       0.19346                       2.37902                      50.37010
                      -0.40386                       2.34144                      50.37111
                      -0.97306                       2.15649                      50.37206
                      -1.47839                       1.83580                      50.37287
                      -1.88809                       1.39951                      50.37351
                      -2.17641                       0.87505                      50.37392
                      -2.32525                       0.29535                      50.37408
                      -2.32525                      -0.30315                      50.37398
                      -2.17641                      -0.88284                      50.37364
                      -1.88809                      -1.40731                      50.37306
                      -1.47839                      -1.84359                      50.37229
                      -0.97306                      -2.16429                      50.37137
                      -0.40386                      -2.34923                      50.37037
                       0.19346                      -2.38681                      50.36934
                       0.78136                      -2.27466                      50.36835
                       1.32289                      -2.01984                      50.36746
                       1.78404                      -1.63834                      50.36673
                       2.13583                      -1.15414                      50.36621
                       2.35615                      -0.59768                      50.36592
                       2.38575                      -0.00463                      54.74561
                       2.31241                       0.57591                      54.74585
                       2.09700                       1.11997                      54.74634
                       1.75306                       1.59336                      54.74707
                       1.30220                       1.96635                      54.74798
                       0.77274                       2.21549                      54.74901
                       0.19796                       2.32514                      54.75010
                      -0.38604                       2.28840                      54.75119
                      -0.94255                       2.10758                      54.75219
                      -1.43660                       1.79404                      54.75306
                      -1.83717                       1.36748                      54.75373
                      -2.11906                       0.85471                      54.75417
                      -2.26458                       0.28795                      54.75434
                      -2.26458                      -0.29720                      54.75424
                      -2.11906                      -0.86397                      54.75387
                      -1.83717                      -1.37674                      54.75325
                      -1.43661                      -1.80330                      54.75243
                      -0.94255                      -2.11683                      54.75145
                      -0.38604                      -2.29766                      54.75038
                       0.19795                      -2.33440                      54.74929
                       0.77274                      -2.22475                      54.74823
                       1.30220                      -1.97561                      54.74729
                       1.75306                      -1.60262                      54.74651
                       2.09700                      -1.12922                      54.74595
                       2.31241                      -0.58516                      54.74564
                       2.34103                      -0.00543                      59.12534
                       2.26936                       0.56186                      59.12559
                       2.05887                       1.09351                      59.12612
                       1.72277                       1.55611                      59.12689
                       1.28219                       1.92059                      59.12785
                       0.76481                       2.16405                      59.12895
                       0.20314                       2.27119                      59.13010
                      -0.36753                       2.23529                      59.13125
                      -0.91135                       2.05859                      59.13232
                      -1.39413                       1.75221                      59.13324
                      -1.78556                       1.33538                      59.13396
                      -2.06102                       0.83431                      59.13442
                      -2.20323                       0.28047                      59.13460
                      -2.20323                      -0.29133                      59.13449
                      -2.06103                      -0.84517                      59.13410
                      -1.78556                      -1.34624                      59.13344
                      -1.39413                      -1.76307                      59.13257
                      -0.91135                      -2.06945                      59.13153
                      -0.36753                      -2.24615                      59.13040
                       0.20314                      -2.28205                      59.12923
                       0.76481                      -2.17491                      59.12812
                       1.28219                      -1.93145                      59.12711
                       1.72277                      -1.56697                      59.12629
                       2.05887                      -1.10437                      59.12570
                       2.26936                      -0.57272                      59.12537
                       2.29700                      -0.00630                      63.50508
                       2.22701                       0.54775                      63.50535
                       2.02143                       1.06698                      63.50590
                       1.69318                       1.51878                      63.50672
                       1.26289                       1.87475                      63.50773
                       0.75758                       2.11253                      63.50888
                       0.20902                       2.21717                      63.51010
                      -0.34833                       2.18211                      63.51131
                      -0.87945                       2.00954                      63.51244
                      -1.35096                       1.71030                      63.51341
                      -1.73325                       1.30321                      63.51416
                      -2.00229                       0.81383                      63.51465
                      -2.14117                       0.27292                      63.51484
                      -2.14117                      -0.28553                      63.51472
                      -2.00229                      -0.82644                      63.51431
                      -1.73325                      -1.31582                      63.51362
                      -1.35096                      -1.72291                      63.51270
                      -0.87945                      -2.02215                      63.51160
                      -0.34833                      -2.19472                      63.51041
                       0.20902                      -2.22978                      63.50918
                       0.75758                      -2.12514                      63.50801
                       1.26289                      -1.88736                      63.50695
                       1.69318                      -1.53139                      63.50608
                       2.02143                      -1.07959                      63.50546
                       2.22701                      -0.56035                      63.50512
                       2.25366                      -0.00724                      67.88486
                       2.18534                       0.53356                      67.88514
                       1.98467                       1.04039                      67.88572
                       1.66427                       1.48139                      67.88657
                       1.24426                       1.82885                      67.88763
                       0.75103                       2.06095                      67.88883
                       0.21558                       2.16309                      67.89010
                      -0.32845                       2.12886                      67.89136
                      -0.84687                       1.96042                      67.89253
                      -1.30712                       1.66833                      67.89354
                      -1.68027                       1.27097                      67.89433
                      -1.94287                       0.79329                      67.89483
                      -2.07843                       0.26531                      67.89503
                      -2.07843                      -0.27980                      67.89491
                      -1.94287                      -0.80778                      67.89448
                      -1.68027                      -1.28546                      67.89376
                      -1.30712                      -1.68282                      67.89280
                      -0.84687                      -1.97490                      67.89166
                      -0.32845                      -2.14335                      67.89041
                       0.21558                      -2.17758                      67.88914
                       0.75103                      -2.07543                      67.88791
                       1.24426                      -1.84334                      67.88681
                       1.66427                      -1.49588                      67.88591
                       1.98467                      -1.05488                      67.88526
                       2.18534                      -0.54805                      67.88490
                       2.21091                      -0.00824                      72.26471
                       2.14426                       0.51932                      72.26500
                       1.94851                       1.01374                      72.26560
                       1.63595                       1.44394                      72.26647
                       1.22623                       1.78289                      72.26755
                       0.74508                       2.00930                      72.26879
                       0.22274                       2.10894                      72.27010
                      -0.30797                       2.07555                      72.27139
                      -0.81370                       1.91123                      72.27260
                      -1.26267                       1.62630                      72.27363
                      -1.62668                       1.23867                      72.27443
                      -1.88286                       0.77268                      72.27495
                      -2.01510                       0.25763                      72.27516
                      -2.01510                      -0.27412                      72.27503
                      -1.88286                      -0.78918                      72.27459
                      -1.62668                      -1.25516                      72.27385
                      -1.26267                      -1.64279                      72.27286
                      -0.81370                      -1.92772                      72.27169
                      -0.30797                      -2.09204                      72.27041
                       0.22274                      -2.12543                      72.26910
                       0.74508                      -2.02579                      72.26784
                       1.22622                      -1.79938                      72.26671
                       1.63595                      -1.46043                      72.26579
                       1.94851                      -1.03022                      72.26512
                       2.14426                      -0.53581                      72.26475
                       2.16861                      -0.00930                      76.64467
                       2.10363                       0.50502                      76.64496
                       1.91279                       0.98703                      76.64557
                       1.60808                       1.40643                      76.64644
                       1.20864                       1.73687                      76.64754
                       0.73957                       1.95760                      76.64878
                       0.23035                       2.05474                      76.65009
                      -0.28704                       2.02219                      76.65139
                      -0.78007                       1.86199                      76.65260
                      -1.21778                       1.58422                      76.65364
                      -1.57266                       1.20631                      76.65445
                      -1.82240                       0.75203                      76.65497
                      -1.95132                       0.24990                      76.65517
                      -1.95132                      -0.26851                      76.65505
                      -1.82240                      -0.77063                      76.65459
                      -1.57266                      -1.22492                      76.65385
                      -1.21778                      -1.60282                      76.65286
                      -0.78008                      -1.88060                      76.65168
                      -0.28704                      -2.04079                      76.65039
                       0.23035                      -2.07335                      76.64907
                       0.73957                      -1.97621                      76.64781
                       1.20864                      -1.75548                      76.64667
                       1.60808                      -1.42503                      76.64574
                       1.91279                      -1.00563                      76.64507
                       2.10363                      -0.52362                      76.64471
                       2.12649                      -0.01040                      81.02478
                       2.06319                       0.49067                      81.02507
                       1.87727                       0.96027                      81.02567
                       1.58040                       1.36887                      81.02652
                       1.19125                       1.69081                      81.02759
                       0.73425                       1.90586                      81.02881
                       0.23814                       2.00049                      81.03009
                      -0.26592                       1.96878                      81.03136
                      -0.74626                       1.81271                      81.03254
                      -1.17270                       1.54208                      81.03355
                      -1.51844                       1.17391                      81.03434
                      -1.76175                       0.73132                      81.03484
                      -1.88736                       0.24212                      81.03503
                      -1.88736                      -0.26294                      81.03490
                      -1.76175                      -0.75213                      81.03446
                      -1.51844                      -1.19472                      81.03373
                      -1.17270                      -1.56289                      81.03276
                      -0.74626                      -1.83352                      81.03161
                      -0.26592                      -1.98959                      81.03035
                       0.23814                      -2.02130                      81.02906
                       0.73425                      -1.92666                      81.02783
                       1.19124                      -1.71162                      81.02672
                       1.58040                      -1.38968                      81.02582
                       1.87727                      -0.98108                      81.02517
                       2.06319                      -0.51148                      81.02482
                       2.08418                      -0.01154                      85.40511
                       2.02255                       0.47629                      85.40539
                       1.84154                       0.93348                      85.40595
                       1.55252                       1.33128                      85.40676
                       1.17365                       1.64471                      85.40776
                       0.72873                       1.85407                      85.40890
                       0.24573                       1.94621                      85.41010
                      -0.24501                       1.91533                      85.41129
                      -0.71266                       1.76339                      85.41238
                      -1.12782                       1.49991                      85.41332
                      -1.46442                       1.14147                      85.41405
                      -1.70131                       0.71058                      85.41451
                      -1.82359                       0.23431                      85.41468
                      -1.82359                      -0.25740                      85.41456
                      -1.70131                      -0.73367                      85.41413
                      -1.46442                      -1.16456                      85.41344
                      -1.12782                      -1.52300                      85.41253
                      -0.71266                      -1.78648                      85.41145
                      -0.24501                      -1.93842                      85.41027
                       0.24573                      -1.96930                      85.40907
                       0.72873                      -1.87716                      85.40792
                       1.17365                      -1.66780                      85.40689
                       1.55252                      -1.35437                      85.40605
                       1.84154                      -0.95656                      85.40545
                       2.02255                      -0.49938                      85.40513
                       2.06278                      -0.01212                      87.59537
                       2.00198                       0.46909                      87.59564
                       1.82343                       0.92007                      87.59618
                       1.53833                       1.31247                      87.59694
                       1.16460                       1.62165                      87.59790
                       0.72573                       1.82817                      87.59897
                       0.24928                       1.91906                      87.60011
                      -0.23480                       1.88860                      87.60123
                      -0.69610                       1.73872                      87.60226
                      -1.10563                       1.47882                      87.60314
                      -1.43766                       1.12524                      87.60382
                      -1.67133                       0.70020                      87.60425
                      -1.79196                       0.23039                      87.60441
                      -1.79196                      -0.25464                      87.60428
                      -1.67133                      -0.72445                      87.60388
                      -1.43766                      -1.14949                      87.60322
                      -1.10563                      -1.50307                      87.60235
                      -0.69610                      -1.76296                      87.60133
                      -0.23480                      -1.91285                      87.60022
                       0.24928                      -1.94331                      87.59908
                       0.72573                      -1.85242                      87.59800
                       1.16460                      -1.64590                      87.59703
                       1.53833                      -1.33672                      87.59624
                       1.82343                      -0.94432                      87.59568
                       2.00198                      -0.49334                      87.59539
                       3.00000                       0.00000                       0.00000
                       2.90575                       0.74607                       0.00000
                       2.62892                       1.44526                       0.00000
                       2.18691                       2.05364                       0.00000
                       1.60748                       2.53298                       0.00000
                       0.92705                       2.85317                       0.00000
                       0.18837                       2.99408                       0.00000
                      -0.56214                       2.94686                       0.00000
                      -1.27734                       2.71448                       0.00000
                      -1.91227                       2.31154                       0.00000
                      -2.42705                       1.76336                       0.00000
                      -2.78933                       1.10437                       0.00000
                      -2.97634                       0.37600                       0.00000
                      -2.97634                      -0.37600                       0.00000
                      -2.78933                      -1.10437                       0.00000
                      -2.42705                      -1.76336                       0.00000
                      -1.91227                      -2.31154                       0.00000
                      -1.27734                      -2.71448                       0.00000
                      -0.56214                      -2.94686                       0.00000
                       0.18837                      -2.99408                       0.00000
                       0.92705                      -2.85317                       0.00000
                       1.60748                      -2.53298                       0.00000
                       2.18691                      -2.05364                       0.00000
                       2.62892                      -1.44526                       0.00000
                       2.90575                      -0.74607                       0.00000
        </DataArray>
      </Points>
      <Polys>
        <DataArray type="Int32" Name="connectivity" format="ascii">
      0      1     26     25
      1      2     27     26
      2      3     28     27
      3      4     29     28
      4      5     30     29
      5      6     31     30
      6      7     32     31
      7      8     33     32
      8      9     34     33
      9     10     35     34
     10     11     36     35
     11     12     37     36
     12     13     38     37
     13     14     39     38
     14     15     40     39
     15     16     41     40
     16     17     42     41
     17     18     43     42
     18     19     44     43
     19     20     45     44
     20     21     46     45
     21     22     47     46
     22     23     48     47
     23     24     49     48
     24      0     25     49
     24     23     22     21     20     19     18     17     16     15     14     13     12     11     10      9      8      7      6      5      4      3      2      1      0
     25     26     27     28     29     30     31     32     33     34     35     36     37     38     39     40     41     42     43     44     45     46     47     48     49
     25     26     51     50
     26     27     52     51
     27     28     53     52
     28     29     54     53
     29     30     55     54
     30     31     56     55
     31     32     57     56
     32     33     58     57
     33     34     59     58
     34     35     60     59
     35     36     61     60
     36     37     62     61
     37     38     63     62
     38     39     64     63
     39     40     65     64
     40     41     66     65
     41     42     67     66
     42     43     68     67
     43     44     69     68
     44     45     70     69
     45     46     71     70
     46     47     72     71
     47     48     73     72
     48     49     74     73
     49     25     50     74
     49     48     47     46     45     44     43     42     41     40     39     38     37     36     35     34     33     32     31     30     29     28     27     26     25
     50     51     52     53     54     55     56     57     58     59     60     61     62     63     64     65     66     67     68     69     70     71     72     73     74
     50     51     76     75
     51     52     77     76
     52     53     78     77
     53     54     79     78
     54     55     80     79
     55     56     81     80
     56     57     82     81
     57     58     83     82
     58     59     84     83
     59     60     85     84
     60     61     86     85
     61     62     87     86
     62     63     88     87
     63     64     89     88
     64     65     90     89
     65     66     91     90
     66     67     92     91
     67     68     93     92
     68     69     94     93
     69     70     95     94
     70     71     96     95
     71     72     97     96
     72     73     98     97
     73     74     99     98
     74     50     75     99
     74     73     72     71     70     69     68     67     66     65     64     63     62     61     60     59     58     57     56     55     54     53     52     51     50
     75     76     77     78     79     80     81     82     83     84     85     86     87     88     89     90     91     92     93     94     95     96     97     98     99
     75     76    101    100
     76     77    102    101
     77     78    103    102
     78     79    104    103
     79     80    105    104
     80     81    106    105
     81     82    107    106
     82     83    108    107
     83     84    109    108
     84     85    110    109
     85     86    111    110
     86     87    112    111
     87     88    113    112
     88     89    114    113
     89     90    115    114
     90     91    116    115
     91     92    117    116
     92     93    118    117
     93     94    119    118
     94     95    120    119
     95     96    121    120
     96     97    122    121
     97     98    123    122
     98     99    124    123
     99     75    100    124
     99     98     97     96     95     94     93     92     91     90     89     88     87     86     85     84     83     82     81     80     79     78     77     76     75
    100    101    102    103    104    105    106    107    108    109    110    111    112    113    114    115    116    117    118    119    120    121    122    123    124
    100    101    126    125
    101    102    127    126
    102    103    128    127
    103    104    129    128
    104    105    130    129
    105    106    131    130
    106    107    132    131
    107    108    133    132
    108    109    134    133
    109    110    135    134
    110    111    136    135
    111    112    137    136
    112    113    138    137
    113    114    139    138
    114    115    140    139
    115    116    141    140
    116    117    142    141
    117    118    143    142
    118    119    144    143
    119    120    145    144
    120    121    146    145
    121    122    147    146
    122    123    148    147
    123    124    149    148
    124    100    125    149
    124    123    122    121    120    119    118    117    116    115    114    113    112    111    110    109    108    107    106    105    104    103    102    101    100
    125    126    127    128    129    130    131    132    133    134    135    136    137    138    139    140    141    142    143    144    145    146    147    148    149
    125    126    151    150
    126    127    152    151
    127    128    153    152
    128    129    154    153
    129    130    155    154
    130    131    156    155
    131    132    157    156
    132    133    158    157
    133    134    159    158
    134    135    160    159
    135    136    161    160
    136    137    162    161
    137    138    163    162
    138    139    164    163
    139    140    165    164
    140    141    166    165
    141    142    167    166
    142    143    168    167
    143    144    169    168
    144    145    170    169
    145    146    171    170
    146    147    172    171
    147    148    173    172
    148    149    174    173
    149    125    150    174
    149    148    147    146    145    144    143    142    141    140    139    138    137    136    135    134    133    132    131    130    129    128    127    126    125
    150    151    152    153    154    155    156    157    158    159    160    161    162    163    164    165    166    167    168    169    170    171    172    173    174
    150    151    176    175
    151    152    177    176
    152    153    178    177
    153    154    179    178
    154    155    180    179
    155    156    181    180
    156    157    182    181
    157    158    183    182
    158    159    184    183
    159    160    185    184
    160    161    186    185
    161    162    187    186
    162    163    188    187
    163    164    189    188
    164    165    190    189
    165    166    191    190
    166    167    192    191
    167    168    193    192
    168    169    194    193
    169    170    195    194
    170    171    196    195
    171    172    197    196
    172    173    198    197
    173    174    199    198
    174    150    175    199
    174    173    172    171    170    169    168    167    166    165    164    163    162    161    160    159    158    157    156    155    154    153    152    151    150
    175    176    177    178    179    180    181    182    183    184    185    186    187    188    189    190    191    192    193    194    195    196    197    198    199
    175    176    201    200
    176    177    202    201
    177    178    203    202
    178    179    204    203
    179    180    205    204
    180    181    206    205
    181    182    207    206
    182    183    208    207
    183    184    209    208
    184    185    210    209
    185    186    211    210
    186    187    212    211
    187    188    213    212
    188    189    214    213
    189    190    215    214
    190    191    216    215
    191    192    217    216
    192    193    218    217
    193    194    219    218
    194    195    220    219
    195    196    221    220
    196    197    222    221
    197    198    223    222
    198    199    224    223
    199    175    200    224
    199    198    197    196    195    194    193    192    191    190    189    188    187    186    185    184    183    182    181    180    179    178    177    176    175
    200    201    202    203    204    205    206    207    208    209    210    211    212    213    214    215    216    217    218    219    220    221    222    223    224
    200    201    226    225
    201    202    227    226
    202    203    228    227
    203    204    229    228
    204    205    230    229
    205    206    231    230
    206    207    232    231
    207    208    233    232
    208    209    234    233
    209    210    235    234
    210    211    236    235
    211    212    237    236
    212    213    238    237
    213    214    239    238
    214    215    240    239
    215    216    241    240
    216    217    242    241
    217    218    243    242
    218    219    244    243
    219    220    245    244
    220    221    246    245
    221    222    247    246
    222    223    248    247
    223    224    249    248
    224    200    225    249
    224    223    222    221    220    219    218    217    216    215    214    213    212    211    210    209    208    207    206    205    204    203    202    201    200
    225    226    227    228    229    230    231    232    233    234    235    236    237    238    239    240    241    242    243    244    245    246    247    248    249
    225    226    251    250
    226    227    252    251
    227    228    253    252
    228    229    254    253
    229    230    255    254
    230    231    256    255
    231    232    257    256
    232    233    258    257
    233    234    259    258
    234    235    260    259
    235    236    261    260
    236    237    262    261
    237    238    263    262
    238    239    264    263
    239    240    265    264
    240    241    266    265
    241    242    267    266
    242    243    268    267
    243    244    269    268
    244    245    270    269
    245    246    271    270
    246    247    272    271
    247    248    273    272
    248    249    274    273
    249    225    250    274
    249    248    247    246    245    244    243    242    241    240    239    238    237    236    235    234    233    232    231    230    229    228    227    226    225
    250    251    252    253    254    255    256    257    258    259    260    261    262    263    264    265    266    267    268    269    270    271    272    273    274
    250    251    276    275
    251    252    277    276
    252    253    278    277
    253    254    279    278
    254    255    280    279
    255    256    281    280
    256    257    282    281
    257    258    283    282
    258    259    284    283
    259    260    285    284
    260    261    286    285
    261    262    287    286
    262    263    288    287
    263    264    289    288
    264    265    290    289
    265    266    291    290
    266    267    292    291
    267    268    293    292
    268    269    294    293
    269    270    295    294
    270    271    296    295
    271    272    297    296
    272    273    298    297
    273    274    299    298
    274    250    275    299
    274    273    272    271    270    269    268    267    266    265    264    263    262    261    260    259    258    257    256    255    254    253    252    251    250
    275    276    277    278    279    280    281    282    283    284    285    286    287    288    289    290    291    292    293    294    295    296    297    298    299
    275    276    301    300
    276    277    302    301
    277    278    303    302
    278    279    304    303
    279    280    305    304
    280    281    306    305
    281    282    307    306
    282    283    308    307
    283    284    309    308
    284    285    310    309
    285    286    311    310
    286    287    312    311
    287    288    313    312
    288    289    314    313
    289    290    315    314
    290    291    316    315
    291    292    317    316
    292    293    318    317
    293    294    319    318
    294    295    320    319
    295    296    321    320
    296    297    322    321
    297    298    323    322
    298    299    324    323
    299    275    300    324
    299    298    297    296    295    294    293    292    291    290    289    288    287    286    285    284    283    282    281    280    279    278    277    276    275
    300    301    302    303    304    305    306    307    308    309    310    311    312    313    314    315    316    317    318    319    320    321    322    323    324
    300    301    326    325
    301    302    327    326
    302    303    328    327
    303    304    329    328
    304    305    330    329
    305    306    331    330
    306    307    332    331
    307    308    333    332
    308    309    334    333
    309    310    335    334
    310    311    336    335
    311    312    337    336
    312    313    338    337
    313    314    339    338
    314    315    340    339
    315    316    341    340
    316    317    342    341
    317    318    343    342
    318    319    344    343
    319    320    345    344
    320    321    346    345
    321    322    347    346
    322    323    348    347
    323    324    349    348
    324    300    325    349
    324    323    322    321    320    319    318    317    316    315    314    313    312    311    310    309    308    307    306    305    304    303    302    301    300
    325    326    327    328    329    330    331    332    333    334    335    336    337    338    339    340    341    342    343    344    345    346    347    348    349
    325    326    351    350
    326    327    352    351
    327    328    353    352
    328    329    354    353
    329    330    355    354
    330    331    356    355
    331    332    357    356
    332    333    358    357
    333    334    359    358
    334    335    360    359
    335    336    361    360
    336    337    362    361
    337    338    363    362
    338    339    364    363
    339    340    365    364
    340    341    366    365
    341    342    367    366
    342    343    368    367
    343    344    369    368
    344    345    370    369
    345    346    371    370
    346    347    372    371
    347    348    373    372
    348    349    374    373
    349    325    350    374
    349    348    347    346    345    344    343    342    341    340    339    338    337    336    335    334    333    332    331    330    329    328    327    326    325
    350    351    352    353    354    355    356    357    358    359    360    361    362    363    364    365    366    367    368    369    370    371    372    373    374
    350    351    376    375
    351    352    377    376
    352    353    378    377
    353    354    379    378
    354    355    380    379
    355    356    381    380
    356    357    382    381
    357    358    383    382
    358    359    384    383
    359    360    385    384
    360    361    386    385
    361    362    387    386
    362    363    388    387
    363    364    389    388
    364    365    390    389
    365    366    391    390
    366    367    392    391
    367    368    393    392
    368    369    394    393
    369    370    395    394
    370    371    396    395
    371    372    397    396
    372    373    398    397
    373    374    399    398
    374    350    375    399
    374    373    372    371    370    369    368    367    366    365    364    363    362    361    360    359    358    357    356    355    354    353    352    351    350
    375    376    377    378    379    380    381    382    383    384    385    386    387    388    389    390    391    392    393    394    395    396    397    398    399
    375    376    401    400
    376    377    402    401
    377    378    403    402
    378    379    404    403
    379    380    405    404
    380    381    406    405
    381    382    407    406
    382    383    408    407
    383    384    409    408
    384    385    410    409
    385    386    411    410
    386    387    412    411
    387    388    413    412
    388    389    414    413
    389    390    415    414
    390    391    416    415
    391    392    417    416
    392    393    418    417
    393    394    419    418
    394    395    420    419
    395    396    421    420
    396    397    422    421
    397    398    423    422
    398    399    424    423
    399    375    400    424
    399    398    397    396    395    394    393    392    391    390    389    388    387    386    385    384    383    382    381    380    379    378    377    376    375
    400    401    402    403    404    405    406    407    408    409    410    411    412    413    414    415    416    417    418    419    420    421    422    423    424
    400    401    426    425
    401    402    427    426
    402    403    428    427
    403    404    429    428
    404    405    430    429
    405    406    431    430
    406    407    432    431
    407    408    433    432
    408    409    434    433
    409    410    435    434
    410    411    436    435
    411    412    437    436
    412    413    438    437
    413    414    439    438
    414    415    440    439
    415    416    441    440
    416    417    442    441
    417    418    443    442
    418    419    444    443
    419    420    445    444
    420    421    446    445
    421    422    447    446
    422    423    448    447
    423    424    449    448
    424    400    425    449
    424    423    422    421    420    419    418    417    416    415    414    413    412    411    410    409    408    407    406    405    404    403    402    401    400
    425    426    427    428    429    430    431    432    433    434    435    436    437    438    439    440    441    442    443    444    445    446    447    448    449
    425    426    451    450
    426    427    452    451
    427    428    453    452
    428    429    454    453
    429    430    455    454
    430    431    456    455
    431    432    457    456
    432    433    458    457
    433    434    459    458
    434    435    460    459
    435    436    461    460
    436    437    462    461
    437    438    463    462
    438    439    464    463
    439    440    465    464
    440    441    466    465
    441    442    467    466
    442    443    468    467
    443    444    469    468
    444    445    470    469
    445    446    471    470
    446    447    472    471
    447    448    473    472
    448    449    474    473
    449    425    450    474
    449    448    447    446    445    444    443    442    441    440    439    438    437    436    435    434    433    432    431    430    429    428    427    426    425
    450    451    452    453    454    455    456    457    458    459    460    461    462    463    464    465    466    467    468    469    470    471    472    473    474
    450    451    476    475
    451    452    477    476
    452    453    478    477
    453    454    479    478
    454    455    480    479
    455    456    481    480
    456    457    482    481
    457    458    483    482
    458    459    484    483
    459    460    485    484
    460    461    486    485
    461    462    487    486
    462    463    488    487
    463    464    489    488
    464    465    490    489
    465    466    491    490
    466    467    492    491
    467    468    493    492
    468    469    494    493
    469    470    495    494
    470    471    496    495
    471    472    497    496
    472    473    498    497
    473    474    499    498
    474    450    475    499
    474    473    472    471    470    469    468    467    466    465    464    463    462    461    460    459    458    457    456    455    454    453    452    451    450
    475    476    477    478    479    480    481    482    483    484    485    486    487    488    489    490    491    492    493    494    495    496    497    498    499
    475    476    501    500
    476    477    502    501
    477    478    503    502
    478    479    504    503
    479    480    505    504
    480    481    506    505
    481    482    507    506
    482    483    508    507
    483    484    509    508
    484    485    510    509
    485    486    511    510
    486    487    512    511
    487    488    513    512
    488    489    514    513
    489    490    515    514
    490    491    516    515
    491    492    517    516
    492    493    518    517
    493    494    519    518
    494    495    520    519
    495    496    521    520
    496    497    522    521
    497    498    523    522
    498    499    524    523
    499    475    500    524
    499    498    497    496    495    494    493    492    491    490    489    488    487    486    485    484    483    482    481    480    479    478    477    476    475
    500    501    502    503    504    505    506    507    508    509    510    511    512    513    514    515    516    517    518    519    520    521    522    523    524
    525    526      1      0
    526    527      2      1
    527    528      3      2
    528    529      4      3
    529    530      5      4
    530    531      6      5
    531    532      7      6
    532    533      8      7
    533    534      9      8
    534    535     10      9
    535    536     11     10
    536    537     12     11
    537    538     13     12
    538    539     14     13
    539    540     15     14
    540    541     16     15
    541    542     17     16
    542    543     18     17
    543    544     19     18
    544    545     20     19
    545    546     21     20
    546    547     22     21
    547    548     23     22
    548    549     24     23
    549    525      0     24
    549    548    547    546    545    544    543    542    541    540    539    538    537    536    535    534    533    532    531    530    529    528    527    526    525
      0      1      2      3      4      5      6      7      8      9     10     11     12     13     14     15     16     17     18     19     20     21     22     23     24
        </DataArray>
        <DataArray type="Int32" Name="offsets" format="ascii">
      4
      8
     12
     16
     20
     24
     28
     32
     36
     40
     44
     48
     52
     56
     60
     64
     68
     72
     76
     80
     84
     88
     92
     96
    100
    125
    150
    154
    158
    162
    166
    170
    174
    178
    182
    186
    190
    194
    198
    202
    206
    210
    214
    218
    222
    226
    230
    234
    238
    242
    246
    250
    275
    300
    304
    308
    312
    316
    320
    324
    328
    332
    336
    340
    344
    348
    352
    356
    360
    364
    368
    372
    376
    380
    384
    388
    392
    396
    400
    425
    450
    454
    458
    462
    466
    470
    474
    478
    482
    486
    490
    494
    498
    502
    506
    510
    514
    518
    522
    526
    530
    534
    538
    542
    546
    550
    575
    600
    604
    608
    612
    616
    620
    624
    628
    632
    636
    640
    644
    648
    652
    656
    660
    664
    668
    672
    676
    680
    684
    688
    692
    696
    700
    725
    750
    754
    758
    762
    766
    770
    774
    778
    782
    786
    790
    794
    798
    802
    806
    810
    814
    818
    822
    826
    830
    834
    838
    842
    846
    850
    875
    900
    904
    908
    912
    916
    920
    924
    928
    932
    936
    940
    944
    948
    952
    956
    960
    964
    968
    972
    976
    980
    984
    988
    992
    996
   1000
   1025
   1050
   1054
   1058
   1062
   1066
   1070
   1074
   1078
   1082
   1086
   1090
   1094
   1098
   1102
   1106
   1110
   1114
   1118
   1122
   1126
   1130
   1134
   1138
   1142
   1146
   1150
   1175
   1200
   1204
   1208
   1212
   1216
   1220
   1224
   1228
   1232
   1236
   1240
   1244
   1248
   1252
   1256
   1260
   1264
   1268
   1272
   1276
   1280
   1284
   1288
   1292
   1296
   1300
   1325
   1350
   1354
   1358
   1362
   1366
   1370
   1374
   1378
   1382
   1386
   1390
   1394
   1398
   1402
   1406
   1410
   1414
   1418
   1422
   1426
   1430
   1434
   1438
   1442
   1446
   1450
   1475
   1500
   1504
   1508
   1512
   1516
   1520
   1524
   1528
   1532
   1536
   1540
   1544
   1548
   1552
   1556
   1560
   1564
   1568
   1572
   1576
   1580
   1584
   1588
   1592
   1596
   1600
   1625
   1650
   1654
   1658
   1662
   1666
   1670
   1674
   1678
   1682
   1686
   1690
   1694
   1698
   1702
   1706
   1710
   1714
   1718
   1722
   1726
   1730
   1734
   1738
   1742
   1746
   1750
   1775
   1800
   1804
   1808
   1812
   1816
   1820
   1824
   1828
   1832
   1836
   1840
   1844
   1848
   1852
   1856
   1860
   1864
   1868
   1872
   1876
   1880
   1884
   1888
   1892
   1896
   1900
   1925
   1950
   1954
   1958
   1962
   1966
   1970
   1974
   1978
   1982
   1986
   1990
   1994
   1998
   2002
   2006
   2010
   2014
   2018
   2022
   2026
   2030
   2034
   2038
   2042
   2046
   2050
   2075
   2100
   2104
   2108
   2112
   2116
   2120
   2124
   2128
   2132
   2136
   2140
   2144
   2148
   2152
   2156
   2160
   2164
   2168
   2172
   2176
   2180
   2184
   2188
   2192
   2196
   2200
   2225
   2250
   2254
   2258
   2262
   2266
   2270
   2274
   2278
   2282
   2286
   2290
   2294
   2298
   2302
   2306
   2310
   2314
   2318
   2322
   2326
   2330
   2334
   2338
   2342
   2346
   2350
   2375
   2400
   2404
   2408
   2412
   2416
   2420
   2424
   2428
   2432
   2436
   2440
   2444
   2448
   2452
   2456
   2460
   2464
   2468
   2472
   2476
   2480
   2484
   2488
   2492
   2496
   2500
   2525
   2550
   2554
   2558
   2562
   2566
   2570
   2574
   2578
   2582
   2586
   2590
   2594
   2598
   2602
   2606
   2610
   2614
   2618
   2622
   2626
   2630
   2634
   2638
   2642
   2646
   2650
   2675
   2700
   2704
   2708
   2712
   2716
   2720
   2724
   2728
   2732
   2736
   2740
   2744
   2748
   2752
   2756
   2760
   2764
   2768
   2772
   2776
   2780
   2784
   2788
   2792
   2796
   2800
   2825
   2850
   2854
   2858
   2862
   2866
   2870
   2874
   2878
   2882
   2886
   2890
   2894
   2898
   2902
   2906
   2910
   2914
   2918
   2922
   2926
   2930
   2934
   2938
   2942
   2946
   2950
   2975
   3000
   3004
   3008
   3012
   3016
   3020
   3024
   3028
   3032
   3036
   3040
   3044
   3048
   3052
   3056
   3060
   3064
   3068
   3072
   3076
   3080
   3084
   3088
   3092
   3096
   3100
   3125
   3150
        </DataArray>
      </Polys>
    </Piece>
  </PolyData>
</VTKFile>
