<?xml version="1.0"?>
<VTKFile type="PolyData" version="0.1" byte_order="LittleEndian">
  <PolyData>
    <Piece NumberOfPoints="    550" NumberOfVerts="  0" NumberOfLines="     21"
           NumberOfStrips="  0" NumberOfPolys="    567">
      <Points>
        <DataArray type="Float32" NumberOfComponents="3" format="ascii">
                       2.97344                      -0.00001                       2.18983
                       2.88002                       0.73944                       2.18984
                       2.60565                       1.43243                       2.18986
                       2.16756                       2.03541                       2.18989
                       1.59327                       2.51050                       2.18992
                       0.91888                       2.82784                       2.18996
                       0.18676                       2.96750                       2.19001
                      -0.55709                       2.92070                       2.19005
                      -1.26594                       2.69038                       2.19009
                      -1.89524                       2.29102                       2.19012
                      -2.40545                       1.74770                       2.19015
                      -2.76451                       1.09457                       2.19016
                      -2.94987                       0.37266                       2.19017
                      -2.94987                      -0.37267                       2.19016
                      -2.76451                      -1.09458                       2.19015
                      -2.40545                      -1.74771                       2.19013
                      -1.89524                      -2.29103                       2.19010
                      -1.26594                      -2.69040                       2.19006
                      -0.55710                      -2.92071                       2.19002
                       0.18676                      -2.96751                       2.18997
                       0.91888                      -2.82785                       2.18993
                       1.59327                      -2.51051                       2.18990
                       2.16756                      -2.03542                       2.18987
                       2.60565                      -1.43244                       2.18984
                       2.88002                      -0.73945                       2.18983
                       2.92073                      -0.00005                       6.56943
                       2.82899                       0.72615                       6.56946
                       2.55953                       1.40673                       6.56952
                       2.12928                       1.99891                       6.56961
                       1.56528                       2.46549                       6.56973
                       0.90297                       2.77715                       6.56987
                       0.18396                       2.91431                       6.57001
                      -0.54658                       2.86835                       6.57015
                      -1.24273                       2.64216                       6.57028
                      -1.86076                       2.24994                       6.57040
                      -2.36183                       1.71636                       6.57049
                      -2.71446                       1.07492                       6.57055
                      -2.89650                       0.36594                       6.57057
                      -2.89650                      -0.36604                       6.57056
                      -2.71446                      -1.07502                       6.57051
                      -2.36183                      -1.71646                       6.57044
                      -1.86076                      -2.25005                       6.57033
                      -1.24273                      -2.64226                       6.57020
                      -0.54658                      -2.86845                       6.57006
                       0.18396                      -2.91441                       6.56992
                       0.90297                      -2.77725                       6.56978
                       1.56528                      -2.46559                       6.56966
                       2.12928                      -1.99901                       6.56955
                       2.55953                      -1.40683                       6.56948
                       2.82899                      -0.72626                       6.56944
                       2.86867                      -0.00013                      10.94899
                       2.77860                       0.71283                      10.94904
                       2.51406                       1.38099                      10.94915
                       2.09166                       1.96238                      10.94931
                       1.53795                       2.42045                      10.94951
                       0.88771                       2.72643                      10.94975
                       0.18181                       2.86108                      10.95000
                      -0.53540                       2.81596                      10.95025
                      -1.21886                       2.59389                      10.95049
                      -1.82562                       2.20883                      10.95070
                      -2.31755                       1.68497                      10.95086
                      -2.66376                       1.05523                      10.95096
                      -2.84247                       0.35918                      10.95101
                      -2.84247                      -0.35945                      10.95099
                      -2.66376                      -1.05550                      10.95092
                      -2.31755                      -1.68524                      10.95078
                      -1.82562                      -2.20910                      10.95059
                      -1.21886                      -2.59416                      10.95037
                      -0.53540                      -2.81623                      10.95012
                       0.18181                      -2.86135                      10.94987
                       0.88771                      -2.72669                      10.94962
                       1.53795                      -2.42072                      10.94940
                       2.09166                      -1.96265                      10.94922
                       2.51406                      -1.38126                      10.94908
                       2.77860                      -0.71310                      10.94900
                       2.81733                      -0.00025                      15.32855
                       2.72893                       0.69947                      15.32861
                       2.46930                       1.35522                      15.32877
                       2.05475                       1.92581                      15.32900
                       1.51132                       2.37537                      15.32929
                       0.87316                       2.67566                      15.32963
                       0.18037                       2.80782                      15.33000
                      -0.52352                       2.76353                      15.33036
                      -1.19428                       2.54559                      15.33070
                      -1.78977                       2.16768                      15.33099
                      -2.27257                       1.65355                      15.33123
                      -2.61234                       1.03551                      15.33138
                      -2.78774                       0.35239                      15.33145
                      -2.78774                      -0.35289                      15.33143
                      -2.61234                      -1.03602                      15.33132
                      -2.27257                      -1.65406                      15.33112
                      -1.78977                      -2.16819                      15.33086
                      -1.19428                      -2.54610                      15.33054
                      -0.52352                      -2.76404                      15.33019
                       0.18037                      -2.80833                      15.32982
                       0.87316                      -2.67617                      15.32947
                       1.51132                      -2.37588                      15.32915
                       2.05475                      -1.92631                      15.32888
                       2.46930                      -1.35573                      15.32868
                       2.72893                      -0.69997                      15.32857
                       2.76670                      -0.00041                      19.70812
                       2.67997                       0.68607                      19.70821
                       2.42526                       1.32941                      19.70841
                       2.01855                       1.88920                      19.70871
                       1.48540                       2.33026                      19.70908
                       0.85933                       2.62487                      19.70952
                       0.17965                       2.75452                      19.70999
                      -0.51092                       2.71107                      19.71046
                      -1.16899                       2.49726                      19.71089
                      -1.75321                       2.12650                      19.71128
                      -2.22687                       1.62210                      19.71158
                      -2.56021                       1.01576                      19.71178
                      -2.73229                       0.34556                      19.71187
                      -2.73229                      -0.34637                      19.71185
                      -2.56021                      -1.01657                      19.71170
                      -2.22687                      -1.62291                      19.71145
                      -1.75321                      -2.12731                      19.71111
                      -1.16899                      -2.49807                      19.71070
                      -0.51092                      -2.71189                      19.71024
                       0.17965                      -2.75533                      19.70977
                       0.85933                      -2.62568                      19.70932
                       1.48540                      -2.33107                      19.70890
                       2.01855                      -1.89001                      19.70856
                       2.42526                      -1.33023                      19.70830
                       2.67997                      -0.68688                      19.70816
                       2.71677                      -0.00059                      24.08773
                       2.63172                       0.67264                      24.08784
                       2.38191                       1.30357                      24.08807
                       1.98305                       1.85256                      24.08843
                       1.46019                       2.28511                      24.08889
                       0.84619                       2.57404                      24.08942
                       0.17963                       2.70119                      24.08998
                      -0.49762                       2.65858                      24.09055
                      -1.14299                       2.44889                      24.09108
                      -1.71594                       2.08528                      24.09154
                      -2.18047                       1.59061                      24.09190
                      -2.50738                       0.99597                      24.09215
                      -2.67613                       0.33870                      24.09226
                      -2.67613                      -0.33989                      24.09223
                      -2.50738                      -0.99715                      24.09206
                      -2.18047                      -1.59180                      24.09175
                      -1.71594                      -2.08647                      24.09134
                      -1.14299                      -2.45007                      24.09085
                      -0.49762                      -2.65977                      24.09030
                       0.17963                      -2.70238                      24.08973
                       0.84619                      -2.57522                      24.08918
                       1.46019                      -2.28630                      24.08868
                       1.98305                      -1.85375                      24.08826
                       2.38191                      -1.30476                      24.08795
                       2.63172                      -0.67383                      24.08777
                       2.66751                      -0.00082                      28.46738
                       2.58413                       0.65918                      28.46750
                       2.33924                       1.27770                      28.46777
                       1.94823                       1.81589                      28.46819
                       1.43565                       2.23992                      28.46872
                       0.83373                       2.52317                      28.46933
                       0.18028                       2.64782                      28.46998
                      -0.48365                       2.60605                      28.47063
                      -1.11633                       2.40048                      28.47124
                      -1.67801                       2.04403                      28.47178
                      -2.13339                       1.55909                      28.47220
                      -2.45387                       0.97614                      28.47248
                      -2.61931                       0.33180                      28.47261
                      -2.61931                      -0.33344                      28.47257
                      -2.45387                      -0.97777                      28.47238
                      -2.13339                      -1.56073                      28.47203
                      -1.67800                      -2.04566                      28.47155
                      -1.11633                      -2.40211                      28.47098
                      -0.48365                      -2.60768                      28.47034
                       0.18028                      -2.64945                      28.46969
                       0.83373                      -2.52480                      28.46905
                       1.43565                      -2.24156                      28.46847
                       1.94823                      -1.81752                      28.46799
                       2.33924                      -1.27933                      28.46763
                       2.58413                      -0.66081                      28.46742
                       2.61890                      -0.00108                      32.84705
                       2.53720                       0.64567                      32.84718
                       2.29722                       1.25178                      32.84749
                       1.91405                       1.77917                      32.84796
                       1.41176                       2.19470                      32.84856
                       0.82191                       2.47226                      32.84924
                       0.18157                       2.59442                      32.84997
                      -0.46903                       2.55348                      32.85071
                      -1.08901                       2.35204                      32.85140
                      -1.63942                       2.00274                      32.85200
                      -2.08567                       1.52753                      32.85247
                      -2.39972                       0.95628                      32.85279
                      -2.56184                       0.32487                      32.85293
                      -2.56184                      -0.32702                      32.85289
                      -2.39972                      -0.95843                      32.85267
                      -2.08567                      -1.52969                      32.85228
                      -1.63942                      -2.00489                      32.85174
                      -1.08901                      -2.35419                      32.85110
                      -0.46903                      -2.55564                      32.85038
                       0.18157                      -2.59657                      32.84964
                       0.82191                      -2.47442                      32.84892
                       1.41176                      -2.19686                      32.84828
                       1.91405                      -1.78133                      32.84773
                       2.29722                      -1.25394                      32.84733
                       2.53720                      -0.64783                      32.84710
                       2.57092                      -0.00138                      37.22674
                       2.49089                       0.63213                      37.22689
                       2.25583                       1.22583                      37.22723
                       1.88050                       1.74242                      37.22775
                       1.38850                       2.14944                      37.22841
                       0.81073                       2.42132                      37.22916
                       0.18350                       2.54097                      37.22997
                      -0.45378                       2.50088                      37.23078
                      -1.06107                       2.30355                      37.23154
                      -1.60021                       1.96141                      37.23220
                      -2.03732                       1.49593                      37.23273
                      -2.34494                       0.93637                      37.23308
                      -2.50374                       0.31789                      37.23324
                      -2.50374                      -0.32065                      37.23319
                      -2.34494                      -0.93913                      37.23294
                      -2.03732                      -1.49869                      37.23251
                      -1.60021                      -1.96417                      37.23192
                      -1.06107                      -2.30631                      37.23120
                      -0.45378                      -2.50363                      37.23041
                       0.18350                      -2.54373                      37.22960
                       0.81073                      -2.42408                      37.22881
                       1.38850                      -2.15220                      37.22809
                       1.88050                      -1.74518                      37.22749
                       2.25583                      -1.22859                      37.22705
                       2.49089                      -0.63488                      37.22680
                       2.52357                      -0.00172                      41.60644
                       2.44521                       0.61854                      41.60661
                       2.21507                       1.19983                      41.60698
                       1.84759                       1.70562                      41.60755
                       1.36587                       2.10414                      41.60826
                       0.80018                       2.37033                      41.60909
                       0.18606                       2.48748                      41.60997
                      -0.43790                       2.44822                      41.61085
                      -1.03250                       2.25503                      41.61168
                      -1.56036                       1.92003                      41.61240
                      -1.98834                       1.46429                      41.61297
                      -2.28953                       0.91643                      41.61335
                      -2.44501                       0.31087                      41.61353
                      -2.44501                      -0.31432                      41.61347
                      -2.28953                      -0.91987                      41.61320
                      -1.98834                      -1.46773                      41.61273
                      -1.56036                      -1.92348                      41.61208
                      -1.03250                      -2.25847                      41.61130
                      -0.43790                      -2.45167                      41.61044
                       0.18606                      -2.49093                      41.60955
                       0.80018                      -2.37378                      41.60869
                       1.36587                      -2.10758                      41.60791
                       1.84759                      -1.70907                      41.60726
                       2.21507                      -1.20328                      41.60678
                       2.44521                      -0.62199                      41.60650
                       2.47687                      -0.00211                      45.98615
                       2.40018                       0.60491                      45.98633
                       2.17495                       1.17379                      45.98674
                       1.81531                       1.66878                      45.98735
                       1.34388                       2.05879                      45.98812
                       0.79026                       2.31930                      45.98902
                       0.18926                       2.43395                      45.98997
                      -0.42138                       2.39553                      45.99093
                      -1.00328                       2.20646                      45.99182
                      -1.51988                       1.87861                      45.99260
                      -1.93871                       1.43260                      45.99322
                      -2.23347                       0.89643                      45.99363
                      -2.38563                       0.30381                      45.99381
                      -2.38563                      -0.30804                      45.99375
                      -2.23347                      -0.90066                      45.99346
                      -1.93871                      -1.43682                      45.99294
                      -1.51988                      -1.88284                      45.99224
                      -1.00328                      -2.21068                      45.99140
                      -0.42138                      -2.39975                      45.99047
                       0.18926                      -2.43817                      45.98951
                       0.79026                      -2.32352                      45.98858
                       1.34388                      -2.06301                      45.98773
                       1.81531                      -1.67301                      45.98703
                       2.17495                      -1.17801                      45.98651
                       2.40018                      -0.60913                      45.98621
                       2.43083                      -0.00255                      50.36585
                       2.35582                       0.59123                      50.36605
                       2.13549                       1.14770                      50.36649
                       1.78371                       1.63189                      50.36714
                       1.32256                       2.01339                      50.36798
                       0.78102                       2.26822                      50.36894
                       0.19313                       2.38036                      50.36997
                      -0.40419                       2.34278                      50.37099
                      -0.97339                       2.15784                      50.37196
                      -1.47872                       1.83715                      50.37280
                      -1.88842                       1.40086                      50.37346
                      -2.17675                       0.87639                      50.37390
                      -2.32559                       0.29670                      50.37409
                      -2.32559                      -0.30180                      50.37403
                      -2.17675                      -0.88149                      50.37371
                      -1.88842                      -1.40596                      50.37316
                      -1.47872                      -1.84225                      50.37241
                      -0.97339                      -2.16294                      50.37150
                      -0.40419                      -2.34788                      50.37050
                       0.19313                      -2.38546                      50.36946
                       0.78102                      -2.27332                      50.36846
                       1.32256                      -2.01849                      50.36755
                       1.78371                      -1.63699                      50.36680
                       2.13549                      -1.15280                      50.36624
                       2.35582                      -0.59633                      50.36592
                       2.38549                      -0.00304                      54.74556
                       2.31215                       0.57750                      54.74576
                       2.09675                       1.12156                      54.74623
                       1.75281                       1.59495                      54.74694
                       1.30194                       1.96794                      54.74783
                       0.77248                       2.21708                      54.74886
                       0.19770                       2.32673                      54.74996
                      -0.38630                       2.28999                      54.75106
                      -0.94280                       2.10917                      54.75209
                      -1.43686                       1.79563                      54.75299
                      -1.83742                       1.36907                      54.75370
                      -2.11932                       0.85630                      54.75417
                      -2.26484                       0.28954                      54.75438
                      -2.26484                      -0.29561                      54.75431
                      -2.11932                      -0.86238                      54.75397
                      -1.83742                      -1.37515                      54.75338
                      -1.43686                      -1.80171                      54.75257
                      -0.94281                      -2.11524                      54.75160
                      -0.38630                      -2.29607                      54.75053
                       0.19770                      -2.33281                      54.74942
                       0.77248                      -2.22316                      54.74834
                       1.30194                      -1.97402                      54.74737
                       1.75280                      -1.60103                      54.74656
                       2.09675                      -1.12763                      54.74597
                       2.31215                      -0.58357                      54.74563
                       2.34089                      -0.00358                      59.12526
                       2.26922                       0.56372                      59.12548
                       2.05873                       1.09536                      59.12598
                       1.72264                       1.55796                      59.12673
                       1.28206                       1.92244                      59.12769
                       0.76468                       2.16590                      59.12879
                       0.20300                       2.27305                      59.12996
                      -0.36767                       2.23714                      59.13113
                      -0.91148                       2.06045                      59.13222
                      -1.39427                       1.75406                      59.13318
                      -1.78569                       1.33724                      59.13393
                      -2.06116                       0.83616                      59.13443
                      -2.20336                       0.28232                      59.13466
                      -2.20336                      -0.28948                      59.13458
                      -2.06116                      -0.84331                      59.13422
                      -1.78570                      -1.34439                      59.13359
                      -1.39427                      -1.76121                      59.13273
                      -0.91148                      -2.06760                      59.13169
                      -0.36767                      -2.24430                      59.13055
                       0.20300                      -2.28020                      59.12937
                       0.76468                      -2.17305                      59.12823
                       1.28205                      -1.92959                      59.12719
                       1.72263                      -1.56511                      59.12633
                       2.05873                      -1.10252                      59.12570
                       2.26922                      -0.57087                      59.12534
                       2.29703                      -0.00416                      63.50498
                       2.22704                       0.54989                      63.50522
                       2.02146                       1.06912                      63.50575
                       1.69321                       1.52092                      63.50654
                       1.26292                       1.87689                      63.50755
                       0.75761                       2.11467                      63.50871
                       0.20905                       2.21932                      63.50995
                      -0.34830                       2.18425                      63.51118
                      -0.87942                       2.01168                      63.51234
                      -1.35093                       1.71244                      63.51335
                      -1.73322                       1.30535                      63.51415
                      -2.00226                       0.81597                      63.51468
                      -2.14114                       0.27506                      63.51491
                      -2.14114                      -0.28339                      63.51484
                      -2.00226                      -0.82430                      63.51445
                      -1.73322                      -1.31367                      63.51378
                      -1.35093                      -1.72077                      63.51287
                      -0.87942                      -2.02000                      63.51178
                      -0.34830                      -2.19258                      63.51057
                       0.20905                      -2.22764                      63.50933
                       0.75761                      -2.12300                      63.50812
                       1.26291                      -1.88522                      63.50703
                       1.69321                      -1.52925                      63.50612
                       2.02146                      -1.07745                      63.50545
                       2.22704                      -0.55821                      63.50506
                       2.25390                      -0.00480                      67.88475
                       2.18558                       0.53601                      67.88499
                       1.98491                       1.04284                      67.88554
                       1.66451                       1.48384                      67.88638
                       1.24450                       1.83130                      67.88743
                       0.75127                       2.06340                      67.88864
                       0.21582                       2.16554                      67.88994
                      -0.32820                       2.13131                      67.89123
                      -0.84663                       1.96286                      67.89244
                      -1.30688                       1.67078                      67.89350
                      -1.68002                       1.27342                      67.89433
                      -1.94263                       0.79574                      67.89488
                      -2.07819                       0.26776                      67.89513
                      -2.07819                      -0.27735                      67.89505
                      -1.94263                      -0.80533                      67.89464
                      -1.68003                      -1.28301                      67.89395
                      -1.30688                      -1.68037                      67.89300
                      -0.84663                      -1.97246                      67.89185
                      -0.32820                      -2.14090                      67.89059
                       0.21582                      -2.17513                      67.88929
                       0.75127                      -2.07299                      67.88802
                       1.24450                      -1.84089                      67.88688
                       1.66451                      -1.49343                      67.88593
                       1.98491                      -1.05243                      67.88523
                       2.18558                      -0.54560                      67.88483
                       2.21141                      -0.00547                      72.26458
                       2.14476                       0.52209                      72.26483
                       1.94901                       1.01651                      72.26540
                       1.63645                       1.44671                      72.26626
                       1.22673                       1.78566                      72.26734
                       0.74558                       2.01207                      72.26859
                       0.22324                       2.11171                      72.26993
                      -0.30746                       2.07833                      72.27126
                      -0.81319                       1.91400                      72.27251
                      -1.26217                       1.62907                      72.27359
                      -1.62618                       1.24144                      72.27445
                      -1.88236                       0.77546                      72.27502
                      -2.01460                       0.26040                      72.27527
                      -2.01460                      -0.27135                      72.27519
                      -1.88236                      -0.78640                      72.27477
                      -1.62618                      -1.25239                      72.27405
                      -1.26217                      -1.64002                      72.27307
                      -0.81320                      -1.92495                      72.27189
                      -0.30747                      -2.08927                      72.27059
                       0.22324                      -2.12266                      72.26925
                       0.74558                      -2.02302                      72.26795
                       1.22673                      -1.79661                      72.26677
                       1.63645                      -1.45766                      72.26579
                       1.94901                      -1.02745                      72.26508
                       2.14476                      -0.53304                      72.26466
                       2.16941                      -0.00619                      76.64452
                       2.10443                       0.50813                      76.64477
                       1.91360                       0.99014                      76.64535
                       1.60888                       1.40954                      76.64622
                       1.20944                       1.73998                      76.64731
                       0.74037                       1.96071                      76.64857
                       0.23115                       2.05785                      76.64992
                      -0.28624                       2.02530                      76.65126
                      -0.77927                       1.86510                      76.65252
                      -1.21698                       1.58733                      76.65361
                      -1.57185                       1.20942                      76.65447
                      -1.82160                       0.75514                      76.65505
                      -1.95052                       0.25301                      76.65530
                      -1.95052                      -0.26540                      76.65521
                      -1.82160                      -0.76752                      76.65479
                      -1.57185                      -1.22181                      76.65407
                      -1.21698                      -1.59971                      76.65308
                      -0.77927                      -1.87749                      76.65189
                      -0.28624                      -2.03768                      76.65058
                       0.23115                      -2.07024                      76.64922
                       0.74037                      -1.97310                      76.64791
                       1.20944                      -1.75237                      76.64673
                       1.60888                      -1.42192                      76.64574
                       1.91360                      -1.00252                      76.64502
                       2.10443                      -0.52051                      76.64460
                       2.12763                      -0.00694                      81.02462
                       2.06433                       0.49414                      81.02487
                       1.87841                       0.96373                      81.02544
                       1.58154                       1.37233                      81.02629
                       1.19239                       1.69427                      81.02737
                       0.73539                       1.90932                      81.02860
                       0.23928                       2.00396                      81.02991
                      -0.26478                       1.97224                      81.03123
                      -0.74512                       1.81617                      81.03246
                      -1.17156                       1.54554                      81.03353
                      -1.51730                       1.17737                      81.03437
                      -1.76061                       0.73478                      81.03493
                      -1.88621                       0.24559                      81.03517
                      -1.88621                      -0.25947                      81.03508
                      -1.76061                      -0.74867                      81.03467
                      -1.51730                      -1.19126                      81.03395
                      -1.17156                      -1.55943                      81.03299
                      -0.74512                      -1.83006                      81.03182
                      -0.26478                      -1.98613                      81.03054
                       0.23928                      -2.01784                      81.02921
                       0.73539                      -1.92320                      81.02793
                       1.19238                      -1.70816                      81.02677
                       1.58154                      -1.38622                      81.02581
                       1.87841                      -0.97762                      81.02510
                       2.06433                      -0.50802                      81.02470
                       2.08568                      -0.00772                      85.40494
                       2.02405                       0.48012                      85.40518
                       1.84304                       0.93730                      85.40572
                       1.55402                       1.33511                      85.40652
                       1.17515                       1.64854                      85.40753
                       0.73023                       1.85790                      85.40869
                       0.24723                       1.95003                      85.40992
                      -0.24351                       1.91916                      85.41115
                      -0.71116                       1.76721                      85.41230
                      -1.12632                       1.50374                      85.41330
                      -1.46292                       1.14529                      85.41408
                      -1.69981                       0.71440                      85.41460
                      -1.82209                       0.23814                      85.41482
                      -1.82209                      -0.25358                      85.41474
                      -1.69981                      -0.72984                      85.41434
                      -1.46292                      -1.16073                      85.41367
                      -1.12632                      -1.51918                      85.41276
                      -0.71116                      -1.78265                      85.41166
                      -0.24351                      -1.93460                      85.41046
                       0.24723                      -1.96547                      85.40922
                       0.73023                      -1.87334                      85.40802
                       1.17515                      -1.66397                      85.40694
                       1.55402                      -1.35054                      85.40604
                       1.84304                      -0.95274                      85.40538
                       2.02405                      -0.49556                      85.40501
                       2.06446                      -0.00812                      87.59520
                       2.00367                       0.47310                      87.59544
                       1.82512                       0.92408                      87.59595
                       1.54002                       1.31648                      87.59671
                       1.16629                       1.62566                      87.59767
                       0.72741                       1.83218                      87.59876
                       0.25097                       1.92307                      87.59993
                      -0.23311                       1.89261                      87.60109
                      -0.69441                       1.74272                      87.60218
                      -1.10394                       1.48283                      87.60312
                      -1.43598                       1.12925                      87.60386
                      -1.66965                       0.70420                      87.60434
                      -1.79027                       0.23440                      87.60455
                      -1.79027                      -0.25064                      87.60446
                      -1.66965                      -0.72044                      87.60408
                      -1.43598                      -1.14548                      87.60344
                      -1.10394                      -1.49906                      87.60258
                      -0.69441                      -1.75896                      87.60154
                      -0.23312                      -1.90884                      87.60040
                       0.25097                      -1.93930                      87.59923
                       0.72741                      -1.84841                      87.59810
                       1.16629                      -1.64189                      87.59708
                       1.54002                      -1.33271                      87.59623
                       1.82511                      -0.94031                      87.59561
                       2.00367                      -0.48933                      87.59526
                       3.00000                       0.00000                       0.00000
                       2.90575                       0.74607                       0.00000
                       2.62892                       1.44526                       0.00000
                       2.18691                       2.05364                       0.00000
                       1.60748                       2.53298                       0.00000
                       0.92705                       2.85317                       0.00000
                       0.18837                       2.99408                       0.00000
                      -0.56214                       2.94686                       0.00000
                      -1.27734                       2.71448                       0.00000
                      -1.91227                       2.31154                       0.00000
                      -2.42705                       1.76336                       0.00000
                      -2.78933                       1.10437                       0.00000
                      -2.97634                       0.37600                       0.00000
                      -2.97634                      -0.37600                       0.00000
                      -2.78933                      -1.10437                       0.00000
                      -2.42705                      -1.76336                       0.00000
                      -1.91227                      -2.31154                       0.00000
                      -1.27734                      -2.71448                       0.00000
                      -0.56214                      -2.94686                       0.00000
                       0.18837                      -2.99408                       0.00000
                       0.92705                      -2.85317                       0.00000
                       1.60748                      -2.53298                       0.00000
                       2.18691                      -2.05364                       0.00000
                       2.62892                      -1.44526                       0.00000
                       2.90575                      -0.74607                       0.00000
        </DataArray>
      </Points>
      <Polys>
        <DataArray type="Int32" Name="connectivity" format="ascii">
      0      1     26     25
      1      2     27     26
      2      3     28     27
      3      4     29     28
      4      5     30     29
      5      6     31     30
      6      7     32     31
      7      8     33     32
      8      9     34     33
      9     10     35     34
     10     11     36     35
     11     12     37     36
     12     13     38     37
     13     14     39     38
     14     15     40     39
     15     16     41     40
     16     17     42     41
     17     18     43     42
     18     19     44     43
     19     20     45     44
     20     21     46     45
     21     22     47     46
     22     23     48     47
     23     24     49     48
     24      0     25     49
     24     23     22     21     20     19     18     17     16     15     14     13     12     11     10      9      8      7      6      5      4      3      2      1      0
     25     26     27     28     29     30     31     32     33     34     35     36     37     38     39     40     41     42     43     44     45     46     47     48     49
     25     26     51     50
     26     27     52     51
     27     28     53     52
     28     29     54     53
     29     30     55     54
     30     31     56     55
     31     32     57     56
     32     33     58     57
     33     34     59     58
     34     35     60     59
     35     36     61     60
     36     37     62     61
     37     38     63     62
     38     39     64     63
     39     40     65     64
     40     41     66     65
     41     42     67     66
     42     43     68     67
     43     44     69     68
     44     45     70     69
     45     46     71     70
     46     47     72     71
     47     48     73     72
     48     49     74     73
     49     25     50     74
     49     48     47     46     45     44     43     42     41     40     39     38     37     36     35     34     33     32     31     30     29     28     27     26     25
     50     51     52     53     54     55     56     57     58     59     60     61     62     63     64     65     66     67     68     69     70     71     72     73     74
     50     51     76     75
     51     52     77     76
     52     53     78     77
     53     54     79     78
     54     55     80     79
     55     56     81     80
     56     57     82     81
     57     58     83     82
     58     59     84     83
     59     60     85     84
     60     61     86     85
     61     62     87     86
     62     63     88     87
     63     64     89     88
     64     65     90     89
     65     66     91     90
     66     67     92     91
     67     68     93     92
     68     69     94     93
     69     70     95     94
     70     71     96     95
     71     72     97     96
     72     73     98     97
     73     74     99     98
     74     50     75     99
     74     73     72     71     70     69     68     67     66     65     64     63     62     61     60     59     58     57     56     55     54     53     52     51     50
     75     76     77     78     79     80     81     82     83     84     85     86     87     88     89     90     91     92     93     94     95     96     97     98     99
     75     76    101    100
     76     77    102    101
     77     78    103    102
     78     79    104    103
     79     80    105    104
     80     81    106    105
     81     82    107    106
     82     83    108    107
     83     84    109    108
     84     85    110    109
     85     86    111    110
     86     87    112    111
     87     88    113    112
     88     89    114    113
     89     90    115    114
     90     91    116    115
     91     92    117    116
     92     93    118    117
     93     94    119    118
     94     95    120    119
     95     96    121    120
     96     97    122    121
     97     98    123    122
     98     99    124    123
     99     75    100    124
     99     98     97     96     95     94     93     92     91     90     89     88     87     86     85     84     83     82     81     80     79     78     77     76     75
    100    101    102    103    104    105    106    107    108    109    110    111    112    113    114    115    116    117    118    119    120    121    122    123    124
    100    101    126    125
    101    102    127    126
    102    103    128    127
    103    104    129    128
    104    105    130    129
    105    106    131    130
    106    107    132    131
    107    108    133    132
    108    109    134    133
    109    110    135    134
    110    111    136    135
    111    112    137    136
    112    113    138    137
    113    114    139    138
    114    115    140    139
    115    116    141    140
    116    117    142    141
    117    118    143    142
    118    119    144    143
    119    120    145    144
    120    121    146    145
    121    122    147    146
    122    123    148    147
    123    124    149    148
    124    100    125    149
    124    123    122    121    120    119    118    117    116    115    114    113    112    111    110    109    108    107    106    105    104    103    102    101    100
    125    126    127    128    129    130    131    132    133    134    135    136    137    138    139    140    141    142    143    144    145    146    147    148    149
    125    126    151    150
    126    127    152    151
    127    128    153    152
    128    129    154    153
    129    130    155    154
    130    131    156    155
    131    132    157    156
    132    133    158    157
    133    134    159    158
    134    135    160    159
    135    136    161    160
    136    137    162    161
    137    138    163    162
    138    139    164    163
    139    140    165    164
    140    141    166    165
    141    142    167    166
    142    143    168    167
    143    144    169    168
    144    145    170    169
    145    146    171    170
    146    147    172    171
    147    148    173    172
    148    149    174    173
    149    125    150    174
    149    148    147    146    145    144    143    142    141    140    139    138    137    136    135    134    133    132    131    130    129    128    127    126    125
    150    151    152    153    154    155    156    157    158    159    160    161    162    163    164    165    166    167    168    169    170    171    172    173    174
    150    151    176    175
    151    152    177    176
    152    153    178    177
    153    154    179    178
    154    155    180    179
    155    156    181    180
    156    157    182    181
    157    158    183    182
    158    159    184    183
    159    160    185    184
    160    161    186    185
    161    162    187    186
    162    163    188    187
    163    164    189    188
    164    165    190    189
    165    166    191    190
    166    167    192    191
    167    168    193    192
    168    169    194    193
    169    170    195    194
    170    171    196    195
    171    172    197    196
    172    173    198    197
    173    174    199    198
    174    150    175    199
    174    173    172    171    170    169    168    167    166    165    164    163    162    161    160    159    158    157    156    155    154    153    152    151    150
    175    176    177    178    179    180    181    182    183    184    185    186    187    188    189    190    191    192    193    194    195    196    197    198    199
    175    176    201    200
    176    177    202    201
    177    178    203    202
    178    179    204    203
    179    180    205    204
    180    181    206    205
    181    182    207    206
    182    183    208    207
    183    184    209    208
    184    185    210    209
    185    186    211    210
    186    187    212    211
    187    188    213    212
    188    189    214    213
    189    190    215    214
    190    191    216    215
    191    192    217    216
    192    193    218    217
    193    194    219    218
    194    195    220    219
    195    196    221    220
    196    197    222    221
    197    198    223    222
    198    199    224    223
    199    175    200    224
    199    198    197    196    195    194    193    192    191    190    189    188    187    186    185    184    183    182    181    180    179    178    177    176    175
    200    201    202    203    204    205    206    207    208    209    210    211    212    213    214    215    216    217    218    219    220    221    222    223    224
    200    201    226    225
    201    202    227    226
    202    203    228    227
    203    204    229    228
    204    205    230    229
    205    206    231    230
    206    207    232    231
    207    208    233    232
    208    209    234    233
    209    210    235    234
    210    211    236    235
    211    212    237    236
    212    213    238    237
    213    214    239    238
    214    215    240    239
    215    216    241    240
    216    217    242    241
    217    218    243    242
    218    219    244    243
    219    220    245    244
    220    221    246    245
    221    222    247    246
    222    223    248    247
    223    224    249    248
    224    200    225    249
    224    223    222    221    220    219    218    217    216    215    214    213    212    211    210    209    208    207    206    205    204    203    202    201    200
    225    226    227    228    229    230    231    232    233    234    235    236    237    238    239    240    241    242    243    244    245    246    247    248    249
    225    226    251    250
    226    227    252    251
    227    228    253    252
    228    229    254    253
    229    230    255    254
    230    231    256    255
    231    232    257    256
    232    233    258    257
    233    234    259    258
    234    235    260    259
    235    236    261    260
    236    237    262    261
    237    238    263    262
    238    239    264    263
    239    240    265    264
    240    241    266    265
    241    242    267    266
    242    243    268    267
    243    244    269    268
    244    245    270    269
    245    246    271    270
    246    247    272    271
    247    248    273    272
    248    249    274    273
    249    225    250    274
    249    248    247    246    245    244    243    242    241    240    239    238    237    236    235    234    233    232    231    230    229    228    227    226    225
    250    251    252    253    254    255    256    257    258    259    260    261    262    263    264    265    266    267    268    269    270    271    272    273    274
    250    251    276    275
    251    252    277    276
    252    253    278    277
    253    254    279    278
    254    255    280    279
    255    256    281    280
    256    257    282    281
    257    258    283    282
    258    259    284    283
    259    260    285    284
    260    261    286    285
    261    262    287    286
    262    263    288    287
    263    264    289    288
    264    265    290    289
    265    266    291    290
    266    267    292    291
    267    268    293    292
    268    269    294    293
    269    270    295    294
    270    271    296    295
    271    272    297    296
    272    273    298    297
    273    274    299    298
    274    250    275    299
    274    273    272    271    270    269    268    267    266    265    264    263    262    261    260    259    258    257    256    255    254    253    252    251    250
    275    276    277    278    279    280    281    282    283    284    285    286    287    288    289    290    291    292    293    294    295    296    297    298    299
    275    276    301    300
    276    277    302    301
    277    278    303    302
    278    279    304    303
    279    280    305    304
    280    281    306    305
    281    282    307    306
    282    283    308    307
    283    284    309    308
    284    285    310    309
    285    286    311    310
    286    287    312    311
    287    288    313    312
    288    289    314    313
    289    290    315    314
    290    291    316    315
    291    292    317    316
    292    293    318    317
    293    294    319    318
    294    295    320    319
    295    296    321    320
    296    297    322    321
    297    298    323    322
    298    299    324    323
    299    275    300    324
    299    298    297    296    295    294    293    292    291    290    289    288    287    286    285    284    283    282    281    280    279    278    277    276    275
    300    301    302    303    304    305    306    307    308    309    310    311    312    313    314    315    316    317    318    319    320    321    322    323    324
    300    301    326    325
    301    302    327    326
    302    303    328    327
    303    304    329    328
    304    305    330    329
    305    306    331    330
    306    307    332    331
    307    308    333    332
    308    309    334    333
    309    310    335    334
    310    311    336    335
    311    312    337    336
    312    313    338    337
    313    314    339    338
    314    315    340    339
    315    316    341    340
    316    317    342    341
    317    318    343    342
    318    319    344    343
    319    320    345    344
    320    321    346    345
    321    322    347    346
    322    323    348    347
    323    324    349    348
    324    300    325    349
    324    323    322    321    320    319    318    317    316    315    314    313    312    311    310    309    308    307    306    305    304    303    302    301    300
    325    326    327    328    329    330    331    332    333    334    335    336    337    338    339    340    341    342    343    344    345    346    347    348    349
    325    326    351    350
    326    327    352    351
    327    328    353    352
    328    329    354    353
    329    330    355    354
    330    331    356    355
    331    332    357    356
    332    333    358    357
    333    334    359    358
    334    335    360    359
    335    336    361    360
    336    337    362    361
    337    338    363    362
    338    339    364    363
    339    340    365    364
    340    341    366    365
    341    342    367    366
    342    343    368    367
    343    344    369    368
    344    345    370    369
    345    346    371    370
    346    347    372    371
    347    348    373    372
    348    349    374    373
    349    325    350    374
    349    348    347    346    345    344    343    342    341    340    339    338    337    336    335    334    333    332    331    330    329    328    327    326    325
    350    351    352    353    354    355    356    357    358    359    360    361    362    363    364    365    366    367    368    369    370    371    372    373    374
    350    351    376    375
    351    352    377    376
    352    353    378    377
    353    354    379    378
    354    355    380    379
    355    356    381    380
    356    357    382    381
    357    358    383    382
    358    359    384    383
    359    360    385    384
    360    361    386    385
    361    362    387    386
    362    363    388    387
    363    364    389    388
    364    365    390    389
    365    366    391    390
    366    367    392    391
    367    368    393    392
    368    369    394    393
    369    370    395    394
    370    371    396    395
    371    372    397    396
    372    373    398    397
    373    374    399    398
    374    350    375    399
    374    373    372    371    370    369    368    367    366    365    364    363    362    361    360    359    358    357    356    355    354    353    352    351    350
    375    376    377    378    379    380    381    382    383    384    385    386    387    388    389    390    391    392    393    394    395    396    397    398    399
    375    376    401    400
    376    377    402    401
    377    378    403    402
    378    379    404    403
    379    380    405    404
    380    381    406    405
    381    382    407    406
    382    383    408    407
    383    384    409    408
    384    385    410    409
    385    386    411    410
    386    387    412    411
    387    388    413    412
    388    389    414    413
    389    390    415    414
    390    391    416    415
    391    392    417    416
    392    393    418    417
    393    394    419    418
    394    395    420    419
    395    396    421    420
    396    397    422    421
    397    398    423    422
    398    399    424    423
    399    375    400    424
    399    398    397    396    395    394    393    392    391    390    389    388    387    386    385    384    383    382    381    380    379    378    377    376    375
    400    401    402    403    404    405    406    407    408    409    410    411    412    413    414    415    416    417    418    419    420    421    422    423    424
    400    401    426    425
    401    402    427    426
    402    403    428    427
    403    404    429    428
    404    405    430    429
    405    406    431    430
    406    407    432    431
    407    408    433    432
    408    409    434    433
    409    410    435    434
    410    411    436    435
    411    412    437    436
    412    413    438    437
    413    414    439    438
    414    415    440    439
    415    416    441    440
    416    417    442    441
    417    418    443    442
    418    419    444    443
    419    420    445    444
    420    421    446    445
    421    422    447    446
    422    423    448    447
    423    424    449    448
    424    400    425    449
    424    423    422    421    420    419    418    417    416    415    414    413    412    411    410    409    408    407    406    405    404    403    402    401    400
    425    426    427    428    429    430    431    432    433    434    435    436    437    438    439    440    441    442    443    444    445    446    447    448    449
    425    426    451    450
    426    427    452    451
    427    428    453    452
    428    429    454    453
    429    430    455    454
    430    431    456    455
    431    432    457    456
    432    433    458    457
    433    434    459    458
    434    435    460    459
    435    436    461    460
    436    437    462    461
    437    438    463    462
    438    439    464    463
    439    440    465    464
    440    441    466    465
    441    442    467    466
    442    443    468    467
    443    444    469    468
    444    445    470    469
    445    446    471    470
    446    447    472    471
    447    448    473    472
    448    449    474    473
    449    425    450    474
    449    448    447    446    445    444    443    442    441    440    439    438    437    436    435    434    433    432    431    430    429    428    427    426    425
    450    451    452    453    454    455    456    457    458    459    460    461    462    463    464    465    466    467    468    469    470    471    472    473    474
    450    451    476    475
    451    452    477    476
    452    453    478    477
    453    454    479    478
    454    455    480    479
    455    456    481    480
    456    457    482    481
    457    458    483    482
    458    459    484    483
    459    460    485    484
    460    461    486    485
    461    462    487    486
    462    463    488    487
    463    464    489    488
    464    465    490    489
    465    466    491    490
    466    467    492    491
    467    468    493    492
    468    469    494    493
    469    470    495    494
    470    471    496    495
    471    472    497    496
    472    473    498    497
    473    474    499    498
    474    450    475    499
    474    473    472    471    470    469    468    467    466    465    464    463    462    461    460    459    458    457    456    455    454    453    452    451    450
    475    476    477    478    479    480    481    482    483    484    485    486    487    488    489    490    491    492    493    494    495    496    497    498    499
    475    476    501    500
    476    477    502    501
    477    478    503    502
    478    479    504    503
    479    480    505    504
    480    481    506    505
    481    482    507    506
    482    483    508    507
    483    484    509    508
    484    485    510    509
    485    486    511    510
    486    487    512    511
    487    488    513    512
    488    489    514    513
    489    490    515    514
    490    491    516    515
    491    492    517    516
    492    493    518    517
    493    494    519    518
    494    495    520    519
    495    496    521    520
    496    497    522    521
    497    498    523    522
    498    499    524    523
    499    475    500    524
    499    498    497    496    495    494    493    492    491    490    489    488    487    486    485    484    483    482    481    480    479    478    477    476    475
    500    501    502    503    504    505    506    507    508    509    510    511    512    513    514    515    516    517    518    519    520    521    522    523    524
    525    526      1      0
    526    527      2      1
    527    528      3      2
    528    529      4      3
    529    530      5      4
    530    531      6      5
    531    532      7      6
    532    533      8      7
    533    534      9      8
    534    535     10      9
    535    536     11     10
    536    537     12     11
    537    538     13     12
    538    539     14     13
    539    540     15     14
    540    541     16     15
    541    542     17     16
    542    543     18     17
    543    544     19     18
    544    545     20     19
    545    546     21     20
    546    547     22     21
    547    548     23     22
    548    549     24     23
    549    525      0     24
    549    548    547    546    545    544    543    542    541    540    539    538    537    536    535    534    533    532    531    530    529    528    527    526    525
      0      1      2      3      4      5      6      7      8      9     10     11     12     13     14     15     16     17     18     19     20     21     22     23     24
        </DataArray>
        <DataArray type="Int32" Name="offsets" format="ascii">
      4
      8
     12
     16
     20
     24
     28
     32
     36
     40
     44
     48
     52
     56
     60
     64
     68
     72
     76
     80
     84
     88
     92
     96
    100
    125
    150
    154
    158
    162
    166
    170
    174
    178
    182
    186
    190
    194
    198
    202
    206
    210
    214
    218
    222
    226
    230
    234
    238
    242
    246
    250
    275
    300
    304
    308
    312
    316
    320
    324
    328
    332
    336
    340
    344
    348
    352
    356
    360
    364
    368
    372
    376
    380
    384
    388
    392
    396
    400
    425
    450
    454
    458
    462
    466
    470
    474
    478
    482
    486
    490
    494
    498
    502
    506
    510
    514
    518
    522
    526
    530
    534
    538
    542
    546
    550
    575
    600
    604
    608
    612
    616
    620
    624
    628
    632
    636
    640
    644
    648
    652
    656
    660
    664
    668
    672
    676
    680
    684
    688
    692
    696
    700
    725
    750
    754
    758
    762
    766
    770
    774
    778
    782
    786
    790
    794
    798
    802
    806
    810
    814
    818
    822
    826
    830
    834
    838
    842
    846
    850
    875
    900
    904
    908
    912
    916
    920
    924
    928
    932
    936
    940
    944
    948
    952
    956
    960
    964
    968
    972
    976
    980
    984
    988
    992
    996
   1000
   1025
   1050
   1054
   1058
   1062
   1066
   1070
   1074
   1078
   1082
   1086
   1090
   1094
   1098
   1102
   1106
   1110
   1114
   1118
   1122
   1126
   1130
   1134
   1138
   1142
   1146
   1150
   1175
   1200
   1204
   1208
   1212
   1216
   1220
   1224
   1228
   1232
   1236
   1240
   1244
   1248
   1252
   1256
   1260
   1264
   1268
   1272
   1276
   1280
   1284
   1288
   1292
   1296
   1300
   1325
   1350
   1354
   1358
   1362
   1366
   1370
   1374
   1378
   1382
   1386
   1390
   1394
   1398
   1402
   1406
   1410
   1414
   1418
   1422
   1426
   1430
   1434
   1438
   1442
   1446
   1450
   1475
   1500
   1504
   1508
   1512
   1516
   1520
   1524
   1528
   1532
   1536
   1540
   1544
   1548
   1552
   1556
   1560
   1564
   1568
   1572
   1576
   1580
   1584
   1588
   1592
   1596
   1600
   1625
   1650
   1654
   1658
   1662
   1666
   1670
   1674
   1678
   1682
   1686
   1690
   1694
   1698
   1702
   1706
   1710
   1714
   1718
   1722
   1726
   1730
   1734
   1738
   1742
   1746
   1750
   1775
   1800
   1804
   1808
   1812
   1816
   1820
   1824
   1828
   1832
   1836
   1840
   1844
   1848
   1852
   1856
   1860
   1864
   1868
   1872
   1876
   1880
   1884
   1888
   1892
   1896
   1900
   1925
   1950
   1954
   1958
   1962
   1966
   1970
   1974
   1978
   1982
   1986
   1990
   1994
   1998
   2002
   2006
   2010
   2014
   2018
   2022
   2026
   2030
   2034
   2038
   2042
   2046
   2050
   2075
   2100
   2104
   2108
   2112
   2116
   2120
   2124
   2128
   2132
   2136
   2140
   2144
   2148
   2152
   2156
   2160
   2164
   2168
   2172
   2176
   2180
   2184
   2188
   2192
   2196
   2200
   2225
   2250
   2254
   2258
   2262
   2266
   2270
   2274
   2278
   2282
   2286
   2290
   2294
   2298
   2302
   2306
   2310
   2314
   2318
   2322
   2326
   2330
   2334
   2338
   2342
   2346
   2350
   2375
   2400
   2404
   2408
   2412
   2416
   2420
   2424
   2428
   2432
   2436
   2440
   2444
   2448
   2452
   2456
   2460
   2464
   2468
   2472
   2476
   2480
   2484
   2488
   2492
   2496
   2500
   2525
   2550
   2554
   2558
   2562
   2566
   2570
   2574
   2578
   2582
   2586
   2590
   2594
   2598
   2602
   2606
   2610
   2614
   2618
   2622
   2626
   2630
   2634
   2638
   2642
   2646
   2650
   2675
   2700
   2704
   2708
   2712
   2716
   2720
   2724
   2728
   2732
   2736
   2740
   2744
   2748
   2752
   2756
   2760
   2764
   2768
   2772
   2776
   2780
   2784
   2788
   2792
   2796
   2800
   2825
   2850
   2854
   2858
   2862
   2866
   2870
   2874
   2878
   2882
   2886
   2890
   2894
   2898
   2902
   2906
   2910
   2914
   2918
   2922
   2926
   2930
   2934
   2938
   2942
   2946
   2950
   2975
   3000
   3004
   3008
   3012
   3016
   3020
   3024
   3028
   3032
   3036
   3040
   3044
   3048
   3052
   3056
   3060
   3064
   3068
   3072
   3076
   3080
   3084
   3088
   3092
   3096
   3100
   3125
   3150
        </DataArray>
      </Polys>
    </Piece>
  </PolyData>
</VTKFile>
