<?xml version="1.0"?>
<VTKFile type="PolyData" version="0.1" byte_order="LittleEndian">
  <PolyData>
    <Piece NumberOfPoints="     22" NumberOfVerts="  0" NumberOfLines="     21"
           NumberOfStrips="  0" NumberOfPolys="      0">
      <Points>
        <DataArray type="Float32" NumberOfComponents="3" format="ascii">
                       0.00027                      -0.00001                       2.19000
                       0.00275                      -0.00012                       6.57000
                       0.00823                      -0.00031                      10.95000
                       0.01696                      -0.00060                      15.32999
                       0.02900                      -0.00097                      19.70997
                       0.04428                      -0.00142                      24.08994
                       0.06267                      -0.00198                      28.46990
                       0.08408                      -0.00264                      32.84985
                       0.10844                      -0.00342                      37.22978
                       0.13576                      -0.00433                      41.60970
                       0.16612                      -0.00539                      45.98959
                       0.19966                      -0.00659                      50.36946
                       0.23654                      -0.00796                      54.74931
                       0.27690                      -0.00950                      59.12912
                       0.32082                      -0.01121                      63.50890
                       0.36819                      -0.01308                      67.88864
                       0.41866                      -0.01511                      72.26835
                       0.47149                      -0.01729                      76.64803
                       0.52543                      -0.01959                      81.02770
                       0.57859                      -0.02199                      85.40738
                       0.60407                      -0.02322                      87.59723
                       0.00000                       0.00000                       0.00000
        </DataArray>
      </Points>
      <PointData>
        <DataArray type="Float32" Name="TranslationalVelocity" NumberOfComponents="3" format="ascii">
                       0.00003                      -0.00001                      -0.00000
                       0.00032                      -0.00005                      -0.00000
                       0.00091                      -0.00012                      -0.00000
                       0.00181                      -0.00024                      -0.00000
                       0.00298                      -0.00038                      -0.00001
                       0.00438                      -0.00056                      -0.00001
                       0.00596                      -0.00078                      -0.00002
                       0.00767                      -0.00104                      -0.00003
                       0.00943                      -0.00134                      -0.00004
                       0.01119                      -0.00169                      -0.00005
                       0.01290                      -0.00210                      -0.00006
                       0.01450                      -0.00257                      -0.00007
                       0.01597                      -0.00310                      -0.00008
                       0.01726                      -0.00369                      -0.00010
                       0.01836                      -0.00434                      -0.00011
                       0.01924                      -0.00506                      -0.00012
                       0.01990                      -0.00583                      -0.00012
                       0.02032                      -0.00666                      -0.00013
                       0.02049                      -0.00754                      -0.00013
                       0.02041                      -0.00845                      -0.00013
                       0.02027                      -0.00892                      -0.00013
                       0.00000                      -0.00000                       0.00000
        </DataArray>
        <DataArray type="Float32" Name="RotationalVelocity" NumberOfComponents="3" format="ascii">
                       0.00000                       0.00003                       0.00000
                       0.00001                       0.00010                       0.00000
                       0.00002                       0.00017                       0.00000
                       0.00003                       0.00024                       0.00000
                       0.00004                       0.00030                       0.00000
                       0.00005                       0.00034                       0.00000
                       0.00005                       0.00038                       0.00000
                       0.00006                       0.00040                       0.00000
                       0.00007                       0.00040                       0.00000
                       0.00009                       0.00040                       0.00000
                       0.00010                       0.00038                       0.00000
                       0.00011                       0.00035                       0.00000
                       0.00013                       0.00032                       0.00000
                       0.00014                       0.00027                       0.00000
                       0.00016                       0.00023                       0.00000
                       0.00017                       0.00018                       0.00000
                       0.00018                       0.00012                       0.00000
                       0.00020                       0.00007                       0.00000
                       0.00020                       0.00001                       0.00000
                       0.00021                      -0.00005                       0.00000
                       0.00021                      -0.00008                       0.00000
                       0.00000                      -0.00000                       0.00000
        </DataArray>
        <DataArray type="Float32" Name="TranslationalAcceleration" NumberOfComponents="3" format="ascii">
                       0.00011                      -0.00004                      -0.00000
                       0.00107                      -0.00031                      -0.00000
                       0.00321                      -0.00078                      -0.00000
                       0.00665                      -0.00141                      -0.00001
                       0.01140                      -0.00212                      -0.00002
                       0.01746                      -0.00286                      -0.00005
                       0.02479                      -0.00357                      -0.00008
                       0.03336                      -0.00416                      -0.00012
                       0.04317                      -0.00458                      -0.00018
                       0.05424                      -0.00472                      -0.00025
                       0.06663                      -0.00452                      -0.00033
                       0.08039                      -0.00386                      -0.00044
                       0.09562                      -0.00268                      -0.00057
                       0.11239                      -0.00090                      -0.00072
                       0.13074                       0.00156                      -0.00091
                       0.15062                       0.00472                      -0.00112
                       0.17190                       0.00862                      -0.00136
                       0.19425                       0.01321                      -0.00163
                       0.21715                       0.01843                      -0.00191
                       0.23980                       0.02414                      -0.00218
                       0.25069                       0.02712                      -0.00231
                       0.00000                      -0.00000                       0.00000
        </DataArray>
        <DataArray type="Float32" Name="RotationalAcceleration" NumberOfComponents="3" format="ascii">
                       0.00003                       0.00010                       0.00000
                       0.00009                       0.00035                       0.00000
                       0.00013                       0.00063                       0.00000
                       0.00015                       0.00093                       0.00000
                       0.00017                       0.00124                       0.00000
                       0.00017                       0.00153                       0.00000
                       0.00015                       0.00182                       0.00000
                       0.00012                       0.00210                       0.00000
                       0.00007                       0.00238                       0.00000
                      -0.00000                       0.00267                       0.00000
                      -0.00009                       0.00298                       0.00000
                      -0.00021                       0.00331                       0.00000
                      -0.00034                       0.00365                       0.00000
                      -0.00048                       0.00401                       0.00000
                      -0.00064                       0.00437                       0.00000
                      -0.00081                       0.00471                       0.00000
                      -0.00097                       0.00500                       0.00000
                      -0.00112                       0.00519                       0.00000
                      -0.00125                       0.00524                       0.00000
                      -0.00135                       0.00506                       0.00000
                      -0.00137                       0.00487                       0.00000
                       0.00000                      -0.00000                       0.00000
        </DataArray>
        <DataArray type="Float32" Name="OrientationX" NumberOfComponents="3" format="ascii">
                       1.00000                       0.00000                      -0.00026
                       1.00000                       0.00000                      -0.00089
                       1.00000                       0.00000                      -0.00162
                       1.00000                       0.00000                      -0.00237
                       1.00000                       0.00000                      -0.00312
                       0.99999                       0.00000                      -0.00385
                       0.99999                       0.00000                      -0.00455
                       0.99999                       0.00000                      -0.00523
                       0.99998                       0.00000                      -0.00590
                       0.99998                       0.00000                      -0.00658
                       0.99997                       0.00000                      -0.00729
                       0.99997                       0.00000                      -0.00803
                       0.99996                       0.00000                      -0.00881
                       0.99995                       0.00000                      -0.00962
                       0.99995                       0.00000                      -0.01043
                       0.99994                       0.00000                      -0.01119
                       0.99993                       0.00000                      -0.01183
                       0.99993                       0.00000                      -0.01225
                       0.99992                       0.00000                      -0.01231
                       0.99993                       0.00000                      -0.01186
                       0.99994                       0.00000                      -0.01137
                       1.00000                      -0.00000                       0.00000
        </DataArray>
        <DataArray type="Float32" Name="OrientationY" NumberOfComponents="3" format="ascii">
                       0.00000                       1.00000                       0.00001
                       0.00000                       1.00000                       0.00003
                       0.00000                       1.00000                       0.00005
                       0.00000                       1.00000                       0.00007
                       0.00000                       1.00000                       0.00009
                       0.00000                       1.00000                       0.00012
                       0.00000                       1.00000                       0.00014
                       0.00000                       1.00000                       0.00016
                       0.00000                       1.00000                       0.00019
                       0.00000                       1.00000                       0.00022
                       0.00000                       1.00000                       0.00026
                       0.00000                       1.00000                       0.00029
                       0.00000                       1.00000                       0.00033
                       0.00000                       1.00000                       0.00037
                       0.00000                       1.00000                       0.00041
                       0.00000                       1.00000                       0.00045
                       0.00000                       1.00000                       0.00048
                       0.00000                       1.00000                       0.00051
                       0.00000                       1.00000                       0.00054
                       0.00000                       1.00000                       0.00056
                       0.00000                       1.00000                       0.00056
                      -0.00000                       1.00000                      -0.00000
        </DataArray>
        <DataArray type="Float32" Name="OrientationZ" NumberOfComponents="3" format="ascii">
                       0.00026                      -0.00001                       1.00000
                       0.00089                      -0.00003                       1.00000
                       0.00162                      -0.00005                       1.00000
                       0.00237                      -0.00007                       1.00000
                       0.00312                      -0.00009                       1.00000
                       0.00385                      -0.00012                       0.99999
                       0.00455                      -0.00014                       0.99999
                       0.00523                      -0.00016                       0.99999
                       0.00590                      -0.00019                       0.99998
                       0.00658                      -0.00022                       0.99998
                       0.00729                      -0.00026                       0.99997
                       0.00803                      -0.00029                       0.99997
                       0.00881                      -0.00033                       0.99996
                       0.00962                      -0.00037                       0.99995
                       0.01043                      -0.00041                       0.99995
                       0.01119                      -0.00045                       0.99994
                       0.01183                      -0.00048                       0.99993
                       0.01225                      -0.00051                       0.99992
                       0.01231                      -0.00054                       0.99992
                       0.01186                      -0.00056                       0.99993
                       0.01137                      -0.00056                       0.99994
                       0.00000                      -0.00000                       1.00000
        </DataArray>
      </PointData>
      <Lines>
        <DataArray type="Int32" Name="connectivity" format="ascii">
      0      1
      1      2
      2      3
      3      4
      4      5
      5      6
      6      7
      7      8
      8      9
      9     10
     10     11
     11     12
     12     13
     13     14
     14     15
     15     16
     16     17
     17     18
     18     19
     19     20
     21      0
        </DataArray>
        <DataArray type="Int32" Name="offsets" format="ascii">
      2
      4
      6
      8
     10
     12
     14
     16
     18
     20
     22
     24
     26
     28
     30
     32
     34
     36
     38
     40
     42
        </DataArray>
      </Lines>
    </Piece>
  </PolyData>
</VTKFile>
