<?xml version="1.0"?>
<VTKFile type="PolyData" version="0.1" byte_order="LittleEndian">
  <PolyData>
    <Piece NumberOfPoints="     19" NumberOfVerts="  0" NumberOfLines="     18"
           NumberOfStrips="  0" NumberOfPolys="      0">
      <Points>
        <DataArray type="Float32" NumberOfComponents="3" format="ascii">
                      -4.81599                       0.76345                      91.29613
                      -4.77041                       1.46582                      92.46795
                      -4.69736                       2.78974                      94.86156
                      -4.63119                       4.07626                      97.27869
                      -4.54898                       5.66337                     100.31366
                      -4.39605                       7.69431                     103.87756
                      -4.21757                       9.83994                     107.37126
                      -4.03947                      11.99073                     110.86228
                      -3.86808                      14.14816                     114.35023
                      -3.71572                      16.31054                     117.83674
                      -3.59777                      18.47474                     121.32404
                      -3.52985                      20.64215                     124.81095
                      -3.53070                      22.81301                     128.29620
                      -3.62061                      24.98777                     131.77724
                      -3.81852                      27.16690                     135.25029
                      -4.08392                      28.98701                     138.13412
                      -4.36686                      30.45270                     140.42766
                      -4.71293                      31.96808                     142.68197
                      -4.92182                      32.69181                     143.82507
        </DataArray>
      </Points>
      <PointData>
        <DataArray type="Float32" Name="TranslationalVelocity" NumberOfComponents="3" format="ascii">
                       0.19323                      -3.68101                       2.20668
                       0.37362                      -7.03636                       4.21075
                       0.71526                     -13.88812                       7.99001
                       1.05014                     -20.81001                      11.66477
                       1.46888                     -29.50869                      16.20154
                       2.01399                     -39.74951                      22.01220
                       2.60202                     -49.80837                      28.15755
                       3.20720                     -59.87134                      34.32438
                       3.83139                     -69.93457                      40.51663
                       4.47493                     -79.99821                      46.72901
                       5.13688                     -90.06307                      52.95218
                       5.81635                    -100.12008                      59.18979
                       6.51094                    -110.15915                      65.44251
                       7.21689                    -120.16638                      71.71181
                       7.92894                    -130.12494                      77.99957
                       8.52204                    -138.36931                      83.25664
                       8.99434                    -144.90846                      87.49381
                       9.47139                    -151.31921                      91.87804
                       9.69814                    -154.56179                      93.97427
        </DataArray>
        <DataArray type="Float32" Name="RotationalVelocity" NumberOfComponents="3" format="ascii">
                       2.85276                      -0.00012                      -0.25662
                       2.85336                       0.00010                      -0.25675
                       2.85492                       0.00078                      -0.25717
                       2.85685                       0.00179                      -0.25775
                       2.85956                       0.00352                      -0.25862
                       2.86300                       0.00625                      -0.25976
                       2.86639                       0.00967                      -0.26087
                       2.86955                       0.01368                      -0.26186
                       2.87237                       0.01815                      -0.26262
                       2.87481                       0.02291                      -0.26310
                       2.87687                       0.02774                      -0.26327
                       2.87856                       0.03234                      -0.26313
                       2.87993                       0.03636                      -0.26271
                       2.88102                       0.03938                      -0.26208
                       2.88184                       0.04088                      -0.26134
                       2.88234                       0.04061                      -0.26073
                       2.88258                       0.03905                      -0.26032
                       2.88266                       0.03607                      -0.26004
                       2.88263                       0.03398                      -0.25997
        </DataArray>
        <DataArray type="Float32" Name="TranslationalAcceleration" NumberOfComponents="3" format="ascii">
                      -1.04398                      -6.31614                     -10.61014
                      -1.20586                      -7.63748                     -12.74107
                      -3.48351                     -21.20418                     -36.85769
                      -5.60522                     -33.34012                     -59.25735
                      -8.12484                     -47.29654                     -85.58295
                     -10.98069                     -64.17898                    -114.98526
                     -13.73854                     -81.62704                    -143.11044
                     -16.46791                     -99.13657                    -171.17584
                     -19.14045                    -116.91901                    -199.53292
                     -21.69631                    -135.01259                    -228.30219
                     -24.05674                    -153.33901                    -257.42842
                     -26.13513                    -171.79639                    -286.71786
                     -27.85314                    -190.25680                    -315.93130
                     -29.15381                    -208.62085                    -344.84393
                     -30.01569                    -226.86085                    -373.31644
                     -30.40978                    -242.02673                    -396.69871
                     -30.55161                    -254.27878                    -415.21954
                     -30.54733                    -267.10137                    -433.50572
                     -30.54611                    -273.33099                    -442.86773
        </DataArray>
        <DataArray type="Float32" Name="OrientationX" NumberOfComponents="3" format="ascii">
                       0.98222                      -0.17518                       0.06748
                       0.98221                      -0.17528                       0.06736
                       0.98215                      -0.17577                       0.06703
                       0.98202                      -0.17663                       0.06658
                       0.98179                      -0.17815                       0.06595
                       0.98687                      -0.15390                       0.04906
                       0.98973                      -0.13788                       0.03783
                       0.99167                      -0.12520                       0.03021
                       0.99332                      -0.11259                       0.02523
                       0.99463                      -0.10059                       0.02426
                       0.99544                      -0.09077                       0.02919
                       0.99580                      -0.08222                       0.04017
                       0.99538                      -0.07622                       0.05843
                       0.99358                      -0.07458                       0.08507
                       0.99043                      -0.07309                       0.11704
                       0.98665                      -0.07121                       0.14648
                       0.98276                      -0.06942                       0.17136
                       0.97767                      -0.06984                       0.19818
                       0.97457                      -0.07142                       0.21238
        </DataArray>
        <DataArray type="Float32" Name="OrientationY" NumberOfComponents="3" format="ascii">
                       0.18477                       0.83856                      -0.51252
                       0.18479                       0.83848                      -0.51265
                       0.18502                       0.83821                      -0.51301
                       0.18550                       0.83781                      -0.51348
                       0.18645                       0.83717                      -0.51418
                       0.15694                       0.84156                      -0.51687
                       0.13739                       0.84391                      -0.51859
                       0.12258                       0.84549                      -0.51973
                       0.10921                       0.84689                      -0.52044
                       0.09846                       0.84804                      -0.52071
                       0.09266                       0.84878                      -0.52056
                       0.09110                       0.84924                      -0.52009
                       0.09552                       0.84928                      -0.51923
                       0.10803                       0.84876                      -0.51763
                       0.12348                       0.84803                      -0.51536
                       0.13732                       0.84734                      -0.51299
                       0.14887                       0.84675                      -0.51073
                       0.16332                       0.84598                      -0.50758
                       0.17212                       0.84550                      -0.50547
        </DataArray>
        <DataArray type="Float32" Name="OrientationZ" NumberOfComponents="3" format="ascii">
                       0.03320                       0.51588                       0.85602
                       0.03338                       0.51598                       0.85595
                       0.03399                       0.51625                       0.85576
                       0.03491                       0.51660                       0.85551
                       0.03639                       0.51711                       0.85514
                       0.03826                       0.51778                       0.85466
                       0.03957                       0.51846                       0.85419
                       0.03952                       0.51911                       0.85379
                       0.03722                       0.51972                       0.85353
                       0.03180                       0.52030                       0.85339
                       0.02248                       0.52090                       0.85332
                       0.00865                       0.52157                       0.85316
                      -0.01005                       0.52241                       0.85264
                      -0.03360                       0.52349                       0.85137
                      -0.06159                       0.52488                       0.84895
                      -0.08758                       0.52625                       0.84581
                      -0.10965                       0.52744                       0.84249
                      -0.13221                       0.52862                       0.83850
                      -0.14347                       0.52918                       0.83630
        </DataArray>
        <DataArray type="Float32" Name="Force" NumberOfComponents="3" format="ascii">
                     161.50112                      47.42434                     -34.84362
                     180.79973                     105.62610                     -70.70841
                     264.17891                     313.69413                    -199.55981
                     260.73105                     475.15848                    -297.05497
                    3511.35616                    -978.13290                     440.12255
                    3637.95089                    -700.39057                     259.27029
                    3289.04545                    -444.22559                     115.28892
                    4343.27044                    -481.77078                      89.09864
                    5531.55046                    -523.31363                      73.65434
                    5725.82828                    -414.64119                      35.60516
                    7872.68832                    -449.54224                      61.49106
                    7282.54035                    -261.12976                      80.67770
                    3741.48106                      20.79789                      29.53684
                    1932.94461                      31.53628                      55.64159
                   -3459.12503                     185.17101                    -356.16981
                   -8726.82974                      20.56281                    -895.85446
                  -12940.34938                    -259.97457                   -1489.28821
                  -13522.68861                    -534.04382                   -1759.47520
                  -16515.87855                    -786.54904                   -2289.35889
        </DataArray>
        <DataArray type="Float32" Name="Moment" NumberOfComponents="3" format="ascii">
                       0.00000                       0.00000                       0.00000
                       0.00000                       0.00000                       0.00000
                       0.00000                       0.00000                       0.00000
                       0.00000                       0.00000                       0.00000
                     -56.68358                    -802.32530                   -1330.86688
                    -112.64464                   -1515.46787                   -2513.29884
                    -152.10645                   -1976.98971                   -3278.23690
                    -231.29840                   -3007.51142                   -4987.05264
                    -322.12714                   -4441.87487                   -7367.26612
                    -311.54710                   -5017.15275                   -8326.12484
                    -245.21300                   -5557.01020                   -9231.02159
                    -102.08501                   -5857.61462                   -9744.44401
                      81.36136                   -4346.87778                   -7245.39432
                     265.32776                   -4119.09944                   -6882.67113
                     457.75049                   -3845.95746                   -6445.17301
                     615.25741                   -3615.99706                   -6076.43535
                     679.39696                   -3175.60549                   -5348.90248
                     400.32417                   -1544.57631                   -2607.92972
                     440.40309                   -1561.97610                   -2640.50914
        </DataArray>
      </PointData>
      <Lines>
        <DataArray type="Int32" Name="connectivity" format="ascii">
      0      1
      1      2
      2      3
      3      4
      4      5
      5      6
      6      7
      7      8
      8      9
      9     10
     10     11
     11     12
     12     13
     13     14
     14     15
     15     16
     16     17
     17     18
        </DataArray>
        <DataArray type="Int32" Name="offsets" format="ascii">
      2
      4
      6
      8
     10
     12
     14
     16
     18
     20
     22
     24
     26
     28
     30
     32
     34
     36
        </DataArray>
      </Lines>
    </Piece>
  </PolyData>
</VTKFile>
