<?xml version="1.0"?>
<VTKFile type="PolyData" version="0.1" byte_order="LittleEndian">
  <PolyData>
    <Piece NumberOfPoints="     19" NumberOfVerts="  0" NumberOfLines="     18"
           NumberOfStrips="  0" NumberOfPolys="      0">
      <Points>
        <DataArray type="Float32" NumberOfComponents="3" format="ascii">
                      -5.10844                       0.10630                      88.52608
                      -5.28851                       0.22569                      87.17626
                      -5.67036                       0.55876                      84.48721
                      -6.06109                       0.93640                      81.80266
                      -6.55175                       1.43482                      78.44897
                      -7.08228                       1.89012                      74.40429
                      -7.58351                       2.21549                      70.34436
                      -8.08564                       2.53776                      66.28386
                      -8.59407                       2.85503                      62.22313
                      -9.11999                       3.16883                      58.16372
                      -9.67741                       3.48202                      54.10793
                     -10.28009                       3.79184                      50.05806
                     -10.94471                       4.09627                      46.01755
                     -11.68922                       4.39245                      41.99080
                     -12.53007                       4.67695                      37.98285
                     -13.32013                       4.90130                      34.66232
                     -14.01440                       5.06282                      32.02031
                     -14.76178                       5.15937                      29.38812
                     -15.16927                       5.24323                      28.08420
        </DataArray>
      </Points>
      <PointData>
        <DataArray type="Float32" Name="TranslationalVelocity" NumberOfComponents="3" format="ascii">
                       0.04301                       4.26897                       0.35740
                       0.07486                       8.17224                       0.69839
                       0.15934                      15.94922                       1.64965
                       0.25086                      23.70864                       2.72763
                       0.36476                      33.39189                       4.14932
                       0.45212                      45.03873                       5.44733
                       0.48767                      56.70433                       6.37620
                       0.49702                      68.35578                       7.29850
                       0.47295                      79.99562                       8.21014
                       0.40895                      91.62484                       9.11711
                       0.29935                     103.24291                      10.02950
                       0.13818                     114.84910                      10.94183
                      -0.07863                     126.43963                      11.85123
                      -0.35301                     138.00740                      12.75289
                      -0.68413                     149.54197                      13.64061
                      -1.00145                     159.11717                      14.36237
                      -1.28021                     166.74795                      14.90186
                      -1.59364                     174.35813                      15.27071
                      -1.74251                     178.13524                      15.56143
        </DataArray>
        <DataArray type="Float32" Name="RotationalVelocity" NumberOfComponents="3" format="ascii">
                       2.85855                      -0.00114                      -0.25443
                       2.85782                      -0.00077                      -0.25425
                       2.85579                       0.00032                      -0.25390
                       2.85325                       0.00186                      -0.25345
                       2.84974                       0.00442                      -0.25262
                       2.84552                       0.00848                      -0.25118
                       2.84167                       0.01381                      -0.24942
                       2.83837                       0.02059                      -0.24767
                       2.83562                       0.02903                      -0.24643
                       2.83328                       0.03926                      -0.24623
                       2.83111                       0.05126                      -0.24764
                       2.82881                       0.06484                      -0.25117
                       2.82608                       0.07958                      -0.25724
                       2.82260                       0.09472                      -0.26609
                       2.81816                       0.10919                      -0.27772
                       2.81365                       0.11974                      -0.28933
                       2.80948                       0.12634                      -0.29970
                       2.80486                       0.13057                      -0.31074
                       2.80241                       0.13156                      -0.31641
        </DataArray>
        <DataArray type="Float32" Name="TranslationalAcceleration" NumberOfComponents="3" format="ascii">
                       1.06149                      -1.00955                      12.19888
                       1.30254                      -1.28988                      14.79030
                       3.66069                      -4.49572                      42.23886
                       5.72839                      -7.89773                      67.41477
                       7.98260                     -12.19720                      96.73585
                      10.33356                     -16.02273                     130.09350
                      12.43903                     -18.70465                     162.59127
                      14.43095                     -21.34983                     194.91259
                      16.44706                     -23.98713                     227.46964
                      18.61726                     -26.65555                     260.38957
                      21.06421                     -29.39061                     293.58991
                      23.90340                     -32.17172                     326.86056
                      27.24270                     -34.97826                     359.93484
                      31.18262                     -37.78024                     392.56704
                      35.81716                     -40.54395                     424.61194
                      40.28825                     -42.78499                     450.87215
                      44.27395                     -44.46251                     471.69413
                      48.63308                     -45.65320                     492.55730
                      50.98782                     -46.54663                     502.99966
        </DataArray>
        <DataArray type="Float32" Name="OrientationX" NumberOfComponents="3" format="ascii">
                       0.96637                       0.23299                      -0.10886
                       0.96638                       0.23300                      -0.10871
                       0.96639                       0.23321                      -0.10817
                       0.96638                       0.23364                      -0.10734
                       0.96631                       0.23453                      -0.10601
                       0.97274                       0.20534                      -0.10776
                       0.97651                       0.18601                      -0.10881
                       0.97898                       0.17142                      -0.11051
                       0.98077                       0.15838                      -0.11403
                       0.98166                       0.14811                      -0.12004
                       0.98129                       0.14294                      -0.12902
                       0.97965                       0.14223                      -0.14159
                       0.97635                       0.14771                      -0.15789
                       0.97076                       0.16145                      -0.17765
                       0.96322                       0.17830                      -0.20102
                       0.95551                       0.19338                      -0.22273
                       0.94838                       0.20594                      -0.24116
                       0.93998                       0.22139                      -0.25966
                       0.93521                       0.23067                      -0.26867
        </DataArray>
        <DataArray type="Float32" Name="OrientationY" NumberOfComponents="3" format="ascii">
                       0.22088                      -0.96877                      -0.11268
                       0.22090                      -0.96877                      -0.11264
                       0.22117                      -0.96872                      -0.11252
                       0.22171                      -0.96862                      -0.11235
                       0.22275                      -0.96841                      -0.11209
                       0.19381                      -0.97503                      -0.10845
                       0.17465                      -0.97891                      -0.10598
                       0.16011                      -0.98158                      -0.10422
                       0.14691                      -0.98379                      -0.10287
                       0.13619                      -0.98541                      -0.10205
                       0.13024                      -0.98622                      -0.10203
                       0.12837                      -0.98639                      -0.10270
                       0.13226                      -0.98571                      -0.10430
                       0.14397                      -0.98374                      -0.10735
                       0.15841                      -0.98110                      -0.11116
                       0.17130                      -0.97852                      -0.11470
                       0.18203                      -0.97621                      -0.11782
                       0.19551                      -0.97310                      -0.12190
                       0.20374                      -0.97107                      -0.12451
        </DataArray>
        <DataArray type="Float32" Name="OrientationZ" NumberOfComponents="3" format="ascii">
                      -0.13172                       0.08485                      -0.98765
                      -0.13156                       0.08484                      -0.98767
                      -0.13103                       0.08481                      -0.98774
                      -0.13022                       0.08477                      -0.98785
                      -0.12895                       0.08470                      -0.98803
                      -0.12734                       0.08460                      -0.98824
                      -0.12623                       0.08449                      -0.98840
                      -0.12634                       0.08434                      -0.98840
                      -0.12847                       0.08414                      -0.98814
                      -0.13340                       0.08383                      -0.98751
                      -0.14182                       0.08332                      -0.98638
                      -0.15427                       0.08243                      -0.98458
                      -0.17104                       0.08095                      -0.98193
                      -0.19210                       0.07863                      -0.97822
                      -0.21704                       0.07523                      -0.97326
                      -0.24013                       0.07144                      -0.96811
                      -0.25969                       0.06784                      -0.96331
                      -0.27966                       0.06382                      -0.95798
                      -0.28962                       0.06171                      -0.95515
        </DataArray>
        <DataArray type="Float32" Name="Force" NumberOfComponents="3" format="ascii">
                     137.74771                     -52.14898                     -22.85093
                     143.15340                    -111.82579                     -28.67463
                     227.70747                    -346.93233                     -60.00907
                     236.37367                    -534.66035                     -77.08617
                    2644.96676                     852.92252                    -271.93626
                    2407.69015                     539.26663                    -263.91987
                    1766.45861                     244.53138                    -204.58786
                    2423.36748                     298.33350                    -284.12899
                    3553.53901                     400.28927                    -427.58991
                    3577.33559                     318.84161                    -455.80240
                    5671.76823                     482.95130                    -773.85522
                    5171.13993                     360.36039                    -779.11938
                    2046.10882                      -2.39657                    -356.57644
                     683.12322                    -143.96960                    -146.58714
                   -3962.38503                    -562.22771                     835.11266
                   -8433.49090                    -944.97199                    2010.71979
                  -11945.52341                   -1234.22192                    3115.00668
                  -12129.30661                   -1196.29800                    3439.74783
                  -14731.01967                   -1423.43304                    4347.02615
        </DataArray>
        <DataArray type="Float32" Name="Moment" NumberOfComponents="3" format="ascii">
                       0.00000                       0.00000                       0.00000
                       0.00000                       0.00000                       0.00000
                       0.00000                       0.00000                       0.00000
                       0.00000                       0.00000                       0.00000
                     178.12008                    -117.22084                    1364.81027
                     333.78923                    -222.46362                    2590.53565
                     430.68947                    -289.58985                    3372.54285
                     682.09552                    -458.23533                    5336.52396
                    1050.76089                    -694.17022                    8082.62980
                    1237.51618                    -787.21174                    9161.89743
                    1474.71567                    -882.06694                   10258.05586
                    1700.19764                    -934.22548                   10852.38313
                    1396.10136                    -691.09104                    8015.76101
                    1504.12892                    -661.64214                    7659.34689
                    1610.77202                    -625.28692                    7221.71462
                    1686.42944                    -589.72569                    6796.17976
                    1610.35314                    -518.98857                    5969.79908
                     850.34395                    -253.50312                    2910.33462
                     895.35629                    -257.20323                    2949.92464
        </DataArray>
      </PointData>
      <Lines>
        <DataArray type="Int32" Name="connectivity" format="ascii">
      0      1
      1      2
      2      3
      3      4
      4      5
      5      6
      6      7
      7      8
      8      9
      9     10
     10     11
     11     12
     12     13
     13     14
     14     15
     15     16
     16     17
     17     18
        </DataArray>
        <DataArray type="Int32" Name="offsets" format="ascii">
      2
      4
      6
      8
     10
     12
     14
     16
     18
     20
     22
     24
     26
     28
     30
     32
     34
     36
        </DataArray>
      </Lines>
    </Piece>
  </PolyData>
</VTKFile>
