<?xml version="1.0"?>
<VTKFile type="PolyData" version="0.1" byte_order="LittleEndian">
  <PolyData>
    <Piece NumberOfPoints="     19" NumberOfVerts="  0" NumberOfLines="     18"
           NumberOfStrips="  0" NumberOfPolys="      0">
      <Points>
        <DataArray type="Float32" NumberOfComponents="3" format="ascii">
                      -4.85377                      -1.24355                      90.87180
                      -4.84344                      -2.36523                      91.65305
                      -4.85152                      -4.66301                      93.13882
                      -4.87096                      -6.98742                      94.58730
                      -4.89749                      -9.90991                      96.37407
                      -4.85524                     -13.33958                      98.62775
                      -4.76780                     -16.69891                     100.98190
                      -4.67465                     -20.05971                     103.33461
                      -4.58008                     -23.42072                     105.68818
                      -4.49452                     -26.78238                     108.04251
                      -4.43156                     -30.14555                     110.39646
                      -4.40434                     -33.50765                     112.75329
                      -4.42931                     -36.86607                     115.11536
                      -4.52453                     -40.21719                     117.48526
                      -4.70693                     -43.55670                     119.86532
                      -4.94176                     -46.32632                     121.85875
                      -5.18781                     -48.52653                     123.46710
                      -5.48024                     -50.68447                     125.12684
                      -5.66261                     -51.78038                     125.92651
        </DataArray>
      </Points>
      <PointData>
        <DataArray type="Float32" Name="TranslationalVelocity" NumberOfComponents="3" format="ascii">
                      -0.31264                      -2.46102                      -3.50396
                      -0.59983                      -4.69251                      -6.70392
                      -1.18669                      -8.93065                     -13.26138
                      -1.77862                     -13.06134                     -19.89811
                      -2.52042                     -18.15897                     -28.24761
                      -3.38672                     -24.61246                     -38.05359
                      -4.22910                     -31.37006                     -47.66641
                      -5.06351                     -38.13032                     -57.29120
                      -5.88653                     -44.89835                     -66.92400
                      -6.69442                     -51.67088                     -76.56560
                      -7.48297                     -58.44117                     -86.21799
                      -8.24658                     -65.21541                     -95.87315
                      -8.97919                     -71.99712                    -105.52295
                      -9.67417                     -78.79072                    -115.15645
                     -10.32445                     -85.60100                    -124.76075
                     -10.82571                     -91.29419                    -132.72902
                     -11.19713                     -95.88107                    -139.06081
                     -11.53335                    -100.61220                    -145.27281
                     -11.69521                    -102.88626                    -148.42787
        </DataArray>
        <DataArray type="Float32" Name="RotationalVelocity" NumberOfComponents="3" format="ascii">
                       2.85241                       0.00013                      -0.25606
                       2.85283                       0.00021                      -0.25595
                       2.85395                       0.00048                      -0.25561
                       2.85533                       0.00087                      -0.25515
                       2.85724                       0.00147                      -0.25445
                       2.85963                       0.00238                      -0.25340
                       2.86195                       0.00350                      -0.25205
                       2.86413                       0.00486                      -0.25019
                       2.86614                       0.00651                      -0.24760
                       2.86802                       0.00849                      -0.24402
                       2.86983                       0.01087                      -0.23924
                       2.87167                       0.01366                      -0.23308
                       2.87361                       0.01690                      -0.22545
                       2.87572                       0.02055                      -0.21639
                       2.87801                       0.02457                      -0.20608
                       2.88004                       0.02812                      -0.19681
                       2.88170                       0.03104                      -0.18917
                       2.88335                       0.03396                      -0.18156
                       2.88415                       0.03539                      -0.17786
        </DataArray>
        <DataArray type="Float32" Name="TranslationalAcceleration" NumberOfComponents="3" format="ascii">
                      -0.57291                      10.08225                      -6.89417
                      -0.72370                      12.20674                      -8.42269
                      -2.01003                      35.39120                     -23.47654
                      -3.16361                      56.98392                     -36.97325
                      -4.49963                      82.42178                     -52.46862
                      -6.12741                     110.81701                     -70.94271
                      -7.83865                     137.97762                     -89.75454
                      -9.61007                     165.14595                    -108.46879
                     -11.46899                     192.65295                    -127.32266
                     -13.42058                     220.60942                    -146.37725
                     -15.45246                     248.95911                    -165.57703
                     -17.54218                     277.51230                    -184.84394
                     -19.65713                     306.04013                    -204.07943
                     -21.75900                     334.33249                    -223.22160
                     -23.80748                     362.26615                    -242.29048
                     -25.44369                     385.27741                    -258.23131
                     -26.69688                     403.55320                    -271.18517
                     -27.91199                     421.63008                    -284.79570
                     -28.47750                     430.92420                    -291.47990
        </DataArray>
        <DataArray type="Float32" Name="OrientationX" NumberOfComponents="3" format="ascii">
                       0.95363                      -0.16659                      -0.25066
                       0.95363                      -0.16635                      -0.25085
                       0.95354                      -0.16570                      -0.25160
                       0.95338                      -0.16481                      -0.25280
                       0.95306                      -0.16349                      -0.25483
                       0.96169                      -0.14448                      -0.23298
                       0.96692                      -0.13117                      -0.21875
                       0.97068                      -0.12126                      -0.20757
                       0.97394                      -0.11355                      -0.19632
                       0.97654                      -0.10936                      -0.18550
                       0.97805                      -0.11060                      -0.17659
                       0.97865                      -0.11738                      -0.16872
                       0.97787                      -0.13099                      -0.16312
                       0.97499                      -0.15274                      -0.16148
                       0.97068                      -0.17957                      -0.15979
                       0.96604                      -0.20471                      -0.15765
                       0.96155                      -0.22632                      -0.15557
                       0.95561                      -0.25027                      -0.15549
                       0.95191                      -0.26325                      -0.15672
        </DataArray>
        <DataArray type="Float32" Name="OrientationY" NumberOfComponents="3" format="ascii">
                       0.30088                       0.54907                       0.77974
                       0.30089                       0.54896                       0.77981
                       0.30113                       0.54867                       0.77992
                       0.30161                       0.54834                       0.77997
                       0.30252                       0.54789                       0.77993
                       0.27374                       0.55215                       0.78752
                       0.25447                       0.55447                       0.79234
                       0.23965                       0.55587                       0.79597
                       0.22603                       0.55686                       0.79926
                       0.21476                       0.55735                       0.80202
                       0.20815                       0.55718                       0.80388
                       0.20554                       0.55651                       0.80502
                       0.20867                       0.55512                       0.80517
                       0.21972                       0.55257                       0.80399
                       0.23368                       0.54929                       0.80229
                       0.24639                       0.54611                       0.80066
                       0.25717                       0.54324                       0.79922
                       0.27098                       0.53936                       0.79728
                       0.27951                       0.53681                       0.79605
        </DataArray>
        <DataArray type="Float32" Name="OrientationZ" NumberOfComponents="3" format="ascii">
                       0.00773                      -0.81901                       0.57373
                       0.00798                      -0.81913                       0.57355
                       0.00882                      -0.81945                       0.57308
                       0.01008                      -0.81985                       0.57248
                       0.01211                      -0.82042                       0.57163
                       0.01486                      -0.82113                       0.57055
                       0.01736                      -0.82180                       0.56951
                       0.01886                      -0.82238                       0.56863
                       0.01857                      -0.82281                       0.56801
                       0.01568                      -0.82304                       0.56776
                       0.00948                      -0.82299                       0.56798
                      -0.00060                      -0.82251                       0.56875
                      -0.01492                      -0.82139                       0.57017
                      -0.03358                      -0.81935                       0.57230
                      -0.05629                      -0.81611                       0.57515
                      -0.07780                      -0.81231                       0.57801
                      -0.09637                      -0.80850                       0.58055
                      -0.11567                      -0.80403                       0.58323
                      -0.12543                      -0.80158                       0.58458
        </DataArray>
        <DataArray type="Float32" Name="Force" NumberOfComponents="3" format="ascii">
                     174.70905                      35.90341                      48.89770
                     206.52780                      78.05035                     108.54249
                     325.23235                     227.21656                     319.38244
                     341.80907                     338.71585                     477.64038
                    3489.42343                    -827.31437                   -1256.46902
                    3584.62861                    -628.71808                    -992.97201
                    3259.51141                    -431.46824                    -717.42941
                    4394.83636                    -506.91815                    -872.56918
                    5683.24684                    -596.49268                   -1041.51138
                    6014.30279                    -566.79403                    -979.68759
                    8358.79188                    -770.22914                   -1245.24980
                    8009.24236                    -730.49452                   -1039.82766
                    4852.50293                    -424.17037                    -481.00219
                     883.64531                      29.59757                      93.03895
                   -1815.89435                     379.66584                     359.66760
                   -6843.06535                    1159.29380                     709.05695
                  -10977.19534                    1917.88012                     854.76466
                  -12024.05639                    2220.73063                     687.87172
                  -14976.73225                    2853.21416                     715.18609
        </DataArray>
        <DataArray type="Float32" Name="Moment" NumberOfComponents="3" format="ascii">
                       0.00000                       0.00000                       0.00000
                       0.00000                       0.00000                       0.00000
                       0.00000                       0.00000                       0.00000
                       0.00000                       0.00000                       0.00000
                     -19.62979                    1310.98863                    -917.72768
                     -45.63176                    2475.34544                   -1732.04011
                     -69.48180                    3220.35201                   -2252.42554
                    -115.21431                    4904.71728                   -3429.68599
                    -167.87119                    7237.27220                   -5060.94642
                    -160.92088                    8160.66258                   -5709.20955
                    -109.85608                    9020.98556                   -6317.19846
                       1.39722                    9517.80204                   -6675.63657
                     125.70821                    7089.40442                   -4983.58606
                     275.69926                    6767.71354                   -4771.42363
                     432.17370                    6269.22482                   -4435.84220
                     564.17089                    5886.20802                   -4179.05252
                     620.46114                    5202.26398                   -3704.40621
                     368.73115                    2563.69298                   -1831.19510
                     406.22390                    2598.21983                   -1858.77635
        </DataArray>
      </PointData>
      <Lines>
        <DataArray type="Int32" Name="connectivity" format="ascii">
      0      1
      1      2
      2      3
      3      4
      4      5
      5      6
      6      7
      7      8
      8      9
      9     10
     10     11
     11     12
     12     13
     13     14
     14     15
     15     16
     16     17
     17     18
        </DataArray>
        <DataArray type="Int32" Name="offsets" format="ascii">
      2
      4
      6
      8
     10
     12
     14
     16
     18
     20
     22
     24
     26
     28
     30
     32
     34
     36
        </DataArray>
      </Lines>
    </Piece>
  </PolyData>
</VTKFile>
