<?xml version="1.0"?>
<VTKFile type="PolyData" version="0.1" byte_order="LittleEndian">
  <PolyData>
    <Piece NumberOfPoints="      8" NumberOfVerts="  0" NumberOfLines="      0"
           NumberOfStrips="  0" NumberOfPolys="      6">
      <Points>
        <DataArray type="Float32" NumberOfComponents="3" format="ascii">
                      -3.37156                       2.39593                      87.60814
                       3.62842                       2.39593                      87.59207
                       3.62842                      -2.40408                      87.59161
                      -3.37157                      -2.40408                      87.60769
                      -3.36054                      -2.40453                      92.40768
                       3.63944                      -2.40453                      92.39161
                       3.63944                       2.39547                      92.39206
                      -3.36054                       2.39547                      92.40814
        </DataArray>
      </Points>
      <Polys>
        <DataArray type="Int32" Name="connectivity" format="ascii">
      0      1      2      3
      4      5      6      7
      7      6      1      0
      6      5      2      1
      5      4      3      2
      4      7      0      3
        </DataArray>
        <DataArray type="Int32" Name="offsets" format="ascii">
      4
      8
     12
     16
     20
     24
        </DataArray>
      </Polys>
    </Piece>
  </PolyData>
</VTKFile>
