<?xml version="1.0"?>
<VTKFile type="PolyData" version="0.1" byte_order="LittleEndian">
  <PolyData>
    <Piece NumberOfPoints="    625" NumberOfVerts="  0" NumberOfLines="      0"
           NumberOfStrips="  0" NumberOfPolys="    600">
      <Points>
        <DataArray type="Float32" NumberOfComponents="3" format="ascii">
                      -4.89360                       1.45374                      89.70211
                      -4.89360                       1.45374                      89.70211
                      -4.89360                       1.45374                      89.70211
                      -4.89360                       1.45374                      89.70211
                      -4.89360                       1.45374                      89.70211
                      -4.89360                       1.45374                      89.70211
                      -4.89360                       1.45374                      89.70211
                      -4.89360                       1.45374                      89.70211
                      -4.89360                       1.45374                      89.70211
                      -4.89360                       1.45374                      89.70211
                      -4.89360                       1.45374                      89.70211
                      -4.89360                       1.45374                      89.70211
                      -4.89360                       1.45374                      89.70211
                      -4.89360                       1.45374                      89.70211
                      -4.89360                       1.45374                      89.70211
                      -4.89360                       1.45374                      89.70211
                      -4.89360                       1.45374                      89.70211
                      -4.89360                       1.45374                      89.70211
                      -4.89360                       1.45374                      89.70211
                      -4.89360                       1.45374                      89.70211
                      -4.89360                       1.45374                      89.70211
                      -4.89360                       1.45374                      89.70211
                      -4.89360                       1.45374                      89.70211
                      -4.89360                       1.45374                      89.70211
                      -4.89360                       1.45374                      89.70211
                      -4.29421                       1.33148                      89.67424
                      -4.29990                       1.36240                      89.82118
                      -4.34276                       1.39137                      89.96227
                      -4.42008                       1.41658                      90.08863
                      -4.52701                       1.43644                      90.19232
                      -4.65682                       1.44971                      90.26684
                      -4.80137                       1.45554                      90.30750
                      -4.95157                       1.45358                      90.31173
                      -5.09798                       1.44395                      90.27929
                      -5.23140                       1.42725                      90.21220
                      -5.34345                       1.40453                      90.11468
                      -5.42709                       1.37721                      89.99287
                      -5.47706                       1.34703                      89.85440
                      -5.49022                       1.31586                      89.70799
                      -5.46575                       1.28568                      89.56283
                      -5.40519                       1.25837                      89.42805
                      -5.31233                       1.23566                      89.31210
                      -5.19302                       1.21896                      89.22229
                      -5.05475                       1.20934                      89.16425
                      -4.90620                       1.20738                      89.14162
                      -4.75672                       1.21323                      89.15584
                      -4.61569                       1.22650                      89.20600
                      -4.49198                       1.24637                      89.28896
                      -4.39336                       1.27158                      89.39949
                      -4.32603                       1.30056                      89.53067
                      -4.06313                       1.20920                      89.67949
                      -4.07101                       1.25196                      89.88273
                      -4.13028                       1.29204                      90.07787
                      -4.23723                       1.32691                      90.25264
                      -4.38512                       1.35438                      90.39607
                      -4.56467                       1.37273                      90.49913
                      -4.76460                       1.38080                      90.55536
                      -4.97234                       1.37809                      90.56122
                      -5.17484                       1.36476                      90.51635
                      -5.35938                       1.34166                      90.42356
                      -5.51436                       1.31024                      90.28868
                      -5.63004                       1.27246                      90.12019
                      -5.69916                       1.23071                      89.92868
                      -5.71737                       1.18761                      89.72617
                      -5.68353                       1.14586                      89.52540
                      -5.59976                       1.10809                      89.33897
                      -5.47132                       1.07667                      89.17861
                      -5.30630                       1.05358                      89.05438
                      -5.11505                       1.04026                      88.97410
                      -4.90960                       1.03756                      88.94281
                      -4.70284                       1.04565                      88.96247
                      -4.50779                       1.06400                      89.03185
                      -4.33668                       1.09148                      89.14659
                      -4.20027                       1.12636                      89.29948
                      -4.10714                       1.16644                      89.48091
                      -3.89846                       1.08692                      89.69071
                      -3.90789                       1.13809                      89.93391
                      -3.97881                       1.18605                      90.16741
                      -4.10678                       1.22777                      90.37654
                      -4.28375                       1.26064                      90.54816
                      -4.49860                       1.28260                      90.67148
                      -4.73783                       1.29225                      90.73877
                      -4.98641                       1.28901                      90.74578
                      -5.22872                       1.27306                      90.69209
                      -5.44954                       1.24542                      90.58105
                      -5.63498                       1.20782                      90.41966
                      -5.77341                       1.16262                      90.21805
                      -5.85611                       1.11266                      89.98888
                      -5.87790                       1.06108                      89.74657
                      -5.83740                       1.01113                      89.50633
                      -5.73716                       0.96593                      89.28325
                      -5.58348                       0.92834                      89.09136
                      -5.38602                       0.90071                      88.94272
                      -5.15717                       0.88478                      88.84665
                      -4.91133                       0.88154                      88.80921
                      -4.66393                       0.89121                      88.83274
                      -4.43053                       0.91318                      88.91576
                      -4.22578                       0.94606                      89.05305
                      -4.06256                       0.98779                      89.23600
                      -3.95112                       1.03575                      89.45310
                      -3.77076                       0.96464                      89.70526
                      -3.78139                       1.02231                      89.97931
                      -3.86131                       1.07634                      90.24243
                      -4.00552                       1.12336                      90.47809
                      -4.20494                       1.16040                      90.67149
                      -4.44705                       1.18514                      90.81046
                      -4.71663                       1.19603                      90.88628
                      -4.99675                       1.19237                      90.89419
                      -5.26980                       1.17440                      90.83368
                      -5.51863                       1.14325                      90.70856
                      -5.72760                       1.10088                      90.52669
                      -5.88359                       1.04994                      90.29950
                      -5.97679                       0.99365                      90.04126
                      -6.00134                       0.93553                      89.76820
                      -5.95570                       0.87923                      89.49748
                      -5.84275                       0.82830                      89.24610
                      -5.66957                       0.78594                      89.02987
                      -5.44705                       0.75480                      88.86236
                      -5.18917                       0.73685                      88.75411
                      -4.91214                       0.73321                      88.71192
                      -4.63335                       0.74411                      88.73843
                      -4.37034                       0.76886                      88.83198
                      -4.13962                       0.80591                      88.98670
                      -3.95569                       0.85294                      89.19285
                      -3.83010                       0.90698                      89.43750
                      -3.66852                       0.84236                      89.72209
                      -3.68010                       0.90520                      90.02073
                      -3.76720                       0.96409                      90.30746
                      -3.92434                       1.01532                      90.56427
                      -4.14166                       1.05569                      90.77502
                      -4.40549                       1.08265                      90.92646
                      -4.69926                       1.09451                      91.00908
                      -5.00451                       1.09052                      91.01770
                      -5.30206                       1.07094                      90.95176
                      -5.57322                       1.03700                      90.81541
                      -5.80094                       0.99082                      90.61723
                      -5.97093                       0.93532                      90.36965
                      -6.07249                       0.87397                      90.08824
                      -6.09924                       0.81063                      89.79068
                      -6.04951                       0.74929                      89.49567
                      -5.92642                       0.69379                      89.22174
                      -5.73770                       0.64763                      88.98610
                      -5.49522                       0.61370                      88.80357
                      -5.21420                       0.59413                      88.68561
                      -4.91231                       0.59016                      88.63963
                      -4.60851                       0.60204                      88.66852
                      -4.32190                       0.62901                      88.77046
                      -4.07048                       0.66939                      88.93906
                      -3.87004                       0.72064                      89.16371
                      -3.73319                       0.77953                      89.43031
                      -3.58584                       0.72008                      89.74068
                      -3.59818                       0.78708                      90.05910
                      -3.69105                       0.84987                      90.36482
                      -3.85860                       0.90449                      90.63864
                      -4.09030                       0.94753                      90.86334
                      -4.37161                       0.97628                      91.02482
                      -4.68483                       0.98892                      91.11291
                      -5.01030                       0.98468                      91.12210
                      -5.32756                       0.96380                      91.05179
                      -5.61668                       0.92761                      90.90641
                      -5.85948                       0.87837                      90.69510
                      -6.04072                       0.81919                      90.43113
                      -6.14901                       0.75378                      90.13108
                      -6.17753                       0.68625                      89.81382
                      -6.12451                       0.62084                      89.49927
                      -5.99327                       0.56167                      89.20719
                      -5.79205                       0.51245                      88.95595
                      -5.53351                       0.47627                      88.76133
                      -5.23388                       0.45541                      88.63555
                      -4.91199                       0.45118                      88.58653
                      -4.58808                       0.46384                      88.61733
                      -4.28248                       0.49260                      88.72603
                      -4.01441                       0.53565                      88.90579
                      -3.80070                       0.59029                      89.14532
                      -3.65479                       0.65308                      89.42957
                      -3.51922                       0.59780                      89.76072
                      -3.53218                       0.66813                      90.09496
                      -3.62966                       0.73403                      90.41588
                      -3.80553                       0.79138                      90.70330
                      -4.04875                       0.83656                      90.93917
                      -4.34404                       0.86673                      91.10866
                      -4.67283                       0.88000                      91.20114
                      -5.01447                       0.87554                      91.21078
                      -5.34749                       0.85363                      91.13698
                      -5.65097                       0.81564                      90.98438
                      -5.90584                       0.76396                      90.76257
                      -6.09609                       0.70184                      90.48548
                      -6.20976                       0.63318                      90.17052
                      -6.23970                       0.56229                      89.83749
                      -6.18404                       0.49363                      89.50731
                      -6.04628                       0.43152                      89.20072
                      -5.83507                       0.37985                      88.93700
                      -5.56367                       0.34188                      88.73270
                      -5.24916                       0.31998                      88.60068
                      -4.91128                       0.31554                      88.54921
                      -4.57126                       0.32883                      88.58155
                      -4.25048                       0.35902                      88.69565
                      -3.96909                       0.40421                      88.88434
                      -3.74476                       0.46156                      89.13578
                      -3.59160                       0.52747                      89.43415
                      -3.46647                       0.47552                      89.78201
                      -3.47991                       0.54846                      90.12866
                      -3.58101                       0.61681                      90.46148
                      -3.76342                       0.67628                      90.75958
                      -4.01567                       0.72314                      91.00420
                      -4.32191                       0.75443                      91.17999
                      -4.66291                       0.76820                      91.27590
                      -5.01723                       0.76357                      91.28590
                      -5.36262                       0.74085                      91.20936
                      -5.67737                       0.70145                      91.05109
                      -5.94170                       0.64785                      90.82104
                      -6.13901                       0.58342                      90.53367
                      -6.25690                       0.51221                      90.20702
                      -6.28796                       0.43869                      89.86162
                      -6.23023                       0.36748                      89.51918
                      -6.08735                       0.30306                      89.20122
                      -5.86830                       0.24948                      88.92770
                      -5.58683                       0.21009                      88.71582
                      -5.26064                       0.18738                      88.57889
                      -4.91021                       0.18278                      88.52552
                      -4.55758                       0.19656                      88.55906
                      -4.22488                       0.22787                      88.67739
                      -3.93304                       0.27474                      88.87309
                      -3.70039                       0.33422                      89.13386
                      -3.54154                       0.40258                      89.44331
                      -3.42615                       0.35324                      89.80441
                      -3.43995                       0.42815                      90.16041
                      -3.54378                       0.49834                      90.50222
                      -3.73110                       0.55942                      90.80835
                      -3.99016                       0.60754                      91.05958
                      -4.30466                       0.63968                      91.24011
                      -4.65486                       0.65381                      91.33861
                      -5.01875                       0.64906                      91.34887
                      -5.37345                       0.62572                      91.27027
                      -5.69669                       0.58526                      91.10774
                      -5.96816                       0.53022                      90.87148
                      -6.17079                       0.46405                      90.57635
                      -6.29186                       0.39092                      90.24089
                      -6.32375                       0.31541                      89.88617
                      -6.26447                       0.24229                      89.53449
                      -6.11774                       0.17613                      89.20795
                      -5.89277                       0.12110                      88.92705
                      -5.60371                       0.08065                      88.70946
                      -5.26872                       0.05733                      88.56884
                      -4.90884                       0.05260                      88.51402
                      -4.54669                       0.06675                      88.54846
                      -4.20502                       0.09891                      88.66999
                      -3.90530                       0.14704                      88.87097
                      -3.66637                       0.20813                      89.13878
                      -3.50323                       0.27833                      89.45658
                      -3.39728                       0.23096                      89.82784
                      -3.41133                       0.30724                      90.19038
                      -3.51706                       0.37872                      90.53846
                      -3.70783                       0.44092                      90.85021
                      -3.97164                       0.48992                      91.10604
                      -4.29192                       0.52265                      91.28989
                      -4.64854                       0.53705                      91.39019
                      -5.01910                       0.53221                      91.40065
                      -5.38032                       0.50844                      91.32060
                      -5.70949                       0.46724                      91.15508
                      -5.98594                       0.41118                      90.91449
                      -6.19229                       0.34380                      90.61395
                      -6.31557                       0.26933                      90.27233
                      -6.34805                       0.19244                      89.91111
                      -6.28768                       0.11797                      89.55297
                      -6.13826                       0.05060                      89.22044
                      -5.90917                      -0.00544                      88.93439
                      -5.61480                      -0.04663                      88.71280
                      -5.27366                      -0.07038                      88.56960
                      -4.90718                      -0.07520                      88.51378
                      -4.53838                      -0.06079                      88.54885
                      -4.19044                      -0.02804                      88.67261
                      -3.88523                       0.02098                      88.87727
                      -3.64191                       0.08319                      89.14999
                      -3.47578                       0.15468                      89.47363
                      -3.37925                       0.10868                      89.85225
                      -3.39346                       0.18577                      90.21865
                      -3.50032                       0.25802                      90.57044
                      -3.69311                       0.32088                      90.88551
                      -3.95973                       0.37040                      91.14407
                      -4.28343                       0.40348                      91.32988
                      -4.64385                       0.41803                      91.43125
                      -5.01836                       0.41314                      91.44182
                      -5.38343                       0.38912                      91.36092
                      -5.71611                       0.34747                      91.19364
                      -5.99550                       0.29082                      90.95048
                      -6.20405                       0.22272                      90.64673
                      -6.32865                       0.14745                      90.30147
                      -6.36148                       0.06975                      89.93640
                      -6.30047                      -0.00552                      89.57445
                      -6.14945                      -0.07361                      89.23837
                      -5.91791                      -0.13025                      88.94927
                      -5.62041                      -0.17187                      88.72532
                      -5.27563                      -0.19588                      88.58059
                      -4.90524                      -0.20075                      88.52418
                      -4.53252                      -0.18618                      88.55962
                      -4.18087                      -0.15308                      88.68470
                      -3.87240                      -0.10354                      88.89155
                      -3.62649                      -0.04067                      89.16718
                      -3.45859                       0.03158                      89.49426
                      -3.37173                      -0.01361                      89.87760
                      -3.38599                       0.06376                      90.24528
                      -3.49322                       0.13625                      90.59830
                      -3.68669                       0.19933                      90.91447
                      -3.95424                       0.24903                      91.17393
                      -4.27906                       0.28222                      91.36039
                      -4.64074                       0.29683                      91.46211
                      -5.01656                       0.29192                      91.47272
                      -5.38290                       0.26781                      91.39154
                      -5.71674                       0.22602                      91.22367
                      -5.99711                       0.16917                      90.97967
                      -6.20639                       0.10084                      90.67486
                      -6.33143                       0.02531                      90.32839
                      -6.36437                      -0.05267                      89.96205
                      -6.30314                      -0.12820                      89.59883
                      -6.15159                      -0.19652                      89.26158
                      -5.91925                      -0.25336                      88.97147
                      -5.62071                      -0.29514                      88.74674
                      -5.27473                      -0.31922                      88.60151
                      -4.90305                      -0.32411                      88.54490
                      -4.52902                      -0.30949                      88.58046
                      -4.17615                      -0.27628                      88.70598
                      -3.86660                      -0.22657                      88.91355
                      -3.61983                      -0.16347                      89.19014
                      -3.45135                      -0.09097                      89.51836
                      -3.37460                      -0.13589                      89.90389
                      -3.38881                      -0.05880                      90.27029
                      -3.49567                       0.01345                      90.62207
                      -3.68846                       0.07631                      90.93715
                      -3.95508                       0.12584                      91.19571
                      -4.27878                       0.15891                      91.38152
                      -4.63920                       0.17346                      91.48289
                      -5.01371                       0.16857                      91.49345
                      -5.37878                       0.14455                      91.41256
                      -5.71146                       0.10291                      91.24527
                      -5.99085                       0.04625                      91.00212
                      -6.19940                      -0.02184                      90.69837
                      -6.32400                      -0.09711                      90.35311
                      -6.35683                      -0.17482                      89.98804
                      -6.29582                      -0.25008                      89.62609
                      -6.14480                      -0.31817                      89.29001
                      -5.91326                      -0.37481                      89.00091
                      -5.61576                      -0.41644                      88.77696
                      -5.27098                      -0.44044                      88.63223
                      -4.90059                      -0.44531                      88.57582
                      -4.52787                      -0.43074                      88.61126
                      -4.17622                      -0.39765                      88.73634
                      -3.86775                      -0.34811                      88.94319
                      -3.62184                      -0.28524                      89.21881
                      -3.45394                      -0.21298                      89.54590
                      -3.38798                      -0.25817                      89.93112
                      -3.40203                      -0.18189                      90.29365
                      -3.50777                      -0.11041                      90.64173
                      -3.69853                      -0.04821                      90.95348
                      -3.96234                       0.00079                      91.20932
                      -4.28262                       0.03352                      91.39316
                      -4.63924                       0.04792                      91.49347
                      -5.00980                       0.04308                      91.50392
                      -5.37102                       0.01931                      91.42388
                      -5.70019                      -0.02189                      91.25836
                      -5.97664                      -0.07795                      91.01777
                      -6.18299                      -0.14533                      90.71722
                      -6.30628                      -0.21980                      90.37561
                      -6.33875                      -0.29669                      90.01438
                      -6.27839                      -0.37116                      89.65625
                      -6.12896                      -0.43853                      89.32371
                      -5.89987                      -0.49457                      89.03766
                      -5.60550                      -0.53576                      88.81607
                      -5.26436                      -0.55951                      88.67287
                      -4.89788                      -0.56433                      88.61705
                      -4.52908                      -0.54991                      88.65212
                      -4.18114                      -0.51717                      88.77588
                      -3.87593                      -0.46815                      88.98055
                      -3.63261                      -0.40594                      89.25327
                      -3.46648                      -0.33445                      89.57690
                      -3.41220                      -0.38045                      89.95932
                      -3.42600                      -0.30555                      90.31533
                      -3.52983                      -0.23535                      90.65713
                      -3.71715                      -0.17428                      90.96327
                      -3.97621                      -0.12616                      91.21449
                      -4.29072                      -0.09402                      91.39503
                      -4.64091                      -0.07988                      91.49352
                      -5.00480                      -0.08463                      91.50379
                      -5.35950                      -0.10797                      91.42518
                      -5.68274                      -0.14843                      91.26265
                      -5.95421                      -0.20348                      91.02639
                      -6.15684                      -0.26965                      90.73126
                      -6.27791                      -0.34278                      90.39580
                      -6.30980                      -0.41828                      90.04109
                      -6.25052                      -0.49141                      89.68941
                      -6.10379                      -0.55756                      89.36286
                      -5.87882                      -0.61260                      89.08197
                      -5.58976                      -0.65304                      88.86437
                      -5.25477                      -0.67637                      88.72375
                      -4.89489                      -0.68110                      88.66894
                      -4.53274                      -0.66694                      88.70338
                      -4.19107                      -0.63479                      88.82490
                      -3.89135                      -0.58665                      89.02588
                      -3.65242                      -0.52556                      89.29369
                      -3.48929                      -0.45536                      89.61149
                      -3.44787                      -0.50274                      89.98856
                      -3.46131                      -0.42980                      90.33521
                      -3.56241                      -0.36145                      90.66804
                      -3.74482                      -0.30198                      90.96613
                      -3.99707                      -0.25512                      91.21075
                      -4.30331                      -0.22383                      91.38654
                      -4.64431                      -0.21006                      91.48245
                      -4.99864                      -0.21469                      91.49245
                      -5.34402                      -0.23741                      91.41591
                      -5.65877                      -0.27681                      91.25765
                      -5.92311                      -0.33041                      91.02760
                      -6.12041                      -0.39484                      90.74022
                      -6.23830                      -0.46605                      90.41357
                      -6.26936                      -0.53957                      90.06818
                      -6.21163                      -0.61078                      89.72574
                      -6.06875                      -0.67520                      89.40777
                      -5.84970                      -0.72878                      89.13425
                      -5.56823                      -0.76817                      88.92237
                      -5.24204                      -0.79088                      88.78545
                      -4.89161                      -0.79548                      88.73207
                      -4.53898                      -0.78170                      88.76561
                      -4.20629                      -0.75039                      88.88394
                      -3.91444                      -0.70352                      89.07964
                      -3.68179                      -0.64404                      89.34041
                      -3.52294                      -0.57568                      89.64987
                      -3.49597                      -0.62502                      90.01891
                      -3.50893                      -0.55469                      90.35315
                      -3.60641                      -0.48879                      90.67407
                      -3.78228                      -0.43145                      90.96149
                      -4.02550                      -0.38627                      91.19736
                      -4.32079                      -0.35609                      91.36685
                      -4.64958                      -0.34282                      91.45933
                      -4.99122                      -0.34728                      91.46897
                      -5.32424                      -0.36919                      91.39517
                      -5.62773                      -0.40718                      91.24257
                      -5.88260                      -0.45886                      91.02076
                      -6.07284                      -0.52099                      90.74367
                      -6.18651                      -0.58965                      90.42871
                      -6.21645                      -0.66053                      90.09568
                      -6.16079                      -0.72919                      89.76550
                      -6.02303                      -0.79131                      89.45891
                      -5.81182                      -0.84297                      89.19519
                      -5.54043                      -0.88095                      88.99089
                      -5.22591                      -0.90284                      88.85887
                      -4.88803                      -0.90729                      88.80740
                      -4.54801                      -0.89400                      88.83974
                      -4.22723                      -0.86381                      88.95384
                      -3.94584                      -0.81861                      89.14253
                      -3.72151                      -0.76126                      89.39397
                      -3.56835                      -0.69535                      89.69234
                      -3.55794                      -0.74730                      90.05051
                      -3.57028                      -0.68031                      90.36893
                      -3.66315                      -0.61752                      90.67465
                      -3.83070                      -0.56289                      90.94847
                      -4.06240                      -0.51985                      91.17317
                      -4.34371                      -0.49111                      91.33464
                      -4.65693                      -0.47846                      91.42274
                      -4.98240                      -0.48271                      91.43192
                      -5.29966                      -0.50359                      91.36162
                      -5.58878                      -0.53978                      91.21624
                      -5.83158                      -0.58901                      91.00493
                      -6.01282                      -0.64820                      90.74096
                      -6.12111                      -0.71361                      90.44091
                      -6.14963                      -0.78114                      90.12364
                      -6.09661                      -0.84654                      89.80909
                      -5.96537                      -0.90572                      89.51702
                      -5.76415                      -0.95494                      89.26578
                      -5.50561                      -0.99112                      89.07116
                      -5.20598                      -1.01198                      88.94538
                      -4.88410                      -1.01621                      88.89636
                      -4.56018                      -1.00355                      88.92716
                      -4.25458                      -0.97479                      89.03586
                      -3.98651                      -0.93173                      89.21562
                      -3.77280                      -0.87710                      89.45515
                      -3.62689                      -0.81430                      89.73940
                      -3.63598                      -0.86959                      90.08356
                      -3.64756                      -0.80675                      90.38220
                      -3.73465                      -0.74787                      90.66893
                      -3.89179                      -0.69663                      90.92574
                      -4.10911                      -0.65627                      91.13648
                      -4.37294                      -0.62931                      91.28793
                      -4.66671                      -0.61745                      91.37055
                      -4.97196                      -0.62143                      91.37916
                      -5.26952                      -0.64101                      91.31323
                      -5.54067                      -0.67496                      91.17688
                      -5.76840                      -0.72113                      90.97869
                      -5.93838                      -0.77664                      90.73112
                      -6.03994                      -0.83798                      90.44971
                      -6.06669                      -0.90132                      90.15215
                      -6.01696                      -0.96266                      89.85713
                      -5.89387                      -1.01816                      89.58320
                      -5.70516                      -1.06433                      89.34757
                      -5.46267                      -1.09826                      89.16504
                      -5.18165                      -1.11782                      89.04707
                      -4.87976                      -1.12179                      89.00109
                      -4.57596                      -1.10991                      89.02998
                      -4.28935                      -1.08294                      89.13193
                      -4.03793                      -1.04256                      89.30052
                      -3.83749                      -0.99132                      89.52518
                      -3.70064                      -0.93243                      89.79177
                      -3.73356                      -0.99187                      90.11836
                      -3.74419                      -0.93421                      90.39241
                      -3.82411                      -0.88018                      90.65553
                      -3.96832                      -0.83316                      90.89120
                      -4.16774                      -0.79612                      91.08459
                      -4.40985                      -0.77138                      91.22356
                      -4.67943                      -0.76049                      91.29939
                      -4.95955                      -0.76415                      91.30729
                      -5.23260                      -0.78212                      91.24678
                      -5.48143                      -0.81327                      91.12166
                      -5.69041                      -0.85564                      90.93979
                      -5.84639                      -0.90657                      90.71260
                      -5.93959                      -0.96287                      90.45436
                      -5.96414                      -1.02099                      90.18130
                      -5.91851                      -1.07729                      89.91058
                      -5.80555                      -1.12821                      89.65921
                      -5.63237                      -1.17058                      89.44297
                      -5.40985                      -1.20171                      89.27547
                      -5.15198                      -1.21967                      89.16722
                      -4.87494                      -1.22331                      89.12502
                      -4.59616                      -1.21241                      89.15153
                      -4.33314                      -1.18766                      89.24508
                      -4.10242                      -1.15061                      89.39980
                      -3.91849                      -1.10358                      89.60596
                      -3.79291                      -1.04954                      89.85060
                      -3.85661                      -1.11416                      90.15545
                      -3.86604                      -1.06299                      90.39865
                      -3.93697                      -1.01504                      90.63215
                      -4.06493                      -0.97331                      90.84128
                      -4.24190                      -0.94044                      91.01290
                      -4.45675                      -0.91849                      91.13622
                      -4.69598                      -0.90883                      91.20351
                      -4.94456                      -0.91207                      91.21052
                      -5.18687                      -0.92802                      91.15683
                      -5.40769                      -0.95566                      91.04579
                      -5.59314                      -0.99326                      90.88440
                      -5.73156                      -1.03846                      90.68279
                      -5.81426                      -1.08842                      90.45362
                      -5.83605                      -1.14000                      90.21131
                      -5.79555                      -1.18996                      89.97107
                      -5.69532                      -1.23515                      89.74799
                      -5.54164                      -1.27274                      89.55611
                      -5.34417                      -1.30037                      89.40746
                      -5.11533                      -1.31631                      89.31140
                      -4.86948                      -1.31954                      89.27395
                      -4.62209                      -1.30987                      89.29748
                      -4.38868                      -1.28790                      89.38050
                      -4.18394                      -1.25502                      89.51779
                      -4.02071                      -1.21329                      89.70074
                      -3.90927                      -1.16533                      89.91784
                      -4.01663                      -1.23645                      90.19587
                      -4.02451                      -1.19368                      90.39911
                      -4.08379                      -1.15361                      90.59425
                      -4.19073                      -1.11874                      90.76902
                      -4.33862                      -1.09127                      90.91245
                      -4.51818                      -1.07292                      91.01551
                      -4.71810                      -1.06485                      91.07174
                      -4.92585                      -1.06756                      91.07760
                      -5.12835                      -1.08089                      91.03273
                      -5.31289                      -1.10399                      90.93994
                      -5.46786                      -1.13541                      90.80506
                      -5.58355                      -1.17319                      90.63657
                      -5.65266                      -1.21494                      90.44506
                      -5.67087                      -1.25804                      90.24255
                      -5.63703                      -1.29979                      90.04178
                      -5.55326                      -1.33756                      89.85535
                      -5.42483                      -1.36898                      89.69499
                      -5.25980                      -1.39207                      89.57076
                      -5.06855                      -1.40538                      89.49048
                      -4.86310                      -1.40808                      89.45919
                      -4.65635                      -1.40000                      89.47885
                      -4.46129                      -1.38164                      89.54823
                      -4.29018                      -1.35416                      89.66297
                      -4.15378                      -1.31929                      89.81586
                      -4.06064                      -1.27921                      89.99729
                      -4.24306                      -1.35873                      90.24226
                      -4.24876                      -1.32782                      90.38920
                      -4.29161                      -1.29884                      90.53029
                      -4.36893                      -1.27363                      90.65665
                      -4.47586                      -1.25377                      90.76034
                      -4.60568                      -1.24051                      90.83486
                      -4.75022                      -1.23467                      90.87551
                      -4.90042                      -1.23663                      90.87975
                      -5.04683                      -1.24626                      90.84731
                      -5.18025                      -1.26297                      90.78022
                      -5.29230                      -1.28569                      90.68270
                      -5.37594                      -1.31300                      90.56088
                      -5.42591                      -1.34318                      90.42242
                      -5.43907                      -1.37435                      90.27601
                      -5.41461                      -1.40453                      90.13085
                      -5.35404                      -1.43184                      89.99606
                      -5.26118                      -1.45455                      89.88012
                      -5.14187                      -1.47125                      89.79031
                      -5.00360                      -1.48088                      89.73226
                      -4.85506                      -1.48283                      89.70964
                      -4.70557                      -1.47698                      89.72385
                      -4.56455                      -1.46371                      89.77402
                      -4.44084                      -1.44384                      89.85697
                      -4.34222                      -1.41863                      89.96751
                      -4.27488                      -1.38965                      90.09869
                      -4.83781                      -1.48103                      90.32177
                      -4.83781                      -1.48103                      90.32177
                      -4.83781                      -1.48103                      90.32177
                      -4.83781                      -1.48103                      90.32177
                      -4.83781                      -1.48103                      90.32177
                      -4.83781                      -1.48103                      90.32177
                      -4.83781                      -1.48103                      90.32177
                      -4.83781                      -1.48103                      90.32177
                      -4.83781                      -1.48103                      90.32177
                      -4.83781                      -1.48103                      90.32177
                      -4.83781                      -1.48103                      90.32177
                      -4.83781                      -1.48103                      90.32177
                      -4.83781                      -1.48103                      90.32177
                      -4.83781                      -1.48103                      90.32177
                      -4.83781                      -1.48103                      90.32177
                      -4.83781                      -1.48103                      90.32177
                      -4.83781                      -1.48103                      90.32177
                      -4.83781                      -1.48103                      90.32177
                      -4.83781                      -1.48103                      90.32177
                      -4.83781                      -1.48103                      90.32177
                      -4.83781                      -1.48103                      90.32177
                      -4.83781                      -1.48103                      90.32177
                      -4.83781                      -1.48103                      90.32177
                      -4.83781                      -1.48103                      90.32177
                      -4.83781                      -1.48103                      90.32177
        </DataArray>
      </Points>
      <Polys>
        <DataArray type="Int32" Name="connectivity" format="ascii">
      0      1     26     25
      1      2     27     26
      2      3     28     27
      3      4     29     28
      4      5     30     29
      5      6     31     30
      6      7     32     31
      7      8     33     32
      8      9     34     33
      9     10     35     34
     10     11     36     35
     11     12     37     36
     12     13     38     37
     13     14     39     38
     14     15     40     39
     15     16     41     40
     16     17     42     41
     17     18     43     42
     18     19     44     43
     19     20     45     44
     20     21     46     45
     21     22     47     46
     22     23     48     47
     23     24     49     48
     24      0     25     49
     25     26     51     50
     26     27     52     51
     27     28     53     52
     28     29     54     53
     29     30     55     54
     30     31     56     55
     31     32     57     56
     32     33     58     57
     33     34     59     58
     34     35     60     59
     35     36     61     60
     36     37     62     61
     37     38     63     62
     38     39     64     63
     39     40     65     64
     40     41     66     65
     41     42     67     66
     42     43     68     67
     43     44     69     68
     44     45     70     69
     45     46     71     70
     46     47     72     71
     47     48     73     72
     48     49     74     73
     49     25     50     74
     50     51     76     75
     51     52     77     76
     52     53     78     77
     53     54     79     78
     54     55     80     79
     55     56     81     80
     56     57     82     81
     57     58     83     82
     58     59     84     83
     59     60     85     84
     60     61     86     85
     61     62     87     86
     62     63     88     87
     63     64     89     88
     64     65     90     89
     65     66     91     90
     66     67     92     91
     67     68     93     92
     68     69     94     93
     69     70     95     94
     70     71     96     95
     71     72     97     96
     72     73     98     97
     73     74     99     98
     74     50     75     99
     75     76    101    100
     76     77    102    101
     77     78    103    102
     78     79    104    103
     79     80    105    104
     80     81    106    105
     81     82    107    106
     82     83    108    107
     83     84    109    108
     84     85    110    109
     85     86    111    110
     86     87    112    111
     87     88    113    112
     88     89    114    113
     89     90    115    114
     90     91    116    115
     91     92    117    116
     92     93    118    117
     93     94    119    118
     94     95    120    119
     95     96    121    120
     96     97    122    121
     97     98    123    122
     98     99    124    123
     99     75    100    124
    100    101    126    125
    101    102    127    126
    102    103    128    127
    103    104    129    128
    104    105    130    129
    105    106    131    130
    106    107    132    131
    107    108    133    132
    108    109    134    133
    109    110    135    134
    110    111    136    135
    111    112    137    136
    112    113    138    137
    113    114    139    138
    114    115    140    139
    115    116    141    140
    116    117    142    141
    117    118    143    142
    118    119    144    143
    119    120    145    144
    120    121    146    145
    121    122    147    146
    122    123    148    147
    123    124    149    148
    124    100    125    149
    125    126    151    150
    126    127    152    151
    127    128    153    152
    128    129    154    153
    129    130    155    154
    130    131    156    155
    131    132    157    156
    132    133    158    157
    133    134    159    158
    134    135    160    159
    135    136    161    160
    136    137    162    161
    137    138    163    162
    138    139    164    163
    139    140    165    164
    140    141    166    165
    141    142    167    166
    142    143    168    167
    143    144    169    168
    144    145    170    169
    145    146    171    170
    146    147    172    171
    147    148    173    172
    148    149    174    173
    149    125    150    174
    150    151    176    175
    151    152    177    176
    152    153    178    177
    153    154    179    178
    154    155    180    179
    155    156    181    180
    156    157    182    181
    157    158    183    182
    158    159    184    183
    159    160    185    184
    160    161    186    185
    161    162    187    186
    162    163    188    187
    163    164    189    188
    164    165    190    189
    165    166    191    190
    166    167    192    191
    167    168    193    192
    168    169    194    193
    169    170    195    194
    170    171    196    195
    171    172    197    196
    172    173    198    197
    173    174    199    198
    174    150    175    199
    175    176    201    200
    176    177    202    201
    177    178    203    202
    178    179    204    203
    179    180    205    204
    180    181    206    205
    181    182    207    206
    182    183    208    207
    183    184    209    208
    184    185    210    209
    185    186    211    210
    186    187    212    211
    187    188    213    212
    188    189    214    213
    189    190    215    214
    190    191    216    215
    191    192    217    216
    192    193    218    217
    193    194    219    218
    194    195    220    219
    195    196    221    220
    196    197    222    221
    197    198    223    222
    198    199    224    223
    199    175    200    224
    200    201    226    225
    201    202    227    226
    202    203    228    227
    203    204    229    228
    204    205    230    229
    205    206    231    230
    206    207    232    231
    207    208    233    232
    208    209    234    233
    209    210    235    234
    210    211    236    235
    211    212    237    236
    212    213    238    237
    213    214    239    238
    214    215    240    239
    215    216    241    240
    216    217    242    241
    217    218    243    242
    218    219    244    243
    219    220    245    244
    220    221    246    245
    221    222    247    246
    222    223    248    247
    223    224    249    248
    224    200    225    249
    225    226    251    250
    226    227    252    251
    227    228    253    252
    228    229    254    253
    229    230    255    254
    230    231    256    255
    231    232    257    256
    232    233    258    257
    233    234    259    258
    234    235    260    259
    235    236    261    260
    236    237    262    261
    237    238    263    262
    238    239    264    263
    239    240    265    264
    240    241    266    265
    241    242    267    266
    242    243    268    267
    243    244    269    268
    244    245    270    269
    245    246    271    270
    246    247    272    271
    247    248    273    272
    248    249    274    273
    249    225    250    274
    250    251    276    275
    251    252    277    276
    252    253    278    277
    253    254    279    278
    254    255    280    279
    255    256    281    280
    256    257    282    281
    257    258    283    282
    258    259    284    283
    259    260    285    284
    260    261    286    285
    261    262    287    286
    262    263    288    287
    263    264    289    288
    264    265    290    289
    265    266    291    290
    266    267    292    291
    267    268    293    292
    268    269    294    293
    269    270    295    294
    270    271    296    295
    271    272    297    296
    272    273    298    297
    273    274    299    298
    274    250    275    299
    275    276    301    300
    276    277    302    301
    277    278    303    302
    278    279    304    303
    279    280    305    304
    280    281    306    305
    281    282    307    306
    282    283    308    307
    283    284    309    308
    284    285    310    309
    285    286    311    310
    286    287    312    311
    287    288    313    312
    288    289    314    313
    289    290    315    314
    290    291    316    315
    291    292    317    316
    292    293    318    317
    293    294    319    318
    294    295    320    319
    295    296    321    320
    296    297    322    321
    297    298    323    322
    298    299    324    323
    299    275    300    324
    300    301    326    325
    301    302    327    326
    302    303    328    327
    303    304    329    328
    304    305    330    329
    305    306    331    330
    306    307    332    331
    307    308    333    332
    308    309    334    333
    309    310    335    334
    310    311    336    335
    311    312    337    336
    312    313    338    337
    313    314    339    338
    314    315    340    339
    315    316    341    340
    316    317    342    341
    317    318    343    342
    318    319    344    343
    319    320    345    344
    320    321    346    345
    321    322    347    346
    322    323    348    347
    323    324    349    348
    324    300    325    349
    325    326    351    350
    326    327    352    351
    327    328    353    352
    328    329    354    353
    329    330    355    354
    330    331    356    355
    331    332    357    356
    332    333    358    357
    333    334    359    358
    334    335    360    359
    335    336    361    360
    336    337    362    361
    337    338    363    362
    338    339    364    363
    339    340    365    364
    340    341    366    365
    341    342    367    366
    342    343    368    367
    343    344    369    368
    344    345    370    369
    345    346    371    370
    346    347    372    371
    347    348    373    372
    348    349    374    373
    349    325    350    374
    350    351    376    375
    351    352    377    376
    352    353    378    377
    353    354    379    378
    354    355    380    379
    355    356    381    380
    356    357    382    381
    357    358    383    382
    358    359    384    383
    359    360    385    384
    360    361    386    385
    361    362    387    386
    362    363    388    387
    363    364    389    388
    364    365    390    389
    365    366    391    390
    366    367    392    391
    367    368    393    392
    368    369    394    393
    369    370    395    394
    370    371    396    395
    371    372    397    396
    372    373    398    397
    373    374    399    398
    374    350    375    399
    375    376    401    400
    376    377    402    401
    377    378    403    402
    378    379    404    403
    379    380    405    404
    380    381    406    405
    381    382    407    406
    382    383    408    407
    383    384    409    408
    384    385    410    409
    385    386    411    410
    386    387    412    411
    387    388    413    412
    388    389    414    413
    389    390    415    414
    390    391    416    415
    391    392    417    416
    392    393    418    417
    393    394    419    418
    394    395    420    419
    395    396    421    420
    396    397    422    421
    397    398    423    422
    398    399    424    423
    399    375    400    424
    400    401    426    425
    401    402    427    426
    402    403    428    427
    403    404    429    428
    404    405    430    429
    405    406    431    430
    406    407    432    431
    407    408    433    432
    408    409    434    433
    409    410    435    434
    410    411    436    435
    411    412    437    436
    412    413    438    437
    413    414    439    438
    414    415    440    439
    415    416    441    440
    416    417    442    441
    417    418    443    442
    418    419    444    443
    419    420    445    444
    420    421    446    445
    421    422    447    446
    422    423    448    447
    423    424    449    448
    424    400    425    449
    425    426    451    450
    426    427    452    451
    427    428    453    452
    428    429    454    453
    429    430    455    454
    430    431    456    455
    431    432    457    456
    432    433    458    457
    433    434    459    458
    434    435    460    459
    435    436    461    460
    436    437    462    461
    437    438    463    462
    438    439    464    463
    439    440    465    464
    440    441    466    465
    441    442    467    466
    442    443    468    467
    443    444    469    468
    444    445    470    469
    445    446    471    470
    446    447    472    471
    447    448    473    472
    448    449    474    473
    449    425    450    474
    450    451    476    475
    451    452    477    476
    452    453    478    477
    453    454    479    478
    454    455    480    479
    455    456    481    480
    456    457    482    481
    457    458    483    482
    458    459    484    483
    459    460    485    484
    460    461    486    485
    461    462    487    486
    462    463    488    487
    463    464    489    488
    464    465    490    489
    465    466    491    490
    466    467    492    491
    467    468    493    492
    468    469    494    493
    469    470    495    494
    470    471    496    495
    471    472    497    496
    472    473    498    497
    473    474    499    498
    474    450    475    499
    475    476    501    500
    476    477    502    501
    477    478    503    502
    478    479    504    503
    479    480    505    504
    480    481    506    505
    481    482    507    506
    482    483    508    507
    483    484    509    508
    484    485    510    509
    485    486    511    510
    486    487    512    511
    487    488    513    512
    488    489    514    513
    489    490    515    514
    490    491    516    515
    491    492    517    516
    492    493    518    517
    493    494    519    518
    494    495    520    519
    495    496    521    520
    496    497    522    521
    497    498    523    522
    498    499    524    523
    499    475    500    524
    500    501    526    525
    501    502    527    526
    502    503    528    527
    503    504    529    528
    504    505    530    529
    505    506    531    530
    506    507    532    531
    507    508    533    532
    508    509    534    533
    509    510    535    534
    510    511    536    535
    511    512    537    536
    512    513    538    537
    513    514    539    538
    514    515    540    539
    515    516    541    540
    516    517    542    541
    517    518    543    542
    518    519    544    543
    519    520    545    544
    520    521    546    545
    521    522    547    546
    522    523    548    547
    523    524    549    548
    524    500    525    549
    525    526    551    550
    526    527    552    551
    527    528    553    552
    528    529    554    553
    529    530    555    554
    530    531    556    555
    531    532    557    556
    532    533    558    557
    533    534    559    558
    534    535    560    559
    535    536    561    560
    536    537    562    561
    537    538    563    562
    538    539    564    563
    539    540    565    564
    540    541    566    565
    541    542    567    566
    542    543    568    567
    543    544    569    568
    544    545    570    569
    545    546    571    570
    546    547    572    571
    547    548    573    572
    548    549    574    573
    549    525    550    574
    550    551    576    575
    551    552    577    576
    552    553    578    577
    553    554    579    578
    554    555    580    579
    555    556    581    580
    556    557    582    581
    557    558    583    582
    558    559    584    583
    559    560    585    584
    560    561    586    585
    561    562    587    586
    562    563    588    587
    563    564    589    588
    564    565    590    589
    565    566    591    590
    566    567    592    591
    567    568    593    592
    568    569    594    593
    569    570    595    594
    570    571    596    595
    571    572    597    596
    572    573    598    597
    573    574    599    598
    574    550    575    599
    575    576    601    600
    576    577    602    601
    577    578    603    602
    578    579    604    603
    579    580    605    604
    580    581    606    605
    581    582    607    606
    582    583    608    607
    583    584    609    608
    584    585    610    609
    585    586    611    610
    586    587    612    611
    587    588    613    612
    588    589    614    613
    589    590    615    614
    590    591    616    615
    591    592    617    616
    592    593    618    617
    593    594    619    618
    594    595    620    619
    595    596    621    620
    596    597    622    621
    597    598    623    622
    598    599    624    623
    599    575    600    624
        </DataArray>
        <DataArray type="Int32" Name="offsets" format="ascii">
      4
      8
     12
     16
     20
     24
     28
     32
     36
     40
     44
     48
     52
     56
     60
     64
     68
     72
     76
     80
     84
     88
     92
     96
    100
    104
    108
    112
    116
    120
    124
    128
    132
    136
    140
    144
    148
    152
    156
    160
    164
    168
    172
    176
    180
    184
    188
    192
    196
    200
    204
    208
    212
    216
    220
    224
    228
    232
    236
    240
    244
    248
    252
    256
    260
    264
    268
    272
    276
    280
    284
    288
    292
    296
    300
    304
    308
    312
    316
    320
    324
    328
    332
    336
    340
    344
    348
    352
    356
    360
    364
    368
    372
    376
    380
    384
    388
    392
    396
    400
    404
    408
    412
    416
    420
    424
    428
    432
    436
    440
    444
    448
    452
    456
    460
    464
    468
    472
    476
    480
    484
    488
    492
    496
    500
    504
    508
    512
    516
    520
    524
    528
    532
    536
    540
    544
    548
    552
    556
    560
    564
    568
    572
    576
    580
    584
    588
    592
    596
    600
    604
    608
    612
    616
    620
    624
    628
    632
    636
    640
    644
    648
    652
    656
    660
    664
    668
    672
    676
    680
    684
    688
    692
    696
    700
    704
    708
    712
    716
    720
    724
    728
    732
    736
    740
    744
    748
    752
    756
    760
    764
    768
    772
    776
    780
    784
    788
    792
    796
    800
    804
    808
    812
    816
    820
    824
    828
    832
    836
    840
    844
    848
    852
    856
    860
    864
    868
    872
    876
    880
    884
    888
    892
    896
    900
    904
    908
    912
    916
    920
    924
    928
    932
    936
    940
    944
    948
    952
    956
    960
    964
    968
    972
    976
    980
    984
    988
    992
    996
   1000
   1004
   1008
   1012
   1016
   1020
   1024
   1028
   1032
   1036
   1040
   1044
   1048
   1052
   1056
   1060
   1064
   1068
   1072
   1076
   1080
   1084
   1088
   1092
   1096
   1100
   1104
   1108
   1112
   1116
   1120
   1124
   1128
   1132
   1136
   1140
   1144
   1148
   1152
   1156
   1160
   1164
   1168
   1172
   1176
   1180
   1184
   1188
   1192
   1196
   1200
   1204
   1208
   1212
   1216
   1220
   1224
   1228
   1232
   1236
   1240
   1244
   1248
   1252
   1256
   1260
   1264
   1268
   1272
   1276
   1280
   1284
   1288
   1292
   1296
   1300
   1304
   1308
   1312
   1316
   1320
   1324
   1328
   1332
   1336
   1340
   1344
   1348
   1352
   1356
   1360
   1364
   1368
   1372
   1376
   1380
   1384
   1388
   1392
   1396
   1400
   1404
   1408
   1412
   1416
   1420
   1424
   1428
   1432
   1436
   1440
   1444
   1448
   1452
   1456
   1460
   1464
   1468
   1472
   1476
   1480
   1484
   1488
   1492
   1496
   1500
   1504
   1508
   1512
   1516
   1520
   1524
   1528
   1532
   1536
   1540
   1544
   1548
   1552
   1556
   1560
   1564
   1568
   1572
   1576
   1580
   1584
   1588
   1592
   1596
   1600
   1604
   1608
   1612
   1616
   1620
   1624
   1628
   1632
   1636
   1640
   1644
   1648
   1652
   1656
   1660
   1664
   1668
   1672
   1676
   1680
   1684
   1688
   1692
   1696
   1700
   1704
   1708
   1712
   1716
   1720
   1724
   1728
   1732
   1736
   1740
   1744
   1748
   1752
   1756
   1760
   1764
   1768
   1772
   1776
   1780
   1784
   1788
   1792
   1796
   1800
   1804
   1808
   1812
   1816
   1820
   1824
   1828
   1832
   1836
   1840
   1844
   1848
   1852
   1856
   1860
   1864
   1868
   1872
   1876
   1880
   1884
   1888
   1892
   1896
   1900
   1904
   1908
   1912
   1916
   1920
   1924
   1928
   1932
   1936
   1940
   1944
   1948
   1952
   1956
   1960
   1964
   1968
   1972
   1976
   1980
   1984
   1988
   1992
   1996
   2000
   2004
   2008
   2012
   2016
   2020
   2024
   2028
   2032
   2036
   2040
   2044
   2048
   2052
   2056
   2060
   2064
   2068
   2072
   2076
   2080
   2084
   2088
   2092
   2096
   2100
   2104
   2108
   2112
   2116
   2120
   2124
   2128
   2132
   2136
   2140
   2144
   2148
   2152
   2156
   2160
   2164
   2168
   2172
   2176
   2180
   2184
   2188
   2192
   2196
   2200
   2204
   2208
   2212
   2216
   2220
   2224
   2228
   2232
   2236
   2240
   2244
   2248
   2252
   2256
   2260
   2264
   2268
   2272
   2276
   2280
   2284
   2288
   2292
   2296
   2300
   2304
   2308
   2312
   2316
   2320
   2324
   2328
   2332
   2336
   2340
   2344
   2348
   2352
   2356
   2360
   2364
   2368
   2372
   2376
   2380
   2384
   2388
   2392
   2396
   2400
        </DataArray>
      </Polys>
    </Piece>
  </PolyData>
</VTKFile>
