<?xml version="1.0"?>
<VTKFile type="PolyData" version="0.1" byte_order="LittleEndian">
  <PolyData>
    <Piece NumberOfPoints="      8" NumberOfVerts="  0" NumberOfLines="      0"
           NumberOfStrips="  0" NumberOfPolys="      6">
      <Points>
        <DataArray type="Float32" NumberOfComponents="3" format="ascii">
                      -3.39888                       2.39428                      87.60665
                       3.60111                       2.39428                      87.59395
                       3.60111                      -2.40573                      87.59320
                      -3.39888                      -2.40573                      87.60590
                      -3.39017                      -2.40648                      92.40589
                       3.60982                      -2.40648                      92.39320
                       3.60982                       2.39352                      92.39395
                      -3.39017                       2.39352                      92.40665
        </DataArray>
      </Points>
      <Polys>
        <DataArray type="Int32" Name="connectivity" format="ascii">
      0      1      2      3
      4      5      6      7
      7      6      1      0
      6      5      2      1
      5      4      3      2
      4      7      0      3
        </DataArray>
        <DataArray type="Int32" Name="offsets" format="ascii">
      4
      8
     12
     16
     20
     24
        </DataArray>
      </Polys>
    </Piece>
  </PolyData>
</VTKFile>
