<?xml version="1.0"?>
<VTKFile type="PolyData" version="0.1" byte_order="LittleEndian">
  <PolyData>
    <Piece NumberOfPoints="     19" NumberOfVerts="  0" NumberOfLines="     18"
           NumberOfStrips="  0" NumberOfPolys="      0">
      <Points>
        <DataArray type="Float32" NumberOfComponents="3" format="ascii">
                      -4.52381                      -1.50848                      90.03416
                      -4.58558                      -2.87384                      90.01949
                      -4.73498                      -5.60239                      89.89629
                      -4.89064                      -8.33025                      89.72673
                      -5.07833                     -11.74033                      89.48402
                      -5.20784                     -15.83745                      89.32221
                      -5.25922                     -19.93827                      89.27771
                      -5.25896                     -24.03950                      89.22503
                      -5.19251                     -28.14010                      89.16483
                      -5.04853                     -32.23840                      89.09452
                      -4.81676                     -36.33223                      89.00997
                      -4.48529                     -40.41891                      88.91220
                      -4.04520                     -44.49524                      88.80100
                      -3.48962                     -48.55752                      88.67632
                      -2.81181                     -52.60106                      88.53795
                      -2.14975                     -55.95224                      88.41212
                      -1.55966                     -58.61954                      88.31298
                      -0.91260                     -61.27411                      88.26308
                      -0.57427                     -62.59435                      88.19466
        </DataArray>
      </Points>
      <PointData>
        <DataArray type="Float32" Name="TranslationalVelocity" NumberOfComponents="3" format="ascii">
                       0.10149                       0.00754                      -1.77343
                      -0.05726                       0.03222                      -3.40742
                      -0.37396                       0.19692                      -6.67307
                      -0.68896                       0.41776                      -9.93848
                      -1.07931                       0.72964                     -14.02167
                      -1.54131                       0.93771                     -18.92961
                      -1.99494                       0.99628                     -23.84419
                      -2.43932                       1.05892                     -28.76123
                      -2.87372                       1.12358                     -33.67926
                      -3.29760                       1.19251                     -38.59600
                      -3.71061                       1.27002                     -43.50854
                      -4.11249                       1.35417                     -48.41339
                      -4.50306                       1.44483                     -53.30649
                      -4.88215                       1.54198                     -58.18331
                      -5.24956                       1.64589                     -63.03830
                      -5.54636                       1.73793                     -67.06273
                      -5.77776                       1.80563                     -70.26654
                      -6.00330                       1.81058                     -73.45593
                      -6.11412                       1.86450                     -75.04252
        </DataArray>
        <DataArray type="Float32" Name="RotationalVelocity" NumberOfComponents="3" format="ascii">
                       1.19688                       0.00441                      -0.11635
                       1.19695                       0.00440                      -0.11621
                       1.19713                       0.00440                      -0.11570
                       1.19736                       0.00441                      -0.11493
                       1.19771                       0.00442                      -0.11368
                       1.19815                       0.00444                      -0.11183
                       1.19858                       0.00447                      -0.10971
                       1.19897                       0.00453                      -0.10739
                       1.19929                       0.00464                      -0.10493
                       1.19953                       0.00480                      -0.10239
                       1.19969                       0.00503                      -0.09981
                       1.19977                       0.00534                      -0.09720
                       1.19978                       0.00572                      -0.09461
                       1.19975                       0.00617                      -0.09206
                       1.19971                       0.00666                      -0.08958
                       1.19970                       0.00707                      -0.08758
                       1.19972                       0.00739                      -0.08605
                       1.19978                       0.00768                      -0.08459
                       1.19983                       0.00780                      -0.08390
        </DataArray>
        <DataArray type="Float32" Name="TranslationalAcceleration" NumberOfComponents="3" format="ascii">
                      -0.30836                       2.16295                      -0.24321
                      -0.12450                       2.62213                      -0.25612
                      -0.30997                       7.51398                      -0.59819
                      -0.43365                      12.02858                      -0.82392
                      -0.53483                      17.31323                      -1.02287
                      -0.63498                      23.30114                      -1.42045
                      -0.73773                      29.11202                      -1.98320
                      -0.84167                      34.90777                      -2.54461
                      -0.95458                      40.76114                      -3.11897
                      -1.07629                      46.69282                      -3.70924
                      -1.20121                      52.68611                      -4.31098
                      -1.32176                      58.70104                      -4.92302
                      -1.42975                      64.69047                      -5.53903
                      -1.51898                      70.61474                      -6.15066
                      -1.58755                      76.45567                      -6.74819
                      -1.63187                      81.27035                      -7.22762
                      -1.66601                      85.11015                      -7.60894
                      -1.71578                      88.96725                      -8.05572
                      -1.73623                      90.92564                      -8.21380
        </DataArray>
        <DataArray type="Float32" Name="OrientationX" NumberOfComponents="3" format="ascii">
                       0.94533                      -0.03958                      -0.32371
                       0.94536                      -0.03883                      -0.32372
                       0.94545                      -0.03637                      -0.32373
                       0.94557                      -0.03274                      -0.32376
                       0.94573                      -0.02672                      -0.32385
                       0.95572                      -0.01804                      -0.29371
                       0.96229                      -0.00674                      -0.27192
                       0.96748                       0.00719                      -0.25283
                       0.97231                       0.02393                      -0.23246
                       0.97647                       0.04368                      -0.21120
                       0.97939                       0.06653                      -0.19069
                       0.98114                       0.09227                      -0.16985
                       0.98127                       0.12047                      -0.15032
                       0.97944                       0.15029                      -0.13460
                       0.97644                       0.18036                      -0.11850
                       0.97329                       0.20436                      -0.10465
                       0.97053                       0.22190                      -0.09401
                       0.96754                       0.23716                      -0.08725
                       0.96602                       0.24368                      -0.08616
        </DataArray>
        <DataArray type="Float32" Name="OrientationY" NumberOfComponents="3" format="ascii">
                       0.32306                      -0.02204                       0.94612
                       0.32307                      -0.02208                       0.94612
                       0.32310                      -0.02209                       0.94611
                       0.32317                      -0.02198                       0.94608
                       0.32334                      -0.02164                       0.94603
                       0.29335                      -0.02026                       0.95579
                       0.27176                      -0.01912                       0.96218
                       0.25292                      -0.01803                       0.96732
                       0.23289                      -0.01703                       0.97235
                       0.21207                      -0.01630                       0.97712
                       0.19213                      -0.01595                       0.98124
                       0.17204                      -0.01620                       0.98496
                       0.15345                      -0.01707                       0.98801
                       0.13887                      -0.01823                       0.99014
                       0.12413                      -0.02017                       0.99206
                       0.11155                      -0.02248                       0.99350
                       0.10196                      -0.02461                       0.99448
                       0.09612                      -0.02609                       0.99503
                       0.09539                      -0.02632                       0.99509
        </DataArray>
        <DataArray type="Float32" Name="OrientationZ" NumberOfComponents="3" format="ascii">
                      -0.04458                      -0.99897                      -0.00805
                      -0.04388                      -0.99900                      -0.00833
                      -0.04157                      -0.99909                      -0.00913
                      -0.03809                      -0.99922                      -0.01021
                      -0.03229                      -0.99941                      -0.01182
                      -0.02319                      -0.99963                      -0.01407
                      -0.01169                      -0.99979                      -0.01657
                       0.00240                      -0.99981                      -0.01926
                       0.01931                      -0.99957                      -0.02213
                       0.03924                      -0.99891                      -0.02518
                       0.06224                      -0.99766                      -0.02840
                       0.08813                      -0.99560                      -0.03177
                       0.11646                      -0.99257                      -0.03524
                       0.14636                      -0.98847                      -0.03872
                       0.17653                      -0.98339                      -0.04209
                       0.20068                      -0.97864                      -0.04468
                       0.21836                      -0.97476                      -0.04651
                       0.23371                      -0.97112                      -0.04804
                       0.24022                      -0.96950                      -0.04867
        </DataArray>
        <DataArray type="Float32" Name="Force" NumberOfComponents="3" format="ascii">
                     154.81903                      -7.09511                      23.06228
                     163.42437                      -7.55089                      46.21036
                     204.92354                      -9.43431                     110.61954
                     182.48672                      -8.17432                     143.05502
                    1750.73075                     -48.80208                    -789.35845
                    2035.21543                     -37.16153                    -912.61332
                    2723.96040                     -16.20672                   -1260.45235
                    3097.39855                      26.78704                   -1371.22717
                    3714.93449                      96.39814                   -1522.99936
                    4930.88906                     228.79075                   -1895.37794
                    5744.91696                     401.55449                   -2034.63006
                    6658.86644                     641.98051                   -2166.35810
                    6933.45135                     871.28646                   -2101.57059
                    7404.11662                    1160.80749                   -2084.04881
                    7801.47190                    1471.18803                   -2050.88875
                    8064.72025                    1728.78771                   -2010.89474
                    7964.01224                    1859.28004                   -1907.61673
                    5849.81291                    1463.37697                   -1346.48139
                    6026.39804                    1550.54697                   -1363.18089
        </DataArray>
        <DataArray type="Float32" Name="Moment" NumberOfComponents="3" format="ascii">
                       0.00000                       0.00000                       0.00000
                       0.00000                       0.00000                       0.00000
                       0.00000                       0.00000                       0.00000
                       0.00000                       0.00000                       0.00000
                      24.99244                     779.58913                       7.23304
                      20.11036                     881.16823                       8.96694
                       8.60008                     769.08028                       8.69688
                      -2.80698                     926.32969                      11.75538
                     -26.56539                    1323.83443                      18.99311
                     -65.02837                    1620.26025                      26.40787
                    -113.70369                    1795.52119                      33.31383
                    -174.92384                    1953.49151                      41.22541
                    -231.75037                    1957.07750                      46.79604
                    -290.12713                    1944.47913                      52.31681
                    -338.54027                    1873.49224                      56.14490
                    -365.74404                    1773.11686                      57.54615
                    -354.25161                    1572.74326                      53.94481
                    -191.72590                     792.61491                      28.46960
                    -205.97288                     827.16373                      30.28332
        </DataArray>
      </PointData>
      <Lines>
        <DataArray type="Int32" Name="connectivity" format="ascii">
      0      1
      1      2
      2      3
      3      4
      4      5
      5      6
      6      7
      7      8
      8      9
      9     10
     10     11
     11     12
     12     13
     13     14
     14     15
     15     16
     16     17
     17     18
        </DataArray>
        <DataArray type="Int32" Name="offsets" format="ascii">
      2
      4
      6
      8
     10
     12
     14
     16
     18
     20
     22
     24
     26
     28
     30
     32
     34
     36
        </DataArray>
      </Lines>
    </Piece>
  </PolyData>
</VTKFile>
