<?xml version="1.0"?>
<VTKFile type="PolyData" version="0.1" byte_order="LittleEndian">
  <PolyData>
    <Piece NumberOfPoints="    550" NumberOfVerts="  0" NumberOfLines="     21"
           NumberOfStrips="  0" NumberOfPolys="    567">
      <Points>
        <DataArray type="Float32" NumberOfComponents="3" format="ascii">
                       2.97378                      -0.00001                       2.18886
                       2.88037                       0.73944                       2.18890
                       2.60599                       1.43242                       2.18901
                       2.16790                       2.03540                       2.18919
                       1.59362                       2.51049                       2.18941
                       0.91923                       2.82784                       2.18967
                       0.18711                       2.96750                       2.18996
                      -0.55675                       2.92070                       2.19024
                      -1.26560                       2.69038                       2.19051
                      -1.89489                       2.29101                       2.19075
                      -2.40510                       1.74770                       2.19094
                      -2.76417                       1.09456                       2.19107
                      -2.94952                       0.37265                       2.19113
                      -2.94952                      -0.37267                       2.19113
                      -2.76417                      -1.09458                       2.19105
                      -2.40510                      -1.74772                       2.19091
                      -1.89489                      -2.29104                       2.19070
                      -1.26560                      -2.69040                       2.19046
                      -0.55675                      -2.92072                       2.19019
                       0.18711                      -2.96752                       2.18990
                       0.91923                      -2.82786                       2.18962
                       1.59362                      -2.51051                       2.18937
                       2.16790                      -2.03543                       2.18915
                       2.60599                      -1.43245                       2.18899
                       2.88037                      -0.73946                       2.18889
                       2.92420                      -0.00009                       6.56613
                       2.83246                       0.72612                       6.56627
                       2.56300                       1.40669                       6.56664
                       2.13276                       1.99887                       6.56723
                       1.56876                       2.46545                       6.56799
                       0.90645                       2.77711                       6.56888
                       0.18744                       2.91427                       6.56983
                      -0.54310                       2.86831                       6.57080
                      -1.23925                       2.64212                       6.57172
                      -1.85728                       2.24990                       6.57253
                      -2.35835                       1.71632                       6.57318
                      -2.71098                       1.07488                       6.57363
                      -2.89302                       0.36590                       6.57385
                      -2.89302                      -0.36608                       6.57383
                      -2.71098                      -1.07506                       6.57357
                      -2.35835                      -1.71650                       6.57308
                      -1.85728                      -2.25009                       6.57241
                      -1.23925                      -2.64230                       6.57158
                      -0.54310                      -2.86849                       6.57065
                       0.18744                      -2.91445                       6.56968
                       0.90645                      -2.77729                       6.56873
                       1.56876                      -2.46563                       6.56786
                       2.13276                      -1.99905                       6.56712
                       2.56300                      -1.40687                       6.56657
                       2.83246                      -0.72630                       6.56623
                       2.87908                      -0.00024                      10.94310
                       2.78901                       0.71272                      10.94335
                       2.52447                       1.38089                      10.94401
                       2.10207                       1.96227                      10.94505
                       1.54836                       2.42034                      10.94640
                       0.89812                       2.72632                      10.94798
                       0.19222                       2.86098                      10.94968
                      -0.52499                       2.81585                      10.95140
                      -1.20844                       2.59378                      10.95303
                      -1.81520                       2.20872                      10.95447
                      -2.30713                       1.68487                      10.95563
                      -2.65333                       1.05513                      10.95644
                      -2.83205                       0.35907                      10.95684
                      -2.83205                      -0.35956                      10.95681
                      -2.65333                      -1.05561                      10.95635
                      -2.30713                      -1.68535                      10.95549
                      -1.81520                      -2.20921                      10.95429
                      -1.20844                      -2.59427                      10.95281
                      -0.52499                      -2.81634                      10.95116
                       0.19222                      -2.86146                      10.94944
                       0.89812                      -2.72680                      10.94775
                       1.54836                      -2.42082                      10.94620
                       2.10207                      -1.96275                      10.94489
                       2.52447                      -1.38137                      10.94390
                       2.78901                      -0.71320                      10.94329
                       2.83879                      -0.00046                      15.32005
                       2.75040                       0.69926                      15.32040
                       2.49077                       1.35502                      15.32136
                       2.07622                       1.92560                      15.32285
                       1.53279                       2.37516                      15.32479
                       0.89464                       2.67546                      15.32706
                       0.20185                       2.80762                      15.32951
                      -0.50203                       2.76333                      15.33198
                      -1.17279                       2.54539                      15.33434
                      -1.76828                       2.16748                      15.33641
                      -2.25107                       1.65335                      15.33809
                      -2.59084                       1.03531                      15.33925
                      -2.76624                       0.35218                      15.33983
                      -2.76624                      -0.35310                      15.33979
                      -2.59084                      -1.03622                      15.33913
                      -2.25107                      -1.65427                      15.33790
                      -1.76828                      -2.16839                      15.33617
                      -1.17279                      -2.54630                      15.33405
                      -0.50203                      -2.76425                      15.33167
                       0.20185                      -2.80853                      15.32919
                       0.89464                      -2.67637                      15.32675
                       1.53279                      -2.37608                      15.32452
                       2.07622                      -1.92652                      15.32263
                       2.49077                      -1.35593                      15.32120
                       2.75040                      -0.70018                      15.32032
                       2.80342                      -0.00074                      19.69712
                       2.71670                       0.68574                      19.69758
                       2.46198                       1.32908                      19.69880
                       2.05528                       1.88887                      19.70073
                       1.52214                       2.32992                      19.70324
                       0.89607                       2.62453                      19.70616
                       0.21640                       2.75419                      19.70933
                      -0.47416                       2.71074                      19.71253
                      -1.13222                       2.49692                      19.71557
                      -1.71644                       2.12617                      19.71825
                      -2.19009                       1.62177                      19.72041
                      -2.52343                       1.01542                      19.72191
                      -2.69550                       0.34523                      19.72266
                      -2.69550                      -0.34671                      19.72262
                      -2.52343                      -1.01690                      19.72177
                      -2.19009                      -1.62325                      19.72018
                      -1.71644                      -2.12765                      19.71794
                      -1.13222                      -2.49840                      19.71521
                      -0.47416                      -2.71222                      19.71214
                       0.21640                      -2.75567                      19.70893
                       0.89607                      -2.62601                      19.70579
                       1.52214                      -2.33140                      19.70290
                       2.05528                      -1.89035                      19.70046
                       2.46198                      -1.33056                      19.69861
                       2.71670                      -0.68722                      19.69748
                       2.77286                      -0.00109                      24.07438
                       2.68782                       0.67215                      24.07493
                       2.43802                       1.30308                      24.07641
                       2.03916                       1.85207                      24.07874
                       1.51631                       2.28461                      24.08177
                       0.90232                       2.57354                      24.08531
                       0.23576                       2.70069                      24.08914
                      -0.44147                       2.65809                      24.09301
                      -1.08684                       2.44839                      24.09668
                      -1.65978                       2.08479                      24.09993
                      -2.12429                       1.59012                      24.10254
                      -2.45120                       0.99547                      24.10436
                      -2.61995                       0.33820                      24.10527
                      -2.61995                      -0.34038                      24.10521
                      -2.45120                      -0.99765                      24.10419
                      -2.12429                      -1.59230                      24.10227
                      -1.65978                      -2.08696                      24.09956
                      -1.08684                      -2.45057                      24.09625
                      -0.44147                      -2.66026                      24.09254
                       0.23576                      -2.70287                      24.08866
                       0.90232                      -2.57572                      24.08486
                       1.51631                      -2.28679                      24.08137
                       2.03916                      -1.85424                      24.07842
                       2.43801                      -1.30526                      24.07618
                       2.68782                      -0.67432                      24.07481
                       2.74696                      -0.00151                      28.45183
                       2.66358                       0.65848                      28.45247
                       2.41870                       1.27701                      28.45419
                       2.02769                       1.81519                      28.45689
                       1.51513                       2.23923                      28.46040
                       0.91322                       2.52248                      28.46450
                       0.25978                       2.64713                      28.46894
                      -0.40413                       2.60536                      28.47342
                      -1.03680                       2.39979                      28.47768
                      -1.59846                       2.04334                      28.48145
                      -2.05384                       1.55840                      28.48447
                      -2.37431                       0.97545                      28.48658
                      -2.53975                       0.33111                      28.48763
                      -2.53975                      -0.33413                      28.48756
                      -2.37431                      -0.97847                      28.48638
                      -2.05384                      -1.56142                      28.48415
                      -1.59846                      -2.04636                      28.48102
                      -1.03680                      -2.40281                      28.47718
                      -0.40413                      -2.60838                      28.47288
                       0.25978                      -2.65015                      28.46838
                       0.91322                      -2.52549                      28.46397
                       1.51513                      -2.24225                      28.45993
                       2.02769                      -1.81821                      28.45651
                       2.41870                      -1.28002                      28.45392
                       2.66358                      -0.66150                      28.45233
                       2.72555                      -0.00201                      32.82944
                       2.64385                       0.64474                      32.83016
                       2.40388                       1.25085                      32.83210
                       2.02072                       1.77824                      32.83514
                       1.51844                       2.19377                      32.83910
                       0.92862                       2.47133                      32.84373
                       0.28829                       2.59348                      32.84872
                      -0.36229                       2.55255                      32.85378
                      -0.98226                       2.35111                      32.85858
                      -1.53265                       2.00181                      32.86281
                      -1.97888                       1.52660                      32.86623
                      -2.29292                       0.95534                      32.86860
                      -2.45504                       0.32393                      32.86978
                      -2.45504                      -0.32796                      32.86970
                      -2.29293                      -0.95936                      32.86836
                      -1.97889                      -1.53062                      32.86585
                      -1.53265                      -2.00583                      32.86232
                      -0.98226                      -2.35513                      32.85799
                      -0.36229                      -2.55657                      32.85314
                       0.28829                      -2.59750                      32.84808
                       0.92861                      -2.47535                      32.84311
                       1.51844                      -2.19779                      32.83856
                       2.02072                      -1.78226                      32.83470
                       2.40388                      -1.25487                      32.83179
                       2.64385                      -0.64876                      32.83000
                       2.70855                      -0.00260                      37.20714
                       2.62853                       0.63091                      37.20793
                       2.39347                       1.22461                      37.21009
                       2.01816                       1.74120                      37.21346
                       1.52618                       2.14822                      37.21784
                       0.94843                       2.42010                      37.22295
                       0.32122                       2.53975                      37.22848
                      -0.31603                       2.49966                      37.23408
                      -0.92330                       2.30234                      37.23938
                      -1.46242                       1.96019                      37.24407
                      -1.89951                       1.49471                      37.24784
                      -2.20712                       0.93515                      37.25046
                      -2.36591                       0.31667                      37.25177
                      -2.36591                      -0.32187                      37.25168
                      -2.20712                      -0.94035                      37.25019
                      -1.89951                      -1.49991                      37.24741
                      -1.46242                      -1.96538                      37.24350
                      -0.92330                      -2.30753                      37.23872
                      -0.31604                      -2.50485                      37.23335
                       0.32122                      -2.54495                      37.22775
                       0.94843                      -2.42529                      37.22225
                       1.52617                      -2.15342                      37.21722
                       2.01816                      -1.74639                      37.21295
                       2.39347                      -1.22980                      37.20973
                       2.62853                      -0.63610                      37.20775
                       2.69599                      -0.00328                      41.58487
                       2.61764                       0.61699                      41.58574
                       2.38750                       1.19828                      41.58809
                       2.02004                       1.70407                      41.59178
                       1.53835                       2.10258                      41.59657
                       0.97268                       2.36877                      41.60217
                       0.35859                       2.48592                      41.60821
                      -0.26534                       2.44667                      41.61432
                      -0.85991                       2.25347                      41.62012
                      -1.38775                       1.91847                      41.62524
                      -1.81570                       1.46273                      41.62937
                      -2.11688                       0.91487                      41.63223
                      -2.27235                       0.30931                      41.63365
                      -2.27235                      -0.31588                      41.63355
                      -2.11688                      -0.92143                      41.63192
                      -1.81570                      -1.46929                      41.62888
                      -1.38775                      -1.92504                      41.62460
                      -0.85991                      -2.26003                      41.61937
                      -0.26534                      -2.45323                      41.61350
                       0.35859                      -2.49248                      41.60738
                       0.97268                      -2.37533                      41.60137
                       1.53834                      -2.10914                      41.59587
                       2.02004                      -1.71062                      41.59121
                       2.38750                      -1.20483                      41.58769
                       2.61764                      -0.62354                      41.58553
                       2.68799                      -0.00406                      45.96256
                       2.61131                       0.60296                      45.96351
                       2.38609                       1.17184                      45.96607
                       2.02648                       1.66683                      45.97007
                       1.55507                       2.05683                      45.97527
                       1.00149                       2.31734                      45.98134
                       0.40052                       2.43199                      45.98790
                      -0.21008                       2.39357                      45.99453
                      -0.79195                       2.20450                      46.00082
                      -1.30852                       1.87666                      46.00637
                      -1.72733                       1.43064                      46.01084
                      -2.02207                       0.89448                      46.01394
                      -2.17422                       0.30185                      46.01548
                      -2.17422                      -0.30999                      46.01536
                      -2.02207                      -0.90262                      46.01359
                      -1.72733                      -1.43878                      46.01029
                      -1.30852                      -1.88480                      46.00565
                      -0.79195                      -2.21264                      45.99997
                      -0.21009                      -2.40171                      45.99361
                       0.40051                      -2.44013                      45.98696
                       1.00149                      -2.32548                      45.98045
                       1.55507                      -2.06496                      45.97448
                       2.02647                      -1.67496                      45.96943
                       2.38609                      -1.17997                      45.96562
                       2.61131                      -0.61109                      45.96328
                       2.68476                      -0.00496                      50.34018
                       2.60975                       0.58882                      50.34121
                       2.38945                       1.14529                      50.34398
                       2.03768                       1.62948                      50.34830
                       1.57657                       2.01098                      50.35391
                       1.03507                       2.26580                      50.36046
                       0.44722                       2.37795                      50.36753
                      -0.15006                       2.34037                      50.37468
                      -0.71922                       2.15542                      50.38147
                      -1.22451                       1.83473                      50.38745
                      -1.63418                       1.39844                      50.39227
                      -1.92249                       0.87398                      50.39561
                      -2.07132                       0.29428                      50.39727
                      -2.07132                      -0.30422                      50.39714
                      -1.92250                      -0.88391                      50.39523
                      -1.63419                      -1.40838                      50.39166
                      -1.22452                      -1.84466                      50.38665
                      -0.71923                      -2.16535                      50.38052
                      -0.15006                      -2.35030                      50.37366
                       0.44721                      -2.38788                      50.36649
                       1.03506                      -2.27573                      50.35947
                       1.57656                      -2.02090                      50.35303
                       2.03768                      -1.63940                      50.34759
                       2.38944                      -1.15521                      50.34347
                       2.60975                      -0.59874                      50.34095
                       2.68654                      -0.00597                      54.71773
                       2.61321                       0.57456                      54.71884
                       2.39783                       1.11862                      54.72181
                       2.05391                       1.59201                      54.72645
                       1.60309                       1.96500                      54.73248
                       1.07367                       2.21415                      54.73951
                       0.49894                       2.32379                      54.74710
                      -0.08500                       2.28705                      54.75478
                      -0.64147                       2.10623                      54.76206
                      -1.13548                       1.79269                      54.76849
                      -1.53601                       1.36613                      54.77366
                      -1.81789                       0.85336                      54.77724
                      -1.96339                       0.28659                      54.77902
                      -1.96340                      -0.29856                      54.77888
                      -1.81789                      -0.86532                      54.77682
                      -1.53602                      -1.37809                      54.77298
                      -1.13549                      -1.80465                      54.76761
                      -0.64147                      -2.11819                      54.76103
                      -0.08501                      -2.29901                      54.75366
                       0.49893                      -2.33575                      54.74596
                       1.07367                      -2.22610                      54.73842
                       1.60308                      -1.97695                      54.73151
                       2.05391                      -1.60397                      54.72567
                       2.39782                      -1.13057                      54.72126
                       2.61321                      -0.58651                      54.71855
                       2.69358                      -0.00711                      59.09524
                       2.62192                       0.56018                      59.09643
                       2.41145                       1.09183                      59.09960
                       2.07539                       1.55443                      59.10456
                       1.63486                       1.91891                      59.11099
                       1.11753                       2.16237                      59.11850
                       0.55591                       2.26951                      59.12661
                      -0.01470                       2.23361                      59.13480
                      -0.55846                       2.05691                      59.14257
                      -1.04120                       1.75052                      59.14943
                      -1.43259                       1.33370                      59.15495
                      -1.70803                       0.83262                      59.15877
                      -1.85021                       0.27878                      59.16067
                      -1.85021                      -0.29302                      59.16051
                      -1.70803                      -0.84685                      59.15831
                      -1.43259                      -1.34793                      59.15422
                      -1.04121                      -1.76475                      59.14847
                      -0.55847                      -2.07114                      59.14145
                      -0.01471                      -2.24783                      59.13358
                       0.55590                      -2.28374                      59.12536
                       1.11752                      -2.17659                      59.11732
                       1.63485                      -1.93313                      59.10994
                       2.07538                      -1.56865                      59.10371
                       2.41145                      -1.10605                      59.09900
                       2.62192                      -0.57440                      59.09612
                       2.70596                      -0.00836                      63.47280
                       2.63598                       0.54569                      63.47406
                       2.43042                       1.06492                      63.47742
                       2.10221                       1.51672                      63.48268
                       1.67197                       1.87269                      63.48950
                       1.16673                       2.11047                      63.49745
                       0.61823                       2.21511                      63.50604
                       0.06095                       2.18004                      63.51472
                      -0.47011                       2.00747                      63.52295
                      -0.94157                       1.70824                      63.53022
                      -1.32381                       1.30114                      63.53606
                      -1.59281                       0.81176                      63.54010
                      -1.73168                       0.27085                      63.54211
                      -1.73168                      -0.28760                      63.54194
                      -1.59282                      -0.82851                      63.53961
                      -1.32382                      -1.31788                      63.53527
                      -0.94157                      -1.72498                      63.52918
                      -0.47012                      -2.02421                      63.52174
                       0.06094                      -2.19678                      63.51340
                       0.61822                      -2.23185                      63.50470
                       1.16672                      -2.12720                      63.49618
                       1.67196                      -1.88942                      63.48837
                       2.10221                      -1.53345                      63.48176
                       2.43042                      -1.08165                      63.47678
                       2.63598                      -0.56241                      63.47373
                       2.72355                      -0.00974                      67.85057
                       2.65524                       0.53107                      67.85189
                       2.45460                       1.03790                      67.85542
                       2.13424                       1.47890                      67.86093
                       1.71429                       1.82636                      67.86807
                       1.22114                       2.05845                      67.87640
                       0.68576                       2.16059                      67.88540
                       0.14181                       2.12636                      67.89450
                      -0.37655                       1.95791                      67.90312
                      -0.83673                       1.66583                      67.91073
                      -1.20983                       1.26846                      67.91685
                      -1.47240                       0.79078                      67.92109
                      -1.60795                       0.26280                      67.92318
                      -1.60795                      -0.28230                      67.92301
                      -1.47241                      -0.81028                      67.92056
                      -1.20984                      -1.28796                      67.91601
                      -0.83674                      -1.68532                      67.90963
                      -0.37656                      -1.97740                      67.90183
                       0.14180                      -2.14585                      67.89310
                       0.68575                      -2.18008                      67.88398
                       1.22112                      -2.07793                      67.87505
                       1.71428                      -1.84584                      67.86687
                       2.13424                      -1.49837                      67.85995
                       2.45460                      -1.05737                      67.85473
                       2.65524                      -0.55054                      67.85154
                       2.74581                      -0.01122                      72.22877
                       2.67917                       0.51634                      72.23013
                       2.48345                       1.01076                      72.23377
                       2.17094                       1.44096                      72.23946
                       1.76128                       1.77991                      72.24683
                       1.28021                       2.00632                      72.25543
                       0.75795                       2.10596                      72.26471
                       0.22733                       2.07257                      72.27410
                      -0.27832                       1.90824                      72.28299
                      -0.72723                       1.62331                      72.29084
                      -1.09119                       1.23568                      72.29715
                      -1.34733                       0.76969                      72.30152
                      -1.47955                       0.25464                      72.30368
                      -1.47955                      -0.27712                      72.30350
                      -1.34733                      -0.79217                      72.30097
                      -1.09120                      -1.25815                      72.29627
                      -0.72724                      -1.64578                      72.28969
                      -0.27834                      -1.93071                      72.28164
                       0.22732                      -2.09503                      72.27263
                       0.75794                      -2.12842                      72.26322
                       1.28020                      -2.02878                      72.25401
                       1.76127                      -1.80236                      72.24557
                       2.17093                      -1.46341                      72.23844
                       2.48345                      -1.03320                      72.23305
                       2.67917                      -0.53879                      72.22976
                       2.77165                      -0.01281                      76.60769
                       2.70668                       0.50151                      76.60907
                       2.51588                       0.98351                      76.61275
                       2.21122                       1.40291                      76.61850
                       1.81184                       1.73336                      76.62595
                       1.34285                       1.95408                      76.63463
                       0.83371                       2.05122                      76.64401
                       0.31641                       2.01867                      76.65348
                      -0.17654                       1.85847                      76.66246
                      -0.61418                       1.58069                      76.67039
                      -0.96899                       1.20279                      76.67675
                      -1.21870                       0.74850                      76.68116
                      -1.34760                       0.24638                      76.68334
                      -1.34760                      -0.27203                      76.68315
                      -1.21870                      -0.77416                      76.68059
                      -0.96900                      -1.22844                      76.67584
                      -0.61419                      -1.60634                      76.66920
                      -0.17656                      -1.88412                      76.66106
                       0.31640                      -2.04431                      76.65196
                       0.83370                      -2.07686                      76.64246
                       1.34284                      -1.97972                      76.63316
                       1.81183                      -1.75899                      76.62464
                       2.21121                      -1.42854                      76.61744
                       2.51587                      -1.00914                      76.61201
                       2.70668                      -0.52714                      76.60869
                       2.79921                      -0.01449                      80.98771
                       2.73592                       0.48659                      80.98907
                       2.55003                       0.95618                      80.99269
                       2.25321                       1.36478                      80.99832
                       1.86412                       1.68672                      81.00563
                       1.40721                       1.90176                      81.01414
                       0.91118                       1.99640                      81.02333
                       0.40720                       1.96468                      81.03261
                      -0.07307                       1.80861                      81.04141
                      -0.49943                       1.53798                      81.04917
                      -0.84511                       1.16981                      81.05540
                      -1.08839                       0.72722                      81.05972
                      -1.21397                       0.23802                      81.06184
                      -1.21397                      -0.26704                      81.06165
                      -1.08839                      -0.75623                      81.05914
                      -0.84512                      -1.19882                      81.05448
                      -0.49944                      -1.56699                      81.04795
                      -0.07308                      -1.83762                      81.03998
                       0.40718                      -1.99369                      81.03106
                       0.91116                      -2.02540                      81.02175
                       1.40719                      -1.93076                      81.01264
                       1.86411                      -1.71571                      81.00429
                       2.25320                      -1.39377                      80.99724
                       2.55002                      -0.98517                      80.99193
                       2.73591                      -0.51557                      80.98868
                       2.82566                      -0.01624                      85.36929
                       2.76404                       0.47160                      85.37059
                       2.58306                       0.92878                      85.37399
                       2.29408                       1.32658                      85.37929
                       1.91527                       1.64001                      85.38615
                       1.47043                       1.84937                      85.39414
                       0.98750                       1.94151                      85.40276
                       0.49683                       1.91063                      85.41147
                       0.02926                       1.75868                      85.41972
                      -0.38584                       1.49521                      85.42699
                      -0.72239                       1.13676                      85.43283
                      -0.95924                       0.70587                      85.43686
                      -1.08151                       0.22960                      85.43884
                      -1.08151                      -0.26211                      85.43864
                      -0.95925                      -0.73838                      85.43628
                      -0.72240                      -1.16927                      85.43189
                      -0.38585                      -1.52771                      85.42576
                       0.02925                      -1.79118                      85.41828
                       0.49682                      -1.94313                      85.40991
                       0.98749                      -1.97400                      85.40117
                       1.47041                      -1.88186                      85.39263
                       1.91526                      -1.67250                      85.38480
                       2.29407                      -1.35907                      85.37820
                       2.58305                      -0.96126                      85.37322
                       2.76404                      -0.50408                      85.37019
                       2.83725                      -0.01713                      87.56082
                       2.77647                       0.46408                      87.56205
                       2.59794                       0.91506                      87.56528
                       2.31288                       1.30746                      87.57030
                       1.93921                       1.61664                      87.57680
                       1.50040                       1.82316                      87.58437
                       1.02402                       1.91404                      87.59253
                       0.54000                       1.88358                      87.60077
                       0.07877                       1.73370                      87.60857
                      -0.33070                       1.47380                      87.61545
                      -0.66269                       1.12022                      87.62096
                      -0.89633                       0.69517                      87.62477
                      -1.01693                       0.22537                      87.62664
                      -1.01694                      -0.25967                      87.62644
                      -0.89633                      -0.72947                      87.62419
                      -0.66270                      -1.15451                      87.62003
                      -0.33071                      -1.50809                      87.61423
                       0.07876                      -1.76798                      87.60714
                       0.53999                      -1.91787                      87.59921
                       1.02400                      -1.94832                      87.59095
                       1.50038                      -1.85743                      87.58286
                       1.93920                      -1.65091                      87.57546
                       2.31287                      -1.34173                      87.56922
                       2.59793                      -0.94933                      87.56452
                       2.77646                      -0.49835                      87.56166
                       3.00000                       0.00000                       0.00000
                       2.90575                       0.74607                       0.00000
                       2.62892                       1.44526                       0.00000
                       2.18691                       2.05364                       0.00000
                       1.60748                       2.53298                       0.00000
                       0.92705                       2.85317                       0.00000
                       0.18837                       2.99408                       0.00000
                      -0.56214                       2.94686                       0.00000
                      -1.27734                       2.71448                       0.00000
                      -1.91227                       2.31154                       0.00000
                      -2.42705                       1.76336                       0.00000
                      -2.78933                       1.10437                       0.00000
                      -2.97634                       0.37600                       0.00000
                      -2.97634                      -0.37600                       0.00000
                      -2.78933                      -1.10437                       0.00000
                      -2.42705                      -1.76336                       0.00000
                      -1.91227                      -2.31154                       0.00000
                      -1.27734                      -2.71448                       0.00000
                      -0.56214                      -2.94686                       0.00000
                       0.18837                      -2.99408                       0.00000
                       0.92705                      -2.85317                       0.00000
                       1.60748                      -2.53298                       0.00000
                       2.18691                      -2.05364                       0.00000
                       2.62892                      -1.44526                       0.00000
                       2.90575                      -0.74607                       0.00000
        </DataArray>
      </Points>
      <Polys>
        <DataArray type="Int32" Name="connectivity" format="ascii">
      0      1     26     25
      1      2     27     26
      2      3     28     27
      3      4     29     28
      4      5     30     29
      5      6     31     30
      6      7     32     31
      7      8     33     32
      8      9     34     33
      9     10     35     34
     10     11     36     35
     11     12     37     36
     12     13     38     37
     13     14     39     38
     14     15     40     39
     15     16     41     40
     16     17     42     41
     17     18     43     42
     18     19     44     43
     19     20     45     44
     20     21     46     45
     21     22     47     46
     22     23     48     47
     23     24     49     48
     24      0     25     49
     24     23     22     21     20     19     18     17     16     15     14     13     12     11     10      9      8      7      6      5      4      3      2      1      0
     25     26     27     28     29     30     31     32     33     34     35     36     37     38     39     40     41     42     43     44     45     46     47     48     49
     25     26     51     50
     26     27     52     51
     27     28     53     52
     28     29     54     53
     29     30     55     54
     30     31     56     55
     31     32     57     56
     32     33     58     57
     33     34     59     58
     34     35     60     59
     35     36     61     60
     36     37     62     61
     37     38     63     62
     38     39     64     63
     39     40     65     64
     40     41     66     65
     41     42     67     66
     42     43     68     67
     43     44     69     68
     44     45     70     69
     45     46     71     70
     46     47     72     71
     47     48     73     72
     48     49     74     73
     49     25     50     74
     49     48     47     46     45     44     43     42     41     40     39     38     37     36     35     34     33     32     31     30     29     28     27     26     25
     50     51     52     53     54     55     56     57     58     59     60     61     62     63     64     65     66     67     68     69     70     71     72     73     74
     50     51     76     75
     51     52     77     76
     52     53     78     77
     53     54     79     78
     54     55     80     79
     55     56     81     80
     56     57     82     81
     57     58     83     82
     58     59     84     83
     59     60     85     84
     60     61     86     85
     61     62     87     86
     62     63     88     87
     63     64     89     88
     64     65     90     89
     65     66     91     90
     66     67     92     91
     67     68     93     92
     68     69     94     93
     69     70     95     94
     70     71     96     95
     71     72     97     96
     72     73     98     97
     73     74     99     98
     74     50     75     99
     74     73     72     71     70     69     68     67     66     65     64     63     62     61     60     59     58     57     56     55     54     53     52     51     50
     75     76     77     78     79     80     81     82     83     84     85     86     87     88     89     90     91     92     93     94     95     96     97     98     99
     75     76    101    100
     76     77    102    101
     77     78    103    102
     78     79    104    103
     79     80    105    104
     80     81    106    105
     81     82    107    106
     82     83    108    107
     83     84    109    108
     84     85    110    109
     85     86    111    110
     86     87    112    111
     87     88    113    112
     88     89    114    113
     89     90    115    114
     90     91    116    115
     91     92    117    116
     92     93    118    117
     93     94    119    118
     94     95    120    119
     95     96    121    120
     96     97    122    121
     97     98    123    122
     98     99    124    123
     99     75    100    124
     99     98     97     96     95     94     93     92     91     90     89     88     87     86     85     84     83     82     81     80     79     78     77     76     75
    100    101    102    103    104    105    106    107    108    109    110    111    112    113    114    115    116    117    118    119    120    121    122    123    124
    100    101    126    125
    101    102    127    126
    102    103    128    127
    103    104    129    128
    104    105    130    129
    105    106    131    130
    106    107    132    131
    107    108    133    132
    108    109    134    133
    109    110    135    134
    110    111    136    135
    111    112    137    136
    112    113    138    137
    113    114    139    138
    114    115    140    139
    115    116    141    140
    116    117    142    141
    117    118    143    142
    118    119    144    143
    119    120    145    144
    120    121    146    145
    121    122    147    146
    122    123    148    147
    123    124    149    148
    124    100    125    149
    124    123    122    121    120    119    118    117    116    115    114    113    112    111    110    109    108    107    106    105    104    103    102    101    100
    125    126    127    128    129    130    131    132    133    134    135    136    137    138    139    140    141    142    143    144    145    146    147    148    149
    125    126    151    150
    126    127    152    151
    127    128    153    152
    128    129    154    153
    129    130    155    154
    130    131    156    155
    131    132    157    156
    132    133    158    157
    133    134    159    158
    134    135    160    159
    135    136    161    160
    136    137    162    161
    137    138    163    162
    138    139    164    163
    139    140    165    164
    140    141    166    165
    141    142    167    166
    142    143    168    167
    143    144    169    168
    144    145    170    169
    145    146    171    170
    146    147    172    171
    147    148    173    172
    148    149    174    173
    149    125    150    174
    149    148    147    146    145    144    143    142    141    140    139    138    137    136    135    134    133    132    131    130    129    128    127    126    125
    150    151    152    153    154    155    156    157    158    159    160    161    162    163    164    165    166    167    168    169    170    171    172    173    174
    150    151    176    175
    151    152    177    176
    152    153    178    177
    153    154    179    178
    154    155    180    179
    155    156    181    180
    156    157    182    181
    157    158    183    182
    158    159    184    183
    159    160    185    184
    160    161    186    185
    161    162    187    186
    162    163    188    187
    163    164    189    188
    164    165    190    189
    165    166    191    190
    166    167    192    191
    167    168    193    192
    168    169    194    193
    169    170    195    194
    170    171    196    195
    171    172    197    196
    172    173    198    197
    173    174    199    198
    174    150    175    199
    174    173    172    171    170    169    168    167    166    165    164    163    162    161    160    159    158    157    156    155    154    153    152    151    150
    175    176    177    178    179    180    181    182    183    184    185    186    187    188    189    190    191    192    193    194    195    196    197    198    199
    175    176    201    200
    176    177    202    201
    177    178    203    202
    178    179    204    203
    179    180    205    204
    180    181    206    205
    181    182    207    206
    182    183    208    207
    183    184    209    208
    184    185    210    209
    185    186    211    210
    186    187    212    211
    187    188    213    212
    188    189    214    213
    189    190    215    214
    190    191    216    215
    191    192    217    216
    192    193    218    217
    193    194    219    218
    194    195    220    219
    195    196    221    220
    196    197    222    221
    197    198    223    222
    198    199    224    223
    199    175    200    224
    199    198    197    196    195    194    193    192    191    190    189    188    187    186    185    184    183    182    181    180    179    178    177    176    175
    200    201    202    203    204    205    206    207    208    209    210    211    212    213    214    215    216    217    218    219    220    221    222    223    224
    200    201    226    225
    201    202    227    226
    202    203    228    227
    203    204    229    228
    204    205    230    229
    205    206    231    230
    206    207    232    231
    207    208    233    232
    208    209    234    233
    209    210    235    234
    210    211    236    235
    211    212    237    236
    212    213    238    237
    213    214    239    238
    214    215    240    239
    215    216    241    240
    216    217    242    241
    217    218    243    242
    218    219    244    243
    219    220    245    244
    220    221    246    245
    221    222    247    246
    222    223    248    247
    223    224    249    248
    224    200    225    249
    224    223    222    221    220    219    218    217    216    215    214    213    212    211    210    209    208    207    206    205    204    203    202    201    200
    225    226    227    228    229    230    231    232    233    234    235    236    237    238    239    240    241    242    243    244    245    246    247    248    249
    225    226    251    250
    226    227    252    251
    227    228    253    252
    228    229    254    253
    229    230    255    254
    230    231    256    255
    231    232    257    256
    232    233    258    257
    233    234    259    258
    234    235    260    259
    235    236    261    260
    236    237    262    261
    237    238    263    262
    238    239    264    263
    239    240    265    264
    240    241    266    265
    241    242    267    266
    242    243    268    267
    243    244    269    268
    244    245    270    269
    245    246    271    270
    246    247    272    271
    247    248    273    272
    248    249    274    273
    249    225    250    274
    249    248    247    246    245    244    243    242    241    240    239    238    237    236    235    234    233    232    231    230    229    228    227    226    225
    250    251    252    253    254    255    256    257    258    259    260    261    262    263    264    265    266    267    268    269    270    271    272    273    274
    250    251    276    275
    251    252    277    276
    252    253    278    277
    253    254    279    278
    254    255    280    279
    255    256    281    280
    256    257    282    281
    257    258    283    282
    258    259    284    283
    259    260    285    284
    260    261    286    285
    261    262    287    286
    262    263    288    287
    263    264    289    288
    264    265    290    289
    265    266    291    290
    266    267    292    291
    267    268    293    292
    268    269    294    293
    269    270    295    294
    270    271    296    295
    271    272    297    296
    272    273    298    297
    273    274    299    298
    274    250    275    299
    274    273    272    271    270    269    268    267    266    265    264    263    262    261    260    259    258    257    256    255    254    253    252    251    250
    275    276    277    278    279    280    281    282    283    284    285    286    287    288    289    290    291    292    293    294    295    296    297    298    299
    275    276    301    300
    276    277    302    301
    277    278    303    302
    278    279    304    303
    279    280    305    304
    280    281    306    305
    281    282    307    306
    282    283    308    307
    283    284    309    308
    284    285    310    309
    285    286    311    310
    286    287    312    311
    287    288    313    312
    288    289    314    313
    289    290    315    314
    290    291    316    315
    291    292    317    316
    292    293    318    317
    293    294    319    318
    294    295    320    319
    295    296    321    320
    296    297    322    321
    297    298    323    322
    298    299    324    323
    299    275    300    324
    299    298    297    296    295    294    293    292    291    290    289    288    287    286    285    284    283    282    281    280    279    278    277    276    275
    300    301    302    303    304    305    306    307    308    309    310    311    312    313    314    315    316    317    318    319    320    321    322    323    324
    300    301    326    325
    301    302    327    326
    302    303    328    327
    303    304    329    328
    304    305    330    329
    305    306    331    330
    306    307    332    331
    307    308    333    332
    308    309    334    333
    309    310    335    334
    310    311    336    335
    311    312    337    336
    312    313    338    337
    313    314    339    338
    314    315    340    339
    315    316    341    340
    316    317    342    341
    317    318    343    342
    318    319    344    343
    319    320    345    344
    320    321    346    345
    321    322    347    346
    322    323    348    347
    323    324    349    348
    324    300    325    349
    324    323    322    321    320    319    318    317    316    315    314    313    312    311    310    309    308    307    306    305    304    303    302    301    300
    325    326    327    328    329    330    331    332    333    334    335    336    337    338    339    340    341    342    343    344    345    346    347    348    349
    325    326    351    350
    326    327    352    351
    327    328    353    352
    328    329    354    353
    329    330    355    354
    330    331    356    355
    331    332    357    356
    332    333    358    357
    333    334    359    358
    334    335    360    359
    335    336    361    360
    336    337    362    361
    337    338    363    362
    338    339    364    363
    339    340    365    364
    340    341    366    365
    341    342    367    366
    342    343    368    367
    343    344    369    368
    344    345    370    369
    345    346    371    370
    346    347    372    371
    347    348    373    372
    348    349    374    373
    349    325    350    374
    349    348    347    346    345    344    343    342    341    340    339    338    337    336    335    334    333    332    331    330    329    328    327    326    325
    350    351    352    353    354    355    356    357    358    359    360    361    362    363    364    365    366    367    368    369    370    371    372    373    374
    350    351    376    375
    351    352    377    376
    352    353    378    377
    353    354    379    378
    354    355    380    379
    355    356    381    380
    356    357    382    381
    357    358    383    382
    358    359    384    383
    359    360    385    384
    360    361    386    385
    361    362    387    386
    362    363    388    387
    363    364    389    388
    364    365    390    389
    365    366    391    390
    366    367    392    391
    367    368    393    392
    368    369    394    393
    369    370    395    394
    370    371    396    395
    371    372    397    396
    372    373    398    397
    373    374    399    398
    374    350    375    399
    374    373    372    371    370    369    368    367    366    365    364    363    362    361    360    359    358    357    356    355    354    353    352    351    350
    375    376    377    378    379    380    381    382    383    384    385    386    387    388    389    390    391    392    393    394    395    396    397    398    399
    375    376    401    400
    376    377    402    401
    377    378    403    402
    378    379    404    403
    379    380    405    404
    380    381    406    405
    381    382    407    406
    382    383    408    407
    383    384    409    408
    384    385    410    409
    385    386    411    410
    386    387    412    411
    387    388    413    412
    388    389    414    413
    389    390    415    414
    390    391    416    415
    391    392    417    416
    392    393    418    417
    393    394    419    418
    394    395    420    419
    395    396    421    420
    396    397    422    421
    397    398    423    422
    398    399    424    423
    399    375    400    424
    399    398    397    396    395    394    393    392    391    390    389    388    387    386    385    384    383    382    381    380    379    378    377    376    375
    400    401    402    403    404    405    406    407    408    409    410    411    412    413    414    415    416    417    418    419    420    421    422    423    424
    400    401    426    425
    401    402    427    426
    402    403    428    427
    403    404    429    428
    404    405    430    429
    405    406    431    430
    406    407    432    431
    407    408    433    432
    408    409    434    433
    409    410    435    434
    410    411    436    435
    411    412    437    436
    412    413    438    437
    413    414    439    438
    414    415    440    439
    415    416    441    440
    416    417    442    441
    417    418    443    442
    418    419    444    443
    419    420    445    444
    420    421    446    445
    421    422    447    446
    422    423    448    447
    423    424    449    448
    424    400    425    449
    424    423    422    421    420    419    418    417    416    415    414    413    412    411    410    409    408    407    406    405    404    403    402    401    400
    425    426    427    428    429    430    431    432    433    434    435    436    437    438    439    440    441    442    443    444    445    446    447    448    449
    425    426    451    450
    426    427    452    451
    427    428    453    452
    428    429    454    453
    429    430    455    454
    430    431    456    455
    431    432    457    456
    432    433    458    457
    433    434    459    458
    434    435    460    459
    435    436    461    460
    436    437    462    461
    437    438    463    462
    438    439    464    463
    439    440    465    464
    440    441    466    465
    441    442    467    466
    442    443    468    467
    443    444    469    468
    444    445    470    469
    445    446    471    470
    446    447    472    471
    447    448    473    472
    448    449    474    473
    449    425    450    474
    449    448    447    446    445    444    443    442    441    440    439    438    437    436    435    434    433    432    431    430    429    428    427    426    425
    450    451    452    453    454    455    456    457    458    459    460    461    462    463    464    465    466    467    468    469    470    471    472    473    474
    450    451    476    475
    451    452    477    476
    452    453    478    477
    453    454    479    478
    454    455    480    479
    455    456    481    480
    456    457    482    481
    457    458    483    482
    458    459    484    483
    459    460    485    484
    460    461    486    485
    461    462    487    486
    462    463    488    487
    463    464    489    488
    464    465    490    489
    465    466    491    490
    466    467    492    491
    467    468    493    492
    468    469    494    493
    469    470    495    494
    470    471    496    495
    471    472    497    496
    472    473    498    497
    473    474    499    498
    474    450    475    499
    474    473    472    471    470    469    468    467    466    465    464    463    462    461    460    459    458    457    456    455    454    453    452    451    450
    475    476    477    478    479    480    481    482    483    484    485    486    487    488    489    490    491    492    493    494    495    496    497    498    499
    475    476    501    500
    476    477    502    501
    477    478    503    502
    478    479    504    503
    479    480    505    504
    480    481    506    505
    481    482    507    506
    482    483    508    507
    483    484    509    508
    484    485    510    509
    485    486    511    510
    486    487    512    511
    487    488    513    512
    488    489    514    513
    489    490    515    514
    490    491    516    515
    491    492    517    516
    492    493    518    517
    493    494    519    518
    494    495    520    519
    495    496    521    520
    496    497    522    521
    497    498    523    522
    498    499    524    523
    499    475    500    524
    499    498    497    496    495    494    493    492    491    490    489    488    487    486    485    484    483    482    481    480    479    478    477    476    475
    500    501    502    503    504    505    506    507    508    509    510    511    512    513    514    515    516    517    518    519    520    521    522    523    524
    525    526      1      0
    526    527      2      1
    527    528      3      2
    528    529      4      3
    529    530      5      4
    530    531      6      5
    531    532      7      6
    532    533      8      7
    533    534      9      8
    534    535     10      9
    535    536     11     10
    536    537     12     11
    537    538     13     12
    538    539     14     13
    539    540     15     14
    540    541     16     15
    541    542     17     16
    542    543     18     17
    543    544     19     18
    544    545     20     19
    545    546     21     20
    546    547     22     21
    547    548     23     22
    548    549     24     23
    549    525      0     24
    549    548    547    546    545    544    543    542    541    540    539    538    537    536    535    534    533    532    531    530    529    528    527    526    525
      0      1      2      3      4      5      6      7      8      9     10     11     12     13     14     15     16     17     18     19     20     21     22     23     24
        </DataArray>
        <DataArray type="Int32" Name="offsets" format="ascii">
      4
      8
     12
     16
     20
     24
     28
     32
     36
     40
     44
     48
     52
     56
     60
     64
     68
     72
     76
     80
     84
     88
     92
     96
    100
    125
    150
    154
    158
    162
    166
    170
    174
    178
    182
    186
    190
    194
    198
    202
    206
    210
    214
    218
    222
    226
    230
    234
    238
    242
    246
    250
    275
    300
    304
    308
    312
    316
    320
    324
    328
    332
    336
    340
    344
    348
    352
    356
    360
    364
    368
    372
    376
    380
    384
    388
    392
    396
    400
    425
    450
    454
    458
    462
    466
    470
    474
    478
    482
    486
    490
    494
    498
    502
    506
    510
    514
    518
    522
    526
    530
    534
    538
    542
    546
    550
    575
    600
    604
    608
    612
    616
    620
    624
    628
    632
    636
    640
    644
    648
    652
    656
    660
    664
    668
    672
    676
    680
    684
    688
    692
    696
    700
    725
    750
    754
    758
    762
    766
    770
    774
    778
    782
    786
    790
    794
    798
    802
    806
    810
    814
    818
    822
    826
    830
    834
    838
    842
    846
    850
    875
    900
    904
    908
    912
    916
    920
    924
    928
    932
    936
    940
    944
    948
    952
    956
    960
    964
    968
    972
    976
    980
    984
    988
    992
    996
   1000
   1025
   1050
   1054
   1058
   1062
   1066
   1070
   1074
   1078
   1082
   1086
   1090
   1094
   1098
   1102
   1106
   1110
   1114
   1118
   1122
   1126
   1130
   1134
   1138
   1142
   1146
   1150
   1175
   1200
   1204
   1208
   1212
   1216
   1220
   1224
   1228
   1232
   1236
   1240
   1244
   1248
   1252
   1256
   1260
   1264
   1268
   1272
   1276
   1280
   1284
   1288
   1292
   1296
   1300
   1325
   1350
   1354
   1358
   1362
   1366
   1370
   1374
   1378
   1382
   1386
   1390
   1394
   1398
   1402
   1406
   1410
   1414
   1418
   1422
   1426
   1430
   1434
   1438
   1442
   1446
   1450
   1475
   1500
   1504
   1508
   1512
   1516
   1520
   1524
   1528
   1532
   1536
   1540
   1544
   1548
   1552
   1556
   1560
   1564
   1568
   1572
   1576
   1580
   1584
   1588
   1592
   1596
   1600
   1625
   1650
   1654
   1658
   1662
   1666
   1670
   1674
   1678
   1682
   1686
   1690
   1694
   1698
   1702
   1706
   1710
   1714
   1718
   1722
   1726
   1730
   1734
   1738
   1742
   1746
   1750
   1775
   1800
   1804
   1808
   1812
   1816
   1820
   1824
   1828
   1832
   1836
   1840
   1844
   1848
   1852
   1856
   1860
   1864
   1868
   1872
   1876
   1880
   1884
   1888
   1892
   1896
   1900
   1925
   1950
   1954
   1958
   1962
   1966
   1970
   1974
   1978
   1982
   1986
   1990
   1994
   1998
   2002
   2006
   2010
   2014
   2018
   2022
   2026
   2030
   2034
   2038
   2042
   2046
   2050
   2075
   2100
   2104
   2108
   2112
   2116
   2120
   2124
   2128
   2132
   2136
   2140
   2144
   2148
   2152
   2156
   2160
   2164
   2168
   2172
   2176
   2180
   2184
   2188
   2192
   2196
   2200
   2225
   2250
   2254
   2258
   2262
   2266
   2270
   2274
   2278
   2282
   2286
   2290
   2294
   2298
   2302
   2306
   2310
   2314
   2318
   2322
   2326
   2330
   2334
   2338
   2342
   2346
   2350
   2375
   2400
   2404
   2408
   2412
   2416
   2420
   2424
   2428
   2432
   2436
   2440
   2444
   2448
   2452
   2456
   2460
   2464
   2468
   2472
   2476
   2480
   2484
   2488
   2492
   2496
   2500
   2525
   2550
   2554
   2558
   2562
   2566
   2570
   2574
   2578
   2582
   2586
   2590
   2594
   2598
   2602
   2606
   2610
   2614
   2618
   2622
   2626
   2630
   2634
   2638
   2642
   2646
   2650
   2675
   2700
   2704
   2708
   2712
   2716
   2720
   2724
   2728
   2732
   2736
   2740
   2744
   2748
   2752
   2756
   2760
   2764
   2768
   2772
   2776
   2780
   2784
   2788
   2792
   2796
   2800
   2825
   2850
   2854
   2858
   2862
   2866
   2870
   2874
   2878
   2882
   2886
   2890
   2894
   2898
   2902
   2906
   2910
   2914
   2918
   2922
   2926
   2930
   2934
   2938
   2942
   2946
   2950
   2975
   3000
   3004
   3008
   3012
   3016
   3020
   3024
   3028
   3032
   3036
   3040
   3044
   3048
   3052
   3056
   3060
   3064
   3068
   3072
   3076
   3080
   3084
   3088
   3092
   3096
   3100
   3125
   3150
        </DataArray>
      </Polys>
    </Piece>
  </PolyData>
</VTKFile>
