<?xml version="1.0"?>
<VTKFile type="PolyData" version="0.1" byte_order="LittleEndian">
  <PolyData>
    <Piece NumberOfPoints="     19" NumberOfVerts="  0" NumberOfLines="     18"
           NumberOfStrips="  0" NumberOfPolys="      0">
      <Points>
        <DataArray type="Float32" NumberOfComponents="3" format="ascii">
                      -4.79714                      -0.00153                      91.50958
                      -4.73438                      -0.00218                      92.87510
                      -4.63104                      -0.09823                      95.60776
                      -4.53619                      -0.23910                      98.34143
                      -4.41850                      -0.44172                     101.75917
                      -4.21475                      -0.54142                     105.85743
                      -3.97715                      -0.51066                     109.95395
                      -3.73686                      -0.47677                     114.05073
                      -3.49947                      -0.43777                     118.14828
                      -3.27677                      -0.39516                     122.24731
                      -3.08371                      -0.35177                     126.34840
                      -2.93536                      -0.30484                     130.45158
                      -2.85011                      -0.25241                     134.55636
                      -2.84806                      -0.19172                     138.66139
                      -2.94819                      -0.11950                     142.76430
                      -3.12776                      -0.04688                     146.17922
                      -3.33922                       0.02890                     148.90651
                      -3.60939                       0.16951                     151.62786
                      -3.78150                       0.20381                     152.98567
        </DataArray>
      </Points>
      <PointData>
        <DataArray type="Float32" Name="TranslationalVelocity" NumberOfComponents="3" format="ascii">
                       0.00192                      -4.30057                       0.00879
                       0.00176                      -8.21313                       0.00702
                      -0.02133                     -16.04145                      -0.26736
                      -0.05377                     -23.87659                      -0.67038
                      -0.09776                     -33.68196                      -1.25116
                      -0.10846                     -45.47067                      -1.53910
                      -0.07910                     -57.27955                      -1.45390
                      -0.04100                     -69.10613                      -1.35984
                       0.00830                     -80.94944                      -1.25145
                       0.07144                     -92.80740                      -1.13314
                       0.15204                    -104.67672                      -1.01288
                       0.25673                    -116.55289                      -0.88212
                       0.39386                    -128.42955                      -0.73394
                       0.57413                    -140.29825                      -0.55835
                       0.81082                    -152.14902                      -0.34296
                       1.06437                    -162.00139                      -0.11940
                       1.31203                    -169.86260                       0.11765
                       1.61823                    -177.70240                       0.54998
                       1.78079                    -181.60942                       0.66620
        </DataArray>
        <DataArray type="Float32" Name="RotationalVelocity" NumberOfComponents="3" format="ascii">
                       2.85280                       0.00004                      -0.25606
                       2.85349                       0.00017                      -0.25608
                       2.85532                       0.00070                      -0.25617
                       2.85758                       0.00148                      -0.25628
                       2.86079                       0.00264                      -0.25635
                       2.86485                       0.00421                      -0.25624
                       2.86888                       0.00596                      -0.25585
                       2.87267                       0.00803                      -0.25515
                       2.87617                       0.01068                      -0.25417
                       2.87938                       0.01427                      -0.25295
                       2.88238                       0.01918                      -0.25157
                       2.88528                       0.02586                      -0.25010
                       2.88823                       0.03472                      -0.24863
                       2.89138                       0.04617                      -0.24721
                       2.89485                       0.06051                      -0.24588
                       2.89805                       0.07479                      -0.24485
                       2.90085                       0.08786                      -0.24405
                       2.90385                       0.10239                      -0.24326
                       2.90542                       0.11019                      -0.24285
        </DataArray>
        <DataArray type="Float32" Name="TranslationalAcceleration" NumberOfComponents="3" format="ascii">
                      -0.95824                      -0.06109                     -12.11324
                      -1.25030                      -0.02434                     -14.77558
                      -3.54011                       0.72094                     -42.32426
                      -5.62704                       1.85407                     -67.71274
                      -8.08628                       3.51084                     -97.43170
                     -10.98110                       4.33492                    -131.33039
                     -13.95231                       4.08419                    -164.44990
                     -17.09270                       3.80265                    -197.55517
                     -20.43066                       3.47149                    -231.04823
                     -23.94522                       3.10472                    -265.05270
                     -27.57367                       2.73098                    -299.49038
                     -31.21818                       2.33420                    -334.16023
                     -34.75448                       1.90646                    -368.81645
                     -38.03919                       1.43365                    -403.24694
                     -40.91748                       0.89772                    -437.35441
                     -42.88058                       0.37444                    -465.58677
                     -44.11355                      -0.16720                    -488.17187
                     -44.99375                      -1.22677                    -510.95904
                     -45.28713                      -1.44573                    -522.48473
        </DataArray>
        <DataArray type="Float32" Name="OrientationX" NumberOfComponents="3" format="ascii">
                       0.97217                      -0.23009                      -0.04418
                       0.97215                      -0.23010                      -0.04439
                       0.97206                      -0.23035                      -0.04510
                       0.97190                      -0.23084                      -0.04617
                       0.97159                      -0.23179                      -0.04788
                       0.97798                      -0.20250                      -0.05056
                       0.98170                      -0.18300                      -0.05269
                       0.98431                      -0.16814                      -0.05355
                       0.98659                      -0.15463                      -0.05230
                       0.98846                      -0.14367                      -0.04806
                       0.98968                      -0.13760                      -0.04002
                       0.99036                      -0.13573                      -0.02754
                       0.99012                      -0.13982                      -0.01021
                       0.98831                      -0.15200                       0.01205
                       0.98517                      -0.16711                       0.03891
                       0.98145                      -0.18067                       0.06416
                       0.97763                      -0.19200                       0.08583
                       0.97250                      -0.20625                       0.10823
                       0.96928                      -0.21497                       0.11950
        </DataArray>
        <DataArray type="Float32" Name="OrientationY" NumberOfComponents="3" format="ascii">
                       0.22976                       0.97317                      -0.01254
                       0.22977                       0.97316                      -0.01259
                       0.23000                       0.97311                      -0.01277
                       0.23048                       0.97299                      -0.01307
                       0.23140                       0.97276                      -0.01357
                       0.20211                       0.97928                      -0.01268
                       0.18262                       0.98311                      -0.01213
                       0.16775                       0.98576                      -0.01160
                       0.15427                       0.98797                      -0.01087
                       0.14336                       0.98962                      -0.00999
                       0.13734                       0.99048                      -0.00911
                       0.13555                       0.99074                      -0.00824
                       0.13975                       0.99016                      -0.00741
                       0.15208                       0.98835                      -0.00645
                       0.16743                       0.98587                      -0.00513
                       0.18127                       0.98343                      -0.00371
                       0.19291                       0.98121                      -0.00230
                       0.20750                       0.97823                      -0.00031
                       0.21640                       0.97631                       0.00106
        </DataArray>
        <DataArray type="Float32" Name="OrientationZ" NumberOfComponents="3" format="ascii">
                       0.04587                       0.00204                       0.99895
                       0.04610                       0.00204                       0.99893
                       0.04683                       0.00204                       0.99890
                       0.04794                       0.00206                       0.99885
                       0.04972                       0.00210                       0.99876
                       0.05208                       0.00218                       0.99864
                       0.05402                       0.00229                       0.99854
                       0.05474                       0.00244                       0.99850
                       0.05335                       0.00265                       0.99857
                       0.04900                       0.00298                       0.99879
                       0.04089                       0.00352                       0.99916
                       0.02840                       0.00443                       0.99959
                       0.01115                       0.00591                       0.99992
                      -0.01093                       0.00821                       0.99991
                      -0.03750                       0.01157                       0.99923
                      -0.06243                       0.01527                       0.99793
                      -0.08378                       0.01881                       0.99631
                      -0.10581                       0.02276                       0.99413
                      -0.11689                       0.02484                       0.99283
        </DataArray>
        <DataArray type="Float32" Name="Force" NumberOfComponents="3" format="ascii">
                     166.41259                      59.56095                      -7.76377
                     190.68264                     129.97609                      -9.06428
                     287.90610                     380.84550                     -14.27354
                     292.41208                     572.02357                     -15.20096
                    3577.58741                   -1268.07727                    -175.51206
                    3741.41014                    -944.40738                    -193.18425
                    3451.01032                    -635.77023                    -185.38774
                    4604.34252                    -717.52134                    -250.92342
                    5867.44182                    -807.61216                    -311.81425
                    6165.37081                    -710.28639                    -300.97439
                    8423.35994                    -862.65021                    -342.89685
                    7934.80284                    -683.98496                    -223.97193
                    4457.98807                    -247.70859                     -49.12656
                    1149.49964                      63.44980                      12.46394
                   -2811.84214                     451.23521                    -106.50406
                   -8249.93789                     843.04438                    -517.97498
                  -12693.78100                    1111.12844                   -1069.89686
                  -13561.13419                    1053.72851                   -1445.66598
                  -16722.79402                    1252.93722                   -1971.43741
        </DataArray>
        <DataArray type="Float32" Name="Moment" NumberOfComponents="3" format="ascii">
                       0.00000                       0.00000                       0.00000
                       0.00000                       0.00000                       0.00000
                       0.00000                       0.00000                       0.00000
                       0.00000                       0.00000                       0.00000
                     -78.25361                      -3.20909                   -1571.91344
                    -155.87850                      -6.10359                   -2989.06930
                    -211.15244                      -7.97184                   -3903.28393
                    -325.27970                     -12.12025                   -5934.09196
                    -467.49619                     -17.87067                   -8750.63975
                    -484.75408                     -20.17379                   -9882.43386
                    -447.60957                     -22.31471                  -10939.51941
                    -328.19368                     -23.54307                  -11555.23799
                     -95.93862                     -17.52933                   -8617.55982
                      89.90787                     -16.65968                   -8207.03800
                     286.91294                     -15.47068                   -7640.41112
                     450.61932                     -14.54618                   -7200.81966
                     533.45013                     -12.78603                   -6342.39272
                     328.81393                      -6.21411                   -3088.98313
                     367.74444                      -6.27660                   -3123.39547
        </DataArray>
      </PointData>
      <Lines>
        <DataArray type="Int32" Name="connectivity" format="ascii">
      0      1
      1      2
      2      3
      3      4
      4      5
      5      6
      6      7
      7      8
      8      9
      9     10
     10     11
     11     12
     12     13
     13     14
     14     15
     15     16
     16     17
     17     18
        </DataArray>
        <DataArray type="Int32" Name="offsets" format="ascii">
      2
      4
      6
      8
     10
     12
     14
     16
     18
     20
     22
     24
     26
     28
     30
     32
     34
     36
        </DataArray>
      </Lines>
    </Piece>
  </PolyData>
</VTKFile>
