<?xml version="1.0"?>
<VTKFile type="PolyData" version="0.1" byte_order="LittleEndian">
  <PolyData>
    <Piece NumberOfPoints="     19" NumberOfVerts="  0" NumberOfLines="     18"
           NumberOfStrips="  0" NumberOfPolys="      0">
      <Points>
        <DataArray type="Float32" NumberOfComponents="3" format="ascii">
                      -4.79815                      -0.03276                      91.50941
                      -4.73542                      -0.05243                      92.87478
                      -4.63225                      -0.18654                      95.60585
                      -4.53762                      -0.36550                      98.33729
                      -4.42021                      -0.61581                     101.75186
                      -4.21661                      -0.77288                     105.84832
                      -3.97897                      -0.79963                     109.94485
                      -3.73857                      -0.82337                     114.04168
                      -3.50097                      -0.84210                     118.13934
                      -3.27789                      -0.85731                     122.23853
                      -3.08426                      -0.87183                     126.33978
                      -2.93504                      -0.88287                     130.44317
                      -2.84856                      -0.88844                     134.54824
                      -2.84481                      -0.88575                     138.65370
                      -2.94268                      -0.87147                     142.75728
                      -3.11984                      -0.84706                     146.17300
                      -3.32898                      -0.80979                     148.90126
                      -3.59640                      -0.70762                     151.62457
                      -3.76703                      -0.69249                     152.98289
        </DataArray>
      </Points>
      <PointData>
        <DataArray type="Float32" Name="TranslationalVelocity" NumberOfComponents="3" format="ascii">
                      -0.00584                      -4.29124                      -0.05049
                      -0.01064                      -8.20327                      -0.10653
                      -0.04247                     -16.02627                      -0.48955
                      -0.08298                     -23.85359                      -1.00134
                      -0.13626                     -33.64693                      -1.71826
                      -0.15719                     -45.42516                      -2.17024
                      -0.13721                     -57.22680                      -2.24991
                      -0.10780                     -69.04423                      -2.32134
                      -0.06663                     -80.87660                      -2.37903
                      -0.01116                     -92.72183                      -2.42730
                       0.06218                    -104.57657                      -2.47403
                       0.16007                    -116.43649                      -2.51057
                       0.29090                    -128.29531                      -2.52989
                       0.46549                    -140.14465                      -2.52186
                       0.69733                    -151.97458                      -2.47399
                       0.94766                    -161.80844                      -2.38991
                       1.19344                    -169.65442                      -2.26437
                       1.49881                    -177.48051                      -1.94381
                       1.66100                    -181.37866                      -1.88310
        </DataArray>
        <DataArray type="Float32" Name="RotationalVelocity" NumberOfComponents="3" format="ascii">
                       2.85275                       0.00014                      -0.25603
                       2.85337                       0.00035                      -0.25605
                       2.85500                       0.00106                      -0.25614
                       2.85701                       0.00206                      -0.25627
                       2.85984                       0.00350                      -0.25642
                       2.86342                       0.00537                      -0.25652
                       2.86693                       0.00737                      -0.25647
                       2.87022                       0.00963                      -0.25624
                       2.87322                       0.01241                      -0.25583
                       2.87596                       0.01608                      -0.25526
                       2.87850                       0.02107                      -0.25454
                       2.88097                       0.02784                      -0.25371
                       2.88350                       0.03682                      -0.25280
                       2.88625                       0.04842                      -0.25184
                       2.88935                       0.06294                      -0.25083
                       2.89227                       0.07734                      -0.24994
                       2.89487                       0.09049                      -0.24920
                       2.89771                       0.10503                      -0.24840
                       2.89921                       0.11280                      -0.24797
        </DataArray>
        <DataArray type="Float32" Name="TranslationalAcceleration" NumberOfComponents="3" format="ascii">
                      -0.96056                       0.15837                     -12.11584
                      -1.24874                       0.19916                     -14.77540
                      -3.53611                       1.35729                     -42.30801
                      -5.62251                       2.86449                     -67.66980
                      -8.08352                       4.94980                     -97.34573
                     -10.98732                       6.25310                    -131.20044
                     -13.97112                       6.46427                    -164.28088
                     -17.11516                       6.64030                    -197.33636
                     -20.44112                       6.77172                    -230.76812
                     -23.92741                       6.87786                    -264.69865
                     -27.52086                       6.98966                    -299.04893
                     -31.14735                       7.09151                    -333.61879
                     -34.72391                       7.17475                    -368.16463
                     -38.16966                       7.22418                    -402.47875
                     -41.41677                       7.22170                    -436.47077
                     -43.93527                       7.15313                    -464.61617
                     -45.82842                       6.98383                    -487.14366
                     -47.63460                       6.31253                    -509.89454
                     -48.48574                       6.28748                    -521.40467
        </DataArray>
        <DataArray type="Float32" Name="OrientationX" NumberOfComponents="3" format="ascii">
                       0.97188                      -0.23065                      -0.04736
                       0.97187                      -0.23066                      -0.04757
                       0.97178                      -0.23089                      -0.04829
                       0.97161                      -0.23137                      -0.04937
                       0.97130                      -0.23230                      -0.05111
                       0.97773                      -0.20297                      -0.05339
                       0.98147                      -0.18345                      -0.05527
                       0.98410                      -0.16857                      -0.05594
                       0.98640                      -0.15507                      -0.05454
                       0.98828                      -0.14416                      -0.05019
                       0.98951                      -0.13818                      -0.04212
                       0.99020                      -0.13648                      -0.02970
                       0.98996                      -0.14081                      -0.01253
                       0.98814                      -0.15328                       0.00944
                       0.98500                      -0.16876                       0.03593
                       0.98129                      -0.18268                       0.06085
                       0.97748                      -0.19431                       0.08225
                       0.97236                      -0.20888                       0.10433
                       0.96915                      -0.21776                       0.11542
        </DataArray>
        <DataArray type="Float32" Name="OrientationY" NumberOfComponents="3" format="ascii">
                       0.23095                       0.97296                       0.00096
                       0.23096                       0.97296                       0.00092
                       0.23120                       0.97291                       0.00074
                       0.23168                       0.97279                       0.00046
                       0.23260                       0.97257                      -0.00003
                       0.20331                       0.97911                       0.00098
                       0.18382                       0.98296                       0.00160
                       0.16895                       0.98562                       0.00219
                       0.15546                       0.98784                       0.00298
                       0.14453                       0.98949                       0.00389
                       0.13850                       0.99035                       0.00479
                       0.13671                       0.99060                       0.00568
                       0.14090                       0.99000                       0.00651
                       0.15322                       0.98816                       0.00744
                       0.16856                       0.98565                       0.00872
                       0.18240                       0.98317                       0.01010
                       0.19403                       0.98093                       0.01147
                       0.20863                       0.97790                       0.01340
                       0.21753                       0.97594                       0.01473
        </DataArray>
        <DataArray type="Float32" Name="OrientationZ" NumberOfComponents="3" format="ascii">
                       0.04585                      -0.01187                       0.99888
                       0.04608                      -0.01188                       0.99887
                       0.04681                      -0.01189                       0.99883
                       0.04792                      -0.01188                       0.99878
                       0.04971                      -0.01186                       0.99869
                       0.05208                      -0.01181                       0.99857
                       0.05403                      -0.01173                       0.99847
                       0.05477                      -0.01161                       0.99843
                       0.05341                      -0.01141                       0.99851
                       0.04910                      -0.01110                       0.99873
                       0.04105                      -0.01058                       0.99910
                       0.02864                      -0.00968                       0.99954
                       0.01149                      -0.00821                       0.99990
                      -0.01047                      -0.00590                       0.99993
                      -0.03688                      -0.00253                       0.99932
                      -0.06167                       0.00119                       0.99810
                      -0.08291                       0.00475                       0.99655
                      -0.10483                       0.00873                       0.99445
                      -0.11585                       0.01083                       0.99321
        </DataArray>
        <DataArray type="Float32" Name="Force" NumberOfComponents="3" format="ascii">
                     166.57642                      59.55846                      -6.93893
                     190.94649                     129.99083                      -7.26304
                     288.47760                     380.86543                      -8.99220
                     293.14529                     571.97701                      -7.26663
                    3577.13167                   -1270.36491                    -193.16216
                    3741.48998                    -946.83109                    -206.38654
                    3451.57838                    -637.94972                    -194.35458
                    4603.38569                    -719.95458                    -261.04982
                    5862.16805                    -809.99196                    -323.16894
                    6156.38355                    -712.58113                    -311.08044
                    8406.97195                    -866.07780                    -355.61707
                    7914.46279                    -687.89297                    -234.82939
                    4447.46288                    -251.00097                     -53.98399
                    1036.56831                      79.61600                      11.82261
                   -2838.96190                     458.15427                     -99.49934
                   -8282.11245                     860.75463                    -502.08159
                  -12732.45408                    1139.72873                   -1046.73112
                  -13597.58335                    1085.81147                   -1421.55358
                  -16762.20922                    1294.11386                   -1941.18557
        </DataArray>
        <DataArray type="Float32" Name="Moment" NumberOfComponents="3" format="ascii">
                       0.00000                       0.00000                       0.00000
                       0.00000                       0.00000                       0.00000
                       0.00000                       0.00000                       0.00000
                       0.00000                       0.00000                       0.00000
                     -78.20728                      18.67836                   -1571.14656
                    -155.78496                      35.51915                   -2987.10615
                    -210.99621                      46.37425                   -3899.33905
                    -325.04012                      70.48378                   -5926.18738
                    -467.29921                     103.90290                   -8737.06182
                    -484.86994                     117.26456                   -9864.34844
                    -448.42378                     129.68455                  -10916.80741
                    -330.19930                     136.81431                  -11529.49248
                     -98.57843                     101.83782                   -8594.86759
                      85.91008                      96.78436                   -8184.08572
                     281.54151                      89.89463                   -7619.14604
                     444.13236                      84.54315                   -7181.26956
                     526.60807                      74.31923                   -6324.74686
                     324.82283                      36.11425                   -3079.44229
                     363.36390                      36.47561                   -3113.34382
        </DataArray>
      </PointData>
      <Lines>
        <DataArray type="Int32" Name="connectivity" format="ascii">
      0      1
      1      2
      2      3
      3      4
      4      5
      5      6
      6      7
      7      8
      8      9
      9     10
     10     11
     11     12
     12     13
     13     14
     14     15
     15     16
     16     17
     17     18
        </DataArray>
        <DataArray type="Int32" Name="offsets" format="ascii">
      2
      4
      6
      8
     10
     12
     14
     16
     18
     20
     22
     24
     26
     28
     30
     32
     34
     36
        </DataArray>
      </Lines>
    </Piece>
  </PolyData>
</VTKFile>
