<?xml version="1.0"?>
<VTKFile type="PolyData" version="0.1" byte_order="LittleEndian">
  <PolyData>
    <Piece NumberOfPoints="      8" NumberOfVerts="  0" NumberOfLines="      0"
           NumberOfStrips="  0" NumberOfPolys="      6">
      <Points>
        <DataArray type="Float32" NumberOfComponents="3" format="ascii">
                      -3.15204                       2.39487                      87.62191
                       3.84782                       2.39487                      87.57703
                       3.84781                      -2.40514                      87.57628
                      -3.15204                      -2.40514                      87.62115
                      -3.12127                      -2.40590                      92.42106
                       3.87858                      -2.40590                      92.37618
                       3.87859                       2.39411                      92.37694
                      -3.12127                       2.39411                      92.42182
        </DataArray>
      </Points>
      <Polys>
        <DataArray type="Int32" Name="connectivity" format="ascii">
      0      1      2      3
      4      5      6      7
      7      6      1      0
      6      5      2      1
      5      4      3      2
      4      7      0      3
        </DataArray>
        <DataArray type="Int32" Name="offsets" format="ascii">
      4
      8
     12
     16
     20
     24
        </DataArray>
      </Polys>
    </Piece>
  </PolyData>
</VTKFile>
