<?xml version="1.0"?>
<VTKFile type="PolyData" version="0.1" byte_order="LittleEndian">
  <PolyData>
    <Piece NumberOfPoints="     22" NumberOfVerts="  0" NumberOfLines="     21"
           NumberOfStrips="  0" NumberOfPolys="      0">
      <Points>
        <DataArray type="Float32" NumberOfComponents="3" format="ascii">
                       0.00005                       0.00000                       2.19000
                       0.00046                       0.00003                       6.57000
                       0.00138                       0.00008                      10.95000
                       0.00285                       0.00015                      15.33000
                       0.00490                       0.00024                      19.71000
                       0.00750                       0.00034                      24.09000
                       0.01066                       0.00045                      28.47000
                       0.01437                       0.00058                      32.85000
                       0.01861                       0.00071                      37.22999
                       0.02341                       0.00085                      41.60999
                       0.02879                       0.00099                      45.98999
                       0.03478                       0.00113                      50.36998
                       0.04142                       0.00127                      54.74998
                       0.04875                       0.00141                      59.12997
                       0.05677                       0.00153                      63.50996
                       0.06548                       0.00165                      67.88996
                       0.07481                       0.00176                      72.26995
                       0.08463                       0.00186                      76.64994
                       0.09469                       0.00194                      81.02992
                       0.10466                       0.00201                      85.40991
                       0.10945                       0.00205                      87.59991
                       0.00000                       0.00000                       0.00000
        </DataArray>
      </Points>
      <PointData>
        <DataArray type="Float32" Name="TranslationalVelocity" NumberOfComponents="3" format="ascii">
                      -0.00006                      -0.00005                       0.00000
                      -0.00056                      -0.00039                       0.00000
                      -0.00155                      -0.00101                       0.00000
                      -0.00300                      -0.00185                       0.00000
                      -0.00483                      -0.00288                       0.00000
                      -0.00692                      -0.00404                       0.00000
                      -0.00914                      -0.00530                       0.00000
                      -0.01134                      -0.00662                       0.00001
                      -0.01337                      -0.00795                       0.00001
                      -0.01507                      -0.00925                       0.00001
                      -0.01627                      -0.01047                       0.00001
                      -0.01683                      -0.01154                       0.00001
                      -0.01663                      -0.01243                       0.00001
                      -0.01556                      -0.01307                       0.00001
                      -0.01355                      -0.01342                       0.00001
                      -0.01056                      -0.01344                       0.00000
                      -0.00660                      -0.01312                      -0.00001
                      -0.00173                      -0.01245                      -0.00002
                       0.00394                      -0.01146                      -0.00003
                       0.01021                      -0.01023                      -0.00005
                       0.01350                      -0.00956                      -0.00005
                       0.00000                      -0.00000                       0.00000
        </DataArray>
        <DataArray type="Float32" Name="RotationalVelocity" NumberOfComponents="3" format="ascii">
                       0.00004                      -0.00006                       0.00000
                       0.00011                      -0.00017                       0.00000
                       0.00017                      -0.00028                       0.00000
                       0.00021                      -0.00038                       0.00000
                       0.00025                      -0.00045                       0.00000
                       0.00028                      -0.00050                       0.00000
                       0.00030                      -0.00051                       0.00000
                       0.00030                      -0.00049                       0.00000
                       0.00030                      -0.00043                       0.00000
                       0.00029                      -0.00034                       0.00000
                       0.00026                      -0.00021                       0.00000
                       0.00023                      -0.00005                       0.00000
                       0.00018                       0.00014                       0.00000
                       0.00011                       0.00035                       0.00000
                       0.00004                       0.00057                       0.00000
                      -0.00003                       0.00079                       0.00000
                      -0.00011                       0.00101                       0.00000
                      -0.00019                       0.00121                       0.00000
                      -0.00026                       0.00137                       0.00000
                      -0.00030                       0.00148                       0.00000
                      -0.00031                       0.00152                       0.00000
                       0.00000                      -0.00000                       0.00000
        </DataArray>
        <DataArray type="Float32" Name="TranslationalAcceleration" NumberOfComponents="3" format="ascii">
                       0.00311                      -0.00034                      -0.00000
                       0.02868                      -0.00282                      -0.00000
                       0.08028                      -0.00730                      -0.00002
                       0.15618                      -0.01339                      -0.00004
                       0.25271                      -0.02074                      -0.00009
                       0.36472                      -0.02901                      -0.00016
                       0.48592                      -0.03788                      -0.00024
                       0.60927                      -0.04702                      -0.00035
                       0.72736                      -0.05607                      -0.00046
                       0.83270                      -0.06462                      -0.00058
                       0.91808                      -0.07227                      -0.00068
                       0.97685                      -0.07858                      -0.00076
                       1.00321                      -0.08312                      -0.00080
                       0.99247                      -0.08546                      -0.00078
                       0.94132                      -0.08525                      -0.00069
                       0.84802                      -0.08222                      -0.00050
                       0.71264                      -0.07622                      -0.00022
                       0.53725                      -0.06728                       0.00017
                       0.32610                      -0.05568                       0.00065
                       0.08576                      -0.04198                       0.00118
                      -0.04260                      -0.03461                       0.00145
                       0.00000                      -0.00000                       0.00000
        </DataArray>
        <DataArray type="Float32" Name="RotationalAcceleration" NumberOfComponents="3" format="ascii">
                       0.00030                       0.00286                       0.00000
                       0.00081                       0.00883                       0.00000
                       0.00122                       0.01466                       0.00000
                       0.00155                       0.01986                       0.00000
                       0.00179                       0.02403                       0.00000
                       0.00197                       0.02688                       0.00000
                       0.00207                       0.02819                       0.00000
                       0.00209                       0.02785                       0.00000
                       0.00202                       0.02579                       0.00000
                       0.00187                       0.02204                       0.00000
                       0.00161                       0.01669                       0.00000
                       0.00125                       0.00992                       0.00000
                       0.00080                       0.00194                       0.00000
                       0.00026                      -0.00697                       0.00000
                      -0.00036                      -0.01646                       0.00000
                      -0.00103                      -0.02614                       0.00000
                      -0.00171                      -0.03560                       0.00000
                      -0.00236                      -0.04433                       0.00000
                      -0.00292                      -0.05184                       0.00000
                      -0.00331                      -0.05756                       0.00000
                      -0.00341                      -0.05958                       0.00000
                       0.00000                      -0.00000                       0.00000
        </DataArray>
        <DataArray type="Float32" Name="OrientationX" NumberOfComponents="3" format="ascii">
                       1.00000                      -0.00000                      -0.00004
                       1.00000                      -0.00000                      -0.00015
                       1.00000                      -0.00000                      -0.00027
                       1.00000                      -0.00000                      -0.00040
                       1.00000                      -0.00000                      -0.00053
                       1.00000                      -0.00000                      -0.00066
                       1.00000                      -0.00000                      -0.00078
                       1.00000                      -0.00000                      -0.00091
                       1.00000                      -0.00000                      -0.00103
                       1.00000                      -0.00000                      -0.00116
                       1.00000                      -0.00000                      -0.00130
                       1.00000                      -0.00000                      -0.00144
                       1.00000                      -0.00000                      -0.00159
                       1.00000                      -0.00000                      -0.00175
                       1.00000                      -0.00000                      -0.00191
                       1.00000                      -0.00000                      -0.00206
                       1.00000                      -0.00000                      -0.00219
                       1.00000                      -0.00000                      -0.00228
                       1.00000                      -0.00000                      -0.00230
                       1.00000                      -0.00000                      -0.00223
                       1.00000                      -0.00000                      -0.00214
                       1.00000                      -0.00000                       0.00000
        </DataArray>
        <DataArray type="Float32" Name="OrientationY" NumberOfComponents="3" format="ascii">
                      -0.00000                       1.00000                      -0.00000
                      -0.00000                       1.00000                      -0.00001
                      -0.00000                       1.00000                      -0.00001
                      -0.00000                       1.00000                      -0.00002
                      -0.00000                       1.00000                      -0.00002
                      -0.00000                       1.00000                      -0.00002
                      -0.00000                       1.00000                      -0.00003
                      -0.00000                       1.00000                      -0.00003
                      -0.00000                       1.00000                      -0.00003
                      -0.00000                       1.00000                      -0.00003
                      -0.00000                       1.00000                      -0.00003
                      -0.00000                       1.00000                      -0.00003
                      -0.00000                       1.00000                      -0.00003
                      -0.00000                       1.00000                      -0.00003
                      -0.00000                       1.00000                      -0.00003
                      -0.00000                       1.00000                      -0.00003
                      -0.00000                       1.00000                      -0.00002
                      -0.00000                       1.00000                      -0.00002
                      -0.00000                       1.00000                      -0.00002
                      -0.00000                       1.00000                      -0.00002
                      -0.00000                       1.00000                      -0.00002
                      -0.00000                       1.00000                      -0.00000
        </DataArray>
        <DataArray type="Float32" Name="OrientationZ" NumberOfComponents="3" format="ascii">
                       0.00004                       0.00000                       1.00000
                       0.00015                       0.00001                       1.00000
                       0.00027                       0.00001                       1.00000
                       0.00040                       0.00002                       1.00000
                       0.00053                       0.00002                       1.00000
                       0.00066                       0.00002                       1.00000
                       0.00078                       0.00003                       1.00000
                       0.00091                       0.00003                       1.00000
                       0.00103                       0.00003                       1.00000
                       0.00116                       0.00003                       1.00000
                       0.00130                       0.00003                       1.00000
                       0.00144                       0.00003                       1.00000
                       0.00159                       0.00003                       1.00000
                       0.00175                       0.00003                       1.00000
                       0.00191                       0.00003                       1.00000
                       0.00206                       0.00003                       1.00000
                       0.00219                       0.00002                       1.00000
                       0.00228                       0.00002                       1.00000
                       0.00230                       0.00002                       1.00000
                       0.00223                       0.00002                       1.00000
                       0.00214                       0.00002                       1.00000
                       0.00000                      -0.00000                       1.00000
        </DataArray>
      </PointData>
      <Lines>
        <DataArray type="Int32" Name="connectivity" format="ascii">
      0      1
      1      2
      2      3
      3      4
      4      5
      5      6
      6      7
      7      8
      8      9
      9     10
     10     11
     11     12
     12     13
     13     14
     14     15
     15     16
     16     17
     17     18
     18     19
     19     20
     21      0
        </DataArray>
        <DataArray type="Int32" Name="offsets" format="ascii">
      2
      4
      6
      8
     10
     12
     14
     16
     18
     20
     22
     24
     26
     28
     30
     32
     34
     36
     38
     40
     42
        </DataArray>
      </Lines>
    </Piece>
  </PolyData>
</VTKFile>
