<?xml version="1.0"?>
<VTKFile type="PolyData" version="0.1" byte_order="LittleEndian">
  <PolyData>
    <Piece NumberOfPoints="     19" NumberOfVerts="  0" NumberOfLines="     18"
           NumberOfStrips="  0" NumberOfPolys="      0">
      <Points>
        <DataArray type="Float32" NumberOfComponents="3" format="ascii">
                      -4.79848                      -0.01902                      91.50947
                      -4.73575                      -0.02914                      92.87495
                      -4.63252                      -0.14413                      95.60689
                      -4.53781                      -0.30393                      98.33952
                      -4.42029                      -0.53022                     101.75577
                      -4.21666                      -0.65834                     105.85325
                      -3.97907                      -0.65601                     109.94988
                      -3.73871                      -0.65053                     114.04679
                      -3.50117                      -0.63993                     118.14450
                      -3.27818                      -0.62570                     122.24371
                      -3.08468                      -0.61069                     126.34497
                      -2.93568                      -0.59211                     130.44835
                      -2.84956                      -0.56799                     134.55336
                      -2.84640                      -0.53559                     138.65869
                      -2.94519                      -0.49159                     142.76203
                      -3.12346                      -0.44243                     146.17742
                      -3.33378                      -0.38538                     148.90525
                      -3.60272                      -0.26345                     151.62762
                      -3.77422                      -0.23846                     152.98572
        </DataArray>
      </Points>
      <PointData>
        <DataArray type="Float32" Name="TranslationalVelocity" NumberOfComponents="3" format="ascii">
                      -0.00388                      -4.28093                      -0.02093
                      -0.00639                      -8.19307                      -0.04971
                      -0.03401                     -16.01818                      -0.37810
                      -0.07058                     -23.84847                      -0.83509
                      -0.11890                     -33.64601                      -1.48324
                      -0.13333                     -45.42623                      -1.85224
                      -0.10594                     -57.22699                      -1.84851
                      -0.06803                     -69.04319                      -1.83613
                      -0.01732                     -80.87396                      -1.80964
                       0.04856                     -92.71725                      -1.77336
                       0.13287                    -104.56984                      -1.73521
                       0.24189                    -116.42739                      -1.68655
                       0.38362                    -128.28368                      -1.62040
                       0.56843                    -140.13039                      -1.52669
                       0.80941                    -151.95764                      -1.39297
                       1.06625                    -161.78925                      -1.23726
                       1.31646                    -169.63331                      -1.05441
                       1.62542                    -177.45640                      -0.67651
                       1.78912                    -181.35395                      -0.58716
        </DataArray>
        <DataArray type="Float32" Name="RotationalVelocity" NumberOfComponents="3" format="ascii">
                       2.85264                       0.00006                      -0.25602
                       2.85325                       0.00022                      -0.25604
                       2.85485                       0.00086                      -0.25612
                       2.85685                       0.00181                      -0.25623
                       2.85965                       0.00326                      -0.25630
                       2.86318                       0.00523                      -0.25623
                       2.86664                       0.00741                      -0.25595
                       2.86988                       0.00991                      -0.25546
                       2.87284                       0.01294                      -0.25481
                       2.87553                       0.01682                      -0.25409
                       2.87804                       0.02194                      -0.25335
                       2.88050                       0.02873                      -0.25266
                       2.88304                       0.03759                      -0.25205
                       2.88581                       0.04896                      -0.25147
                       2.88896                       0.06317                      -0.25083
                       2.89192                       0.07731                      -0.25013
                       2.89457                       0.09030                      -0.24935
                       2.89745                       0.10478                      -0.24823
                       2.89898                       0.11258                      -0.24752
        </DataArray>
        <DataArray type="Float32" Name="TranslationalAcceleration" NumberOfComponents="3" format="ascii">
                      -0.96008                       0.05856                     -12.11632
                      -1.25166                       0.08920                     -14.77446
                      -3.54400                       1.04119                     -42.31199
                      -5.63061                       2.35835                     -67.68199
                      -8.08221                       4.22229                     -97.36906
                     -10.95665                       5.27388                    -131.22678
                     -13.89913                       5.23969                    -164.30017
                     -17.01101                       5.17040                    -197.34612
                     -20.33318                       5.05163                    -230.76637
                     -23.85886                       4.89929                    -264.68433
                     -27.53951                       4.74203                    -299.02205
                     -31.28997                       4.56296                    -333.57972
                     -34.99548                       4.35305                    -368.11347
                     -38.51749                       4.09765                    -402.41410
                     -41.69982                       3.77937                    -436.38814
                     -43.96183                       3.43959                    -464.51028
                     -45.45491                       3.04790                    -487.01049
                     -46.60523                       2.14497                    -509.71982
                     -47.03655                       2.00580                    -521.20745
        </DataArray>
        <DataArray type="Float32" Name="OrientationX" NumberOfComponents="3" format="ascii">
                       0.97203                      -0.23037                      -0.04575
                       0.97201                      -0.23038                      -0.04596
                       0.97192                      -0.23062                      -0.04667
                       0.97176                      -0.23111                      -0.04775
                       0.97145                      -0.23204                      -0.04947
                       0.97785                      -0.20273                      -0.05195
                       0.98159                      -0.18322                      -0.05396
                       0.98421                      -0.16835                      -0.05473
                       0.98649                      -0.15484                      -0.05341
                       0.98837                      -0.14390                      -0.04913
                       0.98960                      -0.13787                      -0.04109
                       0.99028                      -0.13607                      -0.02865
                       0.99005                      -0.14027                      -0.01140
                       0.98823                      -0.15257                       0.01072
                       0.98510                      -0.16785                       0.03741
                       0.98139                      -0.18157                       0.06253
                       0.97758                      -0.19304                       0.08410
                       0.97245                      -0.20744                       0.10639
                       0.96924                      -0.21623                       0.11760
        </DataArray>
        <DataArray type="Float32" Name="OrientationY" NumberOfComponents="3" format="ascii">
                       0.23035                       0.97309                      -0.00581
                       0.23036                       0.97309                      -0.00586
                       0.23060                       0.97303                      -0.00605
                       0.23107                       0.97292                      -0.00635
                       0.23199                       0.97269                      -0.00685
                       0.20270                       0.97922                      -0.00591
                       0.18320                       0.98306                      -0.00535
                       0.16834                       0.98572                      -0.00481
                       0.15485                       0.98793                      -0.00406
                       0.14392                       0.98958                      -0.00318
                       0.13789                       0.99045                      -0.00231
                       0.13609                       0.99070                      -0.00144
                       0.14027                       0.99011                      -0.00062
                       0.15258                       0.98829                       0.00031
                       0.16791                       0.98580                       0.00161
                       0.18174                       0.98334                       0.00300
                       0.19336                       0.98112                       0.00439
                       0.20795                       0.97812                       0.00636
                       0.21684                       0.97618                       0.00771
        </DataArray>
        <DataArray type="Float32" Name="OrientationZ" NumberOfComponents="3" format="ascii">
                       0.04585                      -0.00489                       0.99894
                       0.04608                      -0.00489                       0.99893
                       0.04681                      -0.00489                       0.99889
                       0.04792                      -0.00487                       0.99884
                       0.04971                      -0.00482                       0.99875
                       0.05207                      -0.00475                       0.99863
                       0.05402                      -0.00464                       0.99853
                       0.05476                      -0.00448                       0.99849
                       0.05340                      -0.00426                       0.99856
                       0.04908                      -0.00393                       0.99879
                       0.04101                      -0.00338                       0.99915
                       0.02858                      -0.00247                       0.99959
                       0.01138                      -0.00099                       0.99993
                      -0.01064                       0.00133                       0.99994
                      -0.03715                       0.00470                       0.99930
                      -0.06204                       0.00842                       0.99804
                      -0.08336                       0.01197                       0.99645
                      -0.10538                       0.01594                       0.99430
                      -0.11646                       0.01803                       0.99303
        </DataArray>
        <DataArray type="Float32" Name="Force" NumberOfComponents="3" format="ascii">
                     166.47855                      59.33690                      -7.35170
                     190.75358                     129.68145                      -8.16425
                     288.07659                     380.26432                     -11.63870
                     292.67567                     571.29615                     -11.24595
                    3576.78986                   -1269.52008                    -184.22355
                    3742.06456                    -946.14182                    -199.74806
                    3452.38176                    -637.38679                    -189.89051
                    4602.92946                    -718.81170                    -255.92266
                    5859.40804                    -808.10076                    -317.25323
                    6149.99293                    -709.90079                    -305.62588
                    8393.82011                    -861.31358                    -348.67142
                    7893.37160                    -681.68608                    -228.86445
                    4417.83188                    -245.05596                     -51.37814
                    1135.94999                      63.65697                      12.43109
                   -2875.57807                     457.72463                    -104.78199
                   -8313.81627                     852.24184                    -512.97292
                  -12754.26657                    1122.99999                   -1062.13791
                  -13601.31351                    1065.52451                   -1436.95866
                  -16759.75725                    1267.95283                   -1960.06227
        </DataArray>
        <DataArray type="Float32" Name="Moment" NumberOfComponents="3" format="ascii">
                       0.00000                       0.00000                       0.00000
                       0.00000                       0.00000                       0.00000
                       0.00000                       0.00000                       0.00000
                       0.00000                       0.00000                       0.00000
                     -78.17537                       7.68653                   -1570.78230
                    -155.72766                      14.61785                   -2986.62980
                    -210.91609                      19.08513                   -3898.70716
                    -324.87574                      29.00399                   -5924.55753
                    -466.99165                      42.75206                   -8733.85165
                    -484.43665                      48.24771                   -9860.20240
                    -447.79344                      53.35688                  -10911.86239
                    -329.25930                      56.28820                  -11523.57592
                     -97.57335                      41.89640                   -8589.83238
                      87.26906                      39.81514                   -8178.50883
                     283.45244                      36.99874                   -7617.28640
                     446.58392                      34.80013                   -7180.02521
                     529.24560                      30.58916                   -6322.89624
                     326.33893                      14.86172                   -3077.89131
                     365.04538                      15.01012                   -3111.65614
        </DataArray>
      </PointData>
      <Lines>
        <DataArray type="Int32" Name="connectivity" format="ascii">
      0      1
      1      2
      2      3
      3      4
      4      5
      5      6
      6      7
      7      8
      8      9
      9     10
     10     11
     11     12
     12     13
     13     14
     14     15
     15     16
     16     17
     17     18
        </DataArray>
        <DataArray type="Int32" Name="offsets" format="ascii">
      2
      4
      6
      8
     10
     12
     14
     16
     18
     20
     22
     24
     26
     28
     30
     32
     34
     36
        </DataArray>
      </Lines>
    </Piece>
  </PolyData>
</VTKFile>
