<?xml version="1.0"?>
<VTKFile type="PolyData" version="0.1" byte_order="LittleEndian">
  <PolyData>
    <Piece NumberOfPoints="      8" NumberOfVerts="  0" NumberOfLines="      0"
           NumberOfStrips="  0" NumberOfPolys="      6">
      <Points>
        <DataArray type="Float32" NumberOfComponents="3" format="ascii">
                      -3.46816                       2.39629                      87.60137
                       3.53184                       2.39629                      87.59901
                       3.53184                      -2.40371                      87.59861
                      -3.46816                      -2.40371                      87.60098
                      -3.46654                      -2.40411                      92.40099
                       3.53346                      -2.40411                      92.39862
                       3.53346                       2.39590                      92.39901
                      -3.46654                       2.39590                      92.40138
        </DataArray>
      </Points>
      <Polys>
        <DataArray type="Int32" Name="connectivity" format="ascii">
      0      1      2      3
      4      5      6      7
      7      6      1      0
      6      5      2      1
      5      4      3      2
      4      7      0      3
        </DataArray>
        <DataArray type="Int32" Name="offsets" format="ascii">
      4
      8
     12
     16
     20
     24
        </DataArray>
      </Polys>
    </Piece>
  </PolyData>
</VTKFile>
