<?xml version="1.0"?>
<VTKFile type="PolyData" version="0.1" byte_order="LittleEndian">
  <PolyData>
    <Piece NumberOfPoints="     19" NumberOfVerts="  0" NumberOfLines="     18"
           NumberOfStrips="  0" NumberOfPolys="      0">
      <Points>
        <DataArray type="Float32" NumberOfComponents="3" format="ascii">
                      -5.08878                       1.07322                      88.97382
                      -5.23252                       2.05696                      88.03595
                      -5.53392                       4.08908                      86.22984
                      -5.83964                       6.15151                      84.45572
                      -6.22044                       8.74730                      82.25558
                      -6.62291                      11.76289                      79.50340
                      -6.99387                      14.68692                      76.65153
                      -7.34644                      17.60751                      73.79378
                      -7.67325                      20.52362                      70.92845
                      -7.96972                      23.43673                      68.05689
                      -8.23176                      26.34955                      65.18187
                      -8.45397                      29.26110                      62.30235
                      -8.63288                      32.17140                      59.41858
                      -8.76604                      35.08031                      56.53094
                      -8.84973                      37.98753                      53.63977
                      -8.88032                      40.40848                      51.22805
                      -8.88164                      42.33825                      49.29188
                      -8.86716                      44.22798                      47.31573
                      -8.84993                      45.20125                      46.35709
        </DataArray>
      </Points>
      <PointData>
        <DataArray type="Float32" Name="TranslationalVelocity" NumberOfComponents="3" format="ascii">
                       0.06519                       0.73893                       0.75763
                       0.12612                       1.40585                       1.44782
                       0.25227                       2.69139                       2.87320
                       0.38088                       3.95439                       4.31926
                       0.54404                       5.52021                       6.13827
                       0.73605                       7.47341                       8.24995
                       0.92552                       9.49342                      10.29601
                       1.11835                      11.51538                      12.33830
                       1.31453                      13.54017                      14.37634
                       1.51396                      15.56670                      16.41146
                       1.71634                      17.59298                      18.44587
                       1.92087                      19.61961                      20.47925
                       2.12651                      21.64636                      22.51189
                       2.33192                      23.67299                      24.54395
                       2.53542                      25.69912                      26.57541
                       2.70204                      27.38695                      28.26758
                       2.83216                      28.74060                      29.61672
                       2.95651                      30.12129                      30.93808
                       3.01903                      30.79043                      31.61868
        </DataArray>
        <DataArray type="Float32" Name="RotationalVelocity" NumberOfComponents="3" format="ascii">
                       0.70165                       0.00036                      -0.06221
                       0.70157                       0.00032                      -0.06224
                       0.70136                       0.00020                      -0.06235
                       0.70110                       0.00001                      -0.06253
                       0.70074                      -0.00029                      -0.06286
                       0.70029                      -0.00075                      -0.06337
                       0.69986                      -0.00127                      -0.06400
                       0.69948                      -0.00181                      -0.06469
                       0.69917                      -0.00234                      -0.06538
                       0.69894                      -0.00282                      -0.06602
                       0.69879                      -0.00320                      -0.06655
                       0.69873                      -0.00346                      -0.06691
                       0.69873                      -0.00353                      -0.06705
                       0.69879                      -0.00337                      -0.06693
                       0.69889                      -0.00294                      -0.06652
                       0.69899                      -0.00234                      -0.06595
                       0.69907                      -0.00168                      -0.06535
                       0.69915                      -0.00082                      -0.06462
                       0.69919                      -0.00033                      -0.06422
        </DataArray>
        <DataArray type="Float32" Name="TranslationalAcceleration" NumberOfComponents="3" format="ascii">
                       0.49901                      -0.47005                       0.60463
                       0.19522                      -0.55630                       0.72229
                       0.50095                      -1.62297                       2.03845
                       0.71506                      -2.62515                       3.23229
                       0.89537                      -3.80708                       4.61527
                       1.03732                      -5.09212                       6.22079
                       1.15030                      -6.28684                       7.81626
                       1.27182                      -7.47749                       9.40124
                       1.42913                      -8.68288                      10.99465
                       1.63846                      -9.91220                      12.59955
                       1.90688                     -11.16717                      14.20825
                       2.23441                     -12.44261                      15.80902
                       2.61582                     -13.73203                      17.38856
                       3.04264                     -15.03001                      18.93687
                       3.50512                     -16.33530                      20.45174
                       3.91141                     -17.43267                      21.69476
                       4.24561                     -18.31798                      22.68914
                       4.58715                     -19.19919                      23.71177
                       4.76107                     -19.66426                      24.21815
        </DataArray>
        <DataArray type="Float32" Name="OrientationX" NumberOfComponents="3" format="ascii">
                       0.98043                       0.19055                       0.04956
                       0.98045                       0.19036                       0.04973
                       0.98054                       0.18976                       0.05028
                       0.98067                       0.18886                       0.05110
                       0.98090                       0.18733                       0.05246
                       0.98606                       0.16334                       0.03157
                       0.98935                       0.14446                       0.01775
                       0.99193                       0.12661                       0.00672
                       0.99426                       0.10693                      -0.00435
                       0.99621                       0.08569                      -0.01503
                       0.99765                       0.06411                      -0.02400
                       0.99862                       0.04158                      -0.03204
                       0.99909                       0.01949                      -0.03802
                       0.99919                      -0.00003                      -0.04036
                       0.99891                      -0.01946                      -0.04248
                       0.99838                      -0.03527                      -0.04456
                       0.99783                      -0.04680                      -0.04624
                       0.99746                      -0.05460                      -0.04577
                       0.99743                      -0.05642                      -0.04424
        </DataArray>
        <DataArray type="Float32" Name="OrientationY" NumberOfComponents="3" format="ascii">
                       0.16668                      -0.66931                      -0.72404
                       0.16670                      -0.66945                      -0.72391
                       0.16674                      -0.66985                      -0.72354
                       0.16677                      -0.67037                      -0.72304
                       0.16681                      -0.67117                      -0.72229
                       0.13542                      -0.67785                      -0.72262
                       0.11261                      -0.68254                      -0.72212
                       0.09250                      -0.68642                      -0.72129
                       0.07106                      -0.69005                      -0.72026
                       0.04878                      -0.69325                      -0.71904
                       0.02745                      -0.69580                      -0.71771
                       0.00607                      -0.69774                      -0.71633
                      -0.01357                      -0.69899                      -0.71500
                      -0.02886                      -0.69964                      -0.71391
                      -0.04395                      -0.69985                      -0.71294
                      -0.05650                      -0.69969                      -0.71221
                      -0.06578                      -0.69938                      -0.71171
                      -0.07091                      -0.69916                      -0.71144
                      -0.07111                      -0.69917                      -0.71141
        </DataArray>
        <DataArray type="Float32" Name="OrientationZ" NumberOfComponents="3" format="ascii">
                      -0.10479                       0.71813                      -0.68797
                      -0.10451                       0.71805                      -0.68810
                      -0.10362                       0.71784                      -0.68845
                      -0.10230                       0.71759                      -0.68891
                      -0.10010                       0.71724                      -0.68960
                      -0.09663                       0.71682                      -0.69053
                      -0.09221                       0.71643                      -0.69154
                      -0.08671                       0.71610                      -0.69260
                      -0.08002                       0.71582                      -0.69369
                      -0.07203                       0.71558                      -0.69480
                      -0.06271                       0.71537                      -0.69592
                      -0.05214                       0.71514                      -0.69703
                      -0.04051                       0.71486                      -0.69809
                      -0.02822                       0.71449                      -0.69907
                      -0.01585                       0.71403                      -0.69994
                      -0.00606                       0.71358                      -0.70055
                       0.00097                       0.71321                      -0.70095
                       0.00684                       0.71287                      -0.70126
                       0.00921                       0.71273                      -0.70138
        </DataArray>
        <DataArray type="Float32" Name="Force" NumberOfComponents="3" format="ascii">
                     144.67164                       2.56507                     -19.35870
                     129.78486                      -2.10868                     -21.91492
                     158.20857                     -20.27738                     -44.98025
                     129.78685                     -33.00544                     -53.72066
                    1211.46122                     322.02253                     159.97555
                    1236.95359                     284.42478                     123.32491
                    1408.58036                     295.72939                     120.17918
                    1365.99281                     278.96699                     119.30702
                    1475.92296                     313.72701                     156.00745
                    1801.49951                     377.80521                     205.80149
                    2006.96875                     409.86012                     244.61932
                    2245.64718                     403.04984                     250.04335
                    2742.00136                     393.86936                     249.07005
                    2972.89345                     363.86252                     256.90237
                    3149.14885                     321.19495                     261.36088
                    3264.23182                     277.42931                     259.27058
                    3225.25738                     234.75437                     247.95915
                    2397.27699                     154.02271                     183.34100
                    2504.90109                     155.38374                     194.32702
        </DataArray>
        <DataArray type="Float32" Name="Moment" NumberOfComponents="3" format="ascii">
                       0.00000                       0.00000                       0.00000
                       0.00000                       0.00000                       0.00000
                       0.00000                       0.00000                       0.00000
                       0.00000                       0.00000                       0.00000
                      66.57949                    -478.20045                     458.40039
                      70.73571                    -526.60517                     505.02989
                      67.95089                    -530.54509                     509.10218
                      66.20694                    -550.10984                     528.25293
                      57.41450                    -517.37134                     497.24535
                      49.34321                    -494.37660                     475.63443
                      33.56406                    -386.62103                     372.40935
                      26.50601                    -367.71915                     354.68251
                      24.83621                    -444.31364                     429.19900
                      17.53516                    -452.08813                     437.39480
                       9.41082                    -436.27599                     422.76243
                       3.27307                    -412.89516                     400.60523
                      -0.68806                    -367.43449                     356.81692
                      -1.88000                    -186.59157                     181.33541
                      -2.62564                    -196.17349                     190.70496
        </DataArray>
      </PointData>
      <Lines>
        <DataArray type="Int32" Name="connectivity" format="ascii">
      0      1
      1      2
      2      3
      3      4
      4      5
      5      6
      6      7
      7      8
      8      9
      9     10
     10     11
     11     12
     12     13
     13     14
     14     15
     15     16
     16     17
     17     18
        </DataArray>
        <DataArray type="Int32" Name="offsets" format="ascii">
      2
      4
      6
      8
     10
     12
     14
     16
     18
     20
     22
     24
     26
     28
     30
     32
     34
     36
        </DataArray>
      </Lines>
    </Piece>
  </PolyData>
</VTKFile>
