<?xml version="1.0"?>
<VTKFile type="PolyData" version="0.1" byte_order="LittleEndian">
  <PolyData>
    <Piece NumberOfPoints="     19" NumberOfVerts="  0" NumberOfLines="     18"
           NumberOfStrips="  0" NumberOfPolys="      0">
      <Points>
        <DataArray type="Float32" NumberOfComponents="3" format="ascii">
                      -4.87781                      -1.38142                      90.60974
                      -4.88896                      -2.63639                      91.15156
                      -4.94075                      -5.18386                      92.14912
                      -5.00419                      -7.74982                      93.10469
                      -5.08580                     -10.96921                      94.27219
                      -5.10818                     -14.78004                      95.79549
                      -5.08386                     -18.54297                      97.43086
                      -5.05323                     -22.30731                      99.06417
                      -5.02033                     -26.07218                     100.69799
                      -4.99532                     -29.83778                     102.33217
                      -4.99149                     -33.60452                     103.96550
                      -5.02159                     -37.37030                     105.60170
                      -5.10165                     -41.13284                     107.24368
                      -5.24931                     -44.88894                     108.89468
                      -5.48104                     -48.63473                     110.55783
                      -5.75419                     -51.74439                     111.95615
                      -6.02889                     -54.21918                     113.09110
                      -6.34765                     -56.66261                     114.28468
                      -6.54274                     -57.89455                     114.84845
        </DataArray>
      </Points>
      <PointData>
        <DataArray type="Float32" Name="TranslationalVelocity" NumberOfComponents="3" format="ascii">
                      -0.34870                      -1.70316                      -3.91716
                      -0.66962                      -3.24608                      -7.49730
                      -1.32040                      -6.07917                     -14.76575
                      -1.97513                      -8.79006                     -22.08867
                      -2.79549                     -12.10208                     -31.27921
                      -3.76408                     -16.44660                     -42.16269
                      -4.71624                     -21.12526                     -52.91452
                      -5.66225                     -25.80196                     -63.67558
                      -6.59876                     -30.48286                     -74.44332
                      -7.52216                     -35.16495                     -85.21811
                      -8.42846                     -39.84150                     -96.00076
                      -9.31284                     -44.52028                    -106.78483
                     -10.17031                     -49.20619                    -117.56318
                     -10.99576                     -53.90528                    -128.32598
                     -11.78409                     -58.62394                    -139.06143
                     -12.40831                     -62.57780                    -147.97493
                     -12.88461                     -65.77845                    -155.06902
                     -13.33461                     -69.14102                    -162.07348
                     -13.55469                     -70.72168                    -165.60481
        </DataArray>
        <DataArray type="Float32" Name="RotationalVelocity" NumberOfComponents="3" format="ascii">
                       2.85257                       0.00132                      -0.25620
                       2.85276                       0.00135                      -0.25615
                       2.85331                       0.00145                      -0.25597
                       2.85402                       0.00161                      -0.25572
                       2.85504                       0.00189                      -0.25530
                       2.85635                       0.00238                      -0.25457
                       2.85769                       0.00307                      -0.25348
                       2.85899                       0.00398                      -0.25186
                       2.86023                       0.00514                      -0.24950
                       2.86143                       0.00655                      -0.24623
                       2.86260                       0.00820                      -0.24188
                       2.86377                       0.01005                      -0.23636
                       2.86498                       0.01200                      -0.22964
                       2.86623                       0.01393                      -0.22181
                       2.86752                       0.01565                      -0.21307
                       2.86861                       0.01677                      -0.20536
                       2.86947                       0.01732                      -0.19911
                       2.87028                       0.01745                      -0.19301
                       2.87065                       0.01732                      -0.19009
        </DataArray>
        <DataArray type="Float32" Name="TranslationalAcceleration" NumberOfComponents="3" format="ascii">
                      -0.45171                      11.25371                      -4.83002
                      -0.53580                      13.64896                      -5.84495
                      -1.47126                      39.38306                     -15.98731
                      -2.30208                      63.24465                     -24.87732
                      -3.25853                      91.27075                     -34.90333
                      -4.45179                     122.78578                     -47.19481
                      -5.72049                     153.14805                     -60.04574
                      -7.00640                     183.47265                     -72.81734
                      -8.32550                     214.11977                     -85.70549
                      -9.68568                     245.20072                     -98.76935
                     -11.09423                     276.64462                    -111.97564
                     -12.56898                     308.25283                    -125.28022
                     -14.14013                     339.79402                    -138.60817
                     -15.85780                     371.07498                    -151.89465
                     -17.79843                     402.01864                    -165.11203
                     -19.67182                     427.61799                    -176.10347
                     -21.39373                     448.07809                    -184.98615
                     -23.40127                     468.56589                    -194.37838
                     -24.49531                     479.08043                    -198.82903
        </DataArray>
        <DataArray type="Float32" Name="OrientationX" NumberOfComponents="3" format="ascii">
                       0.95093                      -0.13032                      -0.28062
                       0.95093                      -0.13003                      -0.28076
                       0.95086                      -0.12920                      -0.28138
                       0.95071                      -0.12803                      -0.28241
                       0.95042                      -0.12626                      -0.28417
                       0.95934                      -0.11203                      -0.25905
                       0.96479                      -0.10180                      -0.24253
                       0.96869                      -0.09422                      -0.22969
                       0.97207                      -0.08876                      -0.21724
                       0.97473                      -0.08659                      -0.20594
                       0.97621                      -0.08925                      -0.19761
                       0.97670                      -0.09702                      -0.19142
                       0.97573                      -0.11091                      -0.18882
                       0.97255                      -0.13184                      -0.19174
                       0.96792                      -0.15765                      -0.19563
                       0.96301                      -0.18198                      -0.19871
                       0.95831                      -0.20296                      -0.20110
                       0.95216                      -0.22581                      -0.20590
                       0.94836                      -0.23797                      -0.20974
        </DataArray>
        <DataArray type="Float32" Name="OrientationY" NumberOfComponents="3" format="ascii">
                       0.30930                       0.37706                       0.87302
                       0.30932                       0.37692                       0.87307
                       0.30955                       0.37659                       0.87313
                       0.31002                       0.37620                       0.87313
                       0.31094                       0.37570                       0.87302
                       0.28224                       0.37881                       0.88139
                       0.26303                       0.38041                       0.88662
                       0.24824                       0.38128                       0.89051
                       0.23465                       0.38181                       0.89396
                       0.22340                       0.38194                       0.89678
                       0.21677                       0.38153                       0.89858
                       0.21412                       0.38072                       0.89956
                       0.21717                       0.37933                       0.89942
                       0.22809                       0.37694                       0.89772
                       0.24187                       0.37392                       0.89537
                       0.25439                       0.37100                       0.89311
                       0.26501                       0.36836                       0.89111
                       0.27863                       0.36481                       0.88841
                       0.28705                       0.36248                       0.88668
        </DataArray>
        <DataArray type="Float32" Name="OrientationZ" NumberOfComponents="3" format="ascii">
                      -0.00796                      -0.91698                       0.39886
                      -0.00770                      -0.91707                       0.39865
                      -0.00684                      -0.91733                       0.39807
                      -0.00555                      -0.91765                       0.39735
                      -0.00346                      -0.91810                       0.39633
                      -0.00061                      -0.91867                       0.39503
                       0.00201                      -0.91920                       0.39379
                       0.00367                      -0.91964                       0.39274
                       0.00359                      -0.91997                       0.39198
                       0.00100                      -0.92012                       0.39163
                      -0.00481                      -0.92004                       0.39181
                      -0.01440                      -0.91959                       0.39262
                      -0.02813                      -0.91859                       0.39421
                      -0.04608                      -0.91681                       0.39666
                      -0.06800                      -0.91396                       0.40006
                      -0.08880                      -0.91063                       0.40357
                      -0.10678                      -0.90726                       0.40679
                      -0.12549                      -0.90329                       0.41028
                      -0.13497                      -0.90110                       0.41207
        </DataArray>
        <DataArray type="Float32" Name="Force" NumberOfComponents="3" format="ascii">
                     175.44161                      22.89580                      56.13737
                     208.01189                      51.91089                     123.35506
                     328.89732                     154.48622                     360.84405
                     346.76889                     231.94412                     538.25764
                    3446.60726                    -613.61646                   -1383.94632
                    3511.98498                    -470.30054                   -1080.23475
                    3161.47019                    -324.45793                    -766.63612
                    4266.79196                    -385.05666                    -931.99495
                    5548.18066                    -460.44944                   -1118.98374
                    5870.06380                    -447.82056                   -1055.06563
                    8216.50949                    -631.12653                   -1365.43715
                    7883.77889                    -625.51778                   -1163.41638
                    4769.94329                    -386.96912                    -556.69634
                     865.69376                      -0.37453                      97.69111
                   -1758.22111                     319.69093                     428.90566
                   -6691.44728                    1068.36001                     938.15573
                  -10743.11740                    1819.57350                    1244.51309
                  -11769.39545                    2150.90818                    1148.85083
                  -14663.62491                    2787.66202                    1313.02617
        </DataArray>
        <DataArray type="Float32" Name="Moment" NumberOfComponents="3" format="ascii">
                       0.00000                       0.00000                       0.00000
                       0.00000                       0.00000                       0.00000
                       0.00000                       0.00000                       0.00000
                       0.00000                       0.00000                       0.00000
                       5.22783                    1468.80652                    -638.22242
                       0.96873                    2764.28216                   -1200.33284
                      -9.35607                    3592.03127                   -1558.81254
                     -24.68299                    5474.91314                   -2374.97951
                     -36.37553                    8085.99230                   -3507.65473
                     -15.72268                    9116.79227                   -3957.08099
                      46.23835                   10079.05068                   -4380.45677
                     160.16240                   10629.53596                   -4629.70856
                     238.42802                    7911.79621                   -3456.70083
                     377.19865                    7553.52184                   -3313.60260
                     519.96667                    7000.15163                   -3086.15317
                     641.33871                    6574.02086                   -2912.02916
                     685.20043                    5814.36015                   -2586.12546
                     399.33087                    2869.76991                   -1281.91462
                     437.10349                    2913.60883                   -1304.34197
        </DataArray>
      </PointData>
      <Lines>
        <DataArray type="Int32" Name="connectivity" format="ascii">
      0      1
      1      2
      2      3
      3      4
      4      5
      5      6
      6      7
      7      8
      8      9
      9     10
     10     11
     11     12
     12     13
     13     14
     14     15
     15     16
     16     17
     17     18
        </DataArray>
        <DataArray type="Int32" Name="offsets" format="ascii">
      2
      4
      6
      8
     10
     12
     14
     16
     18
     20
     22
     24
     26
     28
     30
     32
     34
     36
        </DataArray>
      </Lines>
    </Piece>
  </PolyData>
</VTKFile>
