<?xml version="1.0"?>
<VTKFile type="PolyData" version="0.1" byte_order="LittleEndian">
  <PolyData>
    <Piece NumberOfPoints="    625" NumberOfVerts="  0" NumberOfLines="      0"
           NumberOfStrips="  0" NumberOfPolys="    600">
      <Points>
        <DataArray type="Float32" NumberOfComponents="3" format="ascii">
                      -4.98253                       1.47065                      90.30311
                      -4.98253                       1.47065                      90.30311
                      -4.98253                       1.47065                      90.30311
                      -4.98253                       1.47065                      90.30311
                      -4.98253                       1.47065                      90.30311
                      -4.98253                       1.47065                      90.30311
                      -4.98253                       1.47065                      90.30311
                      -4.98253                       1.47065                      90.30311
                      -4.98253                       1.47065                      90.30311
                      -4.98253                       1.47065                      90.30311
                      -4.98253                       1.47065                      90.30311
                      -4.98253                       1.47065                      90.30311
                      -4.98253                       1.47065                      90.30311
                      -4.98253                       1.47065                      90.30311
                      -4.98253                       1.47065                      90.30311
                      -4.98253                       1.47065                      90.30311
                      -4.98253                       1.47065                      90.30311
                      -4.98253                       1.47065                      90.30311
                      -4.98253                       1.47065                      90.30311
                      -4.98253                       1.47065                      90.30311
                      -4.98253                       1.47065                      90.30311
                      -4.98253                       1.47065                      90.30311
                      -4.98253                       1.47065                      90.30311
                      -4.98253                       1.47065                      90.30311
                      -4.98253                       1.47065                      90.30311
                      -4.38753                       1.34827                      90.22566
                      -4.39362                       1.31789                      90.37270
                      -4.43684                       1.28942                      90.51377
                      -4.51449                       1.26464                      90.64001
                      -4.62169                       1.24512                      90.74349
                      -4.75171                       1.23208                      90.81771
                      -4.89636                       1.22635                      90.85799
                      -5.04657                       1.22827                      90.86182
                      -5.19289                       1.23773                      90.82894
                      -5.32614                       1.25414                      90.76143
                      -5.43793                       1.27647                      90.66353
                      -5.52125                       1.30330                      90.54139
                      -5.57086                       1.33296                      90.40268
                      -5.58364                       1.36359                      90.25612
                      -5.55879                       1.39325                      90.11092
                      -5.49787                       1.42008                      89.97620
                      -5.40471                       1.44241                      89.86043
                      -5.28516                       1.45882                      89.77087
                      -5.14673                       1.46828                      89.71317
                      -4.99813                       1.47020                      89.69094
                      -4.84869                       1.46446                      89.70558
                      -4.70779                       1.45142                      89.75617
                      -4.58430                       1.43190                      89.83953
                      -4.48597                       1.40713                      89.95043
                      -4.41897                       1.37866                      90.08189
                      -4.16094                       1.22590                      90.18033
                      -4.16935                       1.18387                      90.38370
                      -4.22914                       1.14449                      90.57882
                      -4.33654                       1.11022                      90.75343
                      -4.48481                       1.08323                      90.89656
                      -4.66464                       1.06519                      90.99921
                      -4.86471                       1.05726                      91.05493
                      -5.07247                       1.05992                      91.06022
                      -5.27485                       1.07300                      91.01475
                      -5.45915                       1.09570                      90.92138
                      -5.61377                       1.12658                      90.78597
                      -5.72901                       1.16369                      90.61703
                      -5.79763                       1.20472                      90.42518
                      -5.81530                       1.24708                      90.22247
                      -5.78093                       1.28810                      90.02163
                      -5.69667                       1.32522                      89.83530
                      -5.56782                       1.35610                      89.67517
                      -5.40247                       1.37879                      89.55131
                      -5.21101                       1.39188                      89.47149
                      -5.00547                       1.39454                      89.44074
                      -4.79877                       1.38660                      89.46099
                      -4.60389                       1.36857                      89.53096
                      -4.43309                       1.34157                      89.64626
                      -4.29708                       1.30730                      89.79965
                      -4.20442                       1.26792                      89.98148
                      -4.00077                       1.10352                      90.14079
                      -4.01083                       1.05324                      90.38414
                      -4.08237                       1.00611                      90.61763
                      -4.21089                       0.96511                      90.82656
                      -4.38831                       0.93280                      90.99782
                      -4.60348                       0.91122                      91.12065
                      -4.84289                       0.90173                      91.18732
                      -5.09149                       0.90491                      91.19365
                      -5.33366                       0.92057                      91.13925
                      -5.55419                       0.94773                      91.02752
                      -5.73921                       0.98468                      90.86549
                      -5.87710                       1.02909                      90.66334
                      -5.95921                       1.07818                      90.43377
                      -5.98036                       1.12886                      90.19121
                      -5.93923                       1.17795                      89.95090
                      -5.83841                       1.22237                      89.72793
                      -5.68422                       1.25931                      89.53632
                      -5.48637                       1.28647                      89.38811
                      -5.25727                       1.30213                      89.29261
                      -5.01132                       1.30531                      89.25581
                      -4.76399                       1.29582                      89.28004
                      -4.53080                       1.27424                      89.36377
                      -4.32642                       1.24193                      89.50174
                      -4.16368                       1.20093                      89.68527
                      -4.05280                       1.15380                      89.90285
                      -3.87758                       0.98114                      90.10448
                      -3.88892                       0.92448                      90.37871
                      -3.96954                       0.87138                      90.64181
                      -4.11436                       0.82517                      90.87725
                      -4.31429                       0.78877                      91.07024
                      -4.55677                       0.76445                      91.20865
                      -4.82655                       0.75375                      91.28379
                      -5.10669                       0.75733                      91.29092
                      -5.37958                       0.77498                      91.22961
                      -5.62809                       0.80559                      91.10371
                      -5.83658                       0.84722                      90.92112
                      -5.99197                       0.89727                      90.69332
                      -6.08449                       0.95259                      90.43463
                      -6.10833                       1.00970                      90.16130
                      -6.06198                       1.06502                      89.89049
                      -5.94836                       1.11507                      89.63924
                      -5.77462                       1.15670                      89.42332
                      -5.55166                       1.18731                      89.25630
                      -5.29349                       1.20495                      89.14868
                      -5.01635                       1.20854                      89.10722
                      -4.73763                       1.19784                      89.13452
                      -4.47486                       1.17352                      89.22888
                      -4.24455                       1.13711                      89.38435
                      -4.06116                       1.09091                      89.59117
                      -3.93622                       1.03780                      89.83635
                      -3.77985                       0.85876                      90.07038
                      -3.79222                       0.79702                      90.36922
                      -3.88007                       0.73915                      90.65593
                      -4.03788                       0.68880                      90.91250
                      -4.25575                       0.64913                      91.12280
                      -4.51998                       0.62263                      91.27363
                      -4.81397                       0.61097                      91.35551
                      -5.11925                       0.61488                      91.36328
                      -5.41663                       0.63411                      91.29647
                      -5.68743                       0.66746                      91.15927
                      -5.91463                       0.71283                      90.96030
                      -6.08396                       0.76737                      90.71207
                      -6.18478                       0.82765                      90.43016
                      -6.21076                       0.88989                      90.13230
                      -6.16025                       0.95017                      89.83720
                      -6.03644                       1.00471                      89.56340
                      -5.84711                       1.05008                      89.32811
                      -5.60414                       1.08343                      89.14611
                      -5.32281                       1.10266                      89.02883
                      -5.02080                       1.10657                      88.98365
                      -4.71708                       1.09490                      89.01340
                      -4.43073                       1.06840                      89.11622
                      -4.17975                       1.02873                      89.28564
                      -3.97991                       0.97838                      89.51102
                      -3.84376                       0.92051                      89.77820
                      -3.70168                       0.73639                      90.03800
                      -3.71487                       0.67055                      90.35662
                      -3.80853                       0.60885                      90.66232
                      -3.97680                       0.55517                      90.93588
                      -4.20910                       0.51287                      91.16012
                      -4.49083                       0.48461                      91.32093
                      -4.80429                       0.47218                      91.40823
                      -5.12978                       0.47635                      91.41652
                      -5.44686                       0.49685                      91.34528
                      -5.73559                       0.53241                      91.19900
                      -5.97784                       0.58079                      90.98685
                      -6.15839                       0.63894                      90.72218
                      -6.26589                       0.70321                      90.42160
                      -6.29358                       0.76957                      90.10401
                      -6.23973                       0.83385                      89.78937
                      -6.10772                       0.89200                      89.49744
                      -5.90585                       0.94037                      89.24656
                      -5.64679                       0.97593                      89.05251
                      -5.34683                       0.99643                      88.92747
                      -5.02482                       1.00060                      88.87929
                      -4.70098                       0.98817                      88.91102
                      -4.39567                       0.95991                      89.02064
                      -4.12806                       0.91761                      89.20128
                      -3.91498                       0.86392                      89.44159
                      -3.76982                       0.80222                      89.72646
                      -3.63959                       0.61401                      90.00701
                      -3.65343                       0.54490                      90.34147
                      -3.75175                       0.48014                      90.66236
                      -3.92838                       0.42378                      90.94951
                      -4.17222                       0.37938                      91.18489
                      -4.46795                       0.34973                      91.35370
                      -4.79698                       0.33667                      91.44533
                      -5.13865                       0.34105                      91.45404
                      -5.47148                       0.36257                      91.37926
                      -5.77456                       0.39990                      91.22570
                      -6.02885                       0.45068                      91.00302
                      -6.21837                       0.51172                      90.72519
                      -6.33121                       0.57919                      90.40968
                      -6.36028                       0.64884                      90.07631
                      -6.30376                       0.71631                      89.74603
                      -6.16519                       0.77735                      89.43959
                      -5.95328                       0.82813                      89.17625
                      -5.68135                       0.86545                      88.97255
                      -5.36649                       0.88698                      88.84130
                      -5.02847                       0.89135                      88.79073
                      -4.68854                       0.87830                      88.82403
                      -4.36806                       0.84864                      88.93910
                      -4.08716                       0.80424                      89.12872
                      -3.86349                       0.74788                      89.38097
                      -3.71111                       0.68312                      89.67999
                      -3.59137                       0.49163                      89.97724
                      -3.60572                       0.41996                      90.32411
                      -3.70769                       0.35279                      90.65692
                      -3.89088                       0.29435                      90.95473
                      -4.14377                       0.24830                      91.19884
                      -4.45048                       0.21754                      91.37392
                      -4.79173                       0.20400                      91.46896
                      -5.14609                       0.20854                      91.47798
                      -5.49127                       0.23086                      91.40043
                      -5.80561                       0.26957                      91.24117
                      -6.06934                       0.32224                      91.01022
                      -6.26589                       0.38554                      90.72208
                      -6.38292                       0.45552                      90.39485
                      -6.41307                       0.52776                      90.04911
                      -6.35445                       0.59773                      89.70657
                      -6.21073                       0.66104                      89.38875
                      -5.99096                       0.71370                      89.11563
                      -5.70893                       0.75241                      88.90437
                      -5.38238                       0.77474                      88.76824
                      -5.03181                       0.77927                      88.71580
                      -4.67926                       0.76573                      88.75033
                      -4.34688                       0.73497                      88.86968
                      -4.05555                       0.68892                      89.06634
                      -3.82358                       0.63048                      89.32795
                      -3.66554                       0.56331                      89.63808
                      -3.55557                       0.36926                      89.94854
                      -3.57031                       0.29565                      90.30478
                      -3.67503                       0.22667                      90.64656
                      -3.86316                       0.16665                      90.95241
                      -4.12288                       0.11935                      91.20311
                      -4.43786                       0.08777                      91.38291
                      -4.78832                       0.07386                      91.48051
                      -5.15223                       0.07852                      91.48978
                      -5.50673                       0.10145                      91.41014
                      -5.82955                       0.14120                      91.24658
                      -6.10039                       0.19529                      91.00940
                      -6.30225                       0.26030                      90.71348
                      -6.42244                       0.33217                      90.37743
                      -6.45340                       0.40636                      90.02235
                      -6.39320                       0.47822                      89.67057
                      -6.24560                       0.54323                      89.34418
                      -6.01990                       0.59732                      89.06370
                      -5.73027                       0.63707                      88.84674
                      -5.39490                       0.66000                      88.70693
                      -5.03488                       0.66466                      88.65307
                      -4.67282                       0.65075                      88.68854
                      -4.33147                       0.61916                      88.81111
                      -4.03228                       0.57187                      89.01307
                      -3.79405                       0.51185                      89.28174
                      -3.63175                       0.44286                      89.60023
                      -3.53124                       0.24688                      89.92085
                      -3.54624                       0.17192                      90.28362
                      -3.65289                       0.10167                      90.63168
                      -3.84447                       0.04055                      90.94314
                      -4.10895                      -0.00761                      91.19844
                      -4.42972                      -0.03978                      91.38154
                      -4.78661                      -0.05393                      91.48093
                      -5.15720                      -0.04919                      91.49037
                      -5.51820                      -0.02584                      91.40926
                      -5.84694                       0.01464                      91.24271
                      -6.12276                       0.06972                      91.00117
                      -6.32832                       0.13593                      90.69982
                      -6.45071                       0.20911                      90.35760
                      -6.48224                       0.28466                      89.99602
                      -6.42093                       0.35784                      89.63778
                      -6.27063                       0.42405                      89.30540
                      -6.04078                       0.47913                      89.01977
                      -5.74584                       0.51961                      88.79882
                      -5.40432                       0.54296                      88.65646
                      -5.03769                       0.54770                      88.60161
                      -4.66898                       0.53354                      88.63773
                      -4.32137                       0.50137                      88.76254
                      -4.01669                       0.45321                      88.96821
                      -3.77409                       0.39209                      89.24181
                      -3.60881                       0.32184                      89.56615
                      -3.51775                       0.12450                      89.89410
                      -3.53291                       0.04875                      90.26074
                      -3.64070                      -0.02225                      90.61251
                      -3.83432                      -0.08403                      90.92729
                      -4.10162                      -0.13270                      91.18531
                      -4.42580                      -0.16521                      91.37036
                      -4.78649                      -0.17952                      91.47081
                      -5.16103                      -0.17472                      91.48035
                      -5.52589                      -0.15112                      91.39838
                      -5.85813                      -0.11021                      91.23005
                      -6.13688                      -0.05455                      90.98594
                      -6.34464                       0.01237                      90.68138
                      -6.46833                       0.08633                      90.33551
                      -6.50020                       0.16269                      89.97007
                      -6.43824                       0.23665                      89.60801
                      -6.28633                       0.30356                      89.27209
                      -6.05404                       0.35922                      88.98342
                      -5.75595                       0.40014                      88.76012
                      -5.41079                       0.42373                      88.61623
                      -5.04025                       0.42853                      88.56080
                      -4.66762                       0.41422                      88.59730
                      -4.31630                       0.38171                      88.72345
                      -4.00837                       0.33303                      88.93131
                      -3.76319                       0.27126                      89.20783
                      -3.59615                       0.20026                      89.53562
                      -3.51476                       0.00213                      89.86827
                      -3.52998                      -0.07389                      90.23619
                      -3.63814                      -0.14514                      90.58918
                      -3.83244                      -0.20713                      90.90506
                      -4.10067                      -0.25597                      91.16398
                      -4.42599                      -0.28860                      91.34968
                      -4.78794                      -0.30295                      91.45048
                      -5.16379                      -0.29814                      91.46006
                      -5.52991                      -0.27446                      91.37780
                      -5.86331                      -0.23340                      91.20888
                      -6.14304                      -0.17755                      90.96392
                      -6.35152                      -0.11040                      90.65830
                      -6.47565                      -0.03618                      90.31122
                      -6.50763                       0.04044                      89.94450
                      -6.44545                       0.11466                      89.58118
                      -6.29301                       0.18181                      89.24409
                      -6.05991                       0.23767                      88.95441
                      -5.76078                       0.27872                      88.73033
                      -5.41441                       0.30240                      88.58594
                      -5.04258                       0.30721                      88.53032
                      -4.66865                       0.29285                      88.56695
                      -4.31610                       0.26023                      88.69353
                      -4.00710                       0.21138                      88.90212
                      -3.76106                       0.14939                      89.17960
                      -3.59343                       0.07815                      89.50854
                      -3.52217                      -0.12025                      89.84335
                      -3.53734                      -0.19601                      90.20999
                      -3.64512                      -0.26700                      90.56175
                      -3.83875                      -0.32878                      90.87653
                      -4.10605                      -0.37745                      91.13455
                      -4.43023                      -0.40996                      91.31960
                      -4.79092                      -0.42427                      91.42005
                      -5.16546                      -0.41947                      91.42959
                      -5.53031                      -0.39588                      91.34762
                      -5.86256                      -0.35496                      91.17929
                      -6.14131                      -0.29930                      90.93518
                      -6.34906                      -0.23238                      90.63062
                      -6.47276                      -0.15842                      90.28476
                      -6.50463                      -0.08207                      89.91932
                      -6.44266                      -0.00811                      89.55726
                      -6.29076                       0.05881                      89.22134
                      -6.05847                       0.11447                      88.93266
                      -5.76038                       0.15539                      88.70936
                      -5.41522                       0.17898                      88.56548
                      -5.04468                       0.18377                      88.51005
                      -4.67204                       0.16947                      88.54655
                      -4.32073                       0.13695                      88.67269
                      -4.01280                       0.08828                      88.88055
                      -3.76761                       0.02650                      89.15707
                      -3.60057                      -0.04449                      89.48487
                      -3.54009                      -0.24263                      89.81934
                      -3.55510                      -0.31758                      90.18211
                      -3.66174                      -0.38783                      90.53017
                      -3.85332                      -0.44896                      90.84163
                      -4.11781                      -0.49712                      91.09693
                      -4.43857                      -0.52928                      91.28003
                      -4.79546                      -0.54344                      91.37942
                      -5.16605                      -0.53870                      91.38886
                      -5.52705                      -0.51535                      91.30775
                      -5.85579                      -0.47486                      91.14120
                      -6.13161                      -0.41979                      90.89966
                      -6.33717                      -0.35358                      90.59831
                      -6.45956                      -0.28040                      90.25609
                      -6.49109                      -0.20484                      89.89451
                      -6.42978                      -0.13166                      89.53627
                      -6.27948                      -0.06546                      89.20389
                      -6.04964                      -0.01038                      88.91826
                      -5.75469                       0.03010                      88.69731
                      -5.41317                       0.05345                      88.55495
                      -5.04654                       0.05819                      88.50010
                      -4.67783                       0.04403                      88.53622
                      -4.33022                       0.01186                      88.66103
                      -4.02554                      -0.03630                      88.86670
                      -3.78294                      -0.09742                      89.14030
                      -3.61766                      -0.16767                      89.46464
                      -3.56885                      -0.36500                      89.79628
                      -3.58359                      -0.43861                      90.15251
                      -3.68831                      -0.50759                      90.49430
                      -3.87644                      -0.56762                      90.80014
                      -4.13616                      -0.61491                      91.05085
                      -4.45114                      -0.64650                      91.23065
                      -4.80160                      -0.66040                      91.32825
                      -5.16551                      -0.65574                      91.33751
                      -5.52001                      -0.63281                      91.25787
                      -5.84283                      -0.59306                      91.09432
                      -6.11367                      -0.53897                      90.85713
                      -6.31553                      -0.47396                      90.56121
                      -6.43572                      -0.40209                      90.22516
                      -6.46668                      -0.32790                      89.87009
                      -6.40647                      -0.25604                      89.51831
                      -6.25888                      -0.19103                      89.19192
                      -6.03318                      -0.13694                      88.91143
                      -5.74355                      -0.09719                      88.69447
                      -5.40818                      -0.07426                      88.55467
                      -5.04816                      -0.06961                      88.50081
                      -4.68610                      -0.08351                      88.53627
                      -4.34475                      -0.11510                      88.65884
                      -4.04556                      -0.16239                      88.86080
                      -3.80733                      -0.22241                      89.12947
                      -3.64503                      -0.29140                      89.44797
                      -3.60908                      -0.48738                      89.77421
                      -3.62343                      -0.55905                      90.12109
                      -3.72540                      -0.62622                      90.45389
                      -3.90859                      -0.68467                      90.75171
                      -4.16148                      -0.73072                      90.99582
                      -4.46819                      -0.76148                      91.17090
                      -4.80944                      -0.77501                      91.26594
                      -5.16379                      -0.77048                      91.27496
                      -5.50898                      -0.74815                      91.19741
                      -5.82331                      -0.70944                      91.03815
                      -6.08704                      -0.65678                      90.80720
                      -6.28360                      -0.59347                      90.51906
                      -6.40063                      -0.52350                      90.19183
                      -6.43078                      -0.45125                      89.84609
                      -6.37215                      -0.38128                      89.50355
                      -6.22844                      -0.31797                      89.18573
                      -6.00866                      -0.26531                      88.91261
                      -5.72664                      -0.22660                      88.70135
                      -5.40009                      -0.20428                      88.56522
                      -5.04952                      -0.19974                      88.51278
                      -4.69697                      -0.21328                      88.54731
                      -4.36459                      -0.24404                      88.66666
                      -4.07326                      -0.29009                      88.86332
                      -3.84129                      -0.34854                      89.12493
                      -3.68325                      -0.41571                      89.43506
                      -3.66172                      -0.60976                      89.75324
                      -3.67556                      -0.67886                      90.08770
                      -3.77388                      -0.74363                      90.40858
                      -3.95051                      -0.79998                      90.69574
                      -4.19435                      -0.84438                      90.93111
                      -4.49008                      -0.87404                      91.09992
                      -4.81912                      -0.88709                      91.19156
                      -5.16078                      -0.88272                      91.20026
                      -5.49361                      -0.86119                      91.12548
                      -5.79670                      -0.82387                      90.97193
                      -6.05099                      -0.77309                      90.74924
                      -6.24050                      -0.71205                      90.47141
                      -6.35334                      -0.64458                      90.15590
                      -6.38241                      -0.57492                      89.82253
                      -6.32589                      -0.50746                      89.49226
                      -6.18732                      -0.44641                      89.18582
                      -5.97541                      -0.39564                      88.92248
                      -5.70348                      -0.35831                      88.71878
                      -5.38862                      -0.33679                      88.58752
                      -5.05060                      -0.33242                      88.53695
                      -4.71067                      -0.34547                      88.57025
                      -4.39019                      -0.37513                      88.68533
                      -4.10929                      -0.41953                      88.87494
                      -3.88562                      -0.47588                      89.12719
                      -3.73324                      -0.54065                      89.42622
                      -3.72824                      -0.73213                      89.73347
                      -3.74142                      -0.79797                      90.05209
                      -3.83509                      -0.85967                      90.35779
                      -4.00336                      -0.91336                      90.63135
                      -4.23566                      -0.95565                      90.85558
                      -4.51739                      -0.98391                      91.01640
                      -4.83085                      -0.99634                      91.10370
                      -5.15634                      -0.99217                      91.11199
                      -5.47341                      -0.97167                      91.04075
                      -5.76215                      -0.93611                      90.89447
                      -6.00440                      -0.88774                      90.68232
                      -6.18495                      -0.82958                      90.41764
                      -6.29244                      -0.76531                      90.11707
                      -6.32014                      -0.69895                      89.79948
                      -6.26629                      -0.63467                      89.48484
                      -6.13428                      -0.57652                      89.19291
                      -5.93240                      -0.52815                      88.94203
                      -5.67335                      -0.49259                      88.74798
                      -5.37339                      -0.47209                      88.62293
                      -5.05137                      -0.46792                      88.57476
                      -4.72754                      -0.48036                      88.60648
                      -4.42222                      -0.50861                      88.71611
                      -4.15462                      -0.55091                      88.89675
                      -3.94154                      -0.60460                      89.13706
                      -3.79638                      -0.66630                      89.42193
                      -3.81084                      -0.85451                      89.71510
                      -3.82320                      -0.91626                      90.01393
                      -3.91105                      -0.97412                      90.30064
                      -4.06887                      -1.02448                      90.55721
                      -4.28674                      -1.06415                      90.76752
                      -4.55097                      -1.09065                      90.91835
                      -4.84496                      -1.10231                      91.00022
                      -5.15023                      -1.09840                      91.00800
                      -5.44761                      -1.07917                      90.94118
                      -5.71841                      -1.04582                      90.80398
                      -5.94562                      -1.00045                      90.60501
                      -6.11495                      -0.94591                      90.35678
                      -6.21577                      -0.88563                      90.07488
                      -6.24174                      -0.82339                      89.77702
                      -6.19124                      -0.76311                      89.48192
                      -6.06743                      -0.70857                      89.20812
                      -5.87809                      -0.66320                      88.97282
                      -5.63513                      -0.62985                      88.79082
                      -5.35380                      -0.61062                      88.67355
                      -5.05179                      -0.60671                      88.62837
                      -4.74806                      -0.61837                      88.65812
                      -4.46172                      -0.64487                      88.76093
                      -4.21073                      -0.68454                      88.93036
                      -4.01089                      -0.73490                      89.15573
                      -3.87474                      -0.79276                      89.42291
                      -3.91299                      -0.97689                      89.69843
                      -3.92433                      -1.03355                      89.97267
                      -4.00495                      -1.08665                      90.23577
                      -4.14977                      -1.13286                      90.47121
                      -4.34970                      -1.16926                      90.66420
                      -4.59218                      -1.19358                      90.80261
                      -4.86196                      -1.20428                      90.87774
                      -5.14210                      -1.20069                      90.88488
                      -5.41499                      -1.18304                      90.82357
                      -5.66350                      -1.15244                      90.69767
                      -5.87199                      -1.11081                      90.51508
                      -6.02738                      -1.06076                      90.28728
                      -6.11990                      -1.00544                      90.02859
                      -6.14374                      -0.94833                      89.75525
                      -6.09739                      -0.89301                      89.48445
                      -5.98378                      -0.84296                      89.23320
                      -5.81003                      -0.80133                      89.01728
                      -5.58707                      -0.77072                      88.85026
                      -5.32891                      -0.75307                      88.74264
                      -5.05176                      -0.74949                      88.70118
                      -4.77304                      -0.76019                      88.72848
                      -4.51027                      -0.78451                      88.82283
                      -4.27996                      -0.82092                      88.97831
                      -4.09657                      -0.86712                      89.18513
                      -3.97163                      -0.92022                      89.43031
                      -4.04060                      -1.09926                      89.68399
                      -4.05067                      -1.14955                      89.92735
                      -4.12221                      -1.19667                      90.16083
                      -4.25073                      -1.23767                      90.36976
                      -4.42815                      -1.26998                      90.54103
                      -4.64332                      -1.29156                      90.66385
                      -4.88273                      -1.30106                      90.73053
                      -5.13133                      -1.29787                      90.73686
                      -5.37350                      -1.28221                      90.68245
                      -5.59402                      -1.25505                      90.57072
                      -5.77905                      -1.21811                      90.40869
                      -5.91694                      -1.17369                      90.20654
                      -5.99904                      -1.12460                      89.97698
                      -6.02020                      -1.07392                      89.73441
                      -5.97907                      -1.02483                      89.49410
                      -5.87824                      -0.98041                      89.27114
                      -5.72406                      -0.94347                      89.07953
                      -5.52620                      -0.91631                      88.93131
                      -5.29711                      -0.90065                      88.83581
                      -5.05116                      -0.89747                      88.79902
                      -4.80383                      -0.90697                      88.82325
                      -4.57064                      -0.92855                      88.90697
                      -4.36626                      -0.96085                      89.04494
                      -4.20351                      -1.00186                      89.22848
                      -4.09264                      -1.04898                      89.44605
                      -4.20520                      -1.22164                      89.67277
                      -4.21361                      -1.26366                      89.87615
                      -4.27340                      -1.30304                      90.07127
                      -4.38080                      -1.33731                      90.24588
                      -4.52908                      -1.36431                      90.38901
                      -4.70890                      -1.38234                      90.49165
                      -4.90898                      -1.39028                      90.54737
                      -5.11673                      -1.38762                      90.55267
                      -5.31912                      -1.37453                      90.50720
                      -5.50341                      -1.35184                      90.41382
                      -5.65804                      -1.32096                      90.27841
                      -5.77328                      -1.28384                      90.10948
                      -5.84189                      -1.24282                      89.91762
                      -5.85957                      -1.20046                      89.71491
                      -5.82520                      -1.15943                      89.51408
                      -5.74094                      -1.12232                      89.32775
                      -5.61208                      -1.09144                      89.16762
                      -5.44673                      -1.06875                      89.04375
                      -5.25527                      -1.05566                      88.96394
                      -5.04974                      -1.05300                      88.93319
                      -4.84303                      -1.06093                      88.95344
                      -4.64816                      -1.07897                      89.02341
                      -4.47735                      -1.10597                      89.13871
                      -4.34135                      -1.14024                      89.29210
                      -4.24869                      -1.17962                      89.47393
                      -4.43622                      -1.34402                      89.66735
                      -4.44231                      -1.37440                      89.81439
                      -4.48553                      -1.40287                      89.95546
                      -4.56318                      -1.42765                      90.08171
                      -4.67038                      -1.44717                      90.18518
                      -4.80040                      -1.46021                      90.25940
                      -4.94505                      -1.46594                      90.29968
                      -5.09526                      -1.46402                      90.30351
                      -5.24158                      -1.45456                      90.27064
                      -5.37483                      -1.43815                      90.20313
                      -5.48662                      -1.41582                      90.10523
                      -5.56994                      -1.38899                      89.98308
                      -5.61955                      -1.35933                      89.84438
                      -5.63233                      -1.32870                      89.69782
                      -5.60748                      -1.29904                      89.55261
                      -5.54656                      -1.27221                      89.41789
                      -5.45340                      -1.24988                      89.30212
                      -5.33385                      -1.23347                      89.21257
                      -5.19542                      -1.22401                      89.15486
                      -5.04682                      -1.22209                      89.13263
                      -4.89738                      -1.22783                      89.14727
                      -4.75648                      -1.24087                      89.19786
                      -4.63299                      -1.26039                      89.28122
                      -4.53466                      -1.28516                      89.39212
                      -4.46766                      -1.31363                      89.52358
                      -5.03565                      -1.46639                      89.69405
                      -5.03565                      -1.46639                      89.69405
                      -5.03565                      -1.46639                      89.69405
                      -5.03565                      -1.46639                      89.69405
                      -5.03565                      -1.46639                      89.69405
                      -5.03565                      -1.46639                      89.69405
                      -5.03565                      -1.46639                      89.69405
                      -5.03565                      -1.46639                      89.69405
                      -5.03565                      -1.46639                      89.69405
                      -5.03565                      -1.46639                      89.69405
                      -5.03565                      -1.46639                      89.69405
                      -5.03565                      -1.46639                      89.69405
                      -5.03565                      -1.46639                      89.69405
                      -5.03565                      -1.46639                      89.69405
                      -5.03565                      -1.46639                      89.69405
                      -5.03565                      -1.46639                      89.69405
                      -5.03565                      -1.46639                      89.69405
                      -5.03565                      -1.46639                      89.69405
                      -5.03565                      -1.46639                      89.69405
                      -5.03565                      -1.46639                      89.69405
                      -5.03565                      -1.46639                      89.69405
                      -5.03565                      -1.46639                      89.69405
                      -5.03565                      -1.46639                      89.69405
                      -5.03565                      -1.46639                      89.69405
                      -5.03565                      -1.46639                      89.69405
        </DataArray>
      </Points>
      <Polys>
        <DataArray type="Int32" Name="connectivity" format="ascii">
      0      1     26     25
      1      2     27     26
      2      3     28     27
      3      4     29     28
      4      5     30     29
      5      6     31     30
      6      7     32     31
      7      8     33     32
      8      9     34     33
      9     10     35     34
     10     11     36     35
     11     12     37     36
     12     13     38     37
     13     14     39     38
     14     15     40     39
     15     16     41     40
     16     17     42     41
     17     18     43     42
     18     19     44     43
     19     20     45     44
     20     21     46     45
     21     22     47     46
     22     23     48     47
     23     24     49     48
     24      0     25     49
     25     26     51     50
     26     27     52     51
     27     28     53     52
     28     29     54     53
     29     30     55     54
     30     31     56     55
     31     32     57     56
     32     33     58     57
     33     34     59     58
     34     35     60     59
     35     36     61     60
     36     37     62     61
     37     38     63     62
     38     39     64     63
     39     40     65     64
     40     41     66     65
     41     42     67     66
     42     43     68     67
     43     44     69     68
     44     45     70     69
     45     46     71     70
     46     47     72     71
     47     48     73     72
     48     49     74     73
     49     25     50     74
     50     51     76     75
     51     52     77     76
     52     53     78     77
     53     54     79     78
     54     55     80     79
     55     56     81     80
     56     57     82     81
     57     58     83     82
     58     59     84     83
     59     60     85     84
     60     61     86     85
     61     62     87     86
     62     63     88     87
     63     64     89     88
     64     65     90     89
     65     66     91     90
     66     67     92     91
     67     68     93     92
     68     69     94     93
     69     70     95     94
     70     71     96     95
     71     72     97     96
     72     73     98     97
     73     74     99     98
     74     50     75     99
     75     76    101    100
     76     77    102    101
     77     78    103    102
     78     79    104    103
     79     80    105    104
     80     81    106    105
     81     82    107    106
     82     83    108    107
     83     84    109    108
     84     85    110    109
     85     86    111    110
     86     87    112    111
     87     88    113    112
     88     89    114    113
     89     90    115    114
     90     91    116    115
     91     92    117    116
     92     93    118    117
     93     94    119    118
     94     95    120    119
     95     96    121    120
     96     97    122    121
     97     98    123    122
     98     99    124    123
     99     75    100    124
    100    101    126    125
    101    102    127    126
    102    103    128    127
    103    104    129    128
    104    105    130    129
    105    106    131    130
    106    107    132    131
    107    108    133    132
    108    109    134    133
    109    110    135    134
    110    111    136    135
    111    112    137    136
    112    113    138    137
    113    114    139    138
    114    115    140    139
    115    116    141    140
    116    117    142    141
    117    118    143    142
    118    119    144    143
    119    120    145    144
    120    121    146    145
    121    122    147    146
    122    123    148    147
    123    124    149    148
    124    100    125    149
    125    126    151    150
    126    127    152    151
    127    128    153    152
    128    129    154    153
    129    130    155    154
    130    131    156    155
    131    132    157    156
    132    133    158    157
    133    134    159    158
    134    135    160    159
    135    136    161    160
    136    137    162    161
    137    138    163    162
    138    139    164    163
    139    140    165    164
    140    141    166    165
    141    142    167    166
    142    143    168    167
    143    144    169    168
    144    145    170    169
    145    146    171    170
    146    147    172    171
    147    148    173    172
    148    149    174    173
    149    125    150    174
    150    151    176    175
    151    152    177    176
    152    153    178    177
    153    154    179    178
    154    155    180    179
    155    156    181    180
    156    157    182    181
    157    158    183    182
    158    159    184    183
    159    160    185    184
    160    161    186    185
    161    162    187    186
    162    163    188    187
    163    164    189    188
    164    165    190    189
    165    166    191    190
    166    167    192    191
    167    168    193    192
    168    169    194    193
    169    170    195    194
    170    171    196    195
    171    172    197    196
    172    173    198    197
    173    174    199    198
    174    150    175    199
    175    176    201    200
    176    177    202    201
    177    178    203    202
    178    179    204    203
    179    180    205    204
    180    181    206    205
    181    182    207    206
    182    183    208    207
    183    184    209    208
    184    185    210    209
    185    186    211    210
    186    187    212    211
    187    188    213    212
    188    189    214    213
    189    190    215    214
    190    191    216    215
    191    192    217    216
    192    193    218    217
    193    194    219    218
    194    195    220    219
    195    196    221    220
    196    197    222    221
    197    198    223    222
    198    199    224    223
    199    175    200    224
    200    201    226    225
    201    202    227    226
    202    203    228    227
    203    204    229    228
    204    205    230    229
    205    206    231    230
    206    207    232    231
    207    208    233    232
    208    209    234    233
    209    210    235    234
    210    211    236    235
    211    212    237    236
    212    213    238    237
    213    214    239    238
    214    215    240    239
    215    216    241    240
    216    217    242    241
    217    218    243    242
    218    219    244    243
    219    220    245    244
    220    221    246    245
    221    222    247    246
    222    223    248    247
    223    224    249    248
    224    200    225    249
    225    226    251    250
    226    227    252    251
    227    228    253    252
    228    229    254    253
    229    230    255    254
    230    231    256    255
    231    232    257    256
    232    233    258    257
    233    234    259    258
    234    235    260    259
    235    236    261    260
    236    237    262    261
    237    238    263    262
    238    239    264    263
    239    240    265    264
    240    241    266    265
    241    242    267    266
    242    243    268    267
    243    244    269    268
    244    245    270    269
    245    246    271    270
    246    247    272    271
    247    248    273    272
    248    249    274    273
    249    225    250    274
    250    251    276    275
    251    252    277    276
    252    253    278    277
    253    254    279    278
    254    255    280    279
    255    256    281    280
    256    257    282    281
    257    258    283    282
    258    259    284    283
    259    260    285    284
    260    261    286    285
    261    262    287    286
    262    263    288    287
    263    264    289    288
    264    265    290    289
    265    266    291    290
    266    267    292    291
    267    268    293    292
    268    269    294    293
    269    270    295    294
    270    271    296    295
    271    272    297    296
    272    273    298    297
    273    274    299    298
    274    250    275    299
    275    276    301    300
    276    277    302    301
    277    278    303    302
    278    279    304    303
    279    280    305    304
    280    281    306    305
    281    282    307    306
    282    283    308    307
    283    284    309    308
    284    285    310    309
    285    286    311    310
    286    287    312    311
    287    288    313    312
    288    289    314    313
    289    290    315    314
    290    291    316    315
    291    292    317    316
    292    293    318    317
    293    294    319    318
    294    295    320    319
    295    296    321    320
    296    297    322    321
    297    298    323    322
    298    299    324    323
    299    275    300    324
    300    301    326    325
    301    302    327    326
    302    303    328    327
    303    304    329    328
    304    305    330    329
    305    306    331    330
    306    307    332    331
    307    308    333    332
    308    309    334    333
    309    310    335    334
    310    311    336    335
    311    312    337    336
    312    313    338    337
    313    314    339    338
    314    315    340    339
    315    316    341    340
    316    317    342    341
    317    318    343    342
    318    319    344    343
    319    320    345    344
    320    321    346    345
    321    322    347    346
    322    323    348    347
    323    324    349    348
    324    300    325    349
    325    326    351    350
    326    327    352    351
    327    328    353    352
    328    329    354    353
    329    330    355    354
    330    331    356    355
    331    332    357    356
    332    333    358    357
    333    334    359    358
    334    335    360    359
    335    336    361    360
    336    337    362    361
    337    338    363    362
    338    339    364    363
    339    340    365    364
    340    341    366    365
    341    342    367    366
    342    343    368    367
    343    344    369    368
    344    345    370    369
    345    346    371    370
    346    347    372    371
    347    348    373    372
    348    349    374    373
    349    325    350    374
    350    351    376    375
    351    352    377    376
    352    353    378    377
    353    354    379    378
    354    355    380    379
    355    356    381    380
    356    357    382    381
    357    358    383    382
    358    359    384    383
    359    360    385    384
    360    361    386    385
    361    362    387    386
    362    363    388    387
    363    364    389    388
    364    365    390    389
    365    366    391    390
    366    367    392    391
    367    368    393    392
    368    369    394    393
    369    370    395    394
    370    371    396    395
    371    372    397    396
    372    373    398    397
    373    374    399    398
    374    350    375    399
    375    376    401    400
    376    377    402    401
    377    378    403    402
    378    379    404    403
    379    380    405    404
    380    381    406    405
    381    382    407    406
    382    383    408    407
    383    384    409    408
    384    385    410    409
    385    386    411    410
    386    387    412    411
    387    388    413    412
    388    389    414    413
    389    390    415    414
    390    391    416    415
    391    392    417    416
    392    393    418    417
    393    394    419    418
    394    395    420    419
    395    396    421    420
    396    397    422    421
    397    398    423    422
    398    399    424    423
    399    375    400    424
    400    401    426    425
    401    402    427    426
    402    403    428    427
    403    404    429    428
    404    405    430    429
    405    406    431    430
    406    407    432    431
    407    408    433    432
    408    409    434    433
    409    410    435    434
    410    411    436    435
    411    412    437    436
    412    413    438    437
    413    414    439    438
    414    415    440    439
    415    416    441    440
    416    417    442    441
    417    418    443    442
    418    419    444    443
    419    420    445    444
    420    421    446    445
    421    422    447    446
    422    423    448    447
    423    424    449    448
    424    400    425    449
    425    426    451    450
    426    427    452    451
    427    428    453    452
    428    429    454    453
    429    430    455    454
    430    431    456    455
    431    432    457    456
    432    433    458    457
    433    434    459    458
    434    435    460    459
    435    436    461    460
    436    437    462    461
    437    438    463    462
    438    439    464    463
    439    440    465    464
    440    441    466    465
    441    442    467    466
    442    443    468    467
    443    444    469    468
    444    445    470    469
    445    446    471    470
    446    447    472    471
    447    448    473    472
    448    449    474    473
    449    425    450    474
    450    451    476    475
    451    452    477    476
    452    453    478    477
    453    454    479    478
    454    455    480    479
    455    456    481    480
    456    457    482    481
    457    458    483    482
    458    459    484    483
    459    460    485    484
    460    461    486    485
    461    462    487    486
    462    463    488    487
    463    464    489    488
    464    465    490    489
    465    466    491    490
    466    467    492    491
    467    468    493    492
    468    469    494    493
    469    470    495    494
    470    471    496    495
    471    472    497    496
    472    473    498    497
    473    474    499    498
    474    450    475    499
    475    476    501    500
    476    477    502    501
    477    478    503    502
    478    479    504    503
    479    480    505    504
    480    481    506    505
    481    482    507    506
    482    483    508    507
    483    484    509    508
    484    485    510    509
    485    486    511    510
    486    487    512    511
    487    488    513    512
    488    489    514    513
    489    490    515    514
    490    491    516    515
    491    492    517    516
    492    493    518    517
    493    494    519    518
    494    495    520    519
    495    496    521    520
    496    497    522    521
    497    498    523    522
    498    499    524    523
    499    475    500    524
    500    501    526    525
    501    502    527    526
    502    503    528    527
    503    504    529    528
    504    505    530    529
    505    506    531    530
    506    507    532    531
    507    508    533    532
    508    509    534    533
    509    510    535    534
    510    511    536    535
    511    512    537    536
    512    513    538    537
    513    514    539    538
    514    515    540    539
    515    516    541    540
    516    517    542    541
    517    518    543    542
    518    519    544    543
    519    520    545    544
    520    521    546    545
    521    522    547    546
    522    523    548    547
    523    524    549    548
    524    500    525    549
    525    526    551    550
    526    527    552    551
    527    528    553    552
    528    529    554    553
    529    530    555    554
    530    531    556    555
    531    532    557    556
    532    533    558    557
    533    534    559    558
    534    535    560    559
    535    536    561    560
    536    537    562    561
    537    538    563    562
    538    539    564    563
    539    540    565    564
    540    541    566    565
    541    542    567    566
    542    543    568    567
    543    544    569    568
    544    545    570    569
    545    546    571    570
    546    547    572    571
    547    548    573    572
    548    549    574    573
    549    525    550    574
    550    551    576    575
    551    552    577    576
    552    553    578    577
    553    554    579    578
    554    555    580    579
    555    556    581    580
    556    557    582    581
    557    558    583    582
    558    559    584    583
    559    560    585    584
    560    561    586    585
    561    562    587    586
    562    563    588    587
    563    564    589    588
    564    565    590    589
    565    566    591    590
    566    567    592    591
    567    568    593    592
    568    569    594    593
    569    570    595    594
    570    571    596    595
    571    572    597    596
    572    573    598    597
    573    574    599    598
    574    550    575    599
    575    576    601    600
    576    577    602    601
    577    578    603    602
    578    579    604    603
    579    580    605    604
    580    581    606    605
    581    582    607    606
    582    583    608    607
    583    584    609    608
    584    585    610    609
    585    586    611    610
    586    587    612    611
    587    588    613    612
    588    589    614    613
    589    590    615    614
    590    591    616    615
    591    592    617    616
    592    593    618    617
    593    594    619    618
    594    595    620    619
    595    596    621    620
    596    597    622    621
    597    598    623    622
    598    599    624    623
    599    575    600    624
        </DataArray>
        <DataArray type="Int32" Name="offsets" format="ascii">
      4
      8
     12
     16
     20
     24
     28
     32
     36
     40
     44
     48
     52
     56
     60
     64
     68
     72
     76
     80
     84
     88
     92
     96
    100
    104
    108
    112
    116
    120
    124
    128
    132
    136
    140
    144
    148
    152
    156
    160
    164
    168
    172
    176
    180
    184
    188
    192
    196
    200
    204
    208
    212
    216
    220
    224
    228
    232
    236
    240
    244
    248
    252
    256
    260
    264
    268
    272
    276
    280
    284
    288
    292
    296
    300
    304
    308
    312
    316
    320
    324
    328
    332
    336
    340
    344
    348
    352
    356
    360
    364
    368
    372
    376
    380
    384
    388
    392
    396
    400
    404
    408
    412
    416
    420
    424
    428
    432
    436
    440
    444
    448
    452
    456
    460
    464
    468
    472
    476
    480
    484
    488
    492
    496
    500
    504
    508
    512
    516
    520
    524
    528
    532
    536
    540
    544
    548
    552
    556
    560
    564
    568
    572
    576
    580
    584
    588
    592
    596
    600
    604
    608
    612
    616
    620
    624
    628
    632
    636
    640
    644
    648
    652
    656
    660
    664
    668
    672
    676
    680
    684
    688
    692
    696
    700
    704
    708
    712
    716
    720
    724
    728
    732
    736
    740
    744
    748
    752
    756
    760
    764
    768
    772
    776
    780
    784
    788
    792
    796
    800
    804
    808
    812
    816
    820
    824
    828
    832
    836
    840
    844
    848
    852
    856
    860
    864
    868
    872
    876
    880
    884
    888
    892
    896
    900
    904
    908
    912
    916
    920
    924
    928
    932
    936
    940
    944
    948
    952
    956
    960
    964
    968
    972
    976
    980
    984
    988
    992
    996
   1000
   1004
   1008
   1012
   1016
   1020
   1024
   1028
   1032
   1036
   1040
   1044
   1048
   1052
   1056
   1060
   1064
   1068
   1072
   1076
   1080
   1084
   1088
   1092
   1096
   1100
   1104
   1108
   1112
   1116
   1120
   1124
   1128
   1132
   1136
   1140
   1144
   1148
   1152
   1156
   1160
   1164
   1168
   1172
   1176
   1180
   1184
   1188
   1192
   1196
   1200
   1204
   1208
   1212
   1216
   1220
   1224
   1228
   1232
   1236
   1240
   1244
   1248
   1252
   1256
   1260
   1264
   1268
   1272
   1276
   1280
   1284
   1288
   1292
   1296
   1300
   1304
   1308
   1312
   1316
   1320
   1324
   1328
   1332
   1336
   1340
   1344
   1348
   1352
   1356
   1360
   1364
   1368
   1372
   1376
   1380
   1384
   1388
   1392
   1396
   1400
   1404
   1408
   1412
   1416
   1420
   1424
   1428
   1432
   1436
   1440
   1444
   1448
   1452
   1456
   1460
   1464
   1468
   1472
   1476
   1480
   1484
   1488
   1492
   1496
   1500
   1504
   1508
   1512
   1516
   1520
   1524
   1528
   1532
   1536
   1540
   1544
   1548
   1552
   1556
   1560
   1564
   1568
   1572
   1576
   1580
   1584
   1588
   1592
   1596
   1600
   1604
   1608
   1612
   1616
   1620
   1624
   1628
   1632
   1636
   1640
   1644
   1648
   1652
   1656
   1660
   1664
   1668
   1672
   1676
   1680
   1684
   1688
   1692
   1696
   1700
   1704
   1708
   1712
   1716
   1720
   1724
   1728
   1732
   1736
   1740
   1744
   1748
   1752
   1756
   1760
   1764
   1768
   1772
   1776
   1780
   1784
   1788
   1792
   1796
   1800
   1804
   1808
   1812
   1816
   1820
   1824
   1828
   1832
   1836
   1840
   1844
   1848
   1852
   1856
   1860
   1864
   1868
   1872
   1876
   1880
   1884
   1888
   1892
   1896
   1900
   1904
   1908
   1912
   1916
   1920
   1924
   1928
   1932
   1936
   1940
   1944
   1948
   1952
   1956
   1960
   1964
   1968
   1972
   1976
   1980
   1984
   1988
   1992
   1996
   2000
   2004
   2008
   2012
   2016
   2020
   2024
   2028
   2032
   2036
   2040
   2044
   2048
   2052
   2056
   2060
   2064
   2068
   2072
   2076
   2080
   2084
   2088
   2092
   2096
   2100
   2104
   2108
   2112
   2116
   2120
   2124
   2128
   2132
   2136
   2140
   2144
   2148
   2152
   2156
   2160
   2164
   2168
   2172
   2176
   2180
   2184
   2188
   2192
   2196
   2200
   2204
   2208
   2212
   2216
   2220
   2224
   2228
   2232
   2236
   2240
   2244
   2248
   2252
   2256
   2260
   2264
   2268
   2272
   2276
   2280
   2284
   2288
   2292
   2296
   2300
   2304
   2308
   2312
   2316
   2320
   2324
   2328
   2332
   2336
   2340
   2344
   2348
   2352
   2356
   2360
   2364
   2368
   2372
   2376
   2380
   2384
   2388
   2392
   2396
   2400
        </DataArray>
      </Polys>
    </Piece>
  </PolyData>
</VTKFile>
