<?xml version="1.0"?>
<VTKFile type="PolyData" version="0.1" byte_order="LittleEndian">
  <PolyData>
    <Piece NumberOfPoints="    550" NumberOfVerts="  0" NumberOfLines="     21"
           NumberOfStrips="  0" NumberOfPolys="    567">
      <Points>
        <DataArray type="Float32" NumberOfComponents="3" format="ascii">
                       2.97344                      -0.00001                       2.18982
                       2.88003                       0.73944                       2.18983
                       2.60565                       1.43242                       2.18986
                       2.16756                       2.03540                       2.18989
                       1.59328                       2.51049                       2.18993
                       0.91889                       2.82784                       2.18997
                       0.18676                       2.96750                       2.19002
                      -0.55709                       2.92070                       2.19006
                      -1.26594                       2.69038                       2.19010
                      -1.89524                       2.29101                       2.19014
                      -2.40545                       1.74769                       2.19016
                      -2.76451                       1.09456                       2.19018
                      -2.94986                       0.37265                       2.19018
                      -2.94986                      -0.37267                       2.19018
                      -2.76451                      -1.09458                       2.19016
                      -2.40545                      -1.74772                       2.19013
                      -1.89524                      -2.29104                       2.19009
                      -1.26594                      -2.69040                       2.19005
                      -0.55709                      -2.92072                       2.19001
                       0.18676                      -2.96752                       2.18996
                       0.91889                      -2.82786                       2.18992
                       1.59328                      -2.51051                       2.18988
                       2.16756                      -2.03543                       2.18985
                       2.60565                      -1.43245                       2.18983
                       2.88003                      -0.73946                       2.18982
                       2.92077                      -0.00009                       6.56939
                       2.82903                       0.72611                       6.56943
                       2.55957                       1.40669                       6.56950
                       2.12932                       1.99887                       6.56961
                       1.56533                       2.46545                       6.56974
                       0.90301                       2.77711                       6.56989
                       0.18400                       2.91427                       6.57004
                      -0.54653                       2.86831                       6.57019
                      -1.24268                       2.64212                       6.57033
                      -1.86071                       2.24990                       6.57045
                      -2.36179                       1.71631                       6.57054
                      -2.71442                       1.07488                       6.57060
                      -2.89645                       0.36590                       6.57061
                      -2.89645                      -0.36608                       6.57059
                      -2.71442                      -1.07506                       6.57054
                      -2.36179                      -1.71650                       6.57045
                      -1.86071                      -2.25009                       6.57033
                      -1.24268                      -2.64230                       6.57019
                      -0.54653                      -2.86849                       6.57004
                       0.18400                      -2.91446                       6.56988
                       0.90301                      -2.77730                       6.56974
                       1.56533                      -2.46564                       6.56961
                       2.12932                      -1.99906                       6.56950
                       2.55957                      -1.40687                       6.56943
                       2.82903                      -0.72630                       6.56939
                       2.86879                      -0.00024                      10.94892
                       2.77873                       0.71272                      10.94899
                       2.51418                       1.38088                      10.94912
                       2.09178                       1.96227                      10.94930
                       1.53807                       2.42034                      10.94953
                       0.88783                       2.72632                      10.94978
                       0.18193                       2.86097                      10.95005
                      -0.53528                       2.81585                      10.95032
                      -1.21874                       2.59378                      10.95057
                      -1.82550                       2.20872                      10.95078
                      -2.31743                       1.68486                      10.95094
                      -2.66363                       1.05512                      10.95104
                      -2.84235                       0.35907                      10.95108
                      -2.84235                      -0.35956                      10.95105
                      -2.66363                      -1.05561                      10.95096
                      -2.31743                      -1.68535                      10.95080
                      -1.82549                      -2.20921                      10.95059
                      -1.21874                      -2.59427                      10.95035
                      -0.53528                      -2.81634                      10.95008
                       0.18193                      -2.86146                      10.94981
                       0.88783                      -2.72680                      10.94955
                       1.53807                      -2.42083                      10.94932
                       2.09178                      -1.96276                      10.94913
                       2.51418                      -1.38137                      10.94900
                       2.77873                      -0.71321                      10.94893
                       2.81756                      -0.00046                      15.32846
                       2.72917                       0.69926                      15.32855
                       2.46954                       1.35501                      15.32873
                       2.05498                       1.92560                      15.32898
                       1.51155                       2.37516                      15.32931
                       0.87340                       2.67546                      15.32967
                       0.18061                       2.80761                      15.33006
                      -0.52328                       2.76333                      15.33044
                      -1.19404                       2.54538                      15.33080
                      -1.78953                       2.16748                      15.33110
                      -2.27233                       1.65335                      15.33134
                      -2.61210                       1.03530                      15.33149
                      -2.78750                       0.35218                      15.33155
                      -2.78750                      -0.35310                      15.33151
                      -2.61210                      -1.03622                      15.33137
                      -2.27233                      -1.65427                      15.33115
                      -1.78953                      -2.16840                      15.33086
                      -1.19404                      -2.54630                      15.33051
                      -0.52328                      -2.76425                      15.33013
                       0.18061                      -2.80853                      15.32975
                       0.87340                      -2.67638                      15.32937
                       1.51155                      -2.37608                      15.32904
                       2.05498                      -1.92652                      15.32877
                       2.46954                      -1.35593                      15.32857
                       2.72917                      -0.70018                      15.32847
                       2.76708                      -0.00073                      19.70802
                       2.68036                       0.68574                      19.70813
                       2.42564                       1.32909                      19.70836
                       2.01893                       1.88887                      19.70869
                       1.48579                       2.32993                      19.70910
                       0.85971                       2.62454                      19.70957
                       0.18003                       2.75419                      19.71007
                      -0.51053                       2.71075                      19.71056
                      -1.16860                       2.49693                      19.71101
                      -1.75282                       2.12617                      19.71141
                      -2.22648                       1.62177                      19.71171
                      -2.55982                       1.01543                      19.71191
                      -2.73190                       0.34523                      19.71198
                      -2.73190                      -0.34670                      19.71194
                      -2.55982                      -1.01690                      19.71177
                      -2.22648                      -1.62324                      19.71148
                      -1.75282                      -2.12764                      19.71111
                      -1.16860                      -2.49840                      19.71067
                      -0.51053                      -2.71222                      19.71018
                       0.18003                      -2.75566                      19.70968
                       0.85971                      -2.62601                      19.70921
                       1.48579                      -2.33140                      19.70878
                       2.01893                      -1.89034                      19.70843
                       2.42564                      -1.33056                      19.70817
                       2.68036                      -0.68721                      19.70804
                       2.71732                      -0.00107                      24.08762
                       2.63227                       0.67217                      24.08775
                       2.38247                       1.30310                      24.08802
                       1.98361                       1.85209                      24.08842
                       1.46075                       2.28463                      24.08891
                       0.84675                       2.57356                      24.08948
                       0.18018                       2.70072                      24.09007
                      -0.49706                       2.65811                      24.09066
                      -1.14244                       2.44841                      24.09121
                      -1.71539                       2.08481                      24.09168
                      -2.17991                       1.59014                      24.09205
                      -2.50682                       0.99549                      24.09229
                      -2.67558                       0.33823                      24.09238
                      -2.67558                      -0.34036                      24.09232
                      -2.50682                      -0.99763                      24.09212
                      -2.17991                      -1.59228                      24.09179
                      -1.71539                      -2.08694                      24.09134
                      -1.14244                      -2.45055                      24.09081
                      -0.49706                      -2.66024                      24.09022
                       0.18018                      -2.70285                      24.08962
                       0.84675                      -2.57570                      24.08905
                       1.46075                      -2.28677                      24.08854
                       1.98361                      -1.85422                      24.08811
                       2.38247                      -1.30523                      24.08781
                       2.63227                      -0.67430                      24.08764
                       2.66825                      -0.00146                      28.46726
                       2.58488                       0.65853                      28.46741
                       2.33999                       1.27706                      28.46772
                       1.94897                       1.81524                      28.46818
                       1.43640                       2.23928                      28.46875
                       0.83447                       2.52253                      28.46939
                       0.18102                       2.64718                      28.47008
                      -0.48291                       2.60541                      28.47076
                      -1.11559                       2.39984                      28.47139
                      -1.67726                       2.04339                      28.47193
                      -2.13265                       1.55845                      28.47236
                      -2.45313                       0.97550                      28.47263
                      -2.61857                       0.33116                      28.47274
                      -2.61857                      -0.33408                      28.47267
                      -2.45313                      -0.97842                      28.47244
                      -2.13265                      -1.56137                      28.47206
                      -1.67726                      -2.04630                      28.47154
                      -1.11559                      -2.40276                      28.47093
                      -0.48291                      -2.60833                      28.47026
                       0.18102                      -2.65010                      28.46957
                       0.83447                      -2.52544                      28.46891
                       1.43639                      -2.24220                      28.46832
                       1.94897                      -1.81816                      28.46783
                       2.33999                      -1.27997                      28.46748
                       2.58488                      -0.66145                      28.46728
                       2.61983                      -0.00191                      32.84694
                       2.53813                       0.64484                      32.84711
                       2.29815                       1.25095                      32.84745
                       1.91498                       1.77834                      32.84796
                       1.41269                       2.19387                      32.84860
                       0.82284                       2.47143                      32.84932
                       0.18250                       2.59358                      32.85009
                      -0.46810                       2.55265                      32.85085
                      -1.08808                       2.35121                      32.85155
                      -1.63849                       2.00191                      32.85216
                      -2.08474                       1.52670                      32.85263
                      -2.39879                       0.95544                      32.85294
                      -2.56091                       0.32403                      32.85306
                      -2.56091                      -0.32785                      32.85299
                      -2.39879                      -0.95926                      32.85273
                      -2.08474                      -1.53052                      32.85229
                      -1.63849                      -2.00573                      32.85172
                      -1.08808                      -2.35503                      32.85103
                      -0.46810                      -2.55647                      32.85028
                       0.18250                      -2.59740                      32.84951
                       0.82284                      -2.47525                      32.84878
                       1.41269                      -2.19769                      32.84811
                       1.91498                      -1.78216                      32.84757
                       2.29815                      -1.25477                      32.84718
                       2.53813                      -0.64866                      32.84696
                       2.57203                      -0.00242                      37.22664
                       2.49200                       0.63108                      37.22682
                       2.25694                       1.22478                      37.22721
                       1.88161                       1.74137                      37.22777
                       1.38961                       2.14840                      37.22846
                       0.81184                       2.42027                      37.22926
                       0.18461                       2.53992                      37.23010
                      -0.45267                       2.49983                      37.23093
                      -1.05996                       2.30251                      37.23170
                      -1.59910                       1.96036                      37.23237
                      -2.03621                       1.49488                      37.23288
                      -2.34383                       0.93533                      37.23322
                      -2.50263                       0.31685                      37.23335
                      -2.50263                      -0.32169                      37.23327
                      -2.34383                      -0.94018                      37.23299
                      -2.03621                      -1.49973                      37.23251
                      -1.59910                      -1.96521                      37.23188
                      -1.05996                      -2.30736                      37.23113
                      -0.45267                      -2.50468                      37.23030
                       0.18461                      -2.54477                      37.22946
                       0.81184                      -2.42512                      37.22865
                       1.38961                      -2.15324                      37.22793
                       1.88161                      -1.74622                      37.22733
                       2.25694                      -1.22963                      37.22690
                       2.49200                      -0.63593                      37.22667
                       2.52484                      -0.00300                      41.60636
                       2.44649                       0.61726                      41.60656
                       2.21634                       1.19855                      41.60698
                       1.84886                       1.70434                      41.60758
                       1.36714                       2.10286                      41.60834
                       0.80145                       2.36905                      41.60920
                       0.18733                       2.48620                      41.61011
                      -0.43663                       2.44694                      41.61101
                      -1.03122                       2.25375                      41.61184
                      -1.55909                       1.91875                      41.61256
                      -1.98707                       1.46301                      41.61312
                      -2.28825                       0.91514                      41.61348
                      -2.44373                       0.30959                      41.61363
                      -2.44373                      -0.31560                      41.61354
                      -2.28825                      -0.92115                      41.61323
                      -1.98707                      -1.46901                      41.61271
                      -1.55909                      -1.92476                      41.61203
                      -1.03122                      -2.25976                      41.61121
                      -0.43663                      -2.45295                      41.61032
                       0.18733                      -2.49221                      41.60941
                       0.80145                      -2.37506                      41.60853
                       1.36714                      -2.10886                      41.60775
                       1.84886                      -1.71035                      41.60710
                       2.21634                      -1.20456                      41.60664
                       2.44649                      -0.62327                      41.60639
                       2.47827                      -0.00365                      45.98609
                       2.40158                       0.60337                      45.98630
                       2.17635                       1.17225                      45.98675
                       1.81672                       1.66724                      45.98740
                       1.34528                       2.05725                      45.98821
                       0.79167                       2.31776                      45.98914
                       0.19066                       2.43241                      45.99011
                      -0.41998                       2.39399                      45.99108
                      -1.00188                       2.20492                      45.99198
                      -1.51847                       1.87708                      45.99275
                      -1.93731                       1.43106                      45.99335
                      -2.23207                       0.89489                      45.99374
                      -2.38423                       0.30227                      45.99389
                      -2.38423                      -0.30957                      45.99379
                      -2.23207                      -0.90220                      45.99346
                      -1.93731                      -1.43836                      45.99291
                      -1.51847                      -1.88438                      45.99217
                      -1.00188                      -2.21222                      45.99129
                      -0.41998                      -2.40129                      45.99034
                       0.19066                      -2.43971                      45.98936
                       0.79167                      -2.32506                      45.98842
                       1.34528                      -2.06455                      45.98757
                       1.81672                      -1.67454                      45.98688
                       2.17635                      -1.17955                      45.98638
                       2.40158                      -0.61067                      45.98611
                       2.43232                      -0.00437                      50.36582
                       2.35731                       0.58941                      50.36605
                       2.13699                       1.14588                      50.36653
                       1.78520                       1.63008                      50.36722
                       1.32405                       2.01157                      50.36809
                       0.78252                       2.26640                      50.36908
                       0.19462                       2.37855                      50.37012
                      -0.40269                       2.34097                      50.37115
                      -0.97190                       2.15602                      50.37211
                      -1.47723                       1.83533                      50.37294
                      -1.88692                       1.39904                      50.37358
                      -2.17525                       0.87458                      50.37399
                      -2.32409                       0.29488                      50.37415
                      -2.32409                      -0.30362                      50.37405
                      -2.17525                      -0.88331                      50.37369
                      -1.88692                      -1.40778                      50.37310
                      -1.47723                      -1.84406                      50.37231
                      -0.97190                      -2.16475                      50.37137
                      -0.40269                      -2.34970                      50.37035
                       0.19462                      -2.38728                      50.36930
                       0.78252                      -2.27513                      50.36830
                       1.32405                      -2.02031                      50.36740
                       1.78520                      -1.63881                      50.36666
                       2.13699                      -1.15461                      50.36613
                       2.35731                      -0.59814                      50.36584
                       2.38703                      -0.00515                      54.74555
                       2.31369                       0.57539                      54.74579
                       2.09828                       1.11944                      54.74630
                       1.75434                       1.59284                      54.74704
                       1.30348                       1.96583                      54.74797
                       0.77402                       2.21497                      54.74901
                       0.19924                       2.32462                      54.75012
                      -0.38476                       2.28788                      54.75122
                      -0.94127                       2.10705                      54.75224
                      -1.43532                       1.79352                      54.75312
                      -1.83589                       1.36696                      54.75380
                      -2.11778                       0.85419                      54.75424
                      -2.26330                       0.28742                      54.75441
                      -2.26330                      -0.29773                      54.75430
                      -2.11778                      -0.86449                      54.75391
                      -1.83589                      -1.37726                      54.75329
                      -1.43532                      -1.80382                      54.75245
                      -0.94127                      -2.11736                      54.75145
                      -0.38476                      -2.29818                      54.75037
                       0.19924                      -2.33492                      54.74925
                       0.77402                      -2.22527                      54.74819
                       1.30348                      -1.97613                      54.74723
                       1.75434                      -1.60314                      54.74645
                       2.09828                      -1.12974                      54.74588
                       2.31369                      -0.58569                      54.74558
                       2.34241                      -0.00600                      59.12528
                       2.27075                       0.56129                      59.12554
                       2.06026                       1.09294                      59.12608
                       1.72416                       1.55554                      59.12686
                       1.28358                       1.92002                      59.12784
                       0.76620                       2.16348                      59.12895
                       0.20453                       2.27062                      59.13012
                      -0.36614                       2.23472                      59.13129
                      -0.90996                       2.05802                      59.13236
                      -1.39275                       1.75163                      59.13329
                      -1.78417                       1.33481                      59.13401
                      -2.05964                       0.83374                      59.13447
                      -2.20184                       0.27990                      59.13465
                      -2.20184                      -0.29190                      59.13454
                      -2.05964                      -0.84574                      59.13413
                      -1.78417                      -1.34681                      59.13347
                      -1.39275                      -1.76364                      59.13258
                      -0.90996                      -2.07003                      59.13153
                      -0.36615                      -2.24672                      59.13038
                       0.20453                      -2.28263                      59.12920
                       0.76620                      -2.17548                      59.12807
                       1.28358                      -1.93202                      59.12706
                       1.72416                      -1.56754                      59.12623
                       2.06025                      -1.10494                      59.12564
                       2.27075                      -0.57329                      59.12531
                       2.29848                      -0.00692                      63.50504
                       2.22849                       0.54713                      63.50531
                       2.02291                       1.06637                      63.50588
                       1.69466                       1.51817                      63.50670
                       1.26436                       1.87414                      63.50772
                       0.75906                       2.11192                      63.50889
                       0.21050                       2.21656                      63.51012
                      -0.34685                       2.18149                      63.51134
                      -0.87797                       2.00892                      63.51247
                      -1.34948                       1.70969                      63.51345
                      -1.73177                       1.30259                      63.51420
                      -2.00081                       0.81322                      63.51469
                      -2.13969                       0.27231                      63.51488
                      -2.13969                      -0.28615                      63.51476
                      -2.00081                      -0.82706                      63.51434
                      -1.73177                      -1.31643                      63.51364
                      -1.34949                      -1.72353                      63.51271
                      -0.87797                      -2.02276                      63.51160
                      -0.34685                      -2.19533                      63.51039
                       0.21050                      -2.23040                      63.50916
                       0.75906                      -2.12575                      63.50797
                       1.26436                      -1.88798                      63.50691
                       1.69466                      -1.53200                      63.50604
                       2.02291                      -1.08021                      63.50541
                       2.22849                      -0.56097                      63.50507
                       2.25521                      -0.00790                      67.88483
                       2.18689                       0.53291                      67.88511
                       1.98622                       1.03974                      67.88570
                       1.66582                       1.48074                      67.88655
                       1.24581                       1.82820                      67.88762
                       0.75258                       2.06029                      67.88883
                       0.21714                       2.16244                      67.89011
                      -0.32689                       2.12821                      67.89138
                      -0.84532                       1.95976                      67.89256
                      -1.30556                       1.66768                      67.89358
                      -1.67871                       1.27032                      67.89436
                      -1.94132                       0.79264                      67.89487
                      -2.07688                       0.26466                      67.89507
                      -2.07688                      -0.28045                      67.89494
                      -1.94132                      -0.80843                      67.89450
                      -1.67871                      -1.28611                      67.89377
                      -1.30557                      -1.68347                      67.89281
                      -0.84532                      -1.97556                      67.89166
                      -0.32689                      -2.14400                      67.89040
                       0.21713                      -2.17823                      67.88912
                       0.75258                      -2.07609                      67.88788
                       1.24581                      -1.84399                      67.88678
                       1.66582                      -1.49653                      67.88587
                       1.98622                      -1.05553                      67.88522
                       2.18689                      -0.54870                      67.88486
                       2.21252                      -0.00893                      72.26469
                       2.14587                       0.51864                      72.26498
                       1.95012                       1.01305                      72.26558
                       1.63756                       1.44325                      72.26646
                       1.22784                       1.78221                      72.26755
                       0.74669                       2.00862                      72.26879
                       0.22435                       2.10826                      72.27011
                      -0.30636                       2.07487                      72.27141
                      -0.81209                       1.91055                      72.27262
                      -1.26106                       1.62562                      72.27365
                      -1.62507                       1.23798                      72.27446
                      -1.88125                       0.77200                      72.27498
                      -2.01349                       0.25695                      72.27518
                      -2.01349                      -0.27481                      72.27505
                      -1.88125                      -0.78986                      72.27460
                      -1.62507                      -1.25584                      72.27386
                      -1.26106                      -1.64348                      72.27286
                      -0.81209                      -1.92841                      72.27169
                      -0.30636                      -2.09273                      72.27040
                       0.22435                      -2.12612                      72.26908
                       0.74669                      -2.02648                      72.26782
                       1.22783                      -1.80007                      72.26669
                       1.63756                      -1.46111                      72.26576
                       1.95012                      -1.03091                      72.26509
                       2.14587                      -0.53649                      72.26473
                       2.17025                      -0.01001                      76.64466
                       2.10528                       0.50431                      76.64495
                       1.91444                       0.98632                      76.64556
                       1.60973                       1.40572                      76.64644
                       1.21029                       1.73617                      76.64753
                       0.74122                       1.95689                      76.64878
                       0.23200                       2.05403                      76.65010
                      -0.28539                       2.02148                      76.65140
                      -0.77843                       1.86129                      76.65262
                      -1.21613                       1.58351                      76.65366
                      -1.57101                       1.20560                      76.65447
                      -1.82075                       0.75132                      76.65499
                      -1.94967                       0.24919                      76.65519
                      -1.94967                      -0.26921                      76.65506
                      -1.82075                      -0.77134                      76.65460
                      -1.57101                      -1.22562                      76.65385
                      -1.21613                      -1.60353                      76.65286
                      -0.77843                      -1.88130                      76.65168
                      -0.28539                      -2.04150                      76.65038
                       0.23199                      -2.07405                      76.64906
                       0.74122                      -1.97691                      76.64779
                       1.21029                      -1.75618                      76.64665
                       1.60973                      -1.42574                      76.64572
                       1.91444                      -1.00634                      76.64505
                       2.10528                      -0.52433                      76.64469
                       2.12816                      -0.01113                      81.02478
                       2.06486                       0.48995                      81.02507
                       1.87894                       0.95954                      81.02566
                       1.58207                       1.36815                      81.02652
                       1.19292                       1.69009                      81.02759
                       0.73592                       1.90513                      81.02881
                       0.23981                       1.99977                      81.03010
                      -0.26425                       1.96806                      81.03137
                      -0.74459                       1.81198                      81.03255
                      -1.17103                       1.54136                      81.03356
                      -1.51677                       1.17318                      81.03434
                      -1.76008                       0.73059                      81.03485
                      -1.88569                       0.24140                      81.03504
                      -1.88569                      -0.26366                      81.03491
                      -1.76008                      -0.75286                      81.03446
                      -1.51677                      -1.19544                      81.03373
                      -1.17103                      -1.56362                      81.03275
                      -0.74460                      -1.83424                      81.03160
                      -0.26426                      -1.99032                      81.03034
                       0.23981                      -2.02203                      81.02905
                       0.73592                      -1.92739                      81.02782
                       1.19291                      -1.71234                      81.02671
                       1.58207                      -1.39041                      81.02581
                       1.87894                      -0.98180                      81.02516
                       2.06486                      -0.51221                      81.02481
                       2.08585                      -0.01228                      85.40511
                       2.02422                       0.47556                      85.40539
                       1.84321                       0.93274                      85.40595
                       1.55419                       1.33054                      85.40676
                       1.17532                       1.64397                      85.40777
                       0.73040                       1.85334                      85.40890
                       0.24740                       1.94547                      85.41010
                      -0.24334                       1.91460                      85.41129
                      -0.71099                       1.76265                      85.41238
                      -1.12615                       1.49918                      85.41332
                      -1.46276                       1.14073                      85.41405
                      -1.69964                       0.70984                      85.41451
                      -1.82192                       0.23358                      85.41468
                      -1.82192                      -0.25814                      85.41455
                      -1.69964                      -0.73440                      85.41412
                      -1.46276                      -1.16530                      85.41343
                      -1.12616                      -1.52374                      85.41252
                      -0.71099                      -1.78721                      85.41144
                      -0.24334                      -1.93916                      85.41026
                       0.24740                      -1.97003                      85.40906
                       0.73040                      -1.87790                      85.40791
                       1.17531                      -1.66853                      85.40689
                       1.55419                      -1.35510                      85.40605
                       1.84321                      -0.95730                      85.40545
                       2.02422                      -0.50012                      85.40513
                       2.06444                      -0.01286                      87.59538
                       2.00364                       0.46835                      87.59565
                       1.82509                       0.91933                      87.59618
                       1.53999                       1.31173                      87.59695
                       1.16626                       1.62091                      87.59790
                       0.72739                       1.82743                      87.59898
                       0.25094                       1.91832                      87.60011
                      -0.23314                       1.88786                      87.60123
                      -0.69444                       1.73797                      87.60226
                      -1.10397                       1.47808                      87.60314
                      -1.43600                       1.12450                      87.60382
                      -1.66967                       0.69946                      87.60424
                      -1.79030                       0.22965                      87.60440
                      -1.79030                      -0.25539                      87.60427
                      -1.66967                      -0.72519                      87.60386
                      -1.43600                      -1.15023                      87.60321
                      -1.10397                      -1.50381                      87.60234
                      -0.69444                      -1.76371                      87.60132
                      -0.23314                      -1.91359                      87.60021
                       0.25094                      -1.94405                      87.59908
                       0.72739                      -1.85316                      87.59799
                       1.16626                      -1.64664                      87.59703
                       1.53999                      -1.33746                      87.59624
                       1.82509                      -0.94506                      87.59569
                       2.00364                      -0.49408                      87.59539
                       3.00000                       0.00000                       0.00000
                       2.90575                       0.74607                       0.00000
                       2.62892                       1.44526                       0.00000
                       2.18691                       2.05364                       0.00000
                       1.60748                       2.53298                       0.00000
                       0.92705                       2.85317                       0.00000
                       0.18837                       2.99408                       0.00000
                      -0.56214                       2.94686                       0.00000
                      -1.27734                       2.71448                       0.00000
                      -1.91227                       2.31154                       0.00000
                      -2.42705                       1.76336                       0.00000
                      -2.78933                       1.10437                       0.00000
                      -2.97634                       0.37600                       0.00000
                      -2.97634                      -0.37600                       0.00000
                      -2.78933                      -1.10437                       0.00000
                      -2.42705                      -1.76336                       0.00000
                      -1.91227                      -2.31154                       0.00000
                      -1.27734                      -2.71448                       0.00000
                      -0.56214                      -2.94686                       0.00000
                       0.18837                      -2.99408                       0.00000
                       0.92705                      -2.85317                       0.00000
                       1.60748                      -2.53298                       0.00000
                       2.18691                      -2.05364                       0.00000
                       2.62892                      -1.44526                       0.00000
                       2.90575                      -0.74607                       0.00000
        </DataArray>
      </Points>
      <Polys>
        <DataArray type="Int32" Name="connectivity" format="ascii">
      0      1     26     25
      1      2     27     26
      2      3     28     27
      3      4     29     28
      4      5     30     29
      5      6     31     30
      6      7     32     31
      7      8     33     32
      8      9     34     33
      9     10     35     34
     10     11     36     35
     11     12     37     36
     12     13     38     37
     13     14     39     38
     14     15     40     39
     15     16     41     40
     16     17     42     41
     17     18     43     42
     18     19     44     43
     19     20     45     44
     20     21     46     45
     21     22     47     46
     22     23     48     47
     23     24     49     48
     24      0     25     49
     24     23     22     21     20     19     18     17     16     15     14     13     12     11     10      9      8      7      6      5      4      3      2      1      0
     25     26     27     28     29     30     31     32     33     34     35     36     37     38     39     40     41     42     43     44     45     46     47     48     49
     25     26     51     50
     26     27     52     51
     27     28     53     52
     28     29     54     53
     29     30     55     54
     30     31     56     55
     31     32     57     56
     32     33     58     57
     33     34     59     58
     34     35     60     59
     35     36     61     60
     36     37     62     61
     37     38     63     62
     38     39     64     63
     39     40     65     64
     40     41     66     65
     41     42     67     66
     42     43     68     67
     43     44     69     68
     44     45     70     69
     45     46     71     70
     46     47     72     71
     47     48     73     72
     48     49     74     73
     49     25     50     74
     49     48     47     46     45     44     43     42     41     40     39     38     37     36     35     34     33     32     31     30     29     28     27     26     25
     50     51     52     53     54     55     56     57     58     59     60     61     62     63     64     65     66     67     68     69     70     71     72     73     74
     50     51     76     75
     51     52     77     76
     52     53     78     77
     53     54     79     78
     54     55     80     79
     55     56     81     80
     56     57     82     81
     57     58     83     82
     58     59     84     83
     59     60     85     84
     60     61     86     85
     61     62     87     86
     62     63     88     87
     63     64     89     88
     64     65     90     89
     65     66     91     90
     66     67     92     91
     67     68     93     92
     68     69     94     93
     69     70     95     94
     70     71     96     95
     71     72     97     96
     72     73     98     97
     73     74     99     98
     74     50     75     99
     74     73     72     71     70     69     68     67     66     65     64     63     62     61     60     59     58     57     56     55     54     53     52     51     50
     75     76     77     78     79     80     81     82     83     84     85     86     87     88     89     90     91     92     93     94     95     96     97     98     99
     75     76    101    100
     76     77    102    101
     77     78    103    102
     78     79    104    103
     79     80    105    104
     80     81    106    105
     81     82    107    106
     82     83    108    107
     83     84    109    108
     84     85    110    109
     85     86    111    110
     86     87    112    111
     87     88    113    112
     88     89    114    113
     89     90    115    114
     90     91    116    115
     91     92    117    116
     92     93    118    117
     93     94    119    118
     94     95    120    119
     95     96    121    120
     96     97    122    121
     97     98    123    122
     98     99    124    123
     99     75    100    124
     99     98     97     96     95     94     93     92     91     90     89     88     87     86     85     84     83     82     81     80     79     78     77     76     75
    100    101    102    103    104    105    106    107    108    109    110    111    112    113    114    115    116    117    118    119    120    121    122    123    124
    100    101    126    125
    101    102    127    126
    102    103    128    127
    103    104    129    128
    104    105    130    129
    105    106    131    130
    106    107    132    131
    107    108    133    132
    108    109    134    133
    109    110    135    134
    110    111    136    135
    111    112    137    136
    112    113    138    137
    113    114    139    138
    114    115    140    139
    115    116    141    140
    116    117    142    141
    117    118    143    142
    118    119    144    143
    119    120    145    144
    120    121    146    145
    121    122    147    146
    122    123    148    147
    123    124    149    148
    124    100    125    149
    124    123    122    121    120    119    118    117    116    115    114    113    112    111    110    109    108    107    106    105    104    103    102    101    100
    125    126    127    128    129    130    131    132    133    134    135    136    137    138    139    140    141    142    143    144    145    146    147    148    149
    125    126    151    150
    126    127    152    151
    127    128    153    152
    128    129    154    153
    129    130    155    154
    130    131    156    155
    131    132    157    156
    132    133    158    157
    133    134    159    158
    134    135    160    159
    135    136    161    160
    136    137    162    161
    137    138    163    162
    138    139    164    163
    139    140    165    164
    140    141    166    165
    141    142    167    166
    142    143    168    167
    143    144    169    168
    144    145    170    169
    145    146    171    170
    146    147    172    171
    147    148    173    172
    148    149    174    173
    149    125    150    174
    149    148    147    146    145    144    143    142    141    140    139    138    137    136    135    134    133    132    131    130    129    128    127    126    125
    150    151    152    153    154    155    156    157    158    159    160    161    162    163    164    165    166    167    168    169    170    171    172    173    174
    150    151    176    175
    151    152    177    176
    152    153    178    177
    153    154    179    178
    154    155    180    179
    155    156    181    180
    156    157    182    181
    157    158    183    182
    158    159    184    183
    159    160    185    184
    160    161    186    185
    161    162    187    186
    162    163    188    187
    163    164    189    188
    164    165    190    189
    165    166    191    190
    166    167    192    191
    167    168    193    192
    168    169    194    193
    169    170    195    194
    170    171    196    195
    171    172    197    196
    172    173    198    197
    173    174    199    198
    174    150    175    199
    174    173    172    171    170    169    168    167    166    165    164    163    162    161    160    159    158    157    156    155    154    153    152    151    150
    175    176    177    178    179    180    181    182    183    184    185    186    187    188    189    190    191    192    193    194    195    196    197    198    199
    175    176    201    200
    176    177    202    201
    177    178    203    202
    178    179    204    203
    179    180    205    204
    180    181    206    205
    181    182    207    206
    182    183    208    207
    183    184    209    208
    184    185    210    209
    185    186    211    210
    186    187    212    211
    187    188    213    212
    188    189    214    213
    189    190    215    214
    190    191    216    215
    191    192    217    216
    192    193    218    217
    193    194    219    218
    194    195    220    219
    195    196    221    220
    196    197    222    221
    197    198    223    222
    198    199    224    223
    199    175    200    224
    199    198    197    196    195    194    193    192    191    190    189    188    187    186    185    184    183    182    181    180    179    178    177    176    175
    200    201    202    203    204    205    206    207    208    209    210    211    212    213    214    215    216    217    218    219    220    221    222    223    224
    200    201    226    225
    201    202    227    226
    202    203    228    227
    203    204    229    228
    204    205    230    229
    205    206    231    230
    206    207    232    231
    207    208    233    232
    208    209    234    233
    209    210    235    234
    210    211    236    235
    211    212    237    236
    212    213    238    237
    213    214    239    238
    214    215    240    239
    215    216    241    240
    216    217    242    241
    217    218    243    242
    218    219    244    243
    219    220    245    244
    220    221    246    245
    221    222    247    246
    222    223    248    247
    223    224    249    248
    224    200    225    249
    224    223    222    221    220    219    218    217    216    215    214    213    212    211    210    209    208    207    206    205    204    203    202    201    200
    225    226    227    228    229    230    231    232    233    234    235    236    237    238    239    240    241    242    243    244    245    246    247    248    249
    225    226    251    250
    226    227    252    251
    227    228    253    252
    228    229    254    253
    229    230    255    254
    230    231    256    255
    231    232    257    256
    232    233    258    257
    233    234    259    258
    234    235    260    259
    235    236    261    260
    236    237    262    261
    237    238    263    262
    238    239    264    263
    239    240    265    264
    240    241    266    265
    241    242    267    266
    242    243    268    267
    243    244    269    268
    244    245    270    269
    245    246    271    270
    246    247    272    271
    247    248    273    272
    248    249    274    273
    249    225    250    274
    249    248    247    246    245    244    243    242    241    240    239    238    237    236    235    234    233    232    231    230    229    228    227    226    225
    250    251    252    253    254    255    256    257    258    259    260    261    262    263    264    265    266    267    268    269    270    271    272    273    274
    250    251    276    275
    251    252    277    276
    252    253    278    277
    253    254    279    278
    254    255    280    279
    255    256    281    280
    256    257    282    281
    257    258    283    282
    258    259    284    283
    259    260    285    284
    260    261    286    285
    261    262    287    286
    262    263    288    287
    263    264    289    288
    264    265    290    289
    265    266    291    290
    266    267    292    291
    267    268    293    292
    268    269    294    293
    269    270    295    294
    270    271    296    295
    271    272    297    296
    272    273    298    297
    273    274    299    298
    274    250    275    299
    274    273    272    271    270    269    268    267    266    265    264    263    262    261    260    259    258    257    256    255    254    253    252    251    250
    275    276    277    278    279    280    281    282    283    284    285    286    287    288    289    290    291    292    293    294    295    296    297    298    299
    275    276    301    300
    276    277    302    301
    277    278    303    302
    278    279    304    303
    279    280    305    304
    280    281    306    305
    281    282    307    306
    282    283    308    307
    283    284    309    308
    284    285    310    309
    285    286    311    310
    286    287    312    311
    287    288    313    312
    288    289    314    313
    289    290    315    314
    290    291    316    315
    291    292    317    316
    292    293    318    317
    293    294    319    318
    294    295    320    319
    295    296    321    320
    296    297    322    321
    297    298    323    322
    298    299    324    323
    299    275    300    324
    299    298    297    296    295    294    293    292    291    290    289    288    287    286    285    284    283    282    281    280    279    278    277    276    275
    300    301    302    303    304    305    306    307    308    309    310    311    312    313    314    315    316    317    318    319    320    321    322    323    324
    300    301    326    325
    301    302    327    326
    302    303    328    327
    303    304    329    328
    304    305    330    329
    305    306    331    330
    306    307    332    331
    307    308    333    332
    308    309    334    333
    309    310    335    334
    310    311    336    335
    311    312    337    336
    312    313    338    337
    313    314    339    338
    314    315    340    339
    315    316    341    340
    316    317    342    341
    317    318    343    342
    318    319    344    343
    319    320    345    344
    320    321    346    345
    321    322    347    346
    322    323    348    347
    323    324    349    348
    324    300    325    349
    324    323    322    321    320    319    318    317    316    315    314    313    312    311    310    309    308    307    306    305    304    303    302    301    300
    325    326    327    328    329    330    331    332    333    334    335    336    337    338    339    340    341    342    343    344    345    346    347    348    349
    325    326    351    350
    326    327    352    351
    327    328    353    352
    328    329    354    353
    329    330    355    354
    330    331    356    355
    331    332    357    356
    332    333    358    357
    333    334    359    358
    334    335    360    359
    335    336    361    360
    336    337    362    361
    337    338    363    362
    338    339    364    363
    339    340    365    364
    340    341    366    365
    341    342    367    366
    342    343    368    367
    343    344    369    368
    344    345    370    369
    345    346    371    370
    346    347    372    371
    347    348    373    372
    348    349    374    373
    349    325    350    374
    349    348    347    346    345    344    343    342    341    340    339    338    337    336    335    334    333    332    331    330    329    328    327    326    325
    350    351    352    353    354    355    356    357    358    359    360    361    362    363    364    365    366    367    368    369    370    371    372    373    374
    350    351    376    375
    351    352    377    376
    352    353    378    377
    353    354    379    378
    354    355    380    379
    355    356    381    380
    356    357    382    381
    357    358    383    382
    358    359    384    383
    359    360    385    384
    360    361    386    385
    361    362    387    386
    362    363    388    387
    363    364    389    388
    364    365    390    389
    365    366    391    390
    366    367    392    391
    367    368    393    392
    368    369    394    393
    369    370    395    394
    370    371    396    395
    371    372    397    396
    372    373    398    397
    373    374    399    398
    374    350    375    399
    374    373    372    371    370    369    368    367    366    365    364    363    362    361    360    359    358    357    356    355    354    353    352    351    350
    375    376    377    378    379    380    381    382    383    384    385    386    387    388    389    390    391    392    393    394    395    396    397    398    399
    375    376    401    400
    376    377    402    401
    377    378    403    402
    378    379    404    403
    379    380    405    404
    380    381    406    405
    381    382    407    406
    382    383    408    407
    383    384    409    408
    384    385    410    409
    385    386    411    410
    386    387    412    411
    387    388    413    412
    388    389    414    413
    389    390    415    414
    390    391    416    415
    391    392    417    416
    392    393    418    417
    393    394    419    418
    394    395    420    419
    395    396    421    420
    396    397    422    421
    397    398    423    422
    398    399    424    423
    399    375    400    424
    399    398    397    396    395    394    393    392    391    390    389    388    387    386    385    384    383    382    381    380    379    378    377    376    375
    400    401    402    403    404    405    406    407    408    409    410    411    412    413    414    415    416    417    418    419    420    421    422    423    424
    400    401    426    425
    401    402    427    426
    402    403    428    427
    403    404    429    428
    404    405    430    429
    405    406    431    430
    406    407    432    431
    407    408    433    432
    408    409    434    433
    409    410    435    434
    410    411    436    435
    411    412    437    436
    412    413    438    437
    413    414    439    438
    414    415    440    439
    415    416    441    440
    416    417    442    441
    417    418    443    442
    418    419    444    443
    419    420    445    444
    420    421    446    445
    421    422    447    446
    422    423    448    447
    423    424    449    448
    424    400    425    449
    424    423    422    421    420    419    418    417    416    415    414    413    412    411    410    409    408    407    406    405    404    403    402    401    400
    425    426    427    428    429    430    431    432    433    434    435    436    437    438    439    440    441    442    443    444    445    446    447    448    449
    425    426    451    450
    426    427    452    451
    427    428    453    452
    428    429    454    453
    429    430    455    454
    430    431    456    455
    431    432    457    456
    432    433    458    457
    433    434    459    458
    434    435    460    459
    435    436    461    460
    436    437    462    461
    437    438    463    462
    438    439    464    463
    439    440    465    464
    440    441    466    465
    441    442    467    466
    442    443    468    467
    443    444    469    468
    444    445    470    469
    445    446    471    470
    446    447    472    471
    447    448    473    472
    448    449    474    473
    449    425    450    474
    449    448    447    446    445    444    443    442    441    440    439    438    437    436    435    434    433    432    431    430    429    428    427    426    425
    450    451    452    453    454    455    456    457    458    459    460    461    462    463    464    465    466    467    468    469    470    471    472    473    474
    450    451    476    475
    451    452    477    476
    452    453    478    477
    453    454    479    478
    454    455    480    479
    455    456    481    480
    456    457    482    481
    457    458    483    482
    458    459    484    483
    459    460    485    484
    460    461    486    485
    461    462    487    486
    462    463    488    487
    463    464    489    488
    464    465    490    489
    465    466    491    490
    466    467    492    491
    467    468    493    492
    468    469    494    493
    469    470    495    494
    470    471    496    495
    471    472    497    496
    472    473    498    497
    473    474    499    498
    474    450    475    499
    474    473    472    471    470    469    468    467    466    465    464    463    462    461    460    459    458    457    456    455    454    453    452    451    450
    475    476    477    478    479    480    481    482    483    484    485    486    487    488    489    490    491    492    493    494    495    496    497    498    499
    475    476    501    500
    476    477    502    501
    477    478    503    502
    478    479    504    503
    479    480    505    504
    480    481    506    505
    481    482    507    506
    482    483    508    507
    483    484    509    508
    484    485    510    509
    485    486    511    510
    486    487    512    511
    487    488    513    512
    488    489    514    513
    489    490    515    514
    490    491    516    515
    491    492    517    516
    492    493    518    517
    493    494    519    518
    494    495    520    519
    495    496    521    520
    496    497    522    521
    497    498    523    522
    498    499    524    523
    499    475    500    524
    499    498    497    496    495    494    493    492    491    490    489    488    487    486    485    484    483    482    481    480    479    478    477    476    475
    500    501    502    503    504    505    506    507    508    509    510    511    512    513    514    515    516    517    518    519    520    521    522    523    524
    525    526      1      0
    526    527      2      1
    527    528      3      2
    528    529      4      3
    529    530      5      4
    530    531      6      5
    531    532      7      6
    532    533      8      7
    533    534      9      8
    534    535     10      9
    535    536     11     10
    536    537     12     11
    537    538     13     12
    538    539     14     13
    539    540     15     14
    540    541     16     15
    541    542     17     16
    542    543     18     17
    543    544     19     18
    544    545     20     19
    545    546     21     20
    546    547     22     21
    547    548     23     22
    548    549     24     23
    549    525      0     24
    549    548    547    546    545    544    543    542    541    540    539    538    537    536    535    534    533    532    531    530    529    528    527    526    525
      0      1      2      3      4      5      6      7      8      9     10     11     12     13     14     15     16     17     18     19     20     21     22     23     24
        </DataArray>
        <DataArray type="Int32" Name="offsets" format="ascii">
      4
      8
     12
     16
     20
     24
     28
     32
     36
     40
     44
     48
     52
     56
     60
     64
     68
     72
     76
     80
     84
     88
     92
     96
    100
    125
    150
    154
    158
    162
    166
    170
    174
    178
    182
    186
    190
    194
    198
    202
    206
    210
    214
    218
    222
    226
    230
    234
    238
    242
    246
    250
    275
    300
    304
    308
    312
    316
    320
    324
    328
    332
    336
    340
    344
    348
    352
    356
    360
    364
    368
    372
    376
    380
    384
    388
    392
    396
    400
    425
    450
    454
    458
    462
    466
    470
    474
    478
    482
    486
    490
    494
    498
    502
    506
    510
    514
    518
    522
    526
    530
    534
    538
    542
    546
    550
    575
    600
    604
    608
    612
    616
    620
    624
    628
    632
    636
    640
    644
    648
    652
    656
    660
    664
    668
    672
    676
    680
    684
    688
    692
    696
    700
    725
    750
    754
    758
    762
    766
    770
    774
    778
    782
    786
    790
    794
    798
    802
    806
    810
    814
    818
    822
    826
    830
    834
    838
    842
    846
    850
    875
    900
    904
    908
    912
    916
    920
    924
    928
    932
    936
    940
    944
    948
    952
    956
    960
    964
    968
    972
    976
    980
    984
    988
    992
    996
   1000
   1025
   1050
   1054
   1058
   1062
   1066
   1070
   1074
   1078
   1082
   1086
   1090
   1094
   1098
   1102
   1106
   1110
   1114
   1118
   1122
   1126
   1130
   1134
   1138
   1142
   1146
   1150
   1175
   1200
   1204
   1208
   1212
   1216
   1220
   1224
   1228
   1232
   1236
   1240
   1244
   1248
   1252
   1256
   1260
   1264
   1268
   1272
   1276
   1280
   1284
   1288
   1292
   1296
   1300
   1325
   1350
   1354
   1358
   1362
   1366
   1370
   1374
   1378
   1382
   1386
   1390
   1394
   1398
   1402
   1406
   1410
   1414
   1418
   1422
   1426
   1430
   1434
   1438
   1442
   1446
   1450
   1475
   1500
   1504
   1508
   1512
   1516
   1520
   1524
   1528
   1532
   1536
   1540
   1544
   1548
   1552
   1556
   1560
   1564
   1568
   1572
   1576
   1580
   1584
   1588
   1592
   1596
   1600
   1625
   1650
   1654
   1658
   1662
   1666
   1670
   1674
   1678
   1682
   1686
   1690
   1694
   1698
   1702
   1706
   1710
   1714
   1718
   1722
   1726
   1730
   1734
   1738
   1742
   1746
   1750
   1775
   1800
   1804
   1808
   1812
   1816
   1820
   1824
   1828
   1832
   1836
   1840
   1844
   1848
   1852
   1856
   1860
   1864
   1868
   1872
   1876
   1880
   1884
   1888
   1892
   1896
   1900
   1925
   1950
   1954
   1958
   1962
   1966
   1970
   1974
   1978
   1982
   1986
   1990
   1994
   1998
   2002
   2006
   2010
   2014
   2018
   2022
   2026
   2030
   2034
   2038
   2042
   2046
   2050
   2075
   2100
   2104
   2108
   2112
   2116
   2120
   2124
   2128
   2132
   2136
   2140
   2144
   2148
   2152
   2156
   2160
   2164
   2168
   2172
   2176
   2180
   2184
   2188
   2192
   2196
   2200
   2225
   2250
   2254
   2258
   2262
   2266
   2270
   2274
   2278
   2282
   2286
   2290
   2294
   2298
   2302
   2306
   2310
   2314
   2318
   2322
   2326
   2330
   2334
   2338
   2342
   2346
   2350
   2375
   2400
   2404
   2408
   2412
   2416
   2420
   2424
   2428
   2432
   2436
   2440
   2444
   2448
   2452
   2456
   2460
   2464
   2468
   2472
   2476
   2480
   2484
   2488
   2492
   2496
   2500
   2525
   2550
   2554
   2558
   2562
   2566
   2570
   2574
   2578
   2582
   2586
   2590
   2594
   2598
   2602
   2606
   2610
   2614
   2618
   2622
   2626
   2630
   2634
   2638
   2642
   2646
   2650
   2675
   2700
   2704
   2708
   2712
   2716
   2720
   2724
   2728
   2732
   2736
   2740
   2744
   2748
   2752
   2756
   2760
   2764
   2768
   2772
   2776
   2780
   2784
   2788
   2792
   2796
   2800
   2825
   2850
   2854
   2858
   2862
   2866
   2870
   2874
   2878
   2882
   2886
   2890
   2894
   2898
   2902
   2906
   2910
   2914
   2918
   2922
   2926
   2930
   2934
   2938
   2942
   2946
   2950
   2975
   3000
   3004
   3008
   3012
   3016
   3020
   3024
   3028
   3032
   3036
   3040
   3044
   3048
   3052
   3056
   3060
   3064
   3068
   3072
   3076
   3080
   3084
   3088
   3092
   3096
   3100
   3125
   3150
        </DataArray>
      </Polys>
    </Piece>
  </PolyData>
</VTKFile>
