<?xml version="1.0"?>
<VTKFile type="PolyData" version="0.1" byte_order="LittleEndian">
  <PolyData>
    <Piece NumberOfPoints="    550" NumberOfVerts="  0" NumberOfLines="     21"
           NumberOfStrips="  0" NumberOfPolys="    567">
      <Points>
        <DataArray type="Float32" NumberOfComponents="3" format="ascii">
                       2.97344                      -0.00001                       2.18982
                       2.88003                       0.73944                       2.18983
                       2.60565                       1.43242                       2.18985
                       2.16756                       2.03540                       2.18989
                       1.59328                       2.51049                       2.18993
                       0.91889                       2.82784                       2.18997
                       0.18677                       2.96750                       2.19002
                      -0.55709                       2.92070                       2.19007
                      -1.26594                       2.69038                       2.19011
                      -1.89524                       2.29101                       2.19014
                      -2.40545                       1.74769                       2.19017
                      -2.76451                       1.09456                       2.19018
                      -2.94986                       0.37265                       2.19019
                      -2.94986                      -0.37267                       2.19018
                      -2.76451                      -1.09458                       2.19016
                      -2.40545                      -1.74772                       2.19013
                      -1.89523                      -2.29104                       2.19009
                      -1.26594                      -2.69040                       2.19005
                      -0.55709                      -2.92072                       2.19000
                       0.18677                      -2.96752                       2.18996
                       0.91889                      -2.82786                       2.18991
                       1.59328                      -2.51052                       2.18987
                       2.16756                      -2.03543                       2.18984
                       2.60565                      -1.43245                       2.18982
                       2.88003                      -0.73946                       2.18981
                       2.92078                      -0.00010                       6.56938
                       2.82904                       0.72610                       6.56942
                       2.55958                       1.40668                       6.56950
                       2.12933                       1.99886                       6.56961
                       1.56533                       2.46544                       6.56974
                       0.90302                       2.77710                       6.56989
                       0.18401                       2.91426                       6.57005
                      -0.54652                       2.86830                       6.57020
                      -1.24268                       2.64211                       6.57034
                      -1.86071                       2.24989                       6.57046
                      -2.36178                       1.71631                       6.57055
                      -2.71441                       1.07487                       6.57060
                      -2.89645                       0.36589                       6.57062
                      -2.89645                      -0.36609                       6.57060
                      -2.71441                      -1.07507                       6.57054
                      -2.36178                      -1.71651                       6.57045
                      -1.86070                      -2.25010                       6.57033
                      -1.24268                      -2.64231                       6.57018
                      -0.54652                      -2.86850                       6.57003
                       0.18401                      -2.91446                       6.56988
                       0.90302                      -2.77730                       6.56973
                       1.56533                      -2.46564                       6.56960
                       2.12933                      -1.99906                       6.56949
                       2.55958                      -1.40688                       6.56942
                       2.82904                      -0.72631                       6.56938
                       2.86882                      -0.00027                      10.94891
                       2.77875                       0.71270                      10.94898
                       2.51420                       1.38086                      10.94911
                       2.09180                       1.96224                      10.94930
                       1.53809                       2.42031                      10.94953
                       0.88785                       2.72629                      10.94979
                       0.18195                       2.86095                      10.95006
                      -0.53526                       2.81583                      10.95033
                      -1.21872                       2.59376                      10.95058
                      -1.82547                       2.20870                      10.95079
                      -2.31741                       1.68484                      10.95096
                      -2.66361                       1.05510                      10.95106
                      -2.84233                       0.35905                      10.95110
                      -2.84233                      -0.35958                      10.95106
                      -2.66361                      -1.05563                      10.95096
                      -2.31741                      -1.68537                      10.95080
                      -1.82547                      -2.20923                      10.95059
                      -1.21872                      -2.59429                      10.95034
                      -0.53526                      -2.81636                      10.95007
                       0.18195                      -2.86149                      10.94980
                       0.88785                      -2.72683                      10.94954
                       1.53809                      -2.42085                      10.94931
                       2.09180                      -1.96278                      10.94912
                       2.51420                      -1.38140                      10.94898
                       2.77875                      -0.71323                      10.94891
                       2.81761                      -0.00050                      15.32844
                       2.72921                       0.69922                      15.32854
                       2.46958                       1.35497                      15.32872
                       2.05503                       1.92555                      15.32898
                       1.51160                       2.37512                      15.32931
                       0.87344                       2.67541                      15.32968
                       0.18065                       2.80757                      15.33007
                      -0.52324                       2.76328                      15.33046
                      -1.19400                       2.54534                      15.33082
                      -1.78949                       2.16743                      15.33112
                      -2.27229                       1.65330                      15.33136
                      -2.61206                       1.03526                      15.33151
                      -2.78746                       0.35214                      15.33156
                      -2.78746                      -0.35315                      15.33152
                      -2.61206                      -1.03627                      15.33138
                      -2.27229                      -1.65431                      15.33116
                      -1.78949                      -2.16844                      15.33086
                      -1.19400                      -2.54635                      15.33050
                      -0.52324                      -2.76429                      15.33012
                       0.18065                      -2.80858                      15.32973
                       0.87344                      -2.67642                      15.32935
                       1.51160                      -2.37613                      15.32902
                       2.05503                      -1.92656                      15.32875
                       2.46958                      -1.35598                      15.32855
                       2.72921                      -0.70022                      15.32845
                       2.76715                      -0.00081                      19.70800
                       2.68043                       0.68567                      19.70812
                       2.42571                       1.32901                      19.70835
                       2.01901                       1.88880                      19.70869
                       1.48586                       2.32985                      19.70911
                       0.85978                       2.62446                      19.70958
                       0.18011                       2.75412                      19.71008
                      -0.51046                       2.71067                      19.71058
                      -1.16853                       2.49685                      19.71104
                      -1.75275                       2.12610                      19.71143
                      -2.22641                       1.62170                      19.71174
                      -2.55975                       1.01535                      19.71193
                      -2.73183                       0.34516                      19.71201
                      -2.73183                      -0.34677                      19.71195
                      -2.55975                      -1.01697                      19.71178
                      -2.22641                      -1.62332                      19.71149
                      -1.75275                      -2.12771                      19.71111
                      -1.16853                      -2.49847                      19.71066
                      -0.51046                      -2.71229                      19.71016
                       0.18011                      -2.75574                      19.70966
                       0.85978                      -2.62608                      19.70918
                       1.48586                      -2.33147                      19.70875
                       2.01901                      -1.89041                      19.70840
                       2.42571                      -1.33063                      19.70815
                       2.68043                      -0.68729                      19.70801
                       2.71743                      -0.00118                      24.08760
                       2.63238                       0.67206                      24.08773
                       2.38258                       1.30299                      24.08801
                       1.98372                       1.85198                      24.08842
                       1.46086                       2.28452                      24.08892
                       0.84686                       2.57345                      24.08949
                       0.18029                       2.70060                      24.09010
                      -0.49696                       2.65800                      24.09069
                      -1.14233                       2.44830                      24.09124
                      -1.71528                       2.08470                      24.09172
                      -2.17980                       1.59003                      24.09208
                      -2.50671                       0.99538                      24.09232
                      -2.67547                       0.33811                      24.09241
                      -2.67547                      -0.34047                      24.09235
                      -2.50671                      -0.99774                      24.09214
                      -2.17980                      -1.59239                      24.09179
                      -1.71528                      -2.08705                      24.09133
                      -1.14233                      -2.45066                      24.09079
                      -0.49696                      -2.66035                      24.09020
                       0.18029                      -2.70296                      24.08960
                       0.84686                      -2.57581                      24.08902
                       1.46086                      -2.28688                      24.08850
                       1.98372                      -1.85433                      24.08808
                       2.38258                      -1.30535                      24.08777
                       2.63238                      -0.67441                      24.08761
                       2.66841                      -0.00162                      28.46723
                       2.58503                       0.65838                      28.46739
                       2.34014                       1.27690                      28.46771
                       1.94912                       1.81509                      28.46818
                       1.43655                       2.23912                      28.46876
                       0.83462                       2.52237                      28.46941
                       0.18117                       2.64702                      28.47011
                      -0.48275                       2.60525                      28.47079
                      -1.11543                       2.39968                      28.47143
                      -1.67711                       2.04323                      28.47198
                      -2.13250                       1.55829                      28.47240
                      -2.45298                       0.97534                      28.47267
                      -2.61842                       0.33100                      28.47277
                      -2.61842                      -0.33424                      28.47270
                      -2.45298                      -0.97857                      28.47246
                      -2.13250                      -1.56153                      28.47206
                      -1.67711                      -2.04646                      28.47153
                      -1.11543                      -2.40291                      28.47091
                      -0.48275                      -2.60848                      28.47023
                       0.18117                      -2.65025                      28.46953
                       0.83462                      -2.52560                      28.46887
                       1.43655                      -2.24236                      28.46827
                       1.94912                      -1.81832                      28.46779
                       2.34014                      -1.28013                      28.46744
                       2.58503                      -0.66161                      28.46725
                       2.62003                      -0.00213                      32.84691
                       2.53833                       0.64462                      32.84708
                       2.29835                       1.25073                      32.84744
                       1.91518                       1.77812                      32.84797
                       1.41289                       2.19365                      32.84861
                       0.82305                       2.47121                      32.84935
                       0.18271                       2.59337                      32.85012
                      -0.46790                       2.55243                      32.85089
                      -1.08788                       2.35099                      32.85160
                      -1.63829                       2.00169                      32.85221
                      -2.08454                       1.52648                      32.85268
                      -2.39859                       0.95523                      32.85298
                      -2.56071                       0.32382                      32.85309
                      -2.56071                      -0.32807                      32.85301
                      -2.39859                      -0.95948                      32.85274
                      -2.08454                      -1.53074                      32.85230
                      -1.63829                      -2.00594                      32.85171
                      -1.08788                      -2.35524                      32.85101
                      -0.46790                      -2.55669                      32.85025
                       0.18271                      -2.59762                      32.84947
                       0.82305                      -2.47547                      32.84873
                       1.41289                      -2.19791                      32.84806
                       1.91518                      -1.78238                      32.84752
                       2.29835                      -1.25499                      32.84713
                       2.53833                      -0.64888                      32.84692
                       2.57229                      -0.00271                      37.22661
                       2.49226                       0.63079                      37.22680
                       2.25720                       1.22449                      37.22720
                       1.88187                       1.74108                      37.22777
                       1.38987                       2.14811                      37.22848
                       0.81210                       2.41998                      37.22929
                       0.18487                       2.53963                      37.23014
                      -0.45241                       2.49954                      37.23098
                      -1.05970                       2.30222                      37.23176
                      -1.59884                       1.96007                      37.23243
                      -2.03595                       1.49459                      37.23294
                      -2.34357                       0.93504                      37.23327
                      -2.50237                       0.31656                      37.23339
                      -2.50237                      -0.32199                      37.23330
                      -2.34357                      -0.94047                      37.23300
                      -2.03595                      -1.50002                      37.23251
                      -1.59884                      -1.96550                      37.23186
                      -1.05970                      -2.30765                      37.23110
                      -0.45241                      -2.50497                      37.23026
                       0.18487                      -2.54506                      37.22941
                       0.81210                      -2.42541                      37.22860
                       1.38987                      -2.15353                      37.22787
                       1.88187                      -1.74651                      37.22727
                       2.25720                      -1.22992                      37.22685
                       2.49226                      -0.63622                      37.22662
                       2.52516                      -0.00338                      41.60632
                       2.44681                       0.61688                      41.60654
                       2.21666                       1.19817                      41.60697
                       1.84918                       1.70396                      41.60759
                       1.36746                       2.10248                      41.60836
                       0.80177                       2.36867                      41.60924
                       0.18765                       2.48582                      41.61016
                      -0.43631                       2.44656                      41.61107
                      -1.03090                       2.25337                      41.61191
                      -1.55877                       1.91837                      41.61263
                      -1.98675                       1.46263                      41.61318
                      -2.28793                       0.91477                      41.61354
                      -2.44341                       0.30921                      41.61367
                      -2.44341                      -0.31598                      41.61357
                      -2.28793                      -0.92153                      41.61324
                      -1.98675                      -1.46939                      41.61271
                      -1.55877                      -1.92514                      41.61201
                      -1.03090                      -2.26013                      41.61118
                      -0.43631                      -2.45333                      41.61027
                       0.18765                      -2.49259                      41.60935
                       0.80177                      -2.37544                      41.60847
                       1.36746                      -2.10924                      41.60768
                       1.84918                      -1.71073                      41.60704
                       2.21666                      -1.20494                      41.60658
                       2.44681                      -0.62365                      41.60634
                       2.47866                      -0.00414                      45.98605
                       2.40197                       0.60289                      45.98628
                       2.17674                       1.17176                      45.98675
                       1.81710                       1.66676                      45.98742
                       1.34567                       2.05676                      45.98825
                       0.79205                       2.31727                      45.98919
                       0.19105                       2.43192                      45.99018
                      -0.41959                       2.39350                      45.99115
                      -1.00149                       2.20443                      45.99205
                      -1.51809                       1.87659                      45.99283
                      -1.93692                       1.43057                      45.99342
                      -2.23168                       0.89441                      45.99380
                      -2.38384                       0.30179                      45.99394
                      -2.38384                      -0.31006                      45.99382
                      -2.23168                      -0.90268                      45.99347
                      -1.93692                      -1.43885                      45.99290
                      -1.51809                      -1.88486                      45.99214
                      -1.00149                      -2.21271                      45.99125
                      -0.41959                      -2.40178                      45.99028
                       0.19105                      -2.44019                      45.98929
                       0.79205                      -2.32555                      45.98834
                       1.34567                      -2.06504                      45.98750
                       1.81710                      -1.67503                      45.98681
                       2.17674                      -1.18004                      45.98632
                       2.40197                      -0.61116                      45.98606
                       2.43278                      -0.00498                      50.36577
                       2.35777                       0.58880                      50.36603
                       2.13745                       1.14527                      50.36653
                       1.78566                       1.62946                      50.36724
                       1.32451                       2.01096                      50.36813
                       0.78298                       2.26579                      50.36914
                       0.19508                       2.37794                      50.37019
                      -0.40224                       2.34036                      50.37123
                      -0.97144                       2.15541                      50.37220
                      -1.47677                       1.83472                      50.37302
                      -1.88647                       1.39843                      50.37365
                      -2.17479                       0.87397                      50.37405
                      -2.32363                       0.29427                      50.37420
                      -2.32363                      -0.30423                      50.37408
                      -2.17479                      -0.88392                      50.37370
                      -1.88647                      -1.40839                      50.37308
                      -1.47677                      -1.84468                      50.37228
                      -0.97144                      -2.16537                      50.37132
                      -0.40224                      -2.35031                      50.37028
                       0.19508                      -2.38789                      50.36923
                       0.78297                      -2.27574                      50.36822
                       1.32451                      -2.02092                      50.36732
                       1.78566                      -1.63942                      50.36658
                       2.13745                      -1.15522                      50.36606
                       2.35777                      -0.59876                      50.36579
                       2.38756                      -0.00591                      54.74550
                       2.31423                       0.57463                      54.74577
                       2.09882                       1.11868                      54.74631
                       1.75488                       1.59208                      54.74707
                       1.30401                       1.96507                      54.74801
                       0.77455                       2.21421                      54.74908
                       0.19977                       2.32386                      54.75020
                      -0.38422                       2.28712                      54.75131
                      -0.94073                       2.10630                      54.75234
                      -1.43479                       1.79276                      54.75321
                      -1.83535                       1.36620                      54.75388
                      -2.11725                       0.85343                      54.75431
                      -2.26277                       0.28666                      54.75446
                      -2.26277                      -0.29849                      54.75433
                      -2.11725                      -0.86525                      54.75392
                      -1.83535                      -1.37802                      54.75327
                      -1.43479                      -1.80458                      54.75241
                      -0.94073                      -2.11812                      54.75139
                      -0.38422                      -2.29894                      54.75029
                       0.19977                      -2.33568                      54.74917
                       0.77455                      -2.22603                      54.74809
                       1.30401                      -1.97689                      54.74713
                       1.75488                      -1.60390                      54.74636
                       2.09882                      -1.13050                      54.74580
                       2.31423                      -0.58644                      54.74551
                       2.34303                      -0.00693                      59.12524
                       2.27136                       0.56036                      59.12552
                       2.06087                       1.09201                      59.12609
                       1.72478                       1.55461                      59.12690
                       1.28420                       1.91909                      59.12790
                       0.76682                       2.16255                      59.12903
                       0.20514                       2.26969                      59.13021
                      -0.36553                       2.23379                      59.13139
                      -0.90934                       2.05709                      59.13247
                      -1.39213                       1.75070                      59.13339
                      -1.78355                       1.33388                      59.13410
                      -2.05902                       0.83281                      59.13455
                      -2.20122                       0.27897                      59.13471
                      -2.20122                      -0.29283                      59.13457
                      -2.05902                      -0.84667                      59.13414
                      -1.78356                      -1.34774                      59.13345
                      -1.39213                      -1.76457                      59.13254
                      -0.90934                      -2.07096                      59.13146
                      -0.36553                      -2.24765                      59.13029
                       0.20514                      -2.28356                      59.12911
                       0.76681                      -2.17641                      59.12797
                       1.28419                      -1.93295                      59.12696
                       1.72477                      -1.56847                      59.12614
                       2.06087                      -1.10587                      59.12555
                       2.27136                      -0.57422                      59.12525
                       2.29918                      -0.00804                      63.50499
                       2.22919                       0.54601                      63.50529
                       2.02361                       1.06524                      63.50589
                       1.69536                       1.51704                      63.50673
                       1.26507                       1.87301                      63.50779
                       0.75977                       2.11079                      63.50897
                       0.21120                       2.21544                      63.51022
                      -0.34615                       2.18037                      63.51145
                      -0.87727                       2.00780                      63.51259
                      -1.34878                       1.70856                      63.51356
                      -1.73107                       1.30147                      63.51430
                      -2.00011                       0.81209                      63.51477
                      -2.13899                       0.27118                      63.51494
                      -2.13899                      -0.28727                      63.51479
                      -2.00011                      -0.82818                      63.51434
                      -1.73107                      -1.31756                      63.51361
                      -1.34878                      -1.72465                      63.51265
                      -0.87727                      -2.02389                      63.51153
                      -0.34615                      -2.19646                      63.51030
                       0.21120                      -2.23152                      63.50905
                       0.75976                      -2.12688                      63.50786
                       1.26507                      -1.88910                      63.50679
                       1.69536                      -1.53313                      63.50593
                       2.02361                      -1.08133                      63.50532
                       2.22919                      -0.56209                      63.50500
                       2.25600                      -0.00924                      67.88478
                       2.18768                       0.53157                      67.88510
                       1.98702                       1.03839                      67.88571
                       1.66661                       1.47939                      67.88660
                       1.24660                       1.82686                      67.88769
                       0.75338                       2.05895                      67.88893
                       0.21793                       2.16109                      67.89022
                      -0.32610                       2.12687                      67.89150
                      -0.84452                       1.95842                      67.89268
                      -1.30477                       1.66634                      67.89369
                      -1.67792                       1.26897                      67.89446
                      -1.94053                       0.79129                      67.89495
                      -2.07609                       0.26331                      67.89512
                      -2.07609                      -0.28179                      67.89497
                      -1.94053                      -0.80977                      67.89450
                      -1.67792                      -1.28745                      67.89374
                      -1.30477                      -1.68482                      67.89275
                      -0.84452                      -1.97690                      67.89157
                      -0.32610                      -2.14535                      67.89030
                       0.21793                      -2.17957                      67.88900
                       0.75338                      -2.07743                      67.88776
                       1.24660                      -1.84534                      67.88665
                       1.66661                      -1.49787                      67.88576
                       1.98702                      -1.05687                      67.88512
                       2.18768                      -0.55005                      67.88479
                       2.21341                      -0.01051                      72.26464
                       2.14676                       0.51705                      72.26496
                       1.95101                       1.01147                      72.26560
                       1.63845                       1.44167                      72.26651
                       1.22873                       1.78062                      72.26763
                       0.74758                       2.00703                      72.26889
                       0.22524                       2.10667                      72.27022
                      -0.30547                       2.07329                      72.27153
                      -0.81120                       1.90896                      72.27274
                      -1.26017                       1.62403                      72.27378
                      -1.62418                       1.23640                      72.27457
                      -1.88036                       0.77042                      72.27507
                      -2.01260                       0.25536                      72.27524
                      -2.01260                      -0.27639                      72.27508
                      -1.88036                      -0.79144                      72.27460
                      -1.62418                      -1.25743                      72.27382
                      -1.26017                      -1.64506                      72.27280
                      -0.81120                      -1.92999                      72.27160
                      -0.30547                      -2.09431                      72.27029
                       0.22524                      -2.12770                      72.26896
                       0.74758                      -2.02806                      72.26769
                       1.22872                      -1.80165                      72.26656
                       1.63845                      -1.46269                      72.26564
                       1.95101                      -1.03249                      72.26499
                       2.14676                      -0.53808                      72.26465
                       2.17124                      -0.01186                      76.64461
                       2.10627                       0.50246                      76.64493
                       1.91543                       0.98447                      76.64558
                       1.61072                       1.40387                      76.64649
                       1.21128                       1.73432                      76.64762
                       0.74221                       1.95505                      76.64889
                       0.23298                       2.05219                      76.65022
                      -0.28440                       2.01963                      76.65154
                      -0.77744                       1.85944                      76.65275
                      -1.21514                       1.58166                      76.65379
                      -1.57002                       1.20375                      76.65458
                      -1.81976                       0.74947                      76.65507
                      -1.94868                       0.24735                      76.65525
                      -1.94869                      -0.27106                      76.65508
                      -1.81976                      -0.77319                      76.65460
                      -1.57002                      -1.22747                      76.65381
                      -1.21514                      -1.60538                      76.65279
                      -0.77744                      -1.88315                      76.65158
                      -0.28440                      -2.04335                      76.65026
                       0.23298                      -2.07590                      76.64893
                       0.74221                      -1.97876                      76.64765
                       1.21128                      -1.75803                      76.64652
                       1.61072                      -1.42759                      76.64560
                       1.91543                      -1.00818                      76.64495
                       2.10627                      -0.52618                      76.64461
                       2.12925                      -0.01326                      81.02473
                       2.06595                       0.48782                      81.02506
                       1.88002                       0.95741                      81.02568
                       1.58316                       1.36602                      81.02658
                       1.19400                       1.68795                      81.02768
                       0.73701                       1.90300                      81.02892
                       0.24090                       1.99764                      81.03022
                      -0.26317                       1.96593                      81.03150
                      -0.74351                       1.80985                      81.03268
                      -1.16994                       1.53923                      81.03369
                      -1.51568                       1.17105                      81.03446
                      -1.75900                       0.72846                      81.03493
                      -1.88460                       0.23927                      81.03510
                      -1.88460                      -0.26579                      81.03493
                      -1.75900                      -0.75499                      81.03445
                      -1.51568                      -1.19758                      81.03368
                      -1.16994                      -1.56575                      81.03268
                      -0.74351                      -1.83637                      81.03150
                      -0.26317                      -1.99245                      81.03021
                       0.24090                      -2.02416                      81.02891
                       0.73701                      -1.92952                      81.02767
                       1.19400                      -1.71448                      81.02657
                       1.58316                      -1.39254                      81.02568
                       1.88002                      -0.98393                      81.02505
                       2.06595                      -0.51434                      81.02473
                       2.08703                      -0.01471                      85.40507
                       2.02540                       0.47313                      85.40538
                       1.84439                       0.93031                      85.40598
                       1.55537                       1.32812                      85.40682
                       1.17650                       1.64155                      85.40785
                       0.73159                       1.85091                      85.40902
                       0.24858                       1.94305                      85.41023
                      -0.24216                       1.91217                      85.41142
                      -0.70981                       1.76022                      85.41252
                      -1.12497                       1.49675                      85.41345
                      -1.46157                       1.13830                      85.41416
                      -1.69846                       0.70741                      85.41459
                      -1.82074                       0.23115                      85.41473
                      -1.82074                      -0.26057                      85.41457
                      -1.69846                      -0.73683                      85.41411
                      -1.46157                      -1.16772                      85.41338
                      -1.12497                      -1.52617                      85.41244
                      -0.70981                      -1.78964                      85.41133
                      -0.24216                      -1.94159                      85.41014
                       0.24858                      -1.97246                      85.40892
                       0.73158                      -1.88032                      85.40777
                       1.17650                      -1.67096                      85.40675
                       1.55537                      -1.35753                      85.40592
                       1.84439                      -0.95973                      85.40535
                       2.02540                      -0.50254                      85.40506
                       2.06566                      -0.01545                      87.59534
                       2.00487                       0.46577                      87.59564
                       1.82632                       0.91675                      87.59621
                       1.54122                       1.30915                      87.59701
                       1.16749                       1.61833                      87.59799
                       0.72862                       1.82485                      87.59909
                       0.25217                       1.91574                      87.60024
                      -0.23191                       1.88528                      87.60136
                      -0.69321                       1.73539                      87.60239
                      -1.10274                       1.47550                      87.60326
                      -1.43477                       1.12192                      87.60392
                      -1.66844                       0.69687                      87.60433
                      -1.78907                       0.22707                      87.60445
                      -1.78907                      -0.25797                      87.60429
                      -1.66844                      -0.72777                      87.60385
                      -1.43477                      -1.15281                      87.60316
                      -1.10274                      -1.50639                      87.60226
                      -0.69321                      -1.76629                      87.60121
                      -0.23191                      -1.91617                      87.60008
                       0.25217                      -1.94663                      87.59894
                       0.72862                      -1.85574                      87.59785
                       1.16749                      -1.64922                      87.59689
                       1.54122                      -1.34004                      87.59612
                       1.82632                      -0.94764                      87.59558
                       2.00487                      -0.49666                      87.59532
                       3.00000                       0.00000                       0.00000
                       2.90575                       0.74607                       0.00000
                       2.62892                       1.44526                       0.00000
                       2.18691                       2.05364                       0.00000
                       1.60748                       2.53298                       0.00000
                       0.92705                       2.85317                       0.00000
                       0.18837                       2.99408                       0.00000
                      -0.56214                       2.94686                       0.00000
                      -1.27734                       2.71448                       0.00000
                      -1.91227                       2.31154                       0.00000
                      -2.42705                       1.76336                       0.00000
                      -2.78933                       1.10437                       0.00000
                      -2.97634                       0.37600                       0.00000
                      -2.97634                      -0.37600                       0.00000
                      -2.78933                      -1.10437                       0.00000
                      -2.42705                      -1.76336                       0.00000
                      -1.91227                      -2.31154                       0.00000
                      -1.27734                      -2.71448                       0.00000
                      -0.56214                      -2.94686                       0.00000
                       0.18837                      -2.99408                       0.00000
                       0.92705                      -2.85317                       0.00000
                       1.60748                      -2.53298                       0.00000
                       2.18691                      -2.05364                       0.00000
                       2.62892                      -1.44526                       0.00000
                       2.90575                      -0.74607                       0.00000
        </DataArray>
      </Points>
      <Polys>
        <DataArray type="Int32" Name="connectivity" format="ascii">
      0      1     26     25
      1      2     27     26
      2      3     28     27
      3      4     29     28
      4      5     30     29
      5      6     31     30
      6      7     32     31
      7      8     33     32
      8      9     34     33
      9     10     35     34
     10     11     36     35
     11     12     37     36
     12     13     38     37
     13     14     39     38
     14     15     40     39
     15     16     41     40
     16     17     42     41
     17     18     43     42
     18     19     44     43
     19     20     45     44
     20     21     46     45
     21     22     47     46
     22     23     48     47
     23     24     49     48
     24      0     25     49
     24     23     22     21     20     19     18     17     16     15     14     13     12     11     10      9      8      7      6      5      4      3      2      1      0
     25     26     27     28     29     30     31     32     33     34     35     36     37     38     39     40     41     42     43     44     45     46     47     48     49
     25     26     51     50
     26     27     52     51
     27     28     53     52
     28     29     54     53
     29     30     55     54
     30     31     56     55
     31     32     57     56
     32     33     58     57
     33     34     59     58
     34     35     60     59
     35     36     61     60
     36     37     62     61
     37     38     63     62
     38     39     64     63
     39     40     65     64
     40     41     66     65
     41     42     67     66
     42     43     68     67
     43     44     69     68
     44     45     70     69
     45     46     71     70
     46     47     72     71
     47     48     73     72
     48     49     74     73
     49     25     50     74
     49     48     47     46     45     44     43     42     41     40     39     38     37     36     35     34     33     32     31     30     29     28     27     26     25
     50     51     52     53     54     55     56     57     58     59     60     61     62     63     64     65     66     67     68     69     70     71     72     73     74
     50     51     76     75
     51     52     77     76
     52     53     78     77
     53     54     79     78
     54     55     80     79
     55     56     81     80
     56     57     82     81
     57     58     83     82
     58     59     84     83
     59     60     85     84
     60     61     86     85
     61     62     87     86
     62     63     88     87
     63     64     89     88
     64     65     90     89
     65     66     91     90
     66     67     92     91
     67     68     93     92
     68     69     94     93
     69     70     95     94
     70     71     96     95
     71     72     97     96
     72     73     98     97
     73     74     99     98
     74     50     75     99
     74     73     72     71     70     69     68     67     66     65     64     63     62     61     60     59     58     57     56     55     54     53     52     51     50
     75     76     77     78     79     80     81     82     83     84     85     86     87     88     89     90     91     92     93     94     95     96     97     98     99
     75     76    101    100
     76     77    102    101
     77     78    103    102
     78     79    104    103
     79     80    105    104
     80     81    106    105
     81     82    107    106
     82     83    108    107
     83     84    109    108
     84     85    110    109
     85     86    111    110
     86     87    112    111
     87     88    113    112
     88     89    114    113
     89     90    115    114
     90     91    116    115
     91     92    117    116
     92     93    118    117
     93     94    119    118
     94     95    120    119
     95     96    121    120
     96     97    122    121
     97     98    123    122
     98     99    124    123
     99     75    100    124
     99     98     97     96     95     94     93     92     91     90     89     88     87     86     85     84     83     82     81     80     79     78     77     76     75
    100    101    102    103    104    105    106    107    108    109    110    111    112    113    114    115    116    117    118    119    120    121    122    123    124
    100    101    126    125
    101    102    127    126
    102    103    128    127
    103    104    129    128
    104    105    130    129
    105    106    131    130
    106    107    132    131
    107    108    133    132
    108    109    134    133
    109    110    135    134
    110    111    136    135
    111    112    137    136
    112    113    138    137
    113    114    139    138
    114    115    140    139
    115    116    141    140
    116    117    142    141
    117    118    143    142
    118    119    144    143
    119    120    145    144
    120    121    146    145
    121    122    147    146
    122    123    148    147
    123    124    149    148
    124    100    125    149
    124    123    122    121    120    119    118    117    116    115    114    113    112    111    110    109    108    107    106    105    104    103    102    101    100
    125    126    127    128    129    130    131    132    133    134    135    136    137    138    139    140    141    142    143    144    145    146    147    148    149
    125    126    151    150
    126    127    152    151
    127    128    153    152
    128    129    154    153
    129    130    155    154
    130    131    156    155
    131    132    157    156
    132    133    158    157
    133    134    159    158
    134    135    160    159
    135    136    161    160
    136    137    162    161
    137    138    163    162
    138    139    164    163
    139    140    165    164
    140    141    166    165
    141    142    167    166
    142    143    168    167
    143    144    169    168
    144    145    170    169
    145    146    171    170
    146    147    172    171
    147    148    173    172
    148    149    174    173
    149    125    150    174
    149    148    147    146    145    144    143    142    141    140    139    138    137    136    135    134    133    132    131    130    129    128    127    126    125
    150    151    152    153    154    155    156    157    158    159    160    161    162    163    164    165    166    167    168    169    170    171    172    173    174
    150    151    176    175
    151    152    177    176
    152    153    178    177
    153    154    179    178
    154    155    180    179
    155    156    181    180
    156    157    182    181
    157    158    183    182
    158    159    184    183
    159    160    185    184
    160    161    186    185
    161    162    187    186
    162    163    188    187
    163    164    189    188
    164    165    190    189
    165    166    191    190
    166    167    192    191
    167    168    193    192
    168    169    194    193
    169    170    195    194
    170    171    196    195
    171    172    197    196
    172    173    198    197
    173    174    199    198
    174    150    175    199
    174    173    172    171    170    169    168    167    166    165    164    163    162    161    160    159    158    157    156    155    154    153    152    151    150
    175    176    177    178    179    180    181    182    183    184    185    186    187    188    189    190    191    192    193    194    195    196    197    198    199
    175    176    201    200
    176    177    202    201
    177    178    203    202
    178    179    204    203
    179    180    205    204
    180    181    206    205
    181    182    207    206
    182    183    208    207
    183    184    209    208
    184    185    210    209
    185    186    211    210
    186    187    212    211
    187    188    213    212
    188    189    214    213
    189    190    215    214
    190    191    216    215
    191    192    217    216
    192    193    218    217
    193    194    219    218
    194    195    220    219
    195    196    221    220
    196    197    222    221
    197    198    223    222
    198    199    224    223
    199    175    200    224
    199    198    197    196    195    194    193    192    191    190    189    188    187    186    185    184    183    182    181    180    179    178    177    176    175
    200    201    202    203    204    205    206    207    208    209    210    211    212    213    214    215    216    217    218    219    220    221    222    223    224
    200    201    226    225
    201    202    227    226
    202    203    228    227
    203    204    229    228
    204    205    230    229
    205    206    231    230
    206    207    232    231
    207    208    233    232
    208    209    234    233
    209    210    235    234
    210    211    236    235
    211    212    237    236
    212    213    238    237
    213    214    239    238
    214    215    240    239
    215    216    241    240
    216    217    242    241
    217    218    243    242
    218    219    244    243
    219    220    245    244
    220    221    246    245
    221    222    247    246
    222    223    248    247
    223    224    249    248
    224    200    225    249
    224    223    222    221    220    219    218    217    216    215    214    213    212    211    210    209    208    207    206    205    204    203    202    201    200
    225    226    227    228    229    230    231    232    233    234    235    236    237    238    239    240    241    242    243    244    245    246    247    248    249
    225    226    251    250
    226    227    252    251
    227    228    253    252
    228    229    254    253
    229    230    255    254
    230    231    256    255
    231    232    257    256
    232    233    258    257
    233    234    259    258
    234    235    260    259
    235    236    261    260
    236    237    262    261
    237    238    263    262
    238    239    264    263
    239    240    265    264
    240    241    266    265
    241    242    267    266
    242    243    268    267
    243    244    269    268
    244    245    270    269
    245    246    271    270
    246    247    272    271
    247    248    273    272
    248    249    274    273
    249    225    250    274
    249    248    247    246    245    244    243    242    241    240    239    238    237    236    235    234    233    232    231    230    229    228    227    226    225
    250    251    252    253    254    255    256    257    258    259    260    261    262    263    264    265    266    267    268    269    270    271    272    273    274
    250    251    276    275
    251    252    277    276
    252    253    278    277
    253    254    279    278
    254    255    280    279
    255    256    281    280
    256    257    282    281
    257    258    283    282
    258    259    284    283
    259    260    285    284
    260    261    286    285
    261    262    287    286
    262    263    288    287
    263    264    289    288
    264    265    290    289
    265    266    291    290
    266    267    292    291
    267    268    293    292
    268    269    294    293
    269    270    295    294
    270    271    296    295
    271    272    297    296
    272    273    298    297
    273    274    299    298
    274    250    275    299
    274    273    272    271    270    269    268    267    266    265    264    263    262    261    260    259    258    257    256    255    254    253    252    251    250
    275    276    277    278    279    280    281    282    283    284    285    286    287    288    289    290    291    292    293    294    295    296    297    298    299
    275    276    301    300
    276    277    302    301
    277    278    303    302
    278    279    304    303
    279    280    305    304
    280    281    306    305
    281    282    307    306
    282    283    308    307
    283    284    309    308
    284    285    310    309
    285    286    311    310
    286    287    312    311
    287    288    313    312
    288    289    314    313
    289    290    315    314
    290    291    316    315
    291    292    317    316
    292    293    318    317
    293    294    319    318
    294    295    320    319
    295    296    321    320
    296    297    322    321
    297    298    323    322
    298    299    324    323
    299    275    300    324
    299    298    297    296    295    294    293    292    291    290    289    288    287    286    285    284    283    282    281    280    279    278    277    276    275
    300    301    302    303    304    305    306    307    308    309    310    311    312    313    314    315    316    317    318    319    320    321    322    323    324
    300    301    326    325
    301    302    327    326
    302    303    328    327
    303    304    329    328
    304    305    330    329
    305    306    331    330
    306    307    332    331
    307    308    333    332
    308    309    334    333
    309    310    335    334
    310    311    336    335
    311    312    337    336
    312    313    338    337
    313    314    339    338
    314    315    340    339
    315    316    341    340
    316    317    342    341
    317    318    343    342
    318    319    344    343
    319    320    345    344
    320    321    346    345
    321    322    347    346
    322    323    348    347
    323    324    349    348
    324    300    325    349
    324    323    322    321    320    319    318    317    316    315    314    313    312    311    310    309    308    307    306    305    304    303    302    301    300
    325    326    327    328    329    330    331    332    333    334    335    336    337    338    339    340    341    342    343    344    345    346    347    348    349
    325    326    351    350
    326    327    352    351
    327    328    353    352
    328    329    354    353
    329    330    355    354
    330    331    356    355
    331    332    357    356
    332    333    358    357
    333    334    359    358
    334    335    360    359
    335    336    361    360
    336    337    362    361
    337    338    363    362
    338    339    364    363
    339    340    365    364
    340    341    366    365
    341    342    367    366
    342    343    368    367
    343    344    369    368
    344    345    370    369
    345    346    371    370
    346    347    372    371
    347    348    373    372
    348    349    374    373
    349    325    350    374
    349    348    347    346    345    344    343    342    341    340    339    338    337    336    335    334    333    332    331    330    329    328    327    326    325
    350    351    352    353    354    355    356    357    358    359    360    361    362    363    364    365    366    367    368    369    370    371    372    373    374
    350    351    376    375
    351    352    377    376
    352    353    378    377
    353    354    379    378
    354    355    380    379
    355    356    381    380
    356    357    382    381
    357    358    383    382
    358    359    384    383
    359    360    385    384
    360    361    386    385
    361    362    387    386
    362    363    388    387
    363    364    389    388
    364    365    390    389
    365    366    391    390
    366    367    392    391
    367    368    393    392
    368    369    394    393
    369    370    395    394
    370    371    396    395
    371    372    397    396
    372    373    398    397
    373    374    399    398
    374    350    375    399
    374    373    372    371    370    369    368    367    366    365    364    363    362    361    360    359    358    357    356    355    354    353    352    351    350
    375    376    377    378    379    380    381    382    383    384    385    386    387    388    389    390    391    392    393    394    395    396    397    398    399
    375    376    401    400
    376    377    402    401
    377    378    403    402
    378    379    404    403
    379    380    405    404
    380    381    406    405
    381    382    407    406
    382    383    408    407
    383    384    409    408
    384    385    410    409
    385    386    411    410
    386    387    412    411
    387    388    413    412
    388    389    414    413
    389    390    415    414
    390    391    416    415
    391    392    417    416
    392    393    418    417
    393    394    419    418
    394    395    420    419
    395    396    421    420
    396    397    422    421
    397    398    423    422
    398    399    424    423
    399    375    400    424
    399    398    397    396    395    394    393    392    391    390    389    388    387    386    385    384    383    382    381    380    379    378    377    376    375
    400    401    402    403    404    405    406    407    408    409    410    411    412    413    414    415    416    417    418    419    420    421    422    423    424
    400    401    426    425
    401    402    427    426
    402    403    428    427
    403    404    429    428
    404    405    430    429
    405    406    431    430
    406    407    432    431
    407    408    433    432
    408    409    434    433
    409    410    435    434
    410    411    436    435
    411    412    437    436
    412    413    438    437
    413    414    439    438
    414    415    440    439
    415    416    441    440
    416    417    442    441
    417    418    443    442
    418    419    444    443
    419    420    445    444
    420    421    446    445
    421    422    447    446
    422    423    448    447
    423    424    449    448
    424    400    425    449
    424    423    422    421    420    419    418    417    416    415    414    413    412    411    410    409    408    407    406    405    404    403    402    401    400
    425    426    427    428    429    430    431    432    433    434    435    436    437    438    439    440    441    442    443    444    445    446    447    448    449
    425    426    451    450
    426    427    452    451
    427    428    453    452
    428    429    454    453
    429    430    455    454
    430    431    456    455
    431    432    457    456
    432    433    458    457
    433    434    459    458
    434    435    460    459
    435    436    461    460
    436    437    462    461
    437    438    463    462
    438    439    464    463
    439    440    465    464
    440    441    466    465
    441    442    467    466
    442    443    468    467
    443    444    469    468
    444    445    470    469
    445    446    471    470
    446    447    472    471
    447    448    473    472
    448    449    474    473
    449    425    450    474
    449    448    447    446    445    444    443    442    441    440    439    438    437    436    435    434    433    432    431    430    429    428    427    426    425
    450    451    452    453    454    455    456    457    458    459    460    461    462    463    464    465    466    467    468    469    470    471    472    473    474
    450    451    476    475
    451    452    477    476
    452    453    478    477
    453    454    479    478
    454    455    480    479
    455    456    481    480
    456    457    482    481
    457    458    483    482
    458    459    484    483
    459    460    485    484
    460    461    486    485
    461    462    487    486
    462    463    488    487
    463    464    489    488
    464    465    490    489
    465    466    491    490
    466    467    492    491
    467    468    493    492
    468    469    494    493
    469    470    495    494
    470    471    496    495
    471    472    497    496
    472    473    498    497
    473    474    499    498
    474    450    475    499
    474    473    472    471    470    469    468    467    466    465    464    463    462    461    460    459    458    457    456    455    454    453    452    451    450
    475    476    477    478    479    480    481    482    483    484    485    486    487    488    489    490    491    492    493    494    495    496    497    498    499
    475    476    501    500
    476    477    502    501
    477    478    503    502
    478    479    504    503
    479    480    505    504
    480    481    506    505
    481    482    507    506
    482    483    508    507
    483    484    509    508
    484    485    510    509
    485    486    511    510
    486    487    512    511
    487    488    513    512
    488    489    514    513
    489    490    515    514
    490    491    516    515
    491    492    517    516
    492    493    518    517
    493    494    519    518
    494    495    520    519
    495    496    521    520
    496    497    522    521
    497    498    523    522
    498    499    524    523
    499    475    500    524
    499    498    497    496    495    494    493    492    491    490    489    488    487    486    485    484    483    482    481    480    479    478    477    476    475
    500    501    502    503    504    505    506    507    508    509    510    511    512    513    514    515    516    517    518    519    520    521    522    523    524
    525    526      1      0
    526    527      2      1
    527    528      3      2
    528    529      4      3
    529    530      5      4
    530    531      6      5
    531    532      7      6
    532    533      8      7
    533    534      9      8
    534    535     10      9
    535    536     11     10
    536    537     12     11
    537    538     13     12
    538    539     14     13
    539    540     15     14
    540    541     16     15
    541    542     17     16
    542    543     18     17
    543    544     19     18
    544    545     20     19
    545    546     21     20
    546    547     22     21
    547    548     23     22
    548    549     24     23
    549    525      0     24
    549    548    547    546    545    544    543    542    541    540    539    538    537    536    535    534    533    532    531    530    529    528    527    526    525
      0      1      2      3      4      5      6      7      8      9     10     11     12     13     14     15     16     17     18     19     20     21     22     23     24
        </DataArray>
        <DataArray type="Int32" Name="offsets" format="ascii">
      4
      8
     12
     16
     20
     24
     28
     32
     36
     40
     44
     48
     52
     56
     60
     64
     68
     72
     76
     80
     84
     88
     92
     96
    100
    125
    150
    154
    158
    162
    166
    170
    174
    178
    182
    186
    190
    194
    198
    202
    206
    210
    214
    218
    222
    226
    230
    234
    238
    242
    246
    250
    275
    300
    304
    308
    312
    316
    320
    324
    328
    332
    336
    340
    344
    348
    352
    356
    360
    364
    368
    372
    376
    380
    384
    388
    392
    396
    400
    425
    450
    454
    458
    462
    466
    470
    474
    478
    482
    486
    490
    494
    498
    502
    506
    510
    514
    518
    522
    526
    530
    534
    538
    542
    546
    550
    575
    600
    604
    608
    612
    616
    620
    624
    628
    632
    636
    640
    644
    648
    652
    656
    660
    664
    668
    672
    676
    680
    684
    688
    692
    696
    700
    725
    750
    754
    758
    762
    766
    770
    774
    778
    782
    786
    790
    794
    798
    802
    806
    810
    814
    818
    822
    826
    830
    834
    838
    842
    846
    850
    875
    900
    904
    908
    912
    916
    920
    924
    928
    932
    936
    940
    944
    948
    952
    956
    960
    964
    968
    972
    976
    980
    984
    988
    992
    996
   1000
   1025
   1050
   1054
   1058
   1062
   1066
   1070
   1074
   1078
   1082
   1086
   1090
   1094
   1098
   1102
   1106
   1110
   1114
   1118
   1122
   1126
   1130
   1134
   1138
   1142
   1146
   1150
   1175
   1200
   1204
   1208
   1212
   1216
   1220
   1224
   1228
   1232
   1236
   1240
   1244
   1248
   1252
   1256
   1260
   1264
   1268
   1272
   1276
   1280
   1284
   1288
   1292
   1296
   1300
   1325
   1350
   1354
   1358
   1362
   1366
   1370
   1374
   1378
   1382
   1386
   1390
   1394
   1398
   1402
   1406
   1410
   1414
   1418
   1422
   1426
   1430
   1434
   1438
   1442
   1446
   1450
   1475
   1500
   1504
   1508
   1512
   1516
   1520
   1524
   1528
   1532
   1536
   1540
   1544
   1548
   1552
   1556
   1560
   1564
   1568
   1572
   1576
   1580
   1584
   1588
   1592
   1596
   1600
   1625
   1650
   1654
   1658
   1662
   1666
   1670
   1674
   1678
   1682
   1686
   1690
   1694
   1698
   1702
   1706
   1710
   1714
   1718
   1722
   1726
   1730
   1734
   1738
   1742
   1746
   1750
   1775
   1800
   1804
   1808
   1812
   1816
   1820
   1824
   1828
   1832
   1836
   1840
   1844
   1848
   1852
   1856
   1860
   1864
   1868
   1872
   1876
   1880
   1884
   1888
   1892
   1896
   1900
   1925
   1950
   1954
   1958
   1962
   1966
   1970
   1974
   1978
   1982
   1986
   1990
   1994
   1998
   2002
   2006
   2010
   2014
   2018
   2022
   2026
   2030
   2034
   2038
   2042
   2046
   2050
   2075
   2100
   2104
   2108
   2112
   2116
   2120
   2124
   2128
   2132
   2136
   2140
   2144
   2148
   2152
   2156
   2160
   2164
   2168
   2172
   2176
   2180
   2184
   2188
   2192
   2196
   2200
   2225
   2250
   2254
   2258
   2262
   2266
   2270
   2274
   2278
   2282
   2286
   2290
   2294
   2298
   2302
   2306
   2310
   2314
   2318
   2322
   2326
   2330
   2334
   2338
   2342
   2346
   2350
   2375
   2400
   2404
   2408
   2412
   2416
   2420
   2424
   2428
   2432
   2436
   2440
   2444
   2448
   2452
   2456
   2460
   2464
   2468
   2472
   2476
   2480
   2484
   2488
   2492
   2496
   2500
   2525
   2550
   2554
   2558
   2562
   2566
   2570
   2574
   2578
   2582
   2586
   2590
   2594
   2598
   2602
   2606
   2610
   2614
   2618
   2622
   2626
   2630
   2634
   2638
   2642
   2646
   2650
   2675
   2700
   2704
   2708
   2712
   2716
   2720
   2724
   2728
   2732
   2736
   2740
   2744
   2748
   2752
   2756
   2760
   2764
   2768
   2772
   2776
   2780
   2784
   2788
   2792
   2796
   2800
   2825
   2850
   2854
   2858
   2862
   2866
   2870
   2874
   2878
   2882
   2886
   2890
   2894
   2898
   2902
   2906
   2910
   2914
   2918
   2922
   2926
   2930
   2934
   2938
   2942
   2946
   2950
   2975
   3000
   3004
   3008
   3012
   3016
   3020
   3024
   3028
   3032
   3036
   3040
   3044
   3048
   3052
   3056
   3060
   3064
   3068
   3072
   3076
   3080
   3084
   3088
   3092
   3096
   3100
   3125
   3150
        </DataArray>
      </Polys>
    </Piece>
  </PolyData>
</VTKFile>
