<?xml version="1.0"?>
<VTKFile type="PolyData" version="0.1" byte_order="LittleEndian">
  <PolyData>
    <Piece NumberOfPoints="    625" NumberOfVerts="  0" NumberOfLines="      0"
           NumberOfStrips="  0" NumberOfPolys="    600">
      <Points>
        <DataArray type="Float32" NumberOfComponents="3" format="ascii">
                      -4.80184                      -1.31849                      90.73745
                      -4.80184                      -1.31849                      90.73745
                      -4.80184                      -1.31849                      90.73745
                      -4.80184                      -1.31849                      90.73745
                      -4.80184                      -1.31849                      90.73745
                      -4.80184                      -1.31849                      90.73745
                      -4.80184                      -1.31849                      90.73745
                      -4.80184                      -1.31849                      90.73745
                      -4.80184                      -1.31849                      90.73745
                      -4.80184                      -1.31849                      90.73745
                      -4.80184                      -1.31849                      90.73745
                      -4.80184                      -1.31849                      90.73745
                      -4.80184                      -1.31849                      90.73745
                      -4.80184                      -1.31849                      90.73745
                      -4.80184                      -1.31849                      90.73745
                      -4.80184                      -1.31849                      90.73745
                      -4.80184                      -1.31849                      90.73745
                      -4.80184                      -1.31849                      90.73745
                      -4.80184                      -1.31849                      90.73745
                      -4.80184                      -1.31849                      90.73745
                      -4.80184                      -1.31849                      90.73745
                      -4.80184                      -1.31849                      90.73745
                      -4.80184                      -1.31849                      90.73745
                      -4.80184                      -1.31849                      90.73745
                      -4.80184                      -1.31849                      90.73745
                      -4.21020                      -1.20925                      90.62333
                      -4.24060                      -1.28174                      90.49526
                      -4.30661                      -1.34966                      90.37860
                      -4.40408                      -1.40877                      90.28068
                      -4.52688                      -1.45534                      90.20767
                      -4.66730                      -1.48645                      90.16413
                      -4.81652                      -1.50014                      90.15282
                      -4.96515                      -1.49555                      90.17444
                      -5.10387                      -1.47298                      90.22763
                      -5.22395                      -1.43384                      90.30905
                      -5.31784                      -1.38058                      90.41359
                      -5.37966                      -1.31656                      90.53467
                      -5.40551                      -1.24580                      90.66469
                      -5.39378                      -1.17274                      90.79548
                      -5.34519                      -1.10198                      90.91882
                      -5.26280                      -1.03796                      91.02696
                      -5.15179                      -0.98470                      91.11310
                      -5.01913                      -0.94555                      91.17184
                      -4.87316                      -0.92297                      91.19948
                      -4.72305                      -0.91838                      91.19429
                      -4.57823                      -0.93207                      91.15659
                      -4.44781                      -0.96318                      91.08875
                      -4.33997                      -1.00974                      90.99503
                      -4.26149                      -1.06885                      90.88132
                      -4.21731                      -1.13677                      90.75477
                      -3.98687                      -1.10002                      90.54227
                      -4.02892                      -1.20027                      90.36513
                      -4.12022                      -1.29422                      90.20377
                      -4.25503                      -1.37597                      90.06835
                      -4.42489                      -1.44039                      89.96735
                      -4.61911                      -1.48341                      89.90714
                      -4.82549                      -1.50235                      89.89149
                      -5.03107                      -1.49601                      89.92140
                      -5.22293                      -1.46479                      89.99497
                      -5.38902                      -1.41064                      90.10758
                      -5.51889                      -1.33699                      90.25217
                      -5.60439                      -1.24844                      90.41964
                      -5.64015                      -1.15056                      90.59948
                      -5.62392                      -1.04952                      90.78038
                      -5.55671                      -0.95164                      90.95097
                      -5.44276                      -0.86309                      91.10054
                      -5.28921                      -0.78943                      91.21969
                      -5.10573                      -0.73528                      91.30093
                      -4.90384                      -0.70406                      91.33916
                      -4.69622                      -0.69771                      91.33198
                      -4.49592                      -0.71664                      91.27983
                      -4.31552                      -0.75966                      91.18600
                      -4.16636                      -0.82407                      91.05637
                      -4.05782                      -0.90582                      90.89910
                      -3.99671                      -0.99977                      90.72407
                      -3.82996                      -0.99078                      90.46717
                      -3.88028                      -1.11074                      90.25521
                      -3.98952                      -1.22317                      90.06213
                      -4.15084                      -1.32099                      89.90008
                      -4.35408                      -1.39806                      89.77923
                      -4.58648                      -1.44955                      89.70718
                      -4.83344                      -1.47221                      89.68846
                      -5.07943                      -1.46462                      89.72424
                      -5.30901                      -1.42726                      89.81227
                      -5.50775                      -1.36247                      89.94703
                      -5.66315                      -1.27433                      90.12004
                      -5.76546                      -1.16838                      90.32044
                      -5.80825                      -1.05127                      90.53562
                      -5.78882                      -0.93035                      90.75208
                      -5.70840                      -0.81324                      90.95621
                      -5.57205                      -0.70728                      91.13519
                      -5.38832                      -0.61914                      91.27776
                      -5.16877                      -0.55435                      91.37498
                      -4.92719                      -0.51698                      91.42072
                      -4.67875                      -0.50938                      91.41213
                      -4.43907                      -0.53204                      91.34973
                      -4.22321                      -0.58352                      91.23745
                      -4.04474                      -0.66059                      91.08234
                      -3.91485                      -0.75840                      90.89415
                      -3.84173                      -0.87083                      90.68471
                      -3.71002                      -0.88155                      90.39539
                      -3.76672                      -1.01673                      90.15653
                      -3.88983                      -1.14341                      89.93896
                      -4.07161                      -1.25365                      89.75635
                      -4.30064                      -1.34050                      89.62017
                      -4.56252                      -1.39852                      89.53898
                      -4.84081                      -1.42405                      89.51788
                      -5.11802                      -1.41550                      89.55820
                      -5.37672                      -1.37340                      89.65741
                      -5.60067                      -1.30040                      89.80926
                      -5.77579                      -1.20108                      90.00422
                      -5.89108                      -1.08168                      90.23004
                      -5.93930                      -0.94971                      90.47253
                      -5.91741                      -0.81345                      90.71645
                      -5.82679                      -0.68148                      90.94648
                      -5.67313                      -0.56208                      91.14816
                      -5.46610                      -0.46275                      91.30882
                      -5.21869                      -0.38974                      91.41837
                      -4.94645                      -0.34763                      91.46992
                      -4.66650                      -0.33907                      91.46023
                      -4.39641                      -0.36460                      91.38992
                      -4.15317                      -0.42261                      91.26339
                      -3.95205                      -0.50946                      91.08861
                      -3.80569                      -0.61969                      90.87654
                      -3.72328                      -0.74637                      90.64053
                      -3.61554                      -0.77232                      90.32589
                      -3.67733                      -0.91962                      90.06560
                      -3.81148                      -1.05768                      89.82851
                      -4.00957                      -1.17780                      89.62951
                      -4.25915                      -1.27245                      89.48112
                      -4.54453                      -1.33567                      89.39264
                      -4.84779                      -1.36350                      89.36965
                      -5.14987                      -1.35418                      89.41359
                      -5.43179                      -1.30830                      89.52169
                      -5.67583                      -1.22874                      89.68717
                      -5.86667                      -1.12051                      89.89963
                      -5.99230                      -0.99040                      90.14571
                      -6.04484                      -0.84659                      90.40995
                      -6.02099                      -0.69811                      90.67576
                      -5.92224                      -0.55430                      90.92643
                      -5.75479                      -0.42418                      91.14621
                      -5.52918                      -0.31594                      91.32128
                      -5.25957                      -0.23638                      91.44066
                      -4.96291                      -0.19049                      91.49684
                      -4.65784                      -0.18117                      91.48628
                      -4.36352                      -0.20898                      91.40965
                      -4.09845                      -0.27220                      91.27178
                      -3.87928                      -0.36684                      91.08131
                      -3.71979                      -0.48696                      90.85022
                      -3.63000                      -0.62501                      90.59303
                      -3.54061                      -0.66308                      90.25815
                      -3.60649                      -0.82015                      89.98062
                      -3.74953                      -0.96734                      89.72783
                      -3.96074                      -1.09542                      89.51565
                      -4.22684                      -1.19634                      89.35743
                      -4.53113                      -1.26375                      89.26310
                      -4.85447                      -1.29342                      89.23858
                      -5.17656                      -1.28348                      89.28543
                      -5.47714                      -1.23456                      89.40069
                      -5.73735                      -1.14974                      89.57713
                      -5.94082                      -1.03434                      89.80365
                      -6.07478                      -0.89561                      90.06603
                      -6.13080                      -0.74227                      90.34778
                      -6.10536                      -0.58396                      90.63119
                      -6.00007                      -0.43062                      90.89846
                      -5.82154                      -0.29189                      91.13279
                      -5.58098                      -0.17648                      91.31946
                      -5.29352                      -0.09165                      91.44675
                      -4.97722                      -0.04273                      91.50664
                      -4.65194                      -0.03278                      91.49539
                      -4.33813                      -0.06244                      91.41369
                      -4.05550                      -0.12984                      91.26668
                      -3.82182                      -0.23075                      91.06360
                      -3.65176                      -0.35883                      90.81720
                      -3.55602                      -0.50602                      90.54298
                      -3.48175                      -0.55385                      90.19185
                      -3.55090                      -0.71872                      89.90053
                      -3.70105                      -0.87323                      89.63518
                      -3.92276                      -1.00767                      89.41246
                      -4.20209                      -1.11360                      89.24637
                      -4.52149                      -1.18436                      89.14735
                      -4.86090                      -1.21550                      89.12162
                      -5.19899                      -1.20507                      89.17079
                      -5.51451                      -1.15373                      89.29178
                      -5.78765                      -1.06469                      89.47699
                      -6.00123                      -0.94355                      89.71477
                      -6.14184                      -0.79793                      89.99019
                      -6.20065                      -0.63697                      90.28593
                      -6.17395                      -0.47080                      90.58343
                      -6.06343                      -0.30984                      90.86398
                      -5.87602                      -0.16421                      91.10996
                      -5.62352                      -0.04307                      91.30590
                      -5.32177                       0.04598                      91.43951
                      -4.98974                       0.09733                      91.50238
                      -4.64830                       0.10777                      91.49057
                      -4.31890                       0.07664                      91.40481
                      -4.02223                       0.00589                      91.25050
                      -3.77693                      -0.10004                      91.03732
                      -3.59843                      -0.23447                      90.77868
                      -3.49793                      -0.38898                      90.49083
                      -3.43676                      -0.44462                      90.12680
                      -3.50848                      -0.61560                      89.82466
                      -3.66421                      -0.77585                      89.54946
                      -3.89414                      -0.91529                      89.31847
                      -4.18384                      -1.02515                      89.14621
                      -4.51510                      -1.09854                      89.04352
                      -4.86711                      -1.13084                      89.01683
                      -5.21776                      -1.12002                      89.06783
                      -5.54500                      -1.06676                      89.19331
                      -5.82827                      -0.97442                      89.38539
                      -6.04978                      -0.84879                      89.63200
                      -6.19562                      -0.69776                      89.91764
                      -6.25660                      -0.53083                      90.22437
                      -6.22891                      -0.35848                      90.53291
                      -6.11429                      -0.19155                      90.82388
                      -5.91993                      -0.04051                      91.07899
                      -5.65804                       0.08513                      91.28221
                      -5.34509                       0.17748                      91.42078
                      -5.00074                       0.23074                      91.48598
                      -4.64662                       0.24157                      91.47373
                      -4.30499                       0.20928                      91.38479
                      -3.99731                       0.13590                      91.22474
                      -3.74290                       0.02605                      91.00366
                      -3.55777                      -0.11338                      90.73542
                      -3.45354                      -0.27363                      90.43688
                      -3.40419                      -0.33538                      90.06286
                      -3.47785                      -0.51098                      89.75257
                      -3.63777                      -0.67556                      89.46994
                      -3.87391                      -0.81875                      89.23272
                      -4.17143                      -0.93158                      89.05582
                      -4.51163                      -1.00695                      88.95035
                      -4.87314                      -1.04012                      88.92295
                      -5.23324                      -1.02901                      88.97532
                      -5.56931                      -0.97432                      89.10419
                      -5.86022                      -0.87948                      89.30145
                      -6.08771                      -0.75046                      89.55471
                      -6.23748                      -0.59536                      89.84806
                      -6.30011                      -0.42392                      90.16306
                      -6.27168                      -0.24692                      90.47993
                      -6.15396                      -0.07548                      90.77874
                      -5.95435                       0.07962                      91.04074
                      -5.68540                       0.20865                      91.24944
                      -5.36401                       0.30350                      91.39175
                      -5.01037                       0.35820                      91.45871
                      -4.64670                       0.36931                      91.44613
                      -4.29584                       0.33615                      91.35479
                      -3.97986                       0.26080                      91.19043
                      -3.71860                       0.14798                      90.96337
                      -3.52847                       0.00479                      90.68790
                      -3.42143                      -0.15978                      90.38130
                      -3.38308                      -0.22615                      89.99995
                      -3.45809                      -0.40497                      89.68397
                      -3.62095                      -0.57256                      89.39615
                      -3.86142                      -0.71839                      89.15458
                      -4.16440                      -0.83329                      88.97443
                      -4.51084                      -0.91004                      88.86703
                      -4.87898                      -0.94382                      88.83912
                      -5.24569                      -0.93250                      88.89245
                      -5.58793                      -0.87681                      89.02369
                      -5.88418                      -0.78023                      89.22457
                      -6.11585                      -0.64884                      89.48248
                      -6.26836                      -0.49089                      89.78121
                      -6.33214                      -0.31631                      90.10199
                      -6.30318                      -0.13607                      90.42467
                      -6.18331                       0.03852                      90.72897
                      -5.98004                       0.19647                      90.99577
                      -5.70615                       0.32787                      91.20831
                      -5.37886                       0.42445                      91.35322
                      -5.01873                       0.48016                      91.42142
                      -4.64839                       0.49148                      91.40860
                      -4.29110                       0.45771                      91.31558
                      -3.96931                       0.38097                      91.14821
                      -3.70326                       0.26608                      90.91699
                      -3.50964                       0.12026                      90.63646
                      -3.40063                      -0.04733                      90.32424
                      -3.37282                      -0.11692                      89.93801
                      -3.44863                      -0.29765                      89.61866
                      -3.61322                      -0.46702                      89.32778
                      -3.85625                      -0.61440                      89.08363
                      -4.16246                      -0.73052                      88.90156
                      -4.51259                      -0.80809                      88.79301
                      -4.88466                      -0.84223                      88.76481
                      -5.25528                      -0.83080                      88.81871
                      -5.60116                      -0.77451                      88.95134
                      -5.90057                      -0.67690                      89.15437
                      -6.13471                      -0.54411                      89.41503
                      -6.28885                      -0.38448                      89.71694
                      -6.35331                      -0.20804                      90.04114
                      -6.32404                      -0.02587                      90.36726
                      -6.20288                       0.15057                      90.67480
                      -5.99745                       0.31021                      90.94445
                      -5.72065                       0.44300                      91.15925
                      -5.38987                       0.54062                      91.30571
                      -5.02590                       0.59692                      91.37463
                      -4.65161                       0.60836                      91.36168
                      -4.29051                       0.57423                      91.26767
                      -3.96530                       0.49667                      91.09851
                      -3.69640                       0.38056                      90.86482
                      -3.50072                       0.23319                      90.58130
                      -3.39055                       0.06381                      90.26575
                      -3.37305                      -0.00768                      89.87702
                      -3.44913                      -0.18905                      89.55655
                      -3.61430                      -0.35901                      89.26465
                      -3.85818                      -0.50691                      89.01965
                      -4.16545                      -0.62343                      88.83695
                      -4.51681                      -0.70127                      88.72802
                      -4.89017                      -0.73553                      88.69972
                      -5.26208                      -0.72406                      88.75381
                      -5.60917                      -0.66757                      88.88691
                      -5.90963                      -0.56963                      89.09064
                      -6.14458                      -0.43637                      89.35220
                      -6.29926                      -0.27618                      89.65517
                      -6.36395                      -0.09913                      89.98051
                      -6.33458                       0.08368                      90.30776
                      -6.21300                       0.26074                      90.61638
                      -6.00685                       0.42093                      90.88696
                      -5.72908                       0.55419                      91.10251
                      -5.39715                       0.65215                      91.24949
                      -5.03191                       0.70864                      91.31865
                      -4.65631                       0.72012                      91.30565
                      -4.29395                       0.68587                      91.21131
                      -3.96760                       0.60805                      91.04156
                      -3.69777                       0.49153                      90.80706
                      -3.50141                       0.34364                      90.52255
                      -3.39085                       0.17368                      90.20590
                      -3.38368                       0.10155                      89.81695
                      -3.45949                      -0.07918                      89.49760
                      -3.62409                      -0.24856                      89.20672
                      -3.86712                      -0.39594                      88.96257
                      -4.17333                      -0.51206                      88.78050
                      -4.52346                      -0.58963                      88.67196
                      -4.89553                      -0.62377                      88.64375
                      -5.26614                      -0.61233                      88.69766
                      -5.61203                      -0.55604                      88.83029
                      -5.91144                      -0.45844                      89.03331
                      -6.14557                      -0.32565                      89.29397
                      -6.29971                      -0.16602                      89.59588
                      -6.36417                       0.01042                      89.92008
                      -6.33491                       0.19259                      90.24620
                      -6.21375                       0.36904                      90.55374
                      -6.00832                       0.52867                      90.82339
                      -5.73152                       0.66147                      91.03819
                      -5.40074                       0.75908                      91.18465
                      -5.03677                       0.81538                      91.25357
                      -4.66247                       0.82682                      91.24062
                      -4.30138                       0.79270                      91.14661
                      -3.97616                       0.71514                      90.97745
                      -3.70727                       0.59902                      90.74377
                      -3.51159                       0.45165                      90.46024
                      -3.40142                       0.28228                      90.14470
                      -3.40482                       0.21078                      89.75783
                      -3.47983                       0.03196                      89.44185
                      -3.64269                      -0.13563                      89.15403
                      -3.88316                      -0.28146                      88.91246
                      -4.18613                      -0.39636                      88.73231
                      -4.53258                      -0.47311                      88.62491
                      -4.90072                      -0.50689                      88.59700
                      -5.26743                      -0.49557                      88.65034
                      -5.60966                      -0.43988                      88.78157
                      -5.90592                      -0.34330                      88.98245
                      -6.13758                      -0.21191                      89.24036
                      -6.29010                      -0.05396                      89.53909
                      -6.35388                       0.12062                      89.85988
                      -6.32492                       0.30086                      90.18256
                      -6.20504                       0.47545                      90.48686
                      -6.00177                       0.63340                      90.75366
                      -5.72789                       0.76480                      90.96619
                      -5.40060                       0.86138                      91.11111
                      -5.04047                       0.91709                      91.17930
                      -4.67012                       0.92841                      91.16649
                      -4.31283                       0.89464                      91.07347
                      -3.99105                       0.81790                      90.90609
                      -3.72499                       0.70301                      90.67487
                      -3.53138                       0.55719                      90.39434
                      -3.42237                       0.38960                      90.08212
                      -3.43680                       0.32001                      89.69969
                      -3.51046                       0.14441                      89.38940
                      -3.67038                      -0.02016                      89.10677
                      -3.90652                      -0.16336                      88.86955
                      -4.20403                      -0.27618                      88.69265
                      -4.54423                      -0.35155                      88.58718
                      -4.90574                      -0.38472                      88.55977
                      -5.26584                      -0.37361                      88.61215
                      -5.60191                      -0.31892                      88.74102
                      -5.89283                      -0.22409                      88.93828
                      -6.12032                      -0.09506                      89.19154
                      -6.27008                       0.06004                      89.48489
                      -6.33272                       0.23147                      89.79989
                      -6.30428                       0.40847                      90.11676
                      -6.18656                       0.57991                      90.41557
                      -5.98696                       0.73502                      90.67756
                      -5.71801                       0.86405                      90.88627
                      -5.39662                       0.95889                      91.02858
                      -5.04297                       1.01359                      91.09554
                      -4.67930                       1.02471                      91.08296
                      -4.32845                       0.99155                      90.99162
                      -4.01246                       0.91619                      90.82726
                      -3.75120                       0.80337                      90.60020
                      -3.56107                       0.66018                      90.32472
                      -3.45403                       0.49561                      90.01813
                      -3.48023                       0.42924                      89.64257
                      -3.55196                       0.25826                      89.34043
                      -3.70768                       0.09801                      89.06523
                      -3.93761                      -0.04143                      88.83424
                      -4.22731                      -0.15129                      88.66199
                      -4.55858                      -0.22468                      88.55929
                      -4.91059                      -0.25697                      88.53260
                      -5.26123                      -0.24616                      88.58360
                      -5.58847                      -0.19290                      88.70908
                      -5.87174                      -0.10056                      88.90116
                      -6.09326                       0.02507                      89.14777
                      -6.23909                       0.17610                      89.43341
                      -6.30007                       0.34303                      89.74014
                      -6.27238                       0.51538                      90.04868
                      -6.15776                       0.68231                      90.33965
                      -5.96340                       0.83335                      90.59476
                      -5.70152                       0.95899                      90.79798
                      -5.38857                       1.05134                      90.93655
                      -5.04421                       1.10460                      91.00175
                      -4.69010                       1.11543                      90.98950
                      -4.34846                       1.08314                      90.90056
                      -4.04078                       1.00976                      90.74051
                      -3.78638                       0.89991                      90.51943
                      -3.60125                       0.76048                      90.25119
                      -3.49701                       0.60023                      89.95265
                      -3.53609                       0.53848                      89.58657
                      -3.60524                       0.37361                      89.29525
                      -3.75539                       0.21910                      89.02989
                      -3.97710                       0.08465                      88.80717
                      -4.25643                      -0.02128                      88.64108
                      -4.57583                      -0.09204                      88.54206
                      -4.91524                      -0.12318                      88.51633
                      -5.25333                      -0.11275                      88.56551
                      -5.56886                      -0.06140                      88.68650
                      -5.84199                       0.02764                      88.87170
                      -6.05557                       0.14877                      89.10948
                      -6.19618                       0.29439                      89.38490
                      -6.25499                       0.45535                      89.68065
                      -6.22829                       0.62153                      89.97814
                      -6.11777                       0.78249                      90.25869
                      -5.93036                       0.92811                      90.50467
                      -5.67786                       1.04925                      90.70062
                      -5.37611                       1.13830                      90.83422
                      -5.04408                       1.18966                      90.89710
                      -4.70264                       1.20010                      90.88528
                      -4.37324                       1.16896                      90.79952
                      -4.07657                       1.09821                      90.64521
                      -3.83127                       0.99229                      90.43204
                      -3.65277                       0.85785                      90.17340
                      -3.55227                       0.70334                      89.88554
                      -3.60582                       0.64771                      89.53181
                      -3.67170                       0.49064                      89.25428
                      -3.81474                       0.34345                      89.00148
                      -4.02595                       0.21537                      88.78931
                      -4.29205                       0.11445                      88.63108
                      -4.59634                       0.04704                      88.53675
                      -4.91968                       0.01738                      88.51224
                      -5.24176                       0.02731                      88.55908
                      -5.54235                       0.07623                      88.67435
                      -5.80256                       0.16105                      88.85078
                      -6.00603                       0.27645                      89.07731
                      -6.13999                       0.41518                      89.33969
                      -6.19601                       0.56852                      89.62143
                      -6.17057                       0.72683                      89.90485
                      -6.06528                       0.88017                      90.17211
                      -5.88675                       1.01890                      90.40645
                      -5.64619                       1.13431                      90.59312
                      -5.35873                       1.21914                      90.72040
                      -5.04242                       1.26806                      90.78030
                      -4.71714                       1.27801                      90.76904
                      -4.40333                       1.24835                      90.68734
                      -4.12071                       1.18095                      90.54033
                      -3.88703                       1.08004                      90.33725
                      -3.71697                       0.95196                      90.09086
                      -3.62123                       0.80477                      89.81663
                      -3.69162                       0.75694                      89.47849
                      -3.75341                       0.60963                      89.21820
                      -3.88756                       0.47158                      88.98111
                      -4.08565                       0.35145                      88.78211
                      -4.33523                       0.25681                      88.63372
                      -4.62061                       0.19359                      88.54524
                      -4.92387                       0.16576                      88.52225
                      -5.22595                       0.17508                      88.56619
                      -5.50787                       0.22096                      88.67429
                      -5.75191                       0.30051                      88.83977
                      -5.94274                       0.40874                      89.05222
                      -6.06838                       0.53886                      89.29830
                      -6.12092                       0.68267                      89.56255
                      -6.09706                       0.83115                      89.82836
                      -5.99831                       0.97496                      90.07903
                      -5.83087                       1.10507                      90.29880
                      -5.60526                       1.21331                      90.47388
                      -5.33565                       1.29288                      90.59326
                      -5.03899                       1.33876                      90.64943
                      -4.73392                       1.34809                      90.63888
                      -4.43960                       1.32027                      90.56225
                      -4.17453                       1.25706                      90.42438
                      -3.95536                       1.16242                      90.23391
                      -3.79587                       1.04230                      90.00282
                      -3.70607                       0.90425                      89.74563
                      -3.79696                       0.86617                      89.42693
                      -3.85367                       0.73099                      89.18807
                      -3.97677                       0.60431                      88.97050
                      -4.15855                       0.49407                      88.78789
                      -4.38758                       0.40722                      88.65171
                      -4.64947                       0.34920                      88.57052
                      -4.92776                       0.32367                      88.54942
                      -5.20496                       0.33222                      88.58974
                      -5.46367                       0.37432                      88.68895
                      -5.68762                       0.44732                      88.84080
                      -5.86274                       0.54665                      89.03576
                      -5.97803                       0.66604                      89.26158
                      -6.02624                       0.79801                      89.50407
                      -6.00435                       0.93427                      89.74799
                      -5.91373                       1.06624                      89.97802
                      -5.76008                       1.18564                      90.17970
                      -5.55304                       1.28497                      90.34036
                      -5.30563                       1.35798                      90.44991
                      -5.03340                       1.40009                      90.50146
                      -4.75344                       1.40865                      90.49177
                      -4.48336                       1.38312                      90.42146
                      -4.24011                       1.32511                      90.29493
                      -4.03899                       1.23826                      90.12015
                      -3.89263                       1.12803                      89.90808
                      -3.81023                       1.00135                      89.67207
                      -3.92777                       0.97540                      89.37765
                      -3.97809                       0.85544                      89.16569
                      -4.08734                       0.74302                      88.97261
                      -4.24865                       0.64520                      88.81056
                      -4.45189                       0.56812                      88.68971
                      -4.68429                       0.51664                      88.61767
                      -4.93125                       0.49398                      88.59894
                      -5.17725                       0.50157                      88.63472
                      -5.40683                       0.53893                      88.72276
                      -5.60556                       0.60371                      88.85751
                      -5.76096                       0.69185                      89.03052
                      -5.86327                       0.79781                      89.23092
                      -5.90606                       0.91492                      89.44611
                      -5.88663                       1.03583                      89.66257
                      -5.80622                       1.15295                      89.86670
                      -5.66986                       1.25890                      90.04567
                      -5.48613                       1.34705                      90.18825
                      -5.26658                       1.41184                      90.28546
                      -5.02500                       1.44921                      90.33120
                      -4.77656                       1.45680                      90.32261
                      -4.53688                       1.43415                      90.26021
                      -4.32103                       1.38267                      90.14793
                      -4.14255                       1.30560                      89.99282
                      -4.01267                       1.20778                      89.80464
                      -3.93954                       1.09536                      89.59519
                      -4.09555                       1.08463                      89.33170
                      -4.13760                       0.98438                      89.15455
                      -4.22890                       0.89043                      88.99320
                      -4.36371                       0.80868                      88.85777
                      -4.53357                       0.74426                      88.75678
                      -4.72779                       0.70124                      88.69657
                      -4.93417                       0.68230                      88.68092
                      -5.13975                       0.68864                      88.71082
                      -5.33161                       0.71986                      88.78439
                      -5.49770                       0.77401                      88.89701
                      -5.62757                       0.84767                      89.04160
                      -5.71307                       0.93621                      89.20907
                      -5.74883                       1.03409                      89.38890
                      -5.73260                       1.13513                      89.56980
                      -5.66539                       1.23301                      89.74039
                      -5.55144                       1.32156                      89.88997
                      -5.39789                       1.39522                      90.00912
                      -5.21441                       1.44937                      90.09036
                      -5.01252                       1.48060                      90.12859
                      -4.80490                       1.48694                      90.12140
                      -4.60460                       1.46801                      90.06926
                      -4.42420                       1.42499                      89.97542
                      -4.27505                       1.36058                      89.84580
                      -4.16650                       1.27883                      89.68853
                      -4.10539                       1.18488                      89.51350
                      -4.32974                       1.19386                      89.29170
                      -4.36015                       1.12138                      89.16363
                      -4.42616                       1.05345                      89.04697
                      -4.52363                       0.99435                      88.94905
                      -4.64643                       0.94778                      88.87603
                      -4.78685                       0.91667                      88.83250
                      -4.93606                       0.90298                      88.82119
                      -5.08470                       0.90756                      88.84281
                      -5.22342                       0.93014                      88.89600
                      -5.34349                       0.96928                      88.97742
                      -5.43739                       1.02253                      89.08196
                      -5.49921                       1.08655                      89.20304
                      -5.52506                       1.15732                      89.33306
                      -5.51333                       1.23037                      89.46385
                      -5.46474                       1.30114                      89.58719
                      -5.38235                       1.36516                      89.69533
                      -5.27134                       1.41842                      89.78147
                      -5.13868                       1.45756                      89.84021
                      -4.99271                       1.48014                      89.86785
                      -4.84260                       1.48473                      89.86266
                      -4.69778                       1.47104                      89.82495
                      -4.56736                       1.43994                      89.75711
                      -4.45952                       1.39337                      89.66340
                      -4.38104                       1.33427                      89.54969
                      -4.33686                       1.26634                      89.42314
                      -4.93226                       1.30309                      89.28476
                      -4.93226                       1.30309                      89.28476
                      -4.93226                       1.30309                      89.28476
                      -4.93226                       1.30309                      89.28476
                      -4.93226                       1.30309                      89.28476
                      -4.93226                       1.30309                      89.28476
                      -4.93226                       1.30309                      89.28476
                      -4.93226                       1.30309                      89.28476
                      -4.93226                       1.30309                      89.28476
                      -4.93226                       1.30309                      89.28476
                      -4.93226                       1.30309                      89.28476
                      -4.93226                       1.30309                      89.28476
                      -4.93226                       1.30309                      89.28476
                      -4.93226                       1.30309                      89.28476
                      -4.93226                       1.30309                      89.28476
                      -4.93226                       1.30309                      89.28476
                      -4.93226                       1.30309                      89.28476
                      -4.93226                       1.30309                      89.28476
                      -4.93226                       1.30309                      89.28476
                      -4.93226                       1.30309                      89.28476
                      -4.93226                       1.30309                      89.28476
                      -4.93226                       1.30309                      89.28476
                      -4.93226                       1.30309                      89.28476
                      -4.93226                       1.30309                      89.28476
                      -4.93226                       1.30309                      89.28476
        </DataArray>
      </Points>
      <Polys>
        <DataArray type="Int32" Name="connectivity" format="ascii">
      0      1     26     25
      1      2     27     26
      2      3     28     27
      3      4     29     28
      4      5     30     29
      5      6     31     30
      6      7     32     31
      7      8     33     32
      8      9     34     33
      9     10     35     34
     10     11     36     35
     11     12     37     36
     12     13     38     37
     13     14     39     38
     14     15     40     39
     15     16     41     40
     16     17     42     41
     17     18     43     42
     18     19     44     43
     19     20     45     44
     20     21     46     45
     21     22     47     46
     22     23     48     47
     23     24     49     48
     24      0     25     49
     25     26     51     50
     26     27     52     51
     27     28     53     52
     28     29     54     53
     29     30     55     54
     30     31     56     55
     31     32     57     56
     32     33     58     57
     33     34     59     58
     34     35     60     59
     35     36     61     60
     36     37     62     61
     37     38     63     62
     38     39     64     63
     39     40     65     64
     40     41     66     65
     41     42     67     66
     42     43     68     67
     43     44     69     68
     44     45     70     69
     45     46     71     70
     46     47     72     71
     47     48     73     72
     48     49     74     73
     49     25     50     74
     50     51     76     75
     51     52     77     76
     52     53     78     77
     53     54     79     78
     54     55     80     79
     55     56     81     80
     56     57     82     81
     57     58     83     82
     58     59     84     83
     59     60     85     84
     60     61     86     85
     61     62     87     86
     62     63     88     87
     63     64     89     88
     64     65     90     89
     65     66     91     90
     66     67     92     91
     67     68     93     92
     68     69     94     93
     69     70     95     94
     70     71     96     95
     71     72     97     96
     72     73     98     97
     73     74     99     98
     74     50     75     99
     75     76    101    100
     76     77    102    101
     77     78    103    102
     78     79    104    103
     79     80    105    104
     80     81    106    105
     81     82    107    106
     82     83    108    107
     83     84    109    108
     84     85    110    109
     85     86    111    110
     86     87    112    111
     87     88    113    112
     88     89    114    113
     89     90    115    114
     90     91    116    115
     91     92    117    116
     92     93    118    117
     93     94    119    118
     94     95    120    119
     95     96    121    120
     96     97    122    121
     97     98    123    122
     98     99    124    123
     99     75    100    124
    100    101    126    125
    101    102    127    126
    102    103    128    127
    103    104    129    128
    104    105    130    129
    105    106    131    130
    106    107    132    131
    107    108    133    132
    108    109    134    133
    109    110    135    134
    110    111    136    135
    111    112    137    136
    112    113    138    137
    113    114    139    138
    114    115    140    139
    115    116    141    140
    116    117    142    141
    117    118    143    142
    118    119    144    143
    119    120    145    144
    120    121    146    145
    121    122    147    146
    122    123    148    147
    123    124    149    148
    124    100    125    149
    125    126    151    150
    126    127    152    151
    127    128    153    152
    128    129    154    153
    129    130    155    154
    130    131    156    155
    131    132    157    156
    132    133    158    157
    133    134    159    158
    134    135    160    159
    135    136    161    160
    136    137    162    161
    137    138    163    162
    138    139    164    163
    139    140    165    164
    140    141    166    165
    141    142    167    166
    142    143    168    167
    143    144    169    168
    144    145    170    169
    145    146    171    170
    146    147    172    171
    147    148    173    172
    148    149    174    173
    149    125    150    174
    150    151    176    175
    151    152    177    176
    152    153    178    177
    153    154    179    178
    154    155    180    179
    155    156    181    180
    156    157    182    181
    157    158    183    182
    158    159    184    183
    159    160    185    184
    160    161    186    185
    161    162    187    186
    162    163    188    187
    163    164    189    188
    164    165    190    189
    165    166    191    190
    166    167    192    191
    167    168    193    192
    168    169    194    193
    169    170    195    194
    170    171    196    195
    171    172    197    196
    172    173    198    197
    173    174    199    198
    174    150    175    199
    175    176    201    200
    176    177    202    201
    177    178    203    202
    178    179    204    203
    179    180    205    204
    180    181    206    205
    181    182    207    206
    182    183    208    207
    183    184    209    208
    184    185    210    209
    185    186    211    210
    186    187    212    211
    187    188    213    212
    188    189    214    213
    189    190    215    214
    190    191    216    215
    191    192    217    216
    192    193    218    217
    193    194    219    218
    194    195    220    219
    195    196    221    220
    196    197    222    221
    197    198    223    222
    198    199    224    223
    199    175    200    224
    200    201    226    225
    201    202    227    226
    202    203    228    227
    203    204    229    228
    204    205    230    229
    205    206    231    230
    206    207    232    231
    207    208    233    232
    208    209    234    233
    209    210    235    234
    210    211    236    235
    211    212    237    236
    212    213    238    237
    213    214    239    238
    214    215    240    239
    215    216    241    240
    216    217    242    241
    217    218    243    242
    218    219    244    243
    219    220    245    244
    220    221    246    245
    221    222    247    246
    222    223    248    247
    223    224    249    248
    224    200    225    249
    225    226    251    250
    226    227    252    251
    227    228    253    252
    228    229    254    253
    229    230    255    254
    230    231    256    255
    231    232    257    256
    232    233    258    257
    233    234    259    258
    234    235    260    259
    235    236    261    260
    236    237    262    261
    237    238    263    262
    238    239    264    263
    239    240    265    264
    240    241    266    265
    241    242    267    266
    242    243    268    267
    243    244    269    268
    244    245    270    269
    245    246    271    270
    246    247    272    271
    247    248    273    272
    248    249    274    273
    249    225    250    274
    250    251    276    275
    251    252    277    276
    252    253    278    277
    253    254    279    278
    254    255    280    279
    255    256    281    280
    256    257    282    281
    257    258    283    282
    258    259    284    283
    259    260    285    284
    260    261    286    285
    261    262    287    286
    262    263    288    287
    263    264    289    288
    264    265    290    289
    265    266    291    290
    266    267    292    291
    267    268    293    292
    268    269    294    293
    269    270    295    294
    270    271    296    295
    271    272    297    296
    272    273    298    297
    273    274    299    298
    274    250    275    299
    275    276    301    300
    276    277    302    301
    277    278    303    302
    278    279    304    303
    279    280    305    304
    280    281    306    305
    281    282    307    306
    282    283    308    307
    283    284    309    308
    284    285    310    309
    285    286    311    310
    286    287    312    311
    287    288    313    312
    288    289    314    313
    289    290    315    314
    290    291    316    315
    291    292    317    316
    292    293    318    317
    293    294    319    318
    294    295    320    319
    295    296    321    320
    296    297    322    321
    297    298    323    322
    298    299    324    323
    299    275    300    324
    300    301    326    325
    301    302    327    326
    302    303    328    327
    303    304    329    328
    304    305    330    329
    305    306    331    330
    306    307    332    331
    307    308    333    332
    308    309    334    333
    309    310    335    334
    310    311    336    335
    311    312    337    336
    312    313    338    337
    313    314    339    338
    314    315    340    339
    315    316    341    340
    316    317    342    341
    317    318    343    342
    318    319    344    343
    319    320    345    344
    320    321    346    345
    321    322    347    346
    322    323    348    347
    323    324    349    348
    324    300    325    349
    325    326    351    350
    326    327    352    351
    327    328    353    352
    328    329    354    353
    329    330    355    354
    330    331    356    355
    331    332    357    356
    332    333    358    357
    333    334    359    358
    334    335    360    359
    335    336    361    360
    336    337    362    361
    337    338    363    362
    338    339    364    363
    339    340    365    364
    340    341    366    365
    341    342    367    366
    342    343    368    367
    343    344    369    368
    344    345    370    369
    345    346    371    370
    346    347    372    371
    347    348    373    372
    348    349    374    373
    349    325    350    374
    350    351    376    375
    351    352    377    376
    352    353    378    377
    353    354    379    378
    354    355    380    379
    355    356    381    380
    356    357    382    381
    357    358    383    382
    358    359    384    383
    359    360    385    384
    360    361    386    385
    361    362    387    386
    362    363    388    387
    363    364    389    388
    364    365    390    389
    365    366    391    390
    366    367    392    391
    367    368    393    392
    368    369    394    393
    369    370    395    394
    370    371    396    395
    371    372    397    396
    372    373    398    397
    373    374    399    398
    374    350    375    399
    375    376    401    400
    376    377    402    401
    377    378    403    402
    378    379    404    403
    379    380    405    404
    380    381    406    405
    381    382    407    406
    382    383    408    407
    383    384    409    408
    384    385    410    409
    385    386    411    410
    386    387    412    411
    387    388    413    412
    388    389    414    413
    389    390    415    414
    390    391    416    415
    391    392    417    416
    392    393    418    417
    393    394    419    418
    394    395    420    419
    395    396    421    420
    396    397    422    421
    397    398    423    422
    398    399    424    423
    399    375    400    424
    400    401    426    425
    401    402    427    426
    402    403    428    427
    403    404    429    428
    404    405    430    429
    405    406    431    430
    406    407    432    431
    407    408    433    432
    408    409    434    433
    409    410    435    434
    410    411    436    435
    411    412    437    436
    412    413    438    437
    413    414    439    438
    414    415    440    439
    415    416    441    440
    416    417    442    441
    417    418    443    442
    418    419    444    443
    419    420    445    444
    420    421    446    445
    421    422    447    446
    422    423    448    447
    423    424    449    448
    424    400    425    449
    425    426    451    450
    426    427    452    451
    427    428    453    452
    428    429    454    453
    429    430    455    454
    430    431    456    455
    431    432    457    456
    432    433    458    457
    433    434    459    458
    434    435    460    459
    435    436    461    460
    436    437    462    461
    437    438    463    462
    438    439    464    463
    439    440    465    464
    440    441    466    465
    441    442    467    466
    442    443    468    467
    443    444    469    468
    444    445    470    469
    445    446    471    470
    446    447    472    471
    447    448    473    472
    448    449    474    473
    449    425    450    474
    450    451    476    475
    451    452    477    476
    452    453    478    477
    453    454    479    478
    454    455    480    479
    455    456    481    480
    456    457    482    481
    457    458    483    482
    458    459    484    483
    459    460    485    484
    460    461    486    485
    461    462    487    486
    462    463    488    487
    463    464    489    488
    464    465    490    489
    465    466    491    490
    466    467    492    491
    467    468    493    492
    468    469    494    493
    469    470    495    494
    470    471    496    495
    471    472    497    496
    472    473    498    497
    473    474    499    498
    474    450    475    499
    475    476    501    500
    476    477    502    501
    477    478    503    502
    478    479    504    503
    479    480    505    504
    480    481    506    505
    481    482    507    506
    482    483    508    507
    483    484    509    508
    484    485    510    509
    485    486    511    510
    486    487    512    511
    487    488    513    512
    488    489    514    513
    489    490    515    514
    490    491    516    515
    491    492    517    516
    492    493    518    517
    493    494    519    518
    494    495    520    519
    495    496    521    520
    496    497    522    521
    497    498    523    522
    498    499    524    523
    499    475    500    524
    500    501    526    525
    501    502    527    526
    502    503    528    527
    503    504    529    528
    504    505    530    529
    505    506    531    530
    506    507    532    531
    507    508    533    532
    508    509    534    533
    509    510    535    534
    510    511    536    535
    511    512    537    536
    512    513    538    537
    513    514    539    538
    514    515    540    539
    515    516    541    540
    516    517    542    541
    517    518    543    542
    518    519    544    543
    519    520    545    544
    520    521    546    545
    521    522    547    546
    522    523    548    547
    523    524    549    548
    524    500    525    549
    525    526    551    550
    526    527    552    551
    527    528    553    552
    528    529    554    553
    529    530    555    554
    530    531    556    555
    531    532    557    556
    532    533    558    557
    533    534    559    558
    534    535    560    559
    535    536    561    560
    536    537    562    561
    537    538    563    562
    538    539    564    563
    539    540    565    564
    540    541    566    565
    541    542    567    566
    542    543    568    567
    543    544    569    568
    544    545    570    569
    545    546    571    570
    546    547    572    571
    547    548    573    572
    548    549    574    573
    549    525    550    574
    550    551    576    575
    551    552    577    576
    552    553    578    577
    553    554    579    578
    554    555    580    579
    555    556    581    580
    556    557    582    581
    557    558    583    582
    558    559    584    583
    559    560    585    584
    560    561    586    585
    561    562    587    586
    562    563    588    587
    563    564    589    588
    564    565    590    589
    565    566    591    590
    566    567    592    591
    567    568    593    592
    568    569    594    593
    569    570    595    594
    570    571    596    595
    571    572    597    596
    572    573    598    597
    573    574    599    598
    574    550    575    599
    575    576    601    600
    576    577    602    601
    577    578    603    602
    578    579    604    603
    579    580    605    604
    580    581    606    605
    581    582    607    606
    582    583    608    607
    583    584    609    608
    584    585    610    609
    585    586    611    610
    586    587    612    611
    587    588    613    612
    588    589    614    613
    589    590    615    614
    590    591    616    615
    591    592    617    616
    592    593    618    617
    593    594    619    618
    594    595    620    619
    595    596    621    620
    596    597    622    621
    597    598    623    622
    598    599    624    623
    599    575    600    624
        </DataArray>
        <DataArray type="Int32" Name="offsets" format="ascii">
      4
      8
     12
     16
     20
     24
     28
     32
     36
     40
     44
     48
     52
     56
     60
     64
     68
     72
     76
     80
     84
     88
     92
     96
    100
    104
    108
    112
    116
    120
    124
    128
    132
    136
    140
    144
    148
    152
    156
    160
    164
    168
    172
    176
    180
    184
    188
    192
    196
    200
    204
    208
    212
    216
    220
    224
    228
    232
    236
    240
    244
    248
    252
    256
    260
    264
    268
    272
    276
    280
    284
    288
    292
    296
    300
    304
    308
    312
    316
    320
    324
    328
    332
    336
    340
    344
    348
    352
    356
    360
    364
    368
    372
    376
    380
    384
    388
    392
    396
    400
    404
    408
    412
    416
    420
    424
    428
    432
    436
    440
    444
    448
    452
    456
    460
    464
    468
    472
    476
    480
    484
    488
    492
    496
    500
    504
    508
    512
    516
    520
    524
    528
    532
    536
    540
    544
    548
    552
    556
    560
    564
    568
    572
    576
    580
    584
    588
    592
    596
    600
    604
    608
    612
    616
    620
    624
    628
    632
    636
    640
    644
    648
    652
    656
    660
    664
    668
    672
    676
    680
    684
    688
    692
    696
    700
    704
    708
    712
    716
    720
    724
    728
    732
    736
    740
    744
    748
    752
    756
    760
    764
    768
    772
    776
    780
    784
    788
    792
    796
    800
    804
    808
    812
    816
    820
    824
    828
    832
    836
    840
    844
    848
    852
    856
    860
    864
    868
    872
    876
    880
    884
    888
    892
    896
    900
    904
    908
    912
    916
    920
    924
    928
    932
    936
    940
    944
    948
    952
    956
    960
    964
    968
    972
    976
    980
    984
    988
    992
    996
   1000
   1004
   1008
   1012
   1016
   1020
   1024
   1028
   1032
   1036
   1040
   1044
   1048
   1052
   1056
   1060
   1064
   1068
   1072
   1076
   1080
   1084
   1088
   1092
   1096
   1100
   1104
   1108
   1112
   1116
   1120
   1124
   1128
   1132
   1136
   1140
   1144
   1148
   1152
   1156
   1160
   1164
   1168
   1172
   1176
   1180
   1184
   1188
   1192
   1196
   1200
   1204
   1208
   1212
   1216
   1220
   1224
   1228
   1232
   1236
   1240
   1244
   1248
   1252
   1256
   1260
   1264
   1268
   1272
   1276
   1280
   1284
   1288
   1292
   1296
   1300
   1304
   1308
   1312
   1316
   1320
   1324
   1328
   1332
   1336
   1340
   1344
   1348
   1352
   1356
   1360
   1364
   1368
   1372
   1376
   1380
   1384
   1388
   1392
   1396
   1400
   1404
   1408
   1412
   1416
   1420
   1424
   1428
   1432
   1436
   1440
   1444
   1448
   1452
   1456
   1460
   1464
   1468
   1472
   1476
   1480
   1484
   1488
   1492
   1496
   1500
   1504
   1508
   1512
   1516
   1520
   1524
   1528
   1532
   1536
   1540
   1544
   1548
   1552
   1556
   1560
   1564
   1568
   1572
   1576
   1580
   1584
   1588
   1592
   1596
   1600
   1604
   1608
   1612
   1616
   1620
   1624
   1628
   1632
   1636
   1640
   1644
   1648
   1652
   1656
   1660
   1664
   1668
   1672
   1676
   1680
   1684
   1688
   1692
   1696
   1700
   1704
   1708
   1712
   1716
   1720
   1724
   1728
   1732
   1736
   1740
   1744
   1748
   1752
   1756
   1760
   1764
   1768
   1772
   1776
   1780
   1784
   1788
   1792
   1796
   1800
   1804
   1808
   1812
   1816
   1820
   1824
   1828
   1832
   1836
   1840
   1844
   1848
   1852
   1856
   1860
   1864
   1868
   1872
   1876
   1880
   1884
   1888
   1892
   1896
   1900
   1904
   1908
   1912
   1916
   1920
   1924
   1928
   1932
   1936
   1940
   1944
   1948
   1952
   1956
   1960
   1964
   1968
   1972
   1976
   1980
   1984
   1988
   1992
   1996
   2000
   2004
   2008
   2012
   2016
   2020
   2024
   2028
   2032
   2036
   2040
   2044
   2048
   2052
   2056
   2060
   2064
   2068
   2072
   2076
   2080
   2084
   2088
   2092
   2096
   2100
   2104
   2108
   2112
   2116
   2120
   2124
   2128
   2132
   2136
   2140
   2144
   2148
   2152
   2156
   2160
   2164
   2168
   2172
   2176
   2180
   2184
   2188
   2192
   2196
   2200
   2204
   2208
   2212
   2216
   2220
   2224
   2228
   2232
   2236
   2240
   2244
   2248
   2252
   2256
   2260
   2264
   2268
   2272
   2276
   2280
   2284
   2288
   2292
   2296
   2300
   2304
   2308
   2312
   2316
   2320
   2324
   2328
   2332
   2336
   2340
   2344
   2348
   2352
   2356
   2360
   2364
   2368
   2372
   2376
   2380
   2384
   2388
   2392
   2396
   2400
        </DataArray>
      </Polys>
    </Piece>
  </PolyData>
</VTKFile>
