<?xml version="1.0"?>
<VTKFile type="PolyData" version="0.1" byte_order="LittleEndian">
  <PolyData>
    <Piece NumberOfPoints="     19" NumberOfVerts="  0" NumberOfLines="     18"
           NumberOfStrips="  0" NumberOfPolys="      0">
      <Points>
        <DataArray type="Float32" NumberOfComponents="3" format="ascii">
                      -4.15852                       0.01802                      91.56123
                      -4.08016                       0.03429                      92.92596
                      -3.93857                      -0.02803                      95.65774
                      -3.79556                      -0.13542                      98.39057
                      -3.60070                      -0.29676                     101.80707
                      -3.27404                      -0.34783                     105.89921
                      -2.86993                      -0.26963                     109.98344
                      -2.40457                      -0.18976                     114.06151
                      -1.86762                      -0.10669                     118.13099
                      -1.25314                      -0.02267                     122.18969
                      -0.55737                       0.05826                     126.23554
                       0.22365                       0.13707                     130.26622
                       1.09036                       0.21318                     134.27981
                       2.04069                       0.28591                     138.27477
                       3.07225                       0.35422                     142.24936
                       3.99026                       0.40698                     145.54501
                       4.75728                       0.45404                     148.17079
                       5.55434                       0.55277                     150.78534
                       5.95630                       0.55947                     152.09075
        </DataArray>
      </Points>
      <PointData>
        <DataArray type="Float32" Name="TranslationalVelocity" NumberOfComponents="3" format="ascii">
                      -0.16268                      -4.16906                       0.04004
                      -0.16452                      -7.98252                       0.08566
                      -0.19589                     -15.61547                      -0.08683
                      -0.24204                     -23.25734                      -0.38497
                      -0.31155                     -32.82428                      -0.83364
                      -0.36152                     -44.32279                      -0.97493
                      -0.38202                     -55.83596                      -0.75439
                      -0.40833                     -67.36399                      -0.52726
                      -0.43830                     -78.90216                      -0.28914
                      -0.47032                     -90.44489                      -0.04645
                      -0.50306                    -101.98623                       0.18913
                      -0.53358                    -113.51954                       0.41988
                      -0.55950                    -125.03853                       0.64356
                      -0.57879                    -136.53752                       0.85749
                      -0.59005                    -148.01078                       1.05789
                      -0.59262                    -157.54888                       1.21149
                      -0.58794                    -165.16320                       1.34642
                      -0.56194                    -172.75960                       1.62444
                      -0.56122                    -176.55539                       1.64297
        </DataArray>
        <DataArray type="Float32" Name="RotationalVelocity" NumberOfComponents="3" format="ascii">
                       2.77750                      -0.00448                      -0.28118
                       2.77813                      -0.00465                      -0.28125
                       2.77978                      -0.00521                      -0.28152
                       2.78182                      -0.00603                      -0.28199
                       2.78465                      -0.00729                      -0.28291
                       2.78817                      -0.00897                      -0.28459
                       2.79153                      -0.01062                      -0.28690
                       2.79454                      -0.01203                      -0.28979
                       2.79708                      -0.01303                      -0.29320
                       2.79915                      -0.01349                      -0.29702
                       2.80076                      -0.01333                      -0.30112
                       2.80197                      -0.01252                      -0.30538
                       2.80286                      -0.01109                      -0.30966
                       2.80351                      -0.00913                      -0.31384
                       2.80397                      -0.00683                      -0.31782
                       2.80422                      -0.00484                      -0.32094
                       2.80433                      -0.00332                      -0.32329
                       2.80432                      -0.00201                      -0.32552
                       2.80425                      -0.00148                      -0.32659
        </DataArray>
        <DataArray type="Float32" Name="TranslationalAcceleration" NumberOfComponents="3" format="ascii">
                      -1.24571                      -0.32196                     -11.54844
                      -1.42340                      -0.35300                     -14.03663
                      -4.05984                      -0.27069                     -40.20932
                      -6.46795                       0.22579                     -64.33421
                      -9.26264                       1.11543                     -92.58341
                     -12.43281                       1.11827                    -124.77615
                     -15.53832                       0.12158                    -156.19983
                     -18.68776                      -0.89582                    -187.60417
                     -21.95477                      -1.95819                    -219.35443
                     -25.38432                      -3.05187                    -251.54704
                     -28.99698                      -4.14320                    -284.08611
                     -32.79216                      -5.23589                    -316.75990
                     -36.75308                      -6.32064                    -349.32253
                     -40.85098                      -7.38933                    -381.57224
                     -45.04920                      -8.43661                    -413.42676
                     -48.59646                      -9.29315                    -439.74612
                     -51.44166                     -10.03587                    -460.78986
                     -54.25856                     -11.21831                    -482.01361
                     -55.68591                     -11.47983                    -492.78363
        </DataArray>
        <DataArray type="Float32" Name="OrientationX" NumberOfComponents="3" format="ascii">
                       0.97189                      -0.22954                      -0.05237
                       0.97183                      -0.22957                      -0.05335
                       0.97160                      -0.22976                      -0.05658
                       0.97123                      -0.23013                      -0.06135
                       0.97053                      -0.23085                      -0.06911
                       0.97614                      -0.20113                      -0.08180
                       0.97877                      -0.18083                      -0.09649
                       0.97989                      -0.16443                      -0.11306
                       0.98018                      -0.14827                      -0.13140
                       0.97949                      -0.13313                      -0.15126
                       0.97759                      -0.12099                      -0.17226
                       0.97471                      -0.11092                      -0.19400
                       0.97081                      -0.10460                      -0.21584
                       0.96592                      -0.10432                      -0.23690
                       0.96084                      -0.10538                      -0.25627
                       0.95687                      -0.10655                      -0.27025
                       0.95413                      -0.10797                      -0.27926
                       0.95170                      -0.11280                      -0.28557
                       0.95059                      -0.11717                      -0.28750
        </DataArray>
        <DataArray type="Float32" Name="OrientationY" NumberOfComponents="3" format="ascii">
                       0.22838                       0.97319                      -0.02716
                       0.22839                       0.97319                      -0.02736
                       0.22849                       0.97314                      -0.02806
                       0.22872                       0.97306                      -0.02912
                       0.22922                       0.97289                      -0.03088
                       0.19922                       0.97946                      -0.03098
                       0.17857                       0.98342                      -0.03163
                       0.16176                       0.98630                      -0.03242
                       0.14517                       0.98886                      -0.03291
                       0.12959                       0.99102                      -0.03309
                       0.11699                       0.99258                      -0.03321
                       0.10649                       0.99376                      -0.03316
                       0.09974                       0.99446                      -0.03331
                       0.09899                       0.99450                      -0.03435
                       0.09962                       0.99440                      -0.03538
                       0.10053                       0.99428                      -0.03607
                       0.10178                       0.99413                      -0.03660
                       0.10637                       0.99360                      -0.03799
                       0.11054                       0.99310                      -0.03923
        </DataArray>
        <DataArray type="Float32" Name="OrientationZ" NumberOfComponents="3" format="ascii">
                       0.05720                       0.01444                       0.99826
                       0.05821                       0.01441                       0.99820
                       0.06151                       0.01434                       0.99800
                       0.06639                       0.01425                       0.99769
                       0.07437                       0.01412                       0.99713
                       0.08635                       0.01394                       0.99617
                       0.10061                       0.01373                       0.99483
                       0.11684                       0.01348                       0.99306
                       0.13482                       0.01318                       0.99078
                       0.15431                       0.01281                       0.98794
                       0.17500                       0.01232                       0.98449
                       0.19647                       0.01166                       0.98044
                       0.21813                       0.01081                       0.97586
                       0.23918                       0.00973                       0.97093
                       0.25856                       0.00846                       0.96596
                       0.27255                       0.00734                       0.96211
                       0.28157                       0.00649                       0.95952
                       0.28803                       0.00578                       0.95760
                       0.29011                       0.00551                       0.95698
        </DataArray>
        <DataArray type="Float32" Name="Force" NumberOfComponents="3" format="ascii">
                     169.87983                      58.08466                     -10.57403
                     193.11488                     126.20647                     -13.08697
                     287.98896                     365.96095                     -23.04616
                     290.69806                     546.74545                     -27.26244
                    3772.68840                   -1396.53370                    -261.14622
                    4126.53158                   -1111.41664                    -341.60873
                    4059.53991                    -820.18124                    -398.67209
                    5527.70846                    -948.52149                    -636.61533
                    7113.11393                   -1080.33520                    -952.21078
                    8275.83714                   -1092.27597                   -1276.70888
                   11638.30978                   -1390.49765                   -2048.48289
                   13175.86349                   -1418.20368                   -2619.58500
                   12828.46621                   -1224.89700                   -2849.62521
                   12318.36192                   -1091.61036                   -3018.60897
                   11320.59933                    -902.24003                   -3017.02906
                   10266.70811                    -742.48577                   -2897.56451
                    8973.99716                    -593.07303                   -2624.77625
                    5302.48138                    -302.08226                   -1590.51298
                    4409.65262                    -204.54908                   -1333.83059
        </DataArray>
        <DataArray type="Float32" Name="Moment" NumberOfComponents="3" format="ascii">
                       0.00000                       0.00000                       0.00000
                       0.00000                       0.00000                       0.00000
                       0.00000                       0.00000                       0.00000
                       0.00000                       0.00000                       0.00000
                    -111.89231                     -21.73898                   -1500.21558
                    -254.13046                     -42.53045                   -2931.44832
                    -388.95948                     -55.87611                   -3845.68674
                    -681.03058                     -84.23539                   -5787.85840
                   -1149.96948                    -123.21681                   -8450.59587
                   -1495.02964                    -139.84155                   -9571.38818
                   -1871.30201                    -154.13723                  -10527.04180
                   -2237.57971                    -163.86036                  -11165.75998
                   -1948.01723                    -128.18353                   -8714.50096
                   -2097.30877                    -125.50956                   -8513.32557
                   -2162.53615                    -119.35419                   -8078.64912
                   -2150.40487                    -112.31737                   -7590.57650
                   -1969.25664                     -99.39279                   -6710.34581
                   -1007.27540                     -49.63577                   -3348.64601
                   -1046.14998                     -51.16096                   -3450.73288
        </DataArray>
      </PointData>
      <Lines>
        <DataArray type="Int32" Name="connectivity" format="ascii">
      0      1
      1      2
      2      3
      3      4
      4      5
      5      6
      6      7
      7      8
      8      9
      9     10
     10     11
     11     12
     12     13
     13     14
     14     15
     15     16
     16     17
     17     18
        </DataArray>
        <DataArray type="Int32" Name="offsets" format="ascii">
      2
      4
      6
      8
     10
     12
     14
     16
     18
     20
     22
     24
     26
     28
     30
     32
     34
     36
        </DataArray>
      </Lines>
    </Piece>
  </PolyData>
</VTKFile>
