<?xml version="1.0"?>
<VTKFile type="PolyData" version="0.1" byte_order="LittleEndian">
  <PolyData>
    <Piece NumberOfPoints="     19" NumberOfVerts="  0" NumberOfLines="     18"
           NumberOfStrips="  0" NumberOfPolys="      0">
      <Points>
        <DataArray type="Float32" NumberOfComponents="3" format="ascii">
                      -5.06389                       0.18012                      88.53654
                      -5.24455                       0.35496                      87.19285
                      -5.62694                       0.79835                      84.51986
                      -6.01781                       1.28587                      81.85310
                      -6.50835                       1.92118                      78.52259
                      -7.03889                       2.54088                      74.49969
                      -7.53982                       3.03060                      70.45610
                      -8.04005                       3.51659                      66.41154
                      -8.54394                       3.99703                      62.36618
                      -9.06136                       4.47360                      58.32146
                      -9.60482                       4.94931                      54.27953
                     -10.18651                       5.42167                      50.24223
                     -10.82147                       5.88902                      46.21238
                     -11.52600                       6.34891                      42.19361
                     -12.31499                       6.79840                      38.19000
                     -13.05142                       7.16171                      34.86931
                     -13.69588                       7.43561                      32.22396
                     -14.38738                       7.64598                      29.58335
                     -14.76389                       7.78718                      28.27531
        </DataArray>
      </Points>
      <PointData>
        <DataArray type="Float32" Name="TranslationalVelocity" NumberOfComponents="3" format="ascii">
                       0.05040                       4.25013                       0.54421
                       0.09281                       8.12853                       1.04325
                       0.20056                      15.84634                       2.30800
                       0.31535                      23.54326                       3.69802
                       0.45546                      33.14768                       5.50880
                       0.56966                      44.71916                       7.27501
                       0.63127                      56.32650                       8.67183
                       0.67420                      67.92140                      10.05861
                       0.70167                      79.50588                      11.42997
                       0.71809                      91.08016                      12.79052
                       0.72734                     102.64294                      14.14907
                       0.72988                     114.19354                      15.49924
                       0.72303                     125.72837                      16.83775
                       0.69936                     137.24081                      18.16014
                       0.64547                     148.72137                      19.46170
                       0.56139                     158.25328                      20.52505
                       0.45664                     165.85236                      21.33760
                       0.29937                     173.44063                      21.98049
                       0.20735                     177.20249                      22.40942
        </DataArray>
        <DataArray type="Float32" Name="RotationalVelocity" NumberOfComponents="3" format="ascii">
                       2.85260                       0.00148                      -0.25619
                       2.85196                       0.00164                      -0.25606
                       2.85039                       0.00272                      -0.25557
                       2.84848                       0.00459                      -0.25480
                       2.84578                       0.00762                      -0.25345
                       2.84234                       0.01171                      -0.25122
                       2.83898                       0.01567                      -0.24826
                       2.83595                       0.01903                      -0.24442
                       2.83345                       0.02155                      -0.23955
                       2.83163                       0.02321                      -0.23349
                       2.83054                       0.02426                      -0.22614
                       2.83016                       0.02523                      -0.21745
                       2.83036                       0.02701                      -0.20743
                       2.83093                       0.03079                      -0.19625
                       2.83150                       0.03816                      -0.18420
                       2.83167                       0.04830                      -0.17380
                       2.83135                       0.06016                      -0.16550
                       2.83040                       0.07621                      -0.15748
                       2.82962                       0.08607                      -0.15366
        </DataArray>
        <DataArray type="Float32" Name="TranslationalAcceleration" NumberOfComponents="3" format="ascii">
                       1.07190                      -1.55990                      12.18794
                       1.29900                      -1.88614                      14.70068
                       3.66504                      -6.14020                      41.94291
                       5.75647                     -10.45097                      66.90907
                       8.06394                     -15.76897                      95.97776
                      10.54929                     -20.73586                     129.09093
                      12.94236                     -24.52914                     161.38073
                      15.44317                     -28.28163                     193.47163
                      18.23348                     -32.02824                     225.75633
                      21.43104                     -35.80130                     258.35057
                      25.06133                     -39.62853                     291.17709
                      29.03450                     -43.49161                     324.05858
                      33.11621                     -47.39468                     356.79446
                      36.90271                     -51.36652                     389.24806
                      39.79644                     -55.48006                     421.43456
                      40.90178                     -59.11164                     448.22899
                      40.53523                     -62.16696                     469.85702
                      38.58742                     -65.07744                     491.99686
                      36.97827                     -66.97739                     503.25873
        </DataArray>
        <DataArray type="Float32" Name="OrientationX" NumberOfComponents="3" format="ascii">
                       0.96714                       0.23371                      -0.10013
                       0.96716                       0.23371                      -0.09996
                       0.96717                       0.23388                      -0.09939
                       0.96717                       0.23426                      -0.09851
                       0.96712                       0.23505                      -0.09707
                       0.97347                       0.20586                      -0.09987
                       0.97721                       0.18644                      -0.10146
                       0.97971                       0.17172                      -0.10332
                       0.98158                       0.15850                      -0.10668
                       0.98262                       0.14798                      -0.11210
                       0.98251                       0.14249                      -0.11990
                       0.98129                       0.14138                      -0.13071
                       0.97861                       0.14638                      -0.14458
                       0.97393                       0.15959                      -0.16123
                       0.96761                       0.17589                      -0.18109
                       0.96115                       0.19054                      -0.19973
                       0.95517                       0.20280                      -0.21570
                       0.94804                       0.21799                      -0.23172
                       0.94395                       0.22717                      -0.23949
        </DataArray>
        <DataArray type="Float32" Name="OrientationY" NumberOfComponents="3" format="ascii">
                       0.21724                      -0.96418                      -0.15220
                       0.21726                      -0.96419                      -0.15213
                       0.21754                      -0.96416                      -0.15192
                       0.21807                      -0.96408                      -0.15165
                       0.21909                      -0.96391                      -0.15123
                       0.19011                      -0.97060                      -0.14764
                       0.17087                      -0.97455                      -0.14510
                       0.15620                      -0.97729                      -0.14321
                       0.14277                      -0.97956                      -0.14169
                       0.13172                      -0.98126                      -0.14067
                       0.12530                      -0.98214                      -0.14038
                       0.12279                      -0.98240                      -0.14073
                       0.12589                      -0.98184                      -0.14194
                       0.13668                      -0.98003                      -0.14443
                       0.15008                      -0.97760                      -0.14757
                       0.16206                      -0.97524                      -0.15050
                       0.17205                      -0.97312                      -0.15307
                       0.18484                      -0.97023                      -0.15650
                       0.19276                      -0.96832                      -0.15873
        </DataArray>
        <DataArray type="Float32" Name="OrientationZ" NumberOfComponents="3" format="ascii">
                      -0.13211                       0.12545                      -0.98326
                      -0.13193                       0.12542                      -0.98329
                      -0.13136                       0.12532                      -0.98338
                      -0.13049                       0.12519                      -0.98351
                      -0.12912                       0.12499                      -0.98372
                      -0.12733                       0.12473                      -0.98399
                      -0.12593                       0.12446                      -0.98420
                      -0.12557                       0.12417                      -0.98428
                      -0.12696                       0.12385                      -0.98415
                      -0.13082                       0.12346                      -0.98369
                      -0.13777                       0.12290                      -0.98281
                      -0.14831                       0.12205                      -0.98138
                      -0.16273                       0.12070                      -0.97926
                      -0.18106                       0.11863                      -0.97629
                      -0.20299                       0.11562                      -0.97233
                      -0.22346                       0.11228                      -0.96822
                      -0.24094                       0.10910                      -0.96439
                      -0.25893                       0.10554                      -0.96011
                      -0.26797                       0.10366                      -0.95784
        </DataArray>
        <DataArray type="Float32" Name="Force" NumberOfComponents="3" format="ascii">
                     137.74584                     -50.90563                     -25.00257
                     142.52597                    -109.13570                     -33.04734
                     226.41224                    -339.74260                     -73.58631
                     235.24077                    -525.13755                     -98.20095
                    2628.19664                     846.22427                    -237.02360
                    2403.30807                     538.65800                    -242.29756
                    1792.82792                     251.42756                    -197.33033
                    2500.60831                     314.26555                    -278.93000
                    3698.49019                     426.77187                    -422.69254
                    3826.91488                     357.92825                    -463.25201
                    6032.83167                     536.60089                    -777.16647
                    5680.85921                     426.08336                    -804.11230
                    2680.32207                      68.83255                    -436.67994
                    1470.30345                      37.89246                    -267.91242
                   -2942.85327                    -496.74202                     550.89861
                   -7261.29584                    -887.36346                    1563.04498
                  -10709.08718                   -1182.38993                    2525.98652
                  -11276.52132                   -1152.11731                    2896.49420
                  -13789.82380                   -1374.48148                    3685.97738
        </DataArray>
        <DataArray type="Float32" Name="Moment" NumberOfComponents="3" format="ascii">
                       0.00000                       0.00000                       0.00000
                       0.00000                       0.00000                       0.00000
                       0.00000                       0.00000                       0.00000
                       0.00000                       0.00000                       0.00000
                     179.74759                    -174.67522                    1369.47381
                     336.15956                    -331.29314                    2597.80275
                     433.40869                    -431.92814                    3387.35854
                     682.63028                    -682.29879                    5351.04844
                    1042.75507                   -1030.79824                    8083.18916
                    1217.60188                   -1168.03319                    9156.11063
                    1433.44802                   -1305.34871                   10225.99359
                    1631.08999                   -1379.00636                   10792.54846
                    1325.46765                   -1020.33479                    7974.82930
                    1404.90251                    -970.55551                    7572.83388
                    1477.55300                    -908.46672                    7073.80275
                    1535.64334                    -855.48599                    6648.32665
                    1469.54386                    -757.34053                    5875.72477
                     785.01386                    -375.33416                    2906.89226
                     828.22329                    -382.02116                    2956.06051
        </DataArray>
      </PointData>
      <Lines>
        <DataArray type="Int32" Name="connectivity" format="ascii">
      0      1
      1      2
      2      3
      3      4
      4      5
      5      6
      6      7
      7      8
      8      9
      9     10
     10     11
     11     12
     12     13
     13     14
     14     15
     15     16
     16     17
     17     18
        </DataArray>
        <DataArray type="Int32" Name="offsets" format="ascii">
      2
      4
      6
      8
     10
     12
     14
     16
     18
     20
     22
     24
     26
     28
     30
     32
     34
     36
        </DataArray>
      </Lines>
    </Piece>
  </PolyData>
</VTKFile>
