<?xml version="1.0"?>
<VTKFile type="PolyData" version="0.1" byte_order="LittleEndian">
  <PolyData>
    <Piece NumberOfPoints="     19" NumberOfVerts="  0" NumberOfLines="     18"
           NumberOfStrips="  0" NumberOfPolys="      0">
      <Points>
        <DataArray type="Float32" NumberOfComponents="3" format="ascii">
                      -4.79862                      -0.01247                      91.50944
                      -4.73589                      -0.02326                      92.87491
                      -4.63269                      -0.13958                      95.60680
                      -4.53802                      -0.30067                      98.33936
                      -4.42059                      -0.52855                     101.75551
                      -4.21707                      -0.65849                     105.85295
                      -3.97965                      -0.65790                     109.94961
                      -3.73954                      -0.65407                     114.04655
                      -3.50236                      -0.64503                     118.14429
                      -3.27991                      -0.63227                     122.24355
                      -3.08715                      -0.61864                     126.34487
                      -2.93918                      -0.60136                     130.44831
                      -2.85441                      -0.57845                     134.55337
                      -2.85299                      -0.54715                     138.65873
                      -2.95395                      -0.50414                     142.76203
                      -3.13440                      -0.45569                     146.17733
                      -3.34672                      -0.39914                     148.90502
                      -3.61789                      -0.27763                     151.62720
                      -3.79060                      -0.25282                     152.98516
        </DataArray>
      </Points>
      <PointData>
        <DataArray type="Float32" Name="TranslationalVelocity" NumberOfComponents="3" format="ascii">
                      -0.00174                      -4.28585                      -0.02298
                      -0.00448                      -8.19808                      -0.05369
                      -0.03290                     -16.02369                      -0.38589
                      -0.07070                     -23.85509                      -0.84668
                      -0.12117                     -33.65517                      -1.49961
                      -0.13909                     -45.44049                      -1.87412
                      -0.11629                     -57.24868                      -1.87546
                      -0.08415                     -69.07455                      -1.86780
                      -0.04048                     -80.91717                      -1.84566
                       0.01693                     -92.77441                      -1.81338
                       0.09123                    -104.64290                      -1.77891
                       0.18855                    -116.51816                      -1.73365
                       0.31673                    -128.39383                      -1.67069
                       0.48601                    -140.26148                      -1.58001
                       0.70932                    -152.11118                      -1.44927
                       0.94971                    -161.96268                      -1.29608
                       1.18558                    -169.82341                      -1.11525
                       1.47868                    -177.66389                      -0.73913
                       1.63442                    -181.57046                      -0.65097
        </DataArray>
        <DataArray type="Float32" Name="RotationalVelocity" NumberOfComponents="3" format="ascii">
                       2.85267                       0.00003                      -0.25600
                       2.85335                       0.00016                      -0.25601
                       2.85516                       0.00068                      -0.25608
                       2.85741                       0.00148                      -0.25615
                       2.86059                       0.00270                      -0.25614
                       2.86464                       0.00438                      -0.25591
                       2.86864                       0.00625                      -0.25539
                       2.87242                       0.00843                      -0.25456
                       2.87591                       0.01112                      -0.25345
                       2.87910                       0.01464                      -0.25211
                       2.88207                       0.01936                      -0.25060
                       2.88493                       0.02571                      -0.24899
                       2.88783                       0.03410                      -0.24732
                       2.89090                       0.04497                      -0.24561
                       2.89427                       0.05868                      -0.24383
                       2.89737                       0.07245                      -0.24225
                       2.90007                       0.08518                      -0.24085
                       2.90297                       0.09949                      -0.23927
                       2.90449                       0.10723                      -0.23839
        </DataArray>
        <DataArray type="Float32" Name="TranslationalAcceleration" NumberOfComponents="3" format="ascii">
                      -0.95446                       0.03468                     -12.11233
                      -1.25132                       0.08756                     -14.77343
                      -3.54760                       1.03820                     -42.31240
                      -5.64138                       2.35645                     -67.68877
                      -8.10225                       4.22418                     -97.39112
                     -10.98193                       5.28073                    -131.27824
                     -13.92146                       5.24968                    -164.39350
                     -17.02549                       5.18196                    -197.49456
                     -20.33789                       5.06275                    -230.98364
                     -23.85258                       4.90744                    -264.98426
                     -27.51686                       4.74386                    -299.41794
                     -31.23399                       4.55353                    -334.08334
                     -34.86777                       4.32513                    -368.73389
                     -38.24598                       4.04071                    -403.15617
                     -41.16429                       3.67811                    -437.25072
                     -43.06391                       3.28502                    -465.46605
                     -44.14311                       2.83614                    -488.03190
                     -44.72645                       1.85592                    -510.79425
                     -44.82025                       1.67440                    -522.30337
        </DataArray>
        <DataArray type="Float32" Name="OrientationX" NumberOfComponents="3" format="ascii">
                       0.97201                      -0.23040                      -0.04585
                       0.97200                      -0.23042                      -0.04607
                       0.97191                      -0.23066                      -0.04677
                       0.97174                      -0.23114                      -0.04784
                       0.97143                      -0.23208                      -0.04956
                       0.97784                      -0.20277                      -0.05201
                       0.98158                      -0.18327                      -0.05399
                       0.98420                      -0.16840                      -0.05473
                       0.98648                      -0.15492                      -0.05337
                       0.98836                      -0.14400                      -0.04904
                       0.98959                      -0.13799                      -0.04093
                       0.99027                      -0.13623                      -0.02841
                       0.99002                      -0.14047                      -0.01108
                       0.98819                      -0.15281                       0.01114
                       0.98504                      -0.16812                       0.03795
                       0.98129                      -0.18187                       0.06316
                       0.97746                      -0.19336                       0.08481
                       0.97229                      -0.20776                       0.10716
                       0.96906                      -0.21656                       0.11840
        </DataArray>
        <DataArray type="Float32" Name="OrientationY" NumberOfComponents="3" format="ascii">
                       0.23040                       0.97308                      -0.00533
                       0.23042                       0.97308                      -0.00538
                       0.23065                       0.97302                      -0.00557
                       0.23113                       0.97291                      -0.00588
                       0.23205                       0.97268                      -0.00640
                       0.20276                       0.97921                      -0.00548
                       0.18327                       0.98305                      -0.00493
                       0.16842                       0.98571                      -0.00441
                       0.15494                       0.98792                      -0.00368
                       0.14404                       0.98957                      -0.00281
                       0.13803                       0.99043                      -0.00195
                       0.13626                       0.99067                      -0.00109
                       0.14047                       0.99008                      -0.00028
                       0.15281                       0.98826                       0.00065
                       0.16817                       0.98576                       0.00194
                       0.18202                       0.98329                       0.00335
                       0.19366                       0.98106                       0.00474
                       0.20825                       0.97805                       0.00672
                       0.21715                       0.97611                       0.00808
        </DataArray>
        <DataArray type="Float32" Name="OrientationZ" NumberOfComponents="3" format="ascii">
                       0.04585                      -0.00538                       0.99893
                       0.04607                      -0.00538                       0.99892
                       0.04680                      -0.00537                       0.99889
                       0.04791                      -0.00534                       0.99884
                       0.04969                      -0.00528                       0.99875
                       0.05204                      -0.00519                       0.99863
                       0.05397                      -0.00505                       0.99853
                       0.05469                      -0.00488                       0.99849
                       0.05329                      -0.00464                       0.99857
                       0.04893                      -0.00428                       0.99879
                       0.04081                      -0.00372                       0.99916
                       0.02830                      -0.00279                       0.99960
                       0.01101                      -0.00128                       0.99994
                      -0.01111                       0.00106                       0.99994
                      -0.03773                       0.00447                       0.99928
                      -0.06271                       0.00821                       0.99800
                      -0.08412                       0.01179                       0.99639
                      -0.10621                       0.01578                       0.99422
                      -0.11732                       0.01788                       0.99293
        </DataArray>
        <DataArray type="Float32" Name="Force" NumberOfComponents="3" format="ascii">
                     166.44452                      59.40698                      -7.31928
                     190.74017                     129.77617                      -8.09744
                     288.10626                     380.47794                     -11.44751
                     292.74822                     571.60436                     -10.96038
                    3577.60708                   -1269.85352                    -184.81981
                    3743.20323                    -946.50482                    -200.15776
                    3454.06115                    -637.79018                    -190.13260
                    4607.22121                    -719.72739                    -256.18987
                    5867.74618                    -809.74887                    -317.49710
                    6162.37928                    -712.12887                    -305.68177
                    8414.07816                    -864.87528                    -348.20775
                    7918.32753                    -685.83462                    -227.72179
                    4436.33449                    -247.93696                     -50.09503
                    1209.11383                      52.37756                      13.74906
                   -2848.31462                     456.47224                    -105.20268
                   -8286.68535                     854.10558                    -516.48358
                  -12725.69317                    1128.32897                   -1068.82399
                  -13574.22391                    1073.67885                   -1444.88412
                  -16732.12288                    1279.31343                   -1970.77577
        </DataArray>
        <DataArray type="Float32" Name="Moment" NumberOfComponents="3" format="ascii">
                       0.00000                       0.00000                       0.00000
                       0.00000                       0.00000                       0.00000
                       0.00000                       0.00000                       0.00000
                       0.00000                       0.00000                       0.00000
                     -78.16495                       8.46774                   -1571.23992
                    -155.71774                      16.10785                   -2988.28942
                    -210.90683                      21.03677                   -3902.02492
                    -324.82099                      31.97907                   -5931.29777
                    -466.72552                      47.14857                   -8745.92366
                    -483.76963                      53.22305                   -9876.52479
                    -446.38909                      58.87272                  -10932.75561
                    -326.73729                      62.11926                  -11548.37421
                     -94.66125                      46.25366                   -8611.97046
                      91.35951                      43.96465                   -8201.78045
                     288.70035                      40.85246                   -7639.17237
                     452.76717                      38.42291                   -7200.85209
                     535.65829                      33.77552                   -6342.02940
                     330.01601                      16.41395                   -3088.19781
                     369.05764                      16.57995                   -3122.58091
        </DataArray>
      </PointData>
      <Lines>
        <DataArray type="Int32" Name="connectivity" format="ascii">
      0      1
      1      2
      2      3
      3      4
      4      5
      5      6
      6      7
      7      8
      8      9
      9     10
     10     11
     11     12
     12     13
     13     14
     14     15
     15     16
     16     17
     17     18
        </DataArray>
        <DataArray type="Int32" Name="offsets" format="ascii">
      2
      4
      6
      8
     10
     12
     14
     16
     18
     20
     22
     24
     26
     28
     30
     32
     34
     36
        </DataArray>
      </Lines>
    </Piece>
  </PolyData>
</VTKFile>
