<?xml version="1.0"?>
<VTKFile type="PolyData" version="0.1" byte_order="LittleEndian">
  <PolyData>
    <Piece NumberOfPoints="     19" NumberOfVerts="  0" NumberOfLines="     18"
           NumberOfStrips="  0" NumberOfPolys="      0">
      <Points>
        <DataArray type="Float32" NumberOfComponents="3" format="ascii">
                      -5.09309                       1.49686                      90.17296
                      -5.13867                       2.85304                      90.33809
                      -5.24662                       5.55407                      90.76278
                      -5.36321                       8.25030                      91.23080
                      -5.51444                      11.61833                      91.83939
                      -5.65801                      15.67954                      92.41846
                      -5.79585                      19.75705                      92.86118
                      -5.95310                      23.83503                      93.29649
                      -6.14054                      27.91318                      93.72346
                      -6.37512                      31.99001                      94.14505
                      -6.67680                      36.06293                      94.56555
                      -7.06581                      40.12881                      94.98333
                      -7.56502                      44.18279                      95.39723
                      -8.19822                      48.21812                      95.80467
                      -8.98706                      52.22639                      96.20160
                      -9.78340                      55.53742                      96.51950
                     -10.51534                      58.16362                      96.75485
                     -11.33283                      60.77142                      96.92304
                     -11.78476                      62.05810                      97.04189
        </DataArray>
      </Points>
      <PointData>
        <DataArray type="Float32" Name="TranslationalVelocity" NumberOfComponents="3" format="ascii">
                       0.45866                      -0.49624                       4.24442
                       0.79236                      -0.95470                       8.10158
                       1.45639                      -2.13622                      15.78389
                       2.11749                      -3.43900                      23.45269
                       2.93969                      -5.13341                      33.03246
                       3.92478                      -6.74600                      44.58385
                       4.90705                      -7.97233                      56.18143
                       5.88386                      -9.17301                      67.77985
                       6.85706                     -10.34281                      79.37781
                       7.82877                     -11.48592                      90.97075
                       8.80119                     -12.60958                     102.55093
                       9.77646                     -13.70395                     114.10925
                      10.75615                     -14.75968                     125.63169
                      11.74093                     -15.76297                     137.09907
                      12.73037                     -16.69613                     148.48764
                      13.55710                     -17.40061                     157.89391
                      14.21873                     -17.88490                     165.35413
                      14.88149                     -18.15484                     172.76206
                      15.20952                     -18.37699                     176.41698
        </DataArray>
        <DataArray type="Float32" Name="RotationalVelocity" NumberOfComponents="3" format="ascii">
                       2.84403                       0.00210                      -0.24603
                       2.84403                       0.00209                      -0.24588
                       2.84408                       0.00202                      -0.24536
                       2.84415                       0.00191                      -0.24460
                       2.84422                       0.00177                      -0.24342
                       2.84425                       0.00163                      -0.24186
                       2.84416                       0.00152                      -0.24039
                       2.84397                       0.00136                      -0.23923
                       2.84370                       0.00105                      -0.23860
                       2.84339                       0.00048                      -0.23863
                       2.84309                      -0.00048                      -0.23944
                       2.84288                      -0.00191                      -0.24103
                       2.84282                      -0.00387                      -0.24335
                       2.84300                      -0.00634                      -0.24623
                       2.84347                      -0.00925                      -0.24939
                       2.84412                      -0.01188                      -0.25196
                       2.84482                      -0.01400                      -0.25375
                       2.84571                      -0.01602                      -0.25510
                       2.84621                      -0.01694                      -0.25554
        </DataArray>
        <DataArray type="Float32" Name="TranslationalAcceleration" NumberOfComponents="3" format="ascii">
                      -0.08003                     -12.19274                      -1.39149
                      -0.11414                     -14.68145                      -1.75922
                      -0.38218                     -41.90997                      -5.78437
                      -0.63078                     -66.88478                      -9.88350
                      -0.87000                     -95.99505                     -14.93406
                      -0.92283                    -129.21302                     -19.55242
                      -0.75383                    -161.68132                     -22.93591
                      -0.49109                    -194.04381                     -26.19427
                      -0.19470                    -226.70535                     -29.35451
                       0.06100                    -259.78596                     -32.43771
                       0.19578                    -293.19995                     -35.45031
                       0.13558                    -326.74211                     -38.33656
                      -0.18452                    -360.15872                     -41.03828
                      -0.81183                    -393.22821                     -43.49034
                      -1.76875                    -425.84348                     -45.63242
                      -2.81618                    -452.72171                     -47.13368
                      -3.78763                    -474.15376                     -48.07918
                      -4.84091                    -495.75728                     -48.41563
                      -5.40892                    -506.63012                     -48.83979
        </DataArray>
        <DataArray type="Float32" Name="OrientationX" NumberOfComponents="3" format="ascii">
                       0.98873                       0.01561                       0.14888
                       0.98872                       0.01575                       0.14892
                       0.98867                       0.01611                       0.14926
                       0.98856                       0.01654                       0.14990
                       0.98836                       0.01721                       0.15117
                       0.99224                       0.02228                       0.12228
                       0.99423                       0.02737                       0.10375
                       0.99532                       0.03405                       0.09048
                       0.99589                       0.04372                       0.07931
                       0.99579                       0.05727                       0.07158
                       0.99472                       0.07531                       0.06971
                       0.99245                       0.09853                       0.07308
                       0.98840                       0.12694                       0.08342
                       0.98176                       0.15995                       0.10276
                       0.97226                       0.19723                       0.12577
                       0.96202                       0.23050                       0.14623
                       0.95234                       0.25772                       0.16317
                       0.94117                       0.28415                       0.18293
                       0.93500                       0.29668                       0.19432
        </DataArray>
        <DataArray type="Float32" Name="OrientationY" NumberOfComponents="3" format="ascii">
                       0.14589                       0.12220                      -0.98172
                       0.14593                       0.12199                      -0.98175
                       0.14624                       0.12144                      -0.98177
                       0.14685                       0.12076                      -0.98176
                       0.14806                       0.11980                      -0.98170
                       0.11885                       0.11803                      -0.98587
                       0.09991                       0.11656                      -0.98815
                       0.08601                       0.11549                      -0.98958
                       0.07385                       0.11485                      -0.99063
                       0.06466                       0.11473                      -0.99129
                       0.06076                       0.11524                      -0.99148
                       0.06144                       0.11639                      -0.99130
                       0.06840                       0.11842                      -0.99061
                       0.08366                       0.12191                      -0.98901
                       0.10198                       0.12649                      -0.98671
                       0.11824                       0.13097                      -0.98431
                       0.13171                       0.13505                      -0.98205
                       0.14790                       0.14036                      -0.97899
                       0.15745                       0.14372                      -0.97701
        </DataArray>
        <DataArray type="Float32" Name="OrientationZ" NumberOfComponents="3" format="ascii">
                      -0.03351                       0.99238                       0.11854
                      -0.03363                       0.99241                       0.11831
                      -0.03394                       0.99247                       0.11771
                      -0.03434                       0.99254                       0.11695
                      -0.03500                       0.99265                       0.11585
                      -0.03640                       0.99276                       0.11447
                      -0.03914                       0.99281                       0.11315
                      -0.04414                       0.99273                       0.11202
                      -0.05242                       0.99242                       0.11115
                      -0.06499                       0.99174                       0.11054
                      -0.08270                       0.99048                       0.11006
                      -0.10618                       0.98830                       0.10946
                      -0.13562                       0.98482                       0.10836
                      -0.17072                       0.97957                       0.10631
                      -0.21052                       0.97216                       0.10287
                      -0.24603                       0.96422                       0.09874
                      -0.27513                       0.95673                       0.09467
                      -0.30386                       0.94845                       0.09007
                      -0.31778                       0.94410                       0.08766
        </DataArray>
        <DataArray type="Float32" Name="Force" NumberOfComponents="3" format="ascii">
                     153.92577                      11.89032                     -56.02203
                     168.47181                      20.17638                    -121.13729
                     238.18493                      50.63653                    -355.76123
                     227.74938                      72.27465                    -539.07506
                    3247.23929                      14.57246                     829.55250
                    3277.78905                      58.30080                     507.29025
                    2818.41471                      80.31970                     245.52681
                    3664.37768                     132.10515                     237.77274
                    4754.04840                     219.71734                     231.03840
                    4689.54153                     287.64777                     128.73474
                    6438.01600                     516.31277                     121.97855
                    5306.77141                     562.75355                      12.14160
                    1207.80474                     185.17316                    -158.95773
                   -1538.41330                    -234.23578                    -239.75578
                   -7951.70163                   -1656.31622                    -376.75143
                  -14145.13944                   -3510.77499                    -491.90349
                  -18942.32848                   -5321.17522                    -567.40315
                  -18461.39739                   -5782.03728                    -572.88212
                  -21282.18703                   -7002.56098                    -689.33566
        </DataArray>
        <DataArray type="Float32" Name="Moment" NumberOfComponents="3" format="ascii">
                       0.00000                       0.00000                       0.00000
                       0.00000                       0.00000                       0.00000
                       0.00000                       0.00000                       0.00000
                       0.00000                       0.00000                       0.00000
                      53.52755                   -1527.98544                    -182.68916
                     102.22498                   -2815.50544                    -336.93866
                     141.91504                   -3644.14077                    -436.93441
                     244.49262                   -5574.53511                    -670.76029
                     430.67479                   -8266.44432                   -1000.55940
                     601.64511                   -9300.32884                   -1135.83047
                     849.34532                  -10290.02266                   -1272.58998
                    1146.09776                  -10778.47447                   -1355.18263
                    1065.61349                   -7811.04297                   -1002.42064
                    1272.12656                   -7364.05535                    -968.19838
                    1495.20736                   -6964.22308                    -940.90451
                    1626.99171                   -6430.53863                    -890.11440
                    1545.87799                   -5421.39293                    -765.49987
                     814.23491                   -2563.18729                    -369.13307
                     875.88116                   -2624.41350                    -381.60099
        </DataArray>
      </PointData>
      <Lines>
        <DataArray type="Int32" Name="connectivity" format="ascii">
      0      1
      1      2
      2      3
      3      4
      4      5
      5      6
      6      7
      7      8
      8      9
      9     10
     10     11
     11     12
     12     13
     13     14
     14     15
     15     16
     16     17
     17     18
        </DataArray>
        <DataArray type="Int32" Name="offsets" format="ascii">
      2
      4
      6
      8
     10
     12
     14
     16
     18
     20
     22
     24
     26
     28
     30
     32
     34
     36
        </DataArray>
      </Lines>
    </Piece>
  </PolyData>
</VTKFile>
