<?xml version="1.0"?>
<VTKFile type="PolyData" version="0.1" byte_order="LittleEndian">
  <PolyData>
    <Piece NumberOfPoints="     19" NumberOfVerts="  0" NumberOfLines="     18"
           NumberOfStrips="  0" NumberOfPolys="      0">
      <Points>
        <DataArray type="Float32" NumberOfComponents="3" format="ascii">
                      -5.30411                      -0.37621                      88.54291
                      -5.47636                      -0.69309                      87.22437
                      -5.84658                      -1.23424                      84.56767
                      -6.22869                      -1.73131                      81.90138
                      -6.71206                      -2.32602                      78.56248
                      -7.23479                      -3.17842                      74.58188
                      -7.73203                      -4.15646                      70.62810
                      -8.24048                      -5.13611                      66.67566
                      -8.76901                      -6.11938                      62.72603
                      -9.33285                      -7.10495                      58.78110
                      -9.95037                      -8.09015                      54.84353
                     -10.63966                      -9.07771                      50.91823
                     -11.42165                     -10.06950                      47.01158
                     -12.31825                     -11.06796                      43.13190
                     -13.34946                     -12.07598                      39.28898
                     -14.33018                     -12.92640                      36.12452
                     -15.19750                     -13.62252                      33.62419
                     -16.13501                     -14.38037                      31.16555
                     -16.64639                     -14.72333                      29.94275
        </DataArray>
      </Points>
      <PointData>
        <DataArray type="Float32" Name="TranslationalVelocity" NumberOfComponents="3" format="ascii">
                      -0.09896                       4.23300                      -1.01292
                      -0.17859                       8.08594                      -1.92844
                      -0.31762                      15.85143                      -3.49089
                      -0.45060                      23.64241                      -4.92453
                      -0.61904                      33.39139                      -6.63729
                      -0.86879                      44.98761                      -9.08907
                      -1.16312                      56.48544                     -11.89786
                      -1.46924                      67.96748                     -14.70584
                      -1.78383                      79.43236                     -17.51934
                      -2.10231                      90.87943                     -20.33502
                      -2.42005                     102.30659                     -23.14563
                      -2.73462                     113.70520                     -25.95933
                      -3.04499                     125.06268                     -28.78119
                      -3.35264                     136.36059                     -31.61743
                      -3.66224                     147.57510                     -34.47470
                      -3.92824                     156.83154                     -36.87855
                      -4.15256                     164.16049                     -38.84106
                      -4.39987                     171.38050                     -40.97463
                      -4.52420                     174.97839                     -41.93465
        </DataArray>
        <DataArray type="Float32" Name="RotationalVelocity" NumberOfComponents="3" format="ascii">
                       2.89051                       0.00070                      -0.24649
                       2.88987                       0.00108                      -0.24648
                       2.88828                       0.00242                      -0.24649
                       2.88635                       0.00434                      -0.24647
                       2.88361                       0.00720                      -0.24634
                       2.88005                       0.01087                      -0.24582
                       2.87648                       0.01433                      -0.24462
                       2.87314                       0.01730                      -0.24246
                       2.87026                       0.01962                      -0.23907
                       2.86800                       0.02130                      -0.23425
                       2.86648                       0.02251                      -0.22790
                       2.86575                       0.02355                      -0.22005
                       2.86581                       0.02487                      -0.21091
                       2.86656                       0.02705                      -0.20091
                       2.86783                       0.03083                      -0.19071
                       2.86911                       0.03574                      -0.18270
                       2.87013                       0.04128                      -0.17713
                       2.87101                       0.04861                      -0.17280
                       2.87135                       0.05304                      -0.17126
        </DataArray>
        <DataArray type="Float32" Name="TranslationalAcceleration" NumberOfComponents="3" format="ascii">
                       1.06073                       3.01334                      12.13653
                       1.28395                       3.51065                      14.76262
                       3.67453                       9.24903                      42.41702
                       5.84937                      14.06983                      67.92635
                       8.33472                      19.34563                      97.74387
                      11.04217                      26.35179                     131.33939
                      13.55952                      34.14861                     163.75125
                      15.98684                      41.87812                     195.98957
                      18.38441                      49.65262                     228.45971
                      20.79661                      57.48875                     261.29186
                      23.25573                      65.34240                     294.41068
                      25.78682                      73.18390                     327.59944
                      28.41219                      80.96266                     360.58651
                      31.15560                      88.63829                     393.11867
                      34.04662                      96.19959                     425.04210
                      36.59993                     102.43683                     451.17406
                      38.75924                     107.48643                     471.84935
                      41.09277                     113.03524                     492.38584
                      42.27214                     115.50546                     502.77079
        </DataArray>
        <DataArray type="Float32" Name="OrientationX" NumberOfComponents="3" format="ascii">
                       0.96060                       0.21385                      -0.17750
                       0.96060                       0.21388                      -0.17747
                       0.96055                       0.21416                      -0.17742
                       0.96044                       0.21471                      -0.17733
                       0.96022                       0.21577                      -0.17726
                       0.96725                       0.18737                      -0.17125
                       0.97127                       0.16835                      -0.16819
                       0.97378                       0.15349                      -0.16792
                       0.97541                       0.13939                      -0.17072
                       0.97584                       0.12701                      -0.17777
                       0.97453                       0.11844                      -0.19041
                       0.97136                       0.11292                      -0.20908
                       0.96566                       0.11214                      -0.23437
                       0.95655                       0.11824                      -0.26651
                       0.94436                       0.12644                      -0.30364
                       0.93188                       0.13392                      -0.33715
                       0.92040                       0.14038                      -0.36491
                       0.90716                       0.14995                      -0.39316
                       0.89980                       0.15646                      -0.40727
        </DataArray>
        <DataArray type="Float32" Name="OrientationY" NumberOfComponents="3" format="ascii">
                       0.24774                      -0.94835                       0.19814
                       0.24775                      -0.94836                       0.19808
                       0.24799                      -0.94833                       0.19791
                       0.24848                      -0.94825                       0.19768
                       0.24946                      -0.94807                       0.19732
                       0.22064                      -0.95416                       0.20224
                       0.20153                      -0.95776                       0.20514
                       0.18705                      -0.96030                       0.20696
                       0.17399                      -0.96248                       0.20824
                       0.16353                      -0.96419                       0.20881
                       0.15800                      -0.96522                       0.20830
                       0.15679                      -0.96573                       0.20685
                       0.16164                      -0.96553                       0.20402
                       0.17464                      -0.96432                       0.19897
                       0.19080                      -0.96256                       0.19257
                       0.20550                      -0.96075                       0.18638
                       0.21798                      -0.95905                       0.18086
                       0.23342                      -0.95673                       0.17370
                       0.24269                      -0.95524                       0.16919
        </DataArray>
        <DataArray type="Float32" Name="OrientationZ" NumberOfComponents="3" format="ascii">
                      -0.12596                      -0.23431                      -0.96397
                      -0.12594                      -0.23425                      -0.96398
                      -0.12587                      -0.23410                      -0.96403
                      -0.12571                      -0.23392                      -0.96409
                      -0.12548                      -0.23369                      -0.96418
                      -0.12550                      -0.23340                      -0.96425
                      -0.12655                      -0.23315                      -0.96417
                      -0.12949                      -0.23294                      -0.96383
                      -0.13528                      -0.23282                      -0.96306
                      -0.14489                      -0.23284                      -0.96166
                      -0.15912                      -0.23308                      -0.95935
                      -0.17855                      -0.23371                      -0.95577
                      -0.20342                      -0.23490                      -0.95050
                      -0.23347                      -0.23686                      -0.94307
                      -0.26793                      -0.23979                      -0.93312
                      -0.29895                      -0.24297                      -0.92282
                      -0.32458                      -0.24600                      -0.91331
                      -0.35010                      -0.24935                      -0.90291
                      -0.36257                      -0.25108                      -0.89750
        </DataArray>
        <DataArray type="Float32" Name="Force" NumberOfComponents="3" format="ascii">
                     143.89416                     -60.78372                      -4.02791
                     155.20905                    -129.67048                      11.24050
                     256.59640                    -391.82201                      61.73558
                     271.68585                    -590.88256                     108.19485
                    3032.20962                     934.39897                    -621.72165
                    2872.43723                     608.50556                    -521.78313
                    2273.83417                     308.75500                    -373.51611
                    3050.30531                     356.84986                    -496.58814
                    4222.59561                     429.98835                    -697.80378
                    4192.41465                     319.83827                    -709.56626
                    6182.64704                     401.11074                   -1123.28042
                    5304.24063                     220.30239                   -1044.63259
                    1550.59019                    -115.11696                    -303.54675
                    -711.84979                    -248.47114                     237.06496
                   -6578.27606                    -416.12737                    1987.96698
                  -12271.59305                    -426.62294                    4069.66990
                  -16755.60143                    -315.77044                    6009.78939
                  -16675.80426                     -91.84841                    6455.51421
                  -19823.36719                     -87.36788                    7983.17098
        </DataArray>
        <DataArray type="Float32" Name="Moment" NumberOfComponents="3" format="ascii">
                       0.00000                       0.00000                       0.00000
                       0.00000                       0.00000                       0.00000
                       0.00000                       0.00000                       0.00000
                       0.00000                       0.00000                       0.00000
                     188.00092                     351.12011                    1444.60862
                     356.93069                     666.50890                    2742.20319
                     467.51769                     865.78676                    3561.75719
                     748.89396                    1355.27545                    5574.00558
                    1172.21097                    2029.86921                    8344.16944
                    1412.70108                    2282.79578                    9375.80399
                    1723.04034                    2532.51248                   10388.11679
                    2031.07091                    2655.39429                   10872.98883
                    1684.91008                    1927.81808                    7875.82295
                    1834.03684                    1820.06178                    7414.80979
                    1990.29421                    1710.08176                    6943.93656
                    2082.02071                    1592.02335                    6444.97103
                    1951.21948                    1365.02406                    5511.82215
                    1000.18223                     643.81217                    2592.81844
                    1053.02874                     651.90205                    2621.95696
        </DataArray>
      </PointData>
      <Lines>
        <DataArray type="Int32" Name="connectivity" format="ascii">
      0      1
      1      2
      2      3
      3      4
      4      5
      5      6
      6      7
      7      8
      8      9
      9     10
     10     11
     11     12
     12     13
     13     14
     14     15
     15     16
     16     17
     17     18
        </DataArray>
        <DataArray type="Int32" Name="offsets" format="ascii">
      2
      4
      6
      8
     10
     12
     14
     16
     18
     20
     22
     24
     26
     28
     30
     32
     34
     36
        </DataArray>
      </Lines>
    </Piece>
  </PolyData>
</VTKFile>
