<?xml version="1.0"?>
<VTKFile type="PolyData" version="0.1" byte_order="LittleEndian">
  <PolyData>
    <Piece NumberOfPoints="    550" NumberOfVerts="  0" NumberOfLines="     21"
           NumberOfStrips="  0" NumberOfPolys="    567">
      <Points>
        <DataArray type="Float32" NumberOfComponents="3" format="ascii">
                       2.97344                      -0.00001                       2.18982
                       2.88003                       0.73944                       2.18983
                       2.60565                       1.43243                       2.18985
                       2.16756                       2.03541                       2.18988
                       1.59328                       2.51050                       2.18992
                       0.91889                       2.82784                       2.18996
                       0.18676                       2.96750                       2.19001
                      -0.55709                       2.92070                       2.19005
                      -1.26594                       2.69038                       2.19009
                      -1.89524                       2.29102                       2.19013
                      -2.40545                       1.74770                       2.19016
                      -2.76451                       1.09457                       2.19017
                      -2.94986                       0.37266                       2.19018
                      -2.94986                      -0.37267                       2.19018
                      -2.76451                      -1.09458                       2.19016
                      -2.40545                      -1.74771                       2.19014
                      -1.89524                      -2.29103                       2.19010
                      -1.26594                      -2.69040                       2.19006
                      -0.55709                      -2.92072                       2.19002
                       0.18676                      -2.96751                       2.18997
                       0.91889                      -2.82785                       2.18993
                       1.59328                      -2.51051                       2.18989
                       2.16756                      -2.03542                       2.18986
                       2.60565                      -1.43244                       2.18983
                       2.88003                      -0.73945                       2.18982
                       2.92077                      -0.00006                       6.56939
                       2.82903                       0.72615                       6.56942
                       2.55957                       1.40672                       6.56949
                       2.12932                       1.99891                       6.56959
                       1.56532                       2.46549                       6.56972
                       0.90301                       2.77715                       6.56986
                       0.18400                       2.91431                       6.57001
                      -0.54653                       2.86835                       6.57016
                      -1.24269                       2.64215                       6.57030
                      -1.86072                       2.24994                       6.57042
                      -2.36179                       1.71635                       6.57052
                      -2.71442                       1.07491                       6.57058
                      -2.89646                       0.36593                       6.57061
                      -2.89646                      -0.36604                       6.57060
                      -2.71442                      -1.07503                       6.57055
                      -2.36179                      -1.71646                       6.57046
                      -1.86071                      -2.25005                       6.57035
                      -1.24269                      -2.64226                       6.57021
                      -0.54653                      -2.86846                       6.57007
                       0.18400                      -2.91442                       6.56991
                       0.90301                      -2.77726                       6.56977
                       1.56532                      -2.46560                       6.56963
                       2.12932                      -1.99902                       6.56953
                       2.55957                      -1.40684                       6.56945
                       2.82903                      -0.72626                       6.56940
                       2.86878                      -0.00015                      10.94893
                       2.77872                       0.71281                      10.94898
                       2.51417                       1.38098                      10.94910
                       2.09177                       1.96236                      10.94927
                       1.53806                       2.42043                      10.94949
                       0.88782                       2.72641                      10.94974
                       0.18192                       2.86107                      10.95001
                      -0.53529                       2.81595                      10.95027
                      -1.21875                       2.59388                      10.95052
                      -1.82550                       2.20882                      10.95074
                      -2.31744                       1.68496                      10.95091
                      -2.66364                       1.05522                      10.95102
                      -2.84236                       0.35917                      10.95107
                      -2.84236                      -0.35946                      10.95105
                      -2.66364                      -1.05552                      10.95097
                      -2.31744                      -1.68526                      10.95082
                      -1.82550                      -2.20911                      10.95062
                      -1.21875                      -2.59417                      10.95039
                      -0.53529                      -2.81624                      10.95013
                       0.18192                      -2.86137                      10.94986
                       0.88782                      -2.72671                      10.94960
                       1.53806                      -2.42073                      10.94936
                       2.09177                      -1.96266                      10.94917
                       2.51417                      -1.38128                      10.94903
                       2.77872                      -0.71311                      10.94895
                       2.81754                      -0.00028                      15.32847
                       2.72915                       0.69944                      15.32854
                       2.46952                       1.35519                      15.32870
                       2.05496                       1.92578                      15.32895
                       1.51153                       2.37534                      15.32926
                       0.87338                       2.67564                      15.32962
                       0.18059                       2.80779                      15.33000
                      -0.52330                       2.76351                      15.33038
                      -1.19406                       2.54556                      15.33074
                      -1.78955                       2.16765                      15.33105
                      -2.27235                       1.65353                      15.33129
                      -2.61212                       1.03548                      15.33146
                      -2.78752                       0.35236                      15.33153
                      -2.78752                      -0.35292                      15.33151
                      -2.61212                      -1.03604                      15.33139
                      -2.27235                      -1.65409                      15.33118
                      -1.78955                      -2.16822                      15.33090
                      -1.19406                      -2.54612                      15.33056
                      -0.52330                      -2.76407                      15.33019
                       0.18059                      -2.80835                      15.32981
                       0.87338                      -2.67620                      15.32943
                       1.51153                      -2.37590                      15.32910
                       2.05496                      -1.92634                      15.32882
                       2.46952                      -1.35575                      15.32861
                       2.72915                      -0.70000                      15.32849
                       2.76704                      -0.00045                      19.70803
                       2.68032                       0.68603                      19.70813
                       2.42560                       1.32937                      19.70833
                       2.01890                       1.88916                      19.70865
                       1.48575                       2.33021                      19.70905
                       0.85967                       2.62482                      19.70950
                       0.18000                       2.75448                      19.70999
                      -0.51057                       2.71103                      19.71048
                      -1.16864                       2.49721                      19.71094
                      -1.75286                       2.12646                      19.71134
                      -2.22652                       1.62206                      19.71166
                      -2.55986                       1.01571                      19.71187
                      -2.73194                       0.34552                      19.71196
                      -2.73194                      -0.34642                      19.71193
                      -2.55986                      -1.01661                      19.71178
                      -2.22652                      -1.62296                      19.71152
                      -1.75286                      -2.12735                      19.71116
                      -1.16864                      -2.49811                      19.71073
                      -0.51057                      -2.71193                      19.71025
                       0.18000                      -2.75538                      19.70976
                       0.85967                      -2.62572                      19.70928
                       1.48575                      -2.33111                      19.70885
                       2.01890                      -1.89006                      19.70849
                       2.42560                      -1.33027                      19.70822
                       2.68032                      -0.68693                      19.70807
                       2.71726                      -0.00065                      24.08764
                       2.63221                       0.67258                      24.08775
                       2.38241                       1.30351                      24.08800
                       1.98355                       1.85250                      24.08837
                       1.46069                       2.28505                      24.08885
                       0.84669                       2.57398                      24.08940
                       0.18012                       2.70113                      24.08999
                      -0.49712                       2.65852                      24.09057
                      -1.14250                       2.44883                      24.09113
                      -1.71545                       2.08522                      24.09161
                      -2.17997                       1.59055                      24.09199
                      -2.50688                       0.99591                      24.09224
                      -2.67564                       0.33864                      24.09235
                      -2.67564                      -0.33995                      24.09232
                      -2.50688                      -0.99721                      24.09214
                      -2.17997                      -1.59186                      24.09182
                      -1.71545                      -2.08653                      24.09139
                      -1.14250                      -2.45013                      24.09088
                      -0.49712                      -2.65983                      24.09030
                       0.18012                      -2.70244                      24.08971
                       0.84669                      -2.57528                      24.08914
                       1.46069                      -2.28635                      24.08862
                       1.98355                      -1.85381                      24.08818
                       2.38241                      -1.30482                      24.08786
                       2.63221                      -0.67389                      24.08768
                       2.66816                      -0.00089                      28.46728
                       2.58479                       0.65910                      28.46741
                       2.33990                       1.27762                      28.46769
                       1.94888                       1.81581                      28.46813
                       1.43631                       2.23985                      28.46867
                       0.83438                       2.52309                      28.46931
                       0.18093                       2.64774                      28.46998
                      -0.48300                       2.60597                      28.47066
                      -1.11567                       2.40040                      28.47129
                      -1.67735                       2.04395                      28.47185
                      -2.13274                       1.55901                      28.47228
                      -2.45322                       0.97606                      28.47258
                      -2.61866                       0.33172                      28.47271
                      -2.61866                      -0.33351                      28.47267
                      -2.45322                      -0.97785                      28.47246
                      -2.13274                      -1.56080                      28.47210
                      -1.67735                      -2.04574                      28.47160
                      -1.11568                      -2.40219                      28.47101
                      -0.48300                      -2.60776                      28.47035
                       0.18093                      -2.64953                      28.46967
                       0.83438                      -2.52488                      28.46901
                       1.43631                      -2.24164                      28.46841
                       1.94888                      -1.81760                      28.46791
                       2.33990                      -1.27941                      28.46754
                       2.58479                      -0.66089                      28.46733
                       2.61971                      -0.00118                      32.84696
                       2.53800                       0.64557                      32.84710
                       2.29803                       1.25169                      32.84742
                       1.91486                       1.77907                      32.84791
                       1.41257                       2.19460                      32.84852
                       0.82272                       2.47217                      32.84923
                       0.18238                       2.59432                      32.84998
                      -0.46823                       2.55339                      32.85074
                      -1.08821                       2.35194                      32.85144
                      -1.63862                       2.00264                      32.85206
                      -2.08487                       1.52743                      32.85255
                      -2.39892                       0.95618                      32.85288
                      -2.56103                       0.32477                      32.85302
                      -2.56103                      -0.32712                      32.85298
                      -2.39892                      -0.95853                      32.85274
                      -2.08487                      -1.52978                      32.85234
                      -1.63862                      -2.00499                      32.85179
                      -1.08821                      -2.35429                      32.85112
                      -0.46823                      -2.55574                      32.85038
                       0.18238                      -2.59667                      32.84962
                       0.82272                      -2.47452                      32.84889
                       1.41257                      -2.19696                      32.84822
                       1.91486                      -1.78143                      32.84766
                       2.29803                      -1.25404                      32.84725
                       2.53800                      -0.64792                      32.84701
                       2.57186                      -0.00150                      37.22667
                       2.49183                       0.63201                      37.22682
                       2.25677                       1.22571                      37.22718
                       1.88144                       1.74230                      37.22771
                       1.38944                       2.14932                      37.22838
                       0.81167                       2.42120                      37.22915
                       0.18444                       2.54085                      37.22998
                      -0.45284                       2.50076                      37.23081
                      -1.06013                       2.30344                      37.23158
                      -1.59927                       1.96129                      37.23226
                      -2.03638                       1.49581                      37.23279
                      -2.34400                       0.93625                      37.23315
                      -2.50280                       0.31777                      37.23331
                      -2.50280                      -0.32077                      37.23326
                      -2.34400                      -0.93925                      37.23300
                      -2.03638                      -1.49881                      37.23256
                      -1.59927                      -1.96428                      37.23195
                      -1.06013                      -2.30643                      37.23122
                      -0.45284                      -2.50375                      37.23042
                       0.18444                      -2.54385                      37.22958
                       0.81167                      -2.42419                      37.22877
                       1.38944                      -2.15232                      37.22804
                       1.88144                      -1.74530                      37.22743
                       2.25677                      -1.22870                      37.22698
                       2.49183                      -0.63500                      37.22672
                       2.52462                      -0.00186                      41.60639
                       2.44626                       0.61840                      41.60656
                       2.21611                       1.19969                      41.60694
                       1.84864                       1.70548                      41.60752
                       1.36692                       2.10400                      41.60825
                       0.80122                       2.37019                      41.60908
                       0.18711                       2.48734                      41.60998
                      -0.43685                       2.44809                      41.61087
                      -1.03145                       2.25489                      41.61171
                      -1.55931                       1.91989                      41.61244
                      -1.98729                       1.46415                      41.61302
                      -2.28848                       0.91629                      41.61341
                      -2.44396                       0.31073                      41.61358
                      -2.44396                      -0.31446                      41.61352
                      -2.28848                      -0.92001                      41.61324
                      -1.98729                      -1.46787                      41.61276
                      -1.55931                      -1.92362                      41.61210
                      -1.03145                      -2.25861                      41.61131
                      -0.43685                      -2.45181                      41.61044
                       0.18711                      -2.49107                      41.60954
                       0.80122                      -2.37392                      41.60867
                       1.36692                      -2.10772                      41.60787
                       1.84864                      -1.70921                      41.60722
                       2.21611                      -1.20342                      41.60673
                       2.44626                      -0.62213                      41.60645
                       2.47798                      -0.00227                      45.98613
                       2.40130                       0.60475                      45.98631
                       2.17606                       1.17363                      45.98672
                       1.81643                       1.66862                      45.98734
                       1.34499                       2.05863                      45.98812
                       0.79138                       2.31914                      45.98902
                       0.19037                       2.43379                      45.98998
                      -0.42026                       2.39537                      45.99094
                      -1.00216                       2.20630                      45.99184
                      -1.51876                       1.87845                      45.99262
                      -1.93760                       1.43244                      45.99324
                      -2.23236                       0.89627                      45.99365
                      -2.38452                       0.30365                      45.99383
                      -2.38452                      -0.30819                      45.99377
                      -2.23236                      -0.90082                      45.99347
                      -1.93760                      -1.43698                      45.99296
                      -1.51876                      -1.88300                      45.99225
                      -1.00216                      -2.21084                      45.99140
                      -0.42026                      -2.39991                      45.99047
                       0.19037                      -2.43833                      45.98950
                       0.79138                      -2.32368                      45.98856
                       1.34499                      -2.06317                      45.98771
                       1.81643                      -1.67317                      45.98700
                       2.17606                      -1.17817                      45.98649
                       2.40130                      -0.60929                      45.98619
                       2.43196                      -0.00273                      50.36586
                       2.35695                       0.59105                      50.36605
                       2.13663                       1.14752                      50.36650
                       1.78484                       1.63171                      50.36715
                       1.32369                       2.01321                      50.36799
                       0.78215                       2.26804                      50.36895
                       0.19426                       2.38019                      50.36998
                      -0.40306                       2.34261                      50.37100
                      -0.97226                       2.15766                      50.37196
                      -1.47759                       1.83697                      50.37280
                      -1.88729                       1.40068                      50.37346
                      -2.17562                       0.87622                      50.37389
                      -2.32446                       0.29652                      50.37409
                      -2.32446                      -0.30198                      50.37402
                      -2.17562                      -0.88167                      50.37370
                      -1.88729                      -1.40614                      50.37315
                      -1.47759                      -1.84243                      50.37239
                      -0.97226                      -2.16312                      50.37149
                      -0.40306                      -2.34806                      50.37049
                       0.19426                      -2.38564                      50.36945
                       0.78215                      -2.27349                      50.36845
                       1.32369                      -2.01867                      50.36755
                       1.78484                      -1.63717                      50.36680
                       2.13663                      -1.15298                      50.36624
                       2.35695                      -0.59651                      50.36592
                       2.38658                      -0.00323                      54.74560
                       2.31324                       0.57730                      54.74580
                       2.09783                       1.12136                      54.74627
                       1.75389                       1.59476                      54.74697
                       1.30303                       1.96775                      54.74786
                       0.77357                       2.21689                      54.74888
                       0.19879                       2.32654                      54.74997
                      -0.38521                       2.28980                      54.75106
                      -0.94172                       2.10897                      54.75208
                      -1.43577                       1.79543                      54.75297
                      -1.83634                       1.36888                      54.75367
                      -2.11823                       0.85611                      54.75413
                      -2.26375                       0.28934                      54.75434
                      -2.26375                      -0.29581                      54.75427
                      -2.11823                      -0.86257                      54.75393
                      -1.83634                      -1.37534                      54.75334
                      -1.43577                      -1.80190                      54.75254
                      -0.94172                      -2.11544                      54.75157
                      -0.38521                      -2.29626                      54.75051
                       0.19879                      -2.33300                      54.74941
                       0.77357                      -2.22335                      54.74835
                       1.30303                      -1.97421                      54.74739
                       1.75389                      -1.60122                      54.74659
                       2.09783                      -1.12783                      54.74600
                       2.31324                      -0.58377                      54.74566
                       2.34186                      -0.00378                      59.12534
                       2.27020                       0.56351                      59.12556
                       2.05970                       1.09516                      59.12606
                       1.72361                       1.55776                      59.12680
                       1.28303                       1.92224                      59.12774
                       0.76565                       2.16570                      59.12882
                       0.20397                       2.27284                      59.12997
                      -0.36670                       2.23694                      59.13112
                      -0.91051                       2.06024                      59.13220
                      -1.39330                       1.75385                      59.13313
                      -1.78472                       1.33703                      59.13387
                      -2.06019                       0.83596                      59.13436
                      -2.20239                       0.28212                      59.13458
                      -2.20239                      -0.28968                      59.13450
                      -2.06019                      -0.84352                      59.13414
                      -1.78472                      -1.34459                      59.13352
                      -1.39330                      -1.76142                      59.13267
                      -0.91051                      -2.06781                      59.13165
                      -0.36670                      -2.24450                      59.13053
                       0.20397                      -2.28041                      59.12937
                       0.76565                      -2.17326                      59.12825
                       1.28303                      -1.92980                      59.12723
                       1.72361                      -1.56532                      59.12639
                       2.05970                      -1.10272                      59.12577
                       2.27020                      -0.57107                      59.12541
                       2.29781                      -0.00438                      63.50510
                       2.22782                       0.54967                      63.50533
                       2.02224                       1.06891                      63.50585
                       1.69399                       1.52071                      63.50663
                       1.26370                       1.87668                      63.50762
                       0.75839                       2.11446                      63.50875
                       0.20983                       2.21910                      63.50996
                      -0.34752                       2.18403                      63.51117
                      -0.87864                       2.01146                      63.51230
                      -1.35015                       1.71223                      63.51328
                      -1.73244                       1.30513                      63.51406
                      -2.00148                       0.81576                      63.51457
                      -2.14036                       0.27485                      63.51480
                      -2.14036                      -0.28360                      63.51472
                      -2.00148                      -0.82451                      63.51434
                      -1.73244                      -1.31389                      63.51369
                      -1.35015                      -1.72099                      63.51280
                      -0.87864                      -2.02022                      63.51173
                      -0.34752                      -2.19279                      63.51055
                       0.20983                      -2.22786                      63.50933
                       0.75839                      -2.12321                      63.50815
                       1.26369                      -1.88544                      63.50709
                       1.69399                      -1.52946                      63.50620
                       2.02224                      -1.07766                      63.50555
                       2.22782                      -0.55843                      63.50517
                       2.25441                      -0.00502                      67.88490
                       2.18609                       0.53579                      67.88514
                       1.98542                       1.04262                      67.88568
                       1.66502                       1.48362                      67.88649
                       1.24501                       1.83108                      67.88751
                       0.75178                       2.06317                      67.88869
                       0.21633                       2.16532                      67.88995
                      -0.32769                       2.13109                      67.89120
                      -0.84612                       1.96264                      67.89238
                      -1.30636                       1.67056                      67.89340
                      -1.67951                       1.27319                      67.89421
                      -1.94212                       0.79551                      67.89474
                      -2.07768                       0.26753                      67.89498
                      -2.07768                      -0.27757                      67.89490
                      -1.94212                      -0.80555                      67.89450
                      -1.67951                      -1.28323                      67.89382
                      -1.30637                      -1.68060                      67.89290
                      -0.84612                      -1.97268                      67.89179
                      -0.32769                      -2.14112                      67.89056
                       0.21633                      -2.17535                      67.88929
                       0.75178                      -2.07321                      67.88807
                       1.24501                      -1.84111                      67.88696
                       1.66502                      -1.49365                      67.88604
                       1.98542                      -1.05265                      67.88536
                       2.18609                      -0.54582                      67.88498
                       2.21157                      -0.00570                      72.26476
                       2.14493                       0.52187                      72.26501
                       1.94917                       1.01628                      72.26557
                       1.63662                       1.44648                      72.26639
                       1.22689                       1.78544                      72.26745
                       0.74574                       2.01185                      72.26865
                       0.22341                       2.11149                      72.26994
                      -0.30730                       2.07810                      72.27122
                      -0.81303                       1.91378                      72.27243
                      -1.26201                       1.62885                      72.27348
                      -1.62602                       1.24122                      72.27430
                      -1.88219                       0.77523                      72.27485
                      -2.01444                       0.26018                      72.27509
                      -2.01444                      -0.27158                      72.27500
                      -1.88219                      -0.78663                      72.27460
                      -1.62602                      -1.25261                      72.27390
                      -1.26201                      -1.64025                      72.27295
                      -0.81303                      -1.92517                      72.27182
                      -0.30730                      -2.08950                      72.27056
                       0.22341                      -2.12289                      72.26926
                       0.74574                      -2.02324                      72.26801
                       1.22689                      -1.79683                      72.26687
                       1.63661                      -1.45788                      72.26593
                       1.94917                      -1.02768                      72.26524
                       2.14493                      -0.53326                      72.26484
                       2.16915                      -0.00641                      76.64473
                       2.10418                       0.50791                      76.64498
                       1.91334                       0.98992                      76.64554
                       1.60863                       1.40932                      76.64637
                       1.20919                       1.73976                      76.64743
                       0.74012                       1.96049                      76.64864
                       0.23089                       2.05763                      76.64993
                      -0.28649                       2.02508                      76.65122
                      -0.77953                       1.86488                      76.65243
                      -1.21723                       1.58711                      76.65348
                      -1.57211                       1.20920                      76.65430
                      -1.82185                       0.75492                      76.65485
                      -1.95077                       0.25279                      76.65509
                      -1.95077                      -0.26562                      76.65501
                      -1.82185                      -0.76774                      76.65460
                      -1.57211                      -1.22203                      76.65390
                      -1.21723                      -1.59993                      76.65295
                      -0.77953                      -1.87771                      76.65180
                      -0.28649                      -2.03790                      76.65054
                       0.23089                      -2.07046                      76.64924
                       0.74012                      -1.97332                      76.64798
                       1.20919                      -1.75259                      76.64685
                       1.60863                      -1.42214                      76.64590
                       1.91334                      -1.00274                      76.64521
                       2.10418                      -0.52073                      76.64481
                       2.12690                      -0.00716                      81.02486
                       2.06360                       0.49392                      81.02510
                       1.87767                       0.96352                      81.02565
                       1.58081                       1.37212                      81.02646
                       1.19165                       1.69406                      81.02749
                       0.73466                       1.90910                      81.02867
                       0.23855                       2.00374                      81.02993
                      -0.26552                       1.97203                      81.03118
                      -0.74586                       1.81596                      81.03236
                      -1.17229                       1.54533                      81.03338
                      -1.51803                       1.17716                      81.03418
                      -1.76135                       0.73457                      81.03471
                      -1.88695                       0.24537                      81.03494
                      -1.88695                      -0.25969                      81.03486
                      -1.76135                      -0.74888                      81.03446
                      -1.51803                      -1.19147                      81.03377
                      -1.17230                      -1.55964                      81.03284
                      -0.74586                      -1.83027                      81.03173
                      -0.26552                      -1.98634                      81.03050
                       0.23854                      -2.01806                      81.02923
                       0.73466                      -1.92342                      81.02801
                       1.19165                      -1.70837                      81.02690
                       1.58081                      -1.38643                      81.02598
                       1.87767                      -0.97783                      81.02531
                       2.06360                      -0.50823                      81.02493
                       2.08442                      -0.00792                      85.40519
                       2.02279                       0.47991                      85.40542
                       1.84178                       0.93710                      85.40594
                       1.55276                       1.33490                      85.40670
                       1.17389                       1.64833                      85.40766
                       0.72897                       1.85769                      85.40876
                       0.24597                       1.94983                      85.40994
                      -0.24477                       1.91896                      85.41111
                      -0.71242                       1.76701                      85.41220
                      -1.12758                       1.50353                      85.41315
                      -1.46418                       1.14509                      85.41389
                      -1.70107                       0.71420                      85.41438
                      -1.82335                       0.23793                      85.41459
                      -1.82335                      -0.25378                      85.41450
                      -1.70107                      -0.73005                      85.41412
                      -1.46419                      -1.16094                      85.41348
                      -1.12758                      -1.51938                      85.41261
                      -0.71242                      -1.78285                      85.41157
                      -0.24477                      -1.93480                      85.41042
                       0.24597                      -1.96568                      85.40924
                       0.72897                      -1.87354                      85.40810
                       1.17389                      -1.66418                      85.40708
                       1.55276                      -1.35075                      85.40622
                       1.84178                      -0.95294                      85.40560
                       2.02279                      -0.49576                      85.40525
                       2.06293                      -0.00831                      87.59545
                       2.00213                       0.47290                      87.59568
                       1.82358                       0.92388                      87.59617
                       1.53848                       1.31629                      87.59689
                       1.16475                       1.62546                      87.59780
                       0.72588                       1.83198                      87.59884
                       0.24943                       1.92287                      87.59995
                      -0.23465                       1.89241                      87.60105
                      -0.69595                       1.74253                      87.60208
                      -1.10548                       1.48263                      87.60297
                      -1.43751                       1.12905                      87.60366
                      -1.67118                       0.70401                      87.60412
                      -1.79181                       0.23421                      87.60431
                      -1.79181                      -0.25083                      87.60422
                      -1.67118                      -0.72064                      87.60387
                      -1.43751                      -1.14568                      87.60325
                      -1.10548                      -1.49926                      87.60243
                      -0.69595                      -1.75915                      87.60145
                      -0.23465                      -1.90904                      87.60037
                       0.24943                      -1.93950                      87.59926
                       0.72588                      -1.84861                      87.59818
                       1.16475                      -1.64209                      87.59722
                       1.53848                      -1.33291                      87.59642
                       1.82358                      -0.94051                      87.59583
                       2.00213                      -0.48953                      87.59551
                       3.00000                       0.00000                       0.00000
                       2.90575                       0.74607                       0.00000
                       2.62892                       1.44526                       0.00000
                       2.18691                       2.05364                       0.00000
                       1.60748                       2.53298                       0.00000
                       0.92705                       2.85317                       0.00000
                       0.18837                       2.99408                       0.00000
                      -0.56214                       2.94686                       0.00000
                      -1.27734                       2.71448                       0.00000
                      -1.91227                       2.31154                       0.00000
                      -2.42705                       1.76336                       0.00000
                      -2.78933                       1.10437                       0.00000
                      -2.97634                       0.37600                       0.00000
                      -2.97634                      -0.37600                       0.00000
                      -2.78933                      -1.10437                       0.00000
                      -2.42705                      -1.76336                       0.00000
                      -1.91227                      -2.31154                       0.00000
                      -1.27734                      -2.71448                       0.00000
                      -0.56214                      -2.94686                       0.00000
                       0.18837                      -2.99408                       0.00000
                       0.92705                      -2.85317                       0.00000
                       1.60748                      -2.53298                       0.00000
                       2.18691                      -2.05364                       0.00000
                       2.62892                      -1.44526                       0.00000
                       2.90575                      -0.74607                       0.00000
        </DataArray>
      </Points>
      <Polys>
        <DataArray type="Int32" Name="connectivity" format="ascii">
      0      1     26     25
      1      2     27     26
      2      3     28     27
      3      4     29     28
      4      5     30     29
      5      6     31     30
      6      7     32     31
      7      8     33     32
      8      9     34     33
      9     10     35     34
     10     11     36     35
     11     12     37     36
     12     13     38     37
     13     14     39     38
     14     15     40     39
     15     16     41     40
     16     17     42     41
     17     18     43     42
     18     19     44     43
     19     20     45     44
     20     21     46     45
     21     22     47     46
     22     23     48     47
     23     24     49     48
     24      0     25     49
     24     23     22     21     20     19     18     17     16     15     14     13     12     11     10      9      8      7      6      5      4      3      2      1      0
     25     26     27     28     29     30     31     32     33     34     35     36     37     38     39     40     41     42     43     44     45     46     47     48     49
     25     26     51     50
     26     27     52     51
     27     28     53     52
     28     29     54     53
     29     30     55     54
     30     31     56     55
     31     32     57     56
     32     33     58     57
     33     34     59     58
     34     35     60     59
     35     36     61     60
     36     37     62     61
     37     38     63     62
     38     39     64     63
     39     40     65     64
     40     41     66     65
     41     42     67     66
     42     43     68     67
     43     44     69     68
     44     45     70     69
     45     46     71     70
     46     47     72     71
     47     48     73     72
     48     49     74     73
     49     25     50     74
     49     48     47     46     45     44     43     42     41     40     39     38     37     36     35     34     33     32     31     30     29     28     27     26     25
     50     51     52     53     54     55     56     57     58     59     60     61     62     63     64     65     66     67     68     69     70     71     72     73     74
     50     51     76     75
     51     52     77     76
     52     53     78     77
     53     54     79     78
     54     55     80     79
     55     56     81     80
     56     57     82     81
     57     58     83     82
     58     59     84     83
     59     60     85     84
     60     61     86     85
     61     62     87     86
     62     63     88     87
     63     64     89     88
     64     65     90     89
     65     66     91     90
     66     67     92     91
     67     68     93     92
     68     69     94     93
     69     70     95     94
     70     71     96     95
     71     72     97     96
     72     73     98     97
     73     74     99     98
     74     50     75     99
     74     73     72     71     70     69     68     67     66     65     64     63     62     61     60     59     58     57     56     55     54     53     52     51     50
     75     76     77     78     79     80     81     82     83     84     85     86     87     88     89     90     91     92     93     94     95     96     97     98     99
     75     76    101    100
     76     77    102    101
     77     78    103    102
     78     79    104    103
     79     80    105    104
     80     81    106    105
     81     82    107    106
     82     83    108    107
     83     84    109    108
     84     85    110    109
     85     86    111    110
     86     87    112    111
     87     88    113    112
     88     89    114    113
     89     90    115    114
     90     91    116    115
     91     92    117    116
     92     93    118    117
     93     94    119    118
     94     95    120    119
     95     96    121    120
     96     97    122    121
     97     98    123    122
     98     99    124    123
     99     75    100    124
     99     98     97     96     95     94     93     92     91     90     89     88     87     86     85     84     83     82     81     80     79     78     77     76     75
    100    101    102    103    104    105    106    107    108    109    110    111    112    113    114    115    116    117    118    119    120    121    122    123    124
    100    101    126    125
    101    102    127    126
    102    103    128    127
    103    104    129    128
    104    105    130    129
    105    106    131    130
    106    107    132    131
    107    108    133    132
    108    109    134    133
    109    110    135    134
    110    111    136    135
    111    112    137    136
    112    113    138    137
    113    114    139    138
    114    115    140    139
    115    116    141    140
    116    117    142    141
    117    118    143    142
    118    119    144    143
    119    120    145    144
    120    121    146    145
    121    122    147    146
    122    123    148    147
    123    124    149    148
    124    100    125    149
    124    123    122    121    120    119    118    117    116    115    114    113    112    111    110    109    108    107    106    105    104    103    102    101    100
    125    126    127    128    129    130    131    132    133    134    135    136    137    138    139    140    141    142    143    144    145    146    147    148    149
    125    126    151    150
    126    127    152    151
    127    128    153    152
    128    129    154    153
    129    130    155    154
    130    131    156    155
    131    132    157    156
    132    133    158    157
    133    134    159    158
    134    135    160    159
    135    136    161    160
    136    137    162    161
    137    138    163    162
    138    139    164    163
    139    140    165    164
    140    141    166    165
    141    142    167    166
    142    143    168    167
    143    144    169    168
    144    145    170    169
    145    146    171    170
    146    147    172    171
    147    148    173    172
    148    149    174    173
    149    125    150    174
    149    148    147    146    145    144    143    142    141    140    139    138    137    136    135    134    133    132    131    130    129    128    127    126    125
    150    151    152    153    154    155    156    157    158    159    160    161    162    163    164    165    166    167    168    169    170    171    172    173    174
    150    151    176    175
    151    152    177    176
    152    153    178    177
    153    154    179    178
    154    155    180    179
    155    156    181    180
    156    157    182    181
    157    158    183    182
    158    159    184    183
    159    160    185    184
    160    161    186    185
    161    162    187    186
    162    163    188    187
    163    164    189    188
    164    165    190    189
    165    166    191    190
    166    167    192    191
    167    168    193    192
    168    169    194    193
    169    170    195    194
    170    171    196    195
    171    172    197    196
    172    173    198    197
    173    174    199    198
    174    150    175    199
    174    173    172    171    170    169    168    167    166    165    164    163    162    161    160    159    158    157    156    155    154    153    152    151    150
    175    176    177    178    179    180    181    182    183    184    185    186    187    188    189    190    191    192    193    194    195    196    197    198    199
    175    176    201    200
    176    177    202    201
    177    178    203    202
    178    179    204    203
    179    180    205    204
    180    181    206    205
    181    182    207    206
    182    183    208    207
    183    184    209    208
    184    185    210    209
    185    186    211    210
    186    187    212    211
    187    188    213    212
    188    189    214    213
    189    190    215    214
    190    191    216    215
    191    192    217    216
    192    193    218    217
    193    194    219    218
    194    195    220    219
    195    196    221    220
    196    197    222    221
    197    198    223    222
    198    199    224    223
    199    175    200    224
    199    198    197    196    195    194    193    192    191    190    189    188    187    186    185    184    183    182    181    180    179    178    177    176    175
    200    201    202    203    204    205    206    207    208    209    210    211    212    213    214    215    216    217    218    219    220    221    222    223    224
    200    201    226    225
    201    202    227    226
    202    203    228    227
    203    204    229    228
    204    205    230    229
    205    206    231    230
    206    207    232    231
    207    208    233    232
    208    209    234    233
    209    210    235    234
    210    211    236    235
    211    212    237    236
    212    213    238    237
    213    214    239    238
    214    215    240    239
    215    216    241    240
    216    217    242    241
    217    218    243    242
    218    219    244    243
    219    220    245    244
    220    221    246    245
    221    222    247    246
    222    223    248    247
    223    224    249    248
    224    200    225    249
    224    223    222    221    220    219    218    217    216    215    214    213    212    211    210    209    208    207    206    205    204    203    202    201    200
    225    226    227    228    229    230    231    232    233    234    235    236    237    238    239    240    241    242    243    244    245    246    247    248    249
    225    226    251    250
    226    227    252    251
    227    228    253    252
    228    229    254    253
    229    230    255    254
    230    231    256    255
    231    232    257    256
    232    233    258    257
    233    234    259    258
    234    235    260    259
    235    236    261    260
    236    237    262    261
    237    238    263    262
    238    239    264    263
    239    240    265    264
    240    241    266    265
    241    242    267    266
    242    243    268    267
    243    244    269    268
    244    245    270    269
    245    246    271    270
    246    247    272    271
    247    248    273    272
    248    249    274    273
    249    225    250    274
    249    248    247    246    245    244    243    242    241    240    239    238    237    236    235    234    233    232    231    230    229    228    227    226    225
    250    251    252    253    254    255    256    257    258    259    260    261    262    263    264    265    266    267    268    269    270    271    272    273    274
    250    251    276    275
    251    252    277    276
    252    253    278    277
    253    254    279    278
    254    255    280    279
    255    256    281    280
    256    257    282    281
    257    258    283    282
    258    259    284    283
    259    260    285    284
    260    261    286    285
    261    262    287    286
    262    263    288    287
    263    264    289    288
    264    265    290    289
    265    266    291    290
    266    267    292    291
    267    268    293    292
    268    269    294    293
    269    270    295    294
    270    271    296    295
    271    272    297    296
    272    273    298    297
    273    274    299    298
    274    250    275    299
    274    273    272    271    270    269    268    267    266    265    264    263    262    261    260    259    258    257    256    255    254    253    252    251    250
    275    276    277    278    279    280    281    282    283    284    285    286    287    288    289    290    291    292    293    294    295    296    297    298    299
    275    276    301    300
    276    277    302    301
    277    278    303    302
    278    279    304    303
    279    280    305    304
    280    281    306    305
    281    282    307    306
    282    283    308    307
    283    284    309    308
    284    285    310    309
    285    286    311    310
    286    287    312    311
    287    288    313    312
    288    289    314    313
    289    290    315    314
    290    291    316    315
    291    292    317    316
    292    293    318    317
    293    294    319    318
    294    295    320    319
    295    296    321    320
    296    297    322    321
    297    298    323    322
    298    299    324    323
    299    275    300    324
    299    298    297    296    295    294    293    292    291    290    289    288    287    286    285    284    283    282    281    280    279    278    277    276    275
    300    301    302    303    304    305    306    307    308    309    310    311    312    313    314    315    316    317    318    319    320    321    322    323    324
    300    301    326    325
    301    302    327    326
    302    303    328    327
    303    304    329    328
    304    305    330    329
    305    306    331    330
    306    307    332    331
    307    308    333    332
    308    309    334    333
    309    310    335    334
    310    311    336    335
    311    312    337    336
    312    313    338    337
    313    314    339    338
    314    315    340    339
    315    316    341    340
    316    317    342    341
    317    318    343    342
    318    319    344    343
    319    320    345    344
    320    321    346    345
    321    322    347    346
    322    323    348    347
    323    324    349    348
    324    300    325    349
    324    323    322    321    320    319    318    317    316    315    314    313    312    311    310    309    308    307    306    305    304    303    302    301    300
    325    326    327    328    329    330    331    332    333    334    335    336    337    338    339    340    341    342    343    344    345    346    347    348    349
    325    326    351    350
    326    327    352    351
    327    328    353    352
    328    329    354    353
    329    330    355    354
    330    331    356    355
    331    332    357    356
    332    333    358    357
    333    334    359    358
    334    335    360    359
    335    336    361    360
    336    337    362    361
    337    338    363    362
    338    339    364    363
    339    340    365    364
    340    341    366    365
    341    342    367    366
    342    343    368    367
    343    344    369    368
    344    345    370    369
    345    346    371    370
    346    347    372    371
    347    348    373    372
    348    349    374    373
    349    325    350    374
    349    348    347    346    345    344    343    342    341    340    339    338    337    336    335    334    333    332    331    330    329    328    327    326    325
    350    351    352    353    354    355    356    357    358    359    360    361    362    363    364    365    366    367    368    369    370    371    372    373    374
    350    351    376    375
    351    352    377    376
    352    353    378    377
    353    354    379    378
    354    355    380    379
    355    356    381    380
    356    357    382    381
    357    358    383    382
    358    359    384    383
    359    360    385    384
    360    361    386    385
    361    362    387    386
    362    363    388    387
    363    364    389    388
    364    365    390    389
    365    366    391    390
    366    367    392    391
    367    368    393    392
    368    369    394    393
    369    370    395    394
    370    371    396    395
    371    372    397    396
    372    373    398    397
    373    374    399    398
    374    350    375    399
    374    373    372    371    370    369    368    367    366    365    364    363    362    361    360    359    358    357    356    355    354    353    352    351    350
    375    376    377    378    379    380    381    382    383    384    385    386    387    388    389    390    391    392    393    394    395    396    397    398    399
    375    376    401    400
    376    377    402    401
    377    378    403    402
    378    379    404    403
    379    380    405    404
    380    381    406    405
    381    382    407    406
    382    383    408    407
    383    384    409    408
    384    385    410    409
    385    386    411    410
    386    387    412    411
    387    388    413    412
    388    389    414    413
    389    390    415    414
    390    391    416    415
    391    392    417    416
    392    393    418    417
    393    394    419    418
    394    395    420    419
    395    396    421    420
    396    397    422    421
    397    398    423    422
    398    399    424    423
    399    375    400    424
    399    398    397    396    395    394    393    392    391    390    389    388    387    386    385    384    383    382    381    380    379    378    377    376    375
    400    401    402    403    404    405    406    407    408    409    410    411    412    413    414    415    416    417    418    419    420    421    422    423    424
    400    401    426    425
    401    402    427    426
    402    403    428    427
    403    404    429    428
    404    405    430    429
    405    406    431    430
    406    407    432    431
    407    408    433    432
    408    409    434    433
    409    410    435    434
    410    411    436    435
    411    412    437    436
    412    413    438    437
    413    414    439    438
    414    415    440    439
    415    416    441    440
    416    417    442    441
    417    418    443    442
    418    419    444    443
    419    420    445    444
    420    421    446    445
    421    422    447    446
    422    423    448    447
    423    424    449    448
    424    400    425    449
    424    423    422    421    420    419    418    417    416    415    414    413    412    411    410    409    408    407    406    405    404    403    402    401    400
    425    426    427    428    429    430    431    432    433    434    435    436    437    438    439    440    441    442    443    444    445    446    447    448    449
    425    426    451    450
    426    427    452    451
    427    428    453    452
    428    429    454    453
    429    430    455    454
    430    431    456    455
    431    432    457    456
    432    433    458    457
    433    434    459    458
    434    435    460    459
    435    436    461    460
    436    437    462    461
    437    438    463    462
    438    439    464    463
    439    440    465    464
    440    441    466    465
    441    442    467    466
    442    443    468    467
    443    444    469    468
    444    445    470    469
    445    446    471    470
    446    447    472    471
    447    448    473    472
    448    449    474    473
    449    425    450    474
    449    448    447    446    445    444    443    442    441    440    439    438    437    436    435    434    433    432    431    430    429    428    427    426    425
    450    451    452    453    454    455    456    457    458    459    460    461    462    463    464    465    466    467    468    469    470    471    472    473    474
    450    451    476    475
    451    452    477    476
    452    453    478    477
    453    454    479    478
    454    455    480    479
    455    456    481    480
    456    457    482    481
    457    458    483    482
    458    459    484    483
    459    460    485    484
    460    461    486    485
    461    462    487    486
    462    463    488    487
    463    464    489    488
    464    465    490    489
    465    466    491    490
    466    467    492    491
    467    468    493    492
    468    469    494    493
    469    470    495    494
    470    471    496    495
    471    472    497    496
    472    473    498    497
    473    474    499    498
    474    450    475    499
    474    473    472    471    470    469    468    467    466    465    464    463    462    461    460    459    458    457    456    455    454    453    452    451    450
    475    476    477    478    479    480    481    482    483    484    485    486    487    488    489    490    491    492    493    494    495    496    497    498    499
    475    476    501    500
    476    477    502    501
    477    478    503    502
    478    479    504    503
    479    480    505    504
    480    481    506    505
    481    482    507    506
    482    483    508    507
    483    484    509    508
    484    485    510    509
    485    486    511    510
    486    487    512    511
    487    488    513    512
    488    489    514    513
    489    490    515    514
    490    491    516    515
    491    492    517    516
    492    493    518    517
    493    494    519    518
    494    495    520    519
    495    496    521    520
    496    497    522    521
    497    498    523    522
    498    499    524    523
    499    475    500    524
    499    498    497    496    495    494    493    492    491    490    489    488    487    486    485    484    483    482    481    480    479    478    477    476    475
    500    501    502    503    504    505    506    507    508    509    510    511    512    513    514    515    516    517    518    519    520    521    522    523    524
    525    526      1      0
    526    527      2      1
    527    528      3      2
    528    529      4      3
    529    530      5      4
    530    531      6      5
    531    532      7      6
    532    533      8      7
    533    534      9      8
    534    535     10      9
    535    536     11     10
    536    537     12     11
    537    538     13     12
    538    539     14     13
    539    540     15     14
    540    541     16     15
    541    542     17     16
    542    543     18     17
    543    544     19     18
    544    545     20     19
    545    546     21     20
    546    547     22     21
    547    548     23     22
    548    549     24     23
    549    525      0     24
    549    548    547    546    545    544    543    542    541    540    539    538    537    536    535    534    533    532    531    530    529    528    527    526    525
      0      1      2      3      4      5      6      7      8      9     10     11     12     13     14     15     16     17     18     19     20     21     22     23     24
        </DataArray>
        <DataArray type="Int32" Name="offsets" format="ascii">
      4
      8
     12
     16
     20
     24
     28
     32
     36
     40
     44
     48
     52
     56
     60
     64
     68
     72
     76
     80
     84
     88
     92
     96
    100
    125
    150
    154
    158
    162
    166
    170
    174
    178
    182
    186
    190
    194
    198
    202
    206
    210
    214
    218
    222
    226
    230
    234
    238
    242
    246
    250
    275
    300
    304
    308
    312
    316
    320
    324
    328
    332
    336
    340
    344
    348
    352
    356
    360
    364
    368
    372
    376
    380
    384
    388
    392
    396
    400
    425
    450
    454
    458
    462
    466
    470
    474
    478
    482
    486
    490
    494
    498
    502
    506
    510
    514
    518
    522
    526
    530
    534
    538
    542
    546
    550
    575
    600
    604
    608
    612
    616
    620
    624
    628
    632
    636
    640
    644
    648
    652
    656
    660
    664
    668
    672
    676
    680
    684
    688
    692
    696
    700
    725
    750
    754
    758
    762
    766
    770
    774
    778
    782
    786
    790
    794
    798
    802
    806
    810
    814
    818
    822
    826
    830
    834
    838
    842
    846
    850
    875
    900
    904
    908
    912
    916
    920
    924
    928
    932
    936
    940
    944
    948
    952
    956
    960
    964
    968
    972
    976
    980
    984
    988
    992
    996
   1000
   1025
   1050
   1054
   1058
   1062
   1066
   1070
   1074
   1078
   1082
   1086
   1090
   1094
   1098
   1102
   1106
   1110
   1114
   1118
   1122
   1126
   1130
   1134
   1138
   1142
   1146
   1150
   1175
   1200
   1204
   1208
   1212
   1216
   1220
   1224
   1228
   1232
   1236
   1240
   1244
   1248
   1252
   1256
   1260
   1264
   1268
   1272
   1276
   1280
   1284
   1288
   1292
   1296
   1300
   1325
   1350
   1354
   1358
   1362
   1366
   1370
   1374
   1378
   1382
   1386
   1390
   1394
   1398
   1402
   1406
   1410
   1414
   1418
   1422
   1426
   1430
   1434
   1438
   1442
   1446
   1450
   1475
   1500
   1504
   1508
   1512
   1516
   1520
   1524
   1528
   1532
   1536
   1540
   1544
   1548
   1552
   1556
   1560
   1564
   1568
   1572
   1576
   1580
   1584
   1588
   1592
   1596
   1600
   1625
   1650
   1654
   1658
   1662
   1666
   1670
   1674
   1678
   1682
   1686
   1690
   1694
   1698
   1702
   1706
   1710
   1714
   1718
   1722
   1726
   1730
   1734
   1738
   1742
   1746
   1750
   1775
   1800
   1804
   1808
   1812
   1816
   1820
   1824
   1828
   1832
   1836
   1840
   1844
   1848
   1852
   1856
   1860
   1864
   1868
   1872
   1876
   1880
   1884
   1888
   1892
   1896
   1900
   1925
   1950
   1954
   1958
   1962
   1966
   1970
   1974
   1978
   1982
   1986
   1990
   1994
   1998
   2002
   2006
   2010
   2014
   2018
   2022
   2026
   2030
   2034
   2038
   2042
   2046
   2050
   2075
   2100
   2104
   2108
   2112
   2116
   2120
   2124
   2128
   2132
   2136
   2140
   2144
   2148
   2152
   2156
   2160
   2164
   2168
   2172
   2176
   2180
   2184
   2188
   2192
   2196
   2200
   2225
   2250
   2254
   2258
   2262
   2266
   2270
   2274
   2278
   2282
   2286
   2290
   2294
   2298
   2302
   2306
   2310
   2314
   2318
   2322
   2326
   2330
   2334
   2338
   2342
   2346
   2350
   2375
   2400
   2404
   2408
   2412
   2416
   2420
   2424
   2428
   2432
   2436
   2440
   2444
   2448
   2452
   2456
   2460
   2464
   2468
   2472
   2476
   2480
   2484
   2488
   2492
   2496
   2500
   2525
   2550
   2554
   2558
   2562
   2566
   2570
   2574
   2578
   2582
   2586
   2590
   2594
   2598
   2602
   2606
   2610
   2614
   2618
   2622
   2626
   2630
   2634
   2638
   2642
   2646
   2650
   2675
   2700
   2704
   2708
   2712
   2716
   2720
   2724
   2728
   2732
   2736
   2740
   2744
   2748
   2752
   2756
   2760
   2764
   2768
   2772
   2776
   2780
   2784
   2788
   2792
   2796
   2800
   2825
   2850
   2854
   2858
   2862
   2866
   2870
   2874
   2878
   2882
   2886
   2890
   2894
   2898
   2902
   2906
   2910
   2914
   2918
   2922
   2926
   2930
   2934
   2938
   2942
   2946
   2950
   2975
   3000
   3004
   3008
   3012
   3016
   3020
   3024
   3028
   3032
   3036
   3040
   3044
   3048
   3052
   3056
   3060
   3064
   3068
   3072
   3076
   3080
   3084
   3088
   3092
   3096
   3100
   3125
   3150
        </DataArray>
      </Polys>
    </Piece>
  </PolyData>
</VTKFile>
