<?xml version="1.0"?>
<VTKFile type="PolyData" version="0.1" byte_order="LittleEndian">
  <PolyData>
    <Piece NumberOfPoints="     19" NumberOfVerts="  0" NumberOfLines="     18"
           NumberOfStrips="  0" NumberOfPolys="      0">
      <Points>
        <DataArray type="Float32" NumberOfComponents="3" format="ascii">
                      -4.83636                      -1.06261                      91.07823
                      -4.80909                      -2.02570                      92.04793
                      -4.78238                      -4.01949                      93.92182
                      -4.76663                      -6.04610                      95.76410
                      -4.74896                      -8.60003                      98.04702
                      -4.65532                     -11.56720                     100.88098
                      -4.51813                     -14.44565                     103.80183
                      -4.37580                     -17.32496                     106.72230
                      -4.23284                     -20.20355                     109.64439
                      -4.10000                     -23.08208                     112.56807
                      -3.99111                     -25.96187                     115.49236
                      -3.91965                     -28.84000                     118.41991
                      -3.90239                     -31.71375                     121.35255
                      -3.95769                     -34.57934                     124.29209
                      -4.10277                     -37.43228                     127.23998
                      -4.30869                     -39.79540                     129.70431
                      -4.53311                     -41.66859                     131.68651
                      -4.80570                     -43.49108                     133.71168
                      -4.97832                     -44.42476                     134.69770
        </DataArray>
      </Points>
      <PointData>
        <DataArray type="Float32" Name="TranslationalVelocity" NumberOfComponents="3" format="ascii">
                      -0.27069                      -3.05737                      -3.01199
                      -0.51864                      -5.83027                      -5.75898
                      -1.03089                     -11.18421                     -11.44809
                      -1.55047                     -16.44802                     -17.23429
                      -2.20346                     -22.97479                     -24.53149
                      -2.95824                     -31.10236                     -33.01768
                      -3.68334                     -39.49810                     -41.25920
                      -4.39760                     -47.90311                     -49.51249
                      -5.09628                     -56.32201                     -57.77316
                      -5.77499                     -64.75183                     -66.04289
                      -6.42983                     -73.18614                     -74.32503
                      -7.05648                     -81.62914                     -82.61044
                      -7.65176                     -90.08192                     -90.89008
                      -8.21373                     -98.54553                     -99.15152
                      -8.74213                    -107.02042                    -107.37989
                      -9.15744                    -114.09232                    -114.19648
                      -9.47447                    -119.77149                    -119.59924
                      -9.77205                    -125.56775                    -124.85455
                      -9.92397                    -128.38301                    -127.54578
        </DataArray>
        <DataArray type="Float32" Name="RotationalVelocity" NumberOfComponents="3" format="ascii">
                       2.85186                      -0.00121                      -0.25610
                       2.85235                      -0.00114                      -0.25604
                       2.85365                      -0.00094                      -0.25588
                       2.85529                      -0.00065                      -0.25563
                       2.85764                      -0.00011                      -0.25512
                       2.86069                       0.00086                      -0.25408
                       2.86380                       0.00223                      -0.25241
                       2.86687                       0.00408                      -0.24994
                       2.86986                       0.00644                      -0.24655
                       2.87275                       0.00933                      -0.24215
                       2.87555                       0.01269                      -0.23677
                       2.87827                       0.01643                      -0.23050
                       2.88090                       0.02035                      -0.22358
                       2.88335                       0.02419                      -0.21637
                       2.88548                       0.02757                      -0.20943
                       2.88688                       0.02974                      -0.20432
                       2.88760                       0.03077                      -0.20107
                       2.88782                       0.03095                      -0.19894
                       2.88770                       0.03066                      -0.19839
        </DataArray>
        <DataArray type="Float32" Name="TranslationalAcceleration" NumberOfComponents="3" format="ascii">
                      -0.73701                       8.66158                      -8.65697
                      -0.91921                      10.48351                     -10.48682
                      -2.56924                      30.56406                     -29.47405
                      -4.05025                      49.35810                     -46.64287
                      -5.75779                      71.56763                     -66.47920
                      -7.78394                      96.13608                     -89.80283
                      -9.86346                     119.41196                    -113.27269
                     -11.99530                     142.69248                    -136.69594
                     -14.21613                     166.25856                    -160.37155
                     -16.53596                     190.20924                    -184.38088
                     -18.94275                     214.50406                    -208.65445
                     -21.41005                     238.97967                    -233.06906
                     -23.89750                     263.44307                    -257.46590
                     -26.35566                     287.71910                    -281.71589
                     -28.73016                     311.71040                    -305.77492
                     -30.60347                     331.49797                    -325.74544
                     -32.01786                     347.22160                    -341.81666
                     -33.37392                     362.70383                    -358.40413
                     -33.98797                     370.74815                    -366.58132
        </DataArray>
        <DataArray type="Float32" Name="OrientationX" NumberOfComponents="3" format="ascii">
                       0.95655                      -0.19347                      -0.21815
                       0.95654                      -0.19328                      -0.21836
                       0.95644                      -0.19281                      -0.21918
                       0.95627                      -0.19220                      -0.22047
                       0.95594                      -0.19135                      -0.22264
                       0.96423                      -0.16869                      -0.20448
                       0.96923                      -0.15309                      -0.19278
                       0.97280                      -0.14145                      -0.18345
                       0.97592                      -0.13202                      -0.17365
                       0.97842                      -0.12622                      -0.16361
                       0.97991                      -0.12619                      -0.15444
                       0.98056                      -0.13189                      -0.14528
                       0.97992                      -0.14481                      -0.13707
                       0.97726                      -0.16653                      -0.13125
                       0.97322                      -0.19327                      -0.12444
                       0.96881                      -0.21817                      -0.11752
                       0.96450                      -0.23946                      -0.11135
                       0.95877                      -0.26337                      -0.10672
                       0.95520                      -0.27653                      -0.10547
        </DataArray>
        <DataArray type="Float32" Name="OrientationY" NumberOfComponents="3" format="ascii">
                       0.29089                       0.68473                       0.66823
                       0.29090                       0.68466                       0.66829
                       0.29115                       0.68447                       0.66838
                       0.29163                       0.68425                       0.66840
                       0.29255                       0.68393                       0.66832
                       0.26370                       0.68918                       0.67490
                       0.24440                       0.69218                       0.67909
                       0.22959                       0.69411                       0.68227
                       0.21602                       0.69558                       0.68520
                       0.20484                       0.69649                       0.68771
                       0.19838                       0.69664                       0.68945
                       0.19596                       0.69619                       0.69060
                       0.19933                       0.69493                       0.69090
                       0.21066                       0.69236                       0.69012
                       0.22492                       0.68900                       0.68898
                       0.23786                       0.68572                       0.68790
                       0.24882                       0.68274                       0.68699
                       0.26277                       0.67871                       0.68579
                       0.27136                       0.67607                       0.68505
        </DataArray>
        <DataArray type="Float32" Name="OrientationZ" NumberOfComponents="3" format="ascii">
                       0.02009                      -0.70265                       0.71126
                       0.02034                      -0.70277                       0.71113
                       0.02116                      -0.70308                       0.71079
                       0.02239                      -0.70347                       0.71037
                       0.02439                      -0.70401                       0.70977
                       0.02708                      -0.70468                       0.70901
                       0.02948                      -0.70531                       0.70829
                       0.03083                      -0.70583                       0.70771
                       0.03032                      -0.70621                       0.70735
                       0.02715                      -0.70638                       0.70731
                       0.02059                      -0.70624                       0.70767
                       0.01006                      -0.70564                       0.70850
                      -0.00480                      -0.70435                       0.70984
                      -0.02405                      -0.70208                       0.71170
                      -0.04742                      -0.69851                       0.71402
                      -0.06949                      -0.69440                       0.71622
                      -0.08849                      -0.69031                       0.71808
                      -0.10818                      -0.68556                       0.71993
                      -0.11813                      -0.68298                       0.72082
        </DataArray>
        <DataArray type="Float32" Name="Force" NumberOfComponents="3" format="ascii">
                     173.69108                      45.58781                      40.13039
                     204.55297                      97.81690                      90.78445
                     320.50946                     282.83894                     269.90410
                     335.54086                     420.87535                     405.30697
                    3520.26138                    -992.81720                   -1102.63313
                    3636.20168                    -751.47879                    -882.40268
                    3328.15799                    -514.81535                    -648.23325
                    4485.79694                    -601.20118                    -790.97515
                    5784.03568                    -701.28432                    -942.85674
                    6127.20086                    -658.06182                    -887.37608
                    8468.39830                    -872.51467                   -1110.85205
                    8096.65744                    -801.48575                    -908.44978
                    4887.31901                    -440.31039                    -402.22671
                     842.83635                      63.93990                      91.11829
                   -1948.49323                     433.06679                     294.51555
                   -7057.58277                    1211.87537                     493.88028
                  -11239.21509                    1942.79078                     491.77143
                  -12237.49556                    2195.15563                     264.76559
                  -15204.10119                    2791.29617                     171.71614
        </DataArray>
        <DataArray type="Float32" Name="Moment" NumberOfComponents="3" format="ascii">
                       0.00000                       0.00000                       0.00000
                       0.00000                       0.00000                       0.00000
                       0.00000                       0.00000                       0.00000
                       0.00000                       0.00000                       0.00000
                     -39.13604                    1122.75771                   -1135.88301
                     -82.45222                    2127.38341                   -2151.50800
                    -117.05319                    2771.44010                   -2802.00288
                    -186.49712                    4217.61367                   -4263.37353
                    -270.74756                    6217.81223                   -6285.65037
                    -273.82628                    7009.69111                   -7088.98838
                    -230.29267                    7744.02856                   -7838.11729
                    -120.27426                    8167.84050                   -8278.08809
                      39.67329                    6080.70264                   -6174.38000
                     198.26220                    5800.48343                   -5904.24690
                     365.03141                    5372.47394                   -5484.86776
                     505.31002                    5049.66415                   -5169.86889
                     571.39947                    4465.72761                   -4583.21233
                     345.47063                    2198.79682                   -2262.40084
                     383.10547                    2227.97186                   -2295.38731
        </DataArray>
      </PointData>
      <Lines>
        <DataArray type="Int32" Name="connectivity" format="ascii">
      0      1
      1      2
      2      3
      3      4
      4      5
      5      6
      6      7
      7      8
      8      9
      9     10
     10     11
     11     12
     12     13
     13     14
     14     15
     15     16
     16     17
     17     18
        </DataArray>
        <DataArray type="Int32" Name="offsets" format="ascii">
      2
      4
      6
      8
     10
     12
     14
     16
     18
     20
     22
     24
     26
     28
     30
     32
     34
     36
        </DataArray>
      </Lines>
    </Piece>
  </PolyData>
</VTKFile>
