<?xml version="1.0"?>
<VTKFile type="PolyData" version="0.1" byte_order="LittleEndian">
  <PolyData>
    <Piece NumberOfPoints="    550" NumberOfVerts="  0" NumberOfLines="     21"
           NumberOfStrips="  0" NumberOfPolys="    567">
      <Points>
        <DataArray type="Float32" NumberOfComponents="3" format="ascii">
                       2.97344                      -0.00000                       2.18982
                       2.88002                       0.73944                       2.18983
                       2.60565                       1.43243                       2.18985
                       2.16756                       2.03541                       2.18988
                       1.59328                       2.51050                       2.18992
                       0.91889                       2.82784                       2.18996
                       0.18676                       2.96750                       2.19000
                      -0.55709                       2.92070                       2.19004
                      -1.26594                       2.69039                       2.19009
                      -1.89524                       2.29102                       2.19012
                      -2.40545                       1.74770                       2.19015
                      -2.76451                       1.09457                       2.19017
                      -2.94987                       0.37266                       2.19018
                      -2.94987                      -0.37267                       2.19017
                      -2.76451                      -1.09458                       2.19016
                      -2.40545                      -1.74771                       2.19014
                      -1.89524                      -2.29103                       2.19010
                      -1.26594                      -2.69039                       2.19006
                      -0.55709                      -2.92071                       2.19002
                       0.18676                      -2.96751                       2.18998
                       0.91889                      -2.82785                       2.18993
                       1.59328                      -2.51051                       2.18990
                       2.16756                      -2.03542                       2.18986
                       2.60565                      -1.43244                       2.18984
                       2.88002                      -0.73945                       2.18983
                       2.92075                      -0.00004                       6.56941
                       2.82901                       0.72617                       6.56943
                       2.55955                       1.40674                       6.56949
                       2.12931                       1.99893                       6.56959
                       1.56531                       2.46551                       6.56971
                       0.90300                       2.77717                       6.56985
                       0.18399                       2.91433                       6.56999
                      -0.54655                       2.86836                       6.57014
                      -1.24270                       2.64217                       6.57028
                      -1.86073                       2.24996                       6.57040
                      -2.36180                       1.71637                       6.57050
                      -2.71443                       1.07493                       6.57056
                      -2.89647                       0.36595                       6.57059
                      -2.89647                      -0.36603                       6.57059
                      -2.71443                      -1.07501                       6.57054
                      -2.36180                      -1.71644                       6.57046
                      -1.86073                      -2.25003                       6.57035
                      -1.24270                      -2.64225                       6.57022
                      -0.54655                      -2.86844                       6.57008
                       0.18399                      -2.91440                       6.56993
                       0.90300                      -2.77724                       6.56979
                       1.56531                      -2.46558                       6.56965
                       2.12931                      -1.99900                       6.56954
                       2.55955                      -1.40682                       6.56946
                       2.82901                      -0.72624                       6.56942
                       2.86875                      -0.00010                      10.94895
                       2.77868                       0.71286                      10.94899
                       2.51414                       1.38103                      10.94910
                       2.09174                       1.96241                      10.94927
                       1.53802                       2.42048                      10.94948
                       0.88779                       2.72646                      10.94972
                       0.18189                       2.86112                      10.94998
                      -0.53532                       2.81599                      10.95025
                      -1.21878                       2.59393                      10.95049
                      -1.82554                       2.20886                      10.95071
                      -2.31748                       1.68501                      10.95088
                      -2.66368                       1.05527                      10.95100
                      -2.84239                       0.35921                      10.95105
                      -2.84239                      -0.35941                      10.95104
                      -2.66368                      -1.05547                      10.95096
                      -2.31748                      -1.68521                      10.95082
                      -1.82554                      -2.20907                      10.95063
                      -1.21878                      -2.59413                      10.95040
                      -0.53532                      -2.81619                      10.95015
                       0.18189                      -2.86132                      10.94988
                       0.88779                      -2.72666                      10.94963
                       1.53802                      -2.42068                      10.94939
                       2.09174                      -1.96261                      10.94920
                       2.51414                      -1.38123                      10.94905
                       2.77868                      -0.71306                      10.94897
                       2.81747                      -0.00019                      15.32849
                       2.72908                       0.69953                      15.32856
                       2.46945                       1.35528                      15.32871
                       2.05489                       1.92587                      15.32895
                       1.51146                       2.37543                      15.32925
                       0.87331                       2.67573                      15.32960
                       0.18052                       2.80788                      15.32997
                      -0.52337                       2.76360                      15.33035
                      -1.19413                       2.54565                      15.33070
                      -1.78962                       2.16775                      15.33101
                      -2.27242                       1.65362                      15.33126
                      -2.61219                       1.03558                      15.33142
                      -2.78759                       0.35245                      15.33150
                      -2.78759                      -0.35283                      15.33148
                      -2.61219                      -1.03595                      15.33137
                      -2.27242                      -1.65400                      15.33118
                      -1.78962                      -2.16813                      15.33091
                      -1.19413                      -2.54603                      15.33058
                      -0.52337                      -2.76398                      15.33022
                       0.18052                      -2.80826                      15.32984
                       0.87331                      -2.67611                      15.32947
                       1.51146                      -2.37581                      15.32914
                       2.05489                      -1.92625                      15.32886
                       2.46945                      -1.35566                      15.32865
                       2.72908                      -0.69991                      15.32852
                       2.76693                      -0.00030                      19.70806
                       2.68021                       0.68617                      19.70815
                       2.42549                       1.32952                      19.70834
                       2.01878                       1.88930                      19.70864
                       1.48564                       2.33036                      19.70903
                       0.85956                       2.62497                      19.70948
                       0.17988                       2.75462                      19.70996
                      -0.51069                       2.71118                      19.71044
                      -1.16875                       2.49736                      19.71090
                      -1.75297                       2.12660                      19.71129
                      -2.22663                       1.62220                      19.71161
                      -2.55997                       1.01586                      19.71183
                      -2.73205                       0.34566                      19.71193
                      -2.73205                      -0.34627                      19.71191
                      -2.55997                      -1.01647                      19.71177
                      -2.22663                      -1.62281                      19.71152
                      -1.75297                      -2.12721                      19.71117
                      -1.16875                      -2.49797                      19.71075
                      -0.51069                      -2.71179                      19.71028
                       0.17988                      -2.75523                      19.70980
                       0.85956                      -2.62558                      19.70932
                       1.48564                      -2.33097                      19.70889
                       2.01878                      -1.88991                      19.70853
                       2.42549                      -1.33013                      19.70826
                       2.68021                      -0.68678                      19.70810
                       2.71710                      -0.00045                      24.08767
                       2.63205                       0.67279                      24.08777
                       2.38225                       1.30372                      24.08801
                       1.98338                       1.85271                      24.08837
                       1.46053                       2.28525                      24.08883
                       0.84652                       2.57418                      24.08937
                       0.17996                       2.70134                      24.08995
                      -0.49729                       2.65873                      24.09053
                      -1.14266                       2.44903                      24.09107
                      -1.71561                       2.08543                      24.09155
                      -2.18013                       1.59076                      24.09194
                      -2.50704                       0.99611                      24.09220
                      -2.67580                       0.33885                      24.09232
                      -2.67580                      -0.33974                      24.09229
                      -2.50704                      -0.99701                      24.09212
                      -2.18013                      -1.59166                      24.09182
                      -1.71561                      -2.08632                      24.09141
                      -1.14266                      -2.44993                      24.09090
                      -0.49729                      -2.65962                      24.09034
                       0.17996                      -2.70223                      24.08975
                       0.84652                      -2.57508                      24.08919
                       1.46053                      -2.28615                      24.08867
                       1.98338                      -1.85360                      24.08824
                       2.38225                      -1.30461                      24.08791
                       2.63205                      -0.67368                      24.08772
                       2.66794                      -0.00062                      28.46732
                       2.58457                       0.65937                      28.46743
                       2.33968                       1.27790                      28.46770
                       1.94866                       1.81608                      28.46812
                       1.43609                       2.24012                      28.46865
                       0.83416                       2.52337                      28.46927
                       0.18071                       2.64802                      28.46994
                      -0.48322                       2.60625                      28.47061
                      -1.11589                       2.40068                      28.47124
                      -1.67757                       2.04423                      28.47179
                      -2.13296                       1.55929                      28.47223
                      -2.45344                       0.97634                      28.47253
                      -2.61888                       0.33200                      28.47267
                      -2.61888                      -0.33324                      28.47264
                      -2.45344                      -0.97757                      28.47244
                      -2.13296                      -1.56053                      28.47210
                      -1.67757                      -2.04546                      28.47162
                      -1.11589                      -2.40192                      28.47103
                      -0.48322                      -2.60748                      28.47039
                       0.18071                      -2.64926                      28.46971
                       0.83416                      -2.52460                      28.46906
                       1.43609                      -2.24136                      28.46847
                       1.94866                      -1.81732                      28.46797
                       2.33968                      -1.27913                      28.46759
                       2.58457                      -0.66061                      28.46737
                       2.61943                      -0.00082                      32.84700
                       2.53773                       0.64593                      32.84712
                       2.29775                       1.25204                      32.84743
                       1.91458                       1.77943                      32.84790
                       1.41229                       2.19496                      32.84850
                       0.82244                       2.47252                      32.84919
                       0.18210                       2.59467                      32.84993
                      -0.46850                       2.55374                      32.85068
                      -1.08848                       2.35230                      32.85139
                      -1.63889                       2.00300                      32.85200
                      -2.08514                       1.52779                      32.85249
                      -2.39919                       0.95654                      32.85283
                      -2.56131                       0.32513                      32.85298
                      -2.56131                      -0.32676                      32.85295
                      -2.39919                      -0.95817                      32.85273
                      -2.08514                      -1.52943                      32.85234
                      -1.63889                      -2.00464                      32.85180
                      -1.08848                      -2.35393                      32.85115
                      -0.46850                      -2.55538                      32.85043
                       0.18210                      -2.59631                      32.84968
                       0.82244                      -2.47416                      32.84894
                       1.41229                      -2.19660                      32.84828
                       1.91458                      -1.78107                      32.84772
                       2.29775                      -1.25368                      32.84730
                       2.53773                      -0.64757                      32.84706
                       2.57153                      -0.00105                      37.22670
                       2.49150                       0.63245                      37.22684
                       2.25644                       1.22615                      37.22718
                       1.88112                       1.74275                      37.22769
                       1.38911                       2.14977                      37.22835
                       0.81134                       2.42164                      37.22911
                       0.18411                       2.54130                      37.22993
                      -0.45317                       2.50120                      37.23075
                      -1.06046                       2.30388                      37.23152
                      -1.59960                       1.96173                      37.23220
                      -2.03671                       1.49626                      37.23274
                      -2.34433                       0.93670                      37.23310
                      -2.50313                       0.31822                      37.23327
                      -2.50313                      -0.32032                      37.23323
                      -2.34433                      -0.93880                      37.23299
                      -2.03671                      -1.49836                      37.23256
                      -1.59960                      -1.96384                      37.23197
                      -1.06046                      -2.30599                      37.23126
                      -0.45317                      -2.50331                      37.23046
                       0.18411                      -2.54340                      37.22964
                       0.81134                      -2.42375                      37.22883
                       1.38911                      -2.15187                      37.22810
                       1.88111                      -1.74485                      37.22749
                       2.25644                      -1.22826                      37.22704
                       2.49150                      -0.63456                      37.22677
                       2.52424                      -0.00132                      41.60642
                       2.44588                       0.61894                      41.60657
                       2.21574                       1.20023                      41.60694
                       1.84826                       1.70602                      41.60750
                       1.36654                       2.10454                      41.60821
                       0.80085                       2.37073                      41.60904
                       0.18673                       2.48788                      41.60993
                      -0.43723                       2.44862                      41.61082
                      -1.03183                       2.25543                      41.61165
                      -1.55969                       1.92043                      41.61239
                      -1.98767                       1.46469                      41.61297
                      -2.28886                       0.91683                      41.61336
                      -2.44434                       0.31127                      41.61354
                      -2.44434                      -0.31392                      41.61350
                      -2.28886                      -0.91947                      41.61324
                      -1.98767                      -1.46733                      41.61277
                      -1.55969                      -1.92308                      41.61213
                      -1.03183                      -2.25807                      41.61135
                      -0.43723                      -2.45127                      41.61049
                       0.18673                      -2.49053                      41.60960
                       0.80085                      -2.37338                      41.60873
                       1.36654                      -2.10718                      41.60794
                       1.84826                      -1.70867                      41.60727
                       2.21574                      -1.20288                      41.60678
                       2.44588                      -0.62159                      41.60649
                       2.47756                      -0.00163                      45.98615
                       2.40088                       0.60539                      45.98631
                       2.17564                       1.17427                      45.98671
                       1.81601                       1.66926                      45.98731
                       1.34457                       2.05927                      45.98808
                       0.79096                       2.31978                      45.98897
                       0.18995                       2.43443                      45.98992
                      -0.42068                       2.39601                      45.99088
                      -1.00258                       2.20694                      45.99178
                      -1.51918                       1.87909                      45.99257
                      -1.93802                       1.43308                      45.99319
                      -2.23278                       0.89691                      45.99361
                      -2.38494                       0.30429                      45.99381
                      -2.38494                      -0.30755                      45.99376
                      -2.23278                      -0.90018                      45.99348
                      -1.93802                      -1.43634                      45.99297
                      -1.51918                      -1.88236                      45.99228
                      -1.00258                      -2.21020                      45.99145
                      -0.42069                      -2.39927                      45.99052
                       0.18995                      -2.43769                      45.98956
                       0.79096                      -2.32304                      45.98862
                       1.34457                      -2.06253                      45.98777
                       1.81601                      -1.67253                      45.98706
                       2.17564                      -1.17753                      45.98653
                       2.40088                      -0.60865                      45.98622
                       2.43151                      -0.00198                      50.36587
                       2.35650                       0.59180                      50.36605
                       2.13618                       1.14827                      50.36648
                       1.78439                       1.63246                      50.36712
                       1.32324                       2.01396                      50.36795
                       0.78170                       2.26878                      50.36890
                       0.19381                       2.38093                      50.36992
                      -0.40351                       2.34335                      50.37094
                      -0.97271                       2.15841                      50.37190
                      -1.47804                       1.83771                      50.37274
                      -1.88774                       1.40143                      50.37341
                      -2.17607                       0.87696                      50.37386
                      -2.32491                       0.29727                      50.37407
                      -2.32491                      -0.30123                      50.37402
                      -2.17607                      -0.88093                      50.37371
                      -1.88774                      -1.40539                      50.37317
                      -1.47804                      -1.84168                      50.37243
                      -0.97271                      -2.16237                      50.37154
                      -0.40351                      -2.34732                      50.37054
                       0.19381                      -2.38490                      50.36951
                       0.78170                      -2.27275                      50.36851
                       1.32324                      -2.01792                      50.36761
                       1.78439                      -1.63642                      50.36685
                       2.13618                      -1.15223                      50.36628
                       2.35650                      -0.59576                      50.36595
                       2.38611                      -0.00237                      54.74560
                       2.31277                       0.57816                      54.74580
                       2.09737                       1.12222                      54.74625
                       1.75342                       1.59561                      54.74694
                       1.30256                       1.96860                      54.74782
                       0.77310                       2.21775                      54.74883
                       0.19832                       2.32739                      54.74991
                      -0.38568                       2.29065                      54.75100
                      -0.94219                       2.10983                      54.75203
                      -1.43624                       1.79629                      54.75292
                      -1.83681                       1.36974                      54.75363
                      -2.11870                       0.85697                      54.75411
                      -2.26422                       0.29020                      54.75432
                      -2.26422                      -0.29495                      54.75427
                      -2.11870                      -0.86172                      54.75394
                      -1.83681                      -1.37449                      54.75337
                      -1.43624                      -1.80104                      54.75258
                      -0.94219                      -2.11458                      54.75163
                      -0.38568                      -2.29540                      54.75057
                       0.19832                      -2.33214                      54.74947
                       0.77310                      -2.22250                      54.74841
                       1.30256                      -1.97335                      54.74744
                       1.75342                      -1.60036                      54.74663
                       2.09736                      -1.12697                      54.74604
                       2.31277                      -0.58291                      54.74569
                       2.34139                      -0.00281                      59.12534
                       2.26973                       0.56448                      59.12554
                       2.05923                       1.09613                      59.12602
                       1.72314                       1.55873                      59.12675
                       1.28256                       1.92321                      59.12768
                       0.76518                       2.16667                      59.12876
                       0.20350                       2.27381                      59.12991
                      -0.36717                       2.23791                      59.13106
                      -0.91098                       2.06121                      59.13214
                      -1.39377                       1.75483                      59.13309
                      -1.78519                       1.33800                      59.13384
                      -2.06066                       0.83693                      59.13434
                      -2.20286                       0.28309                      59.13457
                      -2.20286                      -0.28871                      59.13451
                      -2.06066                      -0.84255                      59.13417
                      -1.78519                      -1.34362                      59.13356
                      -1.39377                      -1.76045                      59.13272
                      -0.91098                      -2.06683                      59.13171
                      -0.36717                      -2.24353                      59.13059
                       0.20350                      -2.27944                      59.12943
                       0.76518                      -2.17229                      59.12830
                       1.28256                      -1.92883                      59.12728
                       1.72314                      -1.56435                      59.12643
                       2.05923                      -1.10175                      59.12579
                       2.26973                      -0.57010                      59.12542
                       2.29736                      -0.00329                      63.50509
                       2.22736                       0.55076                      63.50531
                       2.02178                       1.07000                      63.50581
                       1.69353                       1.52179                      63.50658
                       1.26324                       1.87777                      63.50756
                       0.75794                       2.11554                      63.50869
                       0.20938                       2.22019                      63.50990
                      -0.34797                       2.18512                      63.51111
                      -0.87909                       2.01255                      63.51225
                      -1.35061                       1.71332                      63.51324
                      -1.73290                       1.30622                      63.51403
                      -2.00193                       0.81684                      63.51456
                      -2.14081                       0.27594                      63.51480
                      -2.14081                      -0.28252                      63.51474
                      -2.00193                      -0.82343                      63.51437
                      -1.73290                      -1.31280                      63.51373
                      -1.35061                      -1.71990                      63.51285
                      -0.87909                      -2.01913                      63.51179
                      -0.34797                      -2.19170                      63.51061
                       0.20938                      -2.22677                      63.50939
                       0.75794                      -2.12213                      63.50820
                       1.26324                      -1.88435                      63.50713
                       1.69353                      -1.52838                      63.50623
                       2.02178                      -1.07658                      63.50557
                       2.22736                      -0.55734                      63.50518
                       2.25399                      -0.00381                      67.88488
                       2.18567                       0.53699                      67.88510
                       1.98500                       1.04382                      67.88563
                       1.66460                       1.48482                      67.88643
                       1.24459                       1.83228                      67.88745
                       0.75136                       2.06438                      67.88863
                       0.21591                       2.16652                      67.88989
                      -0.32812                       2.13229                      67.89115
                      -0.84654                       1.96385                      67.89234
                      -1.30679                       1.67176                      67.89337
                      -1.67994                       1.27440                      67.89419
                      -1.94254                       0.79672                      67.89474
                      -2.07810                       0.26874                      67.89499
                      -2.07810                      -0.27637                      67.89492
                      -1.94254                      -0.80435                      67.89454
                      -1.67994                      -1.28203                      67.89387
                      -1.30679                      -1.67939                      67.89296
                      -0.84654                      -1.97147                      67.89185
                      -0.32812                      -2.13992                      67.89062
                       0.21591                      -2.17415                      67.88935
                       0.75136                      -2.07201                      67.88812
                       1.24459                      -1.83991                      67.88700
                       1.66460                      -1.49245                      67.88607
                       1.98500                      -1.05145                      67.88537
                       2.18567                      -0.54462                      67.88497
                       2.21120                      -0.00438                      72.26474
                       2.14455                       0.52319                      72.26497
                       1.94880                       1.01760                      72.26551
                       1.63624                       1.44780                      72.26634
                       1.22652                       1.78676                      72.26738
                       0.74537                       2.01317                      72.26859
                       0.22303                       2.11281                      72.26988
                      -0.30767                       2.07942                      72.27117
                      -0.81340                       1.91510                      72.27239
                      -1.26238                       1.63017                      72.27345
                      -1.62639                       1.24254                      72.27429
                      -1.88257                       0.77655                      72.27485
                      -2.01481                       0.26150                      72.27511
                      -2.01481                      -0.27026                      72.27504
                      -1.88257                      -0.78531                      72.27465
                      -1.62639                      -1.25129                      72.27396
                      -1.26238                      -1.63892                      72.27302
                      -0.81340                      -1.92385                      72.27188
                      -0.30767                      -2.08818                      72.27062
                       0.22303                      -2.12157                      72.26932
                       0.74537                      -2.02192                      72.26805
                       1.22652                      -1.79551                      72.26691
                       1.63624                      -1.45656                      72.26595
                       1.94880                      -1.02636                      72.26524
                       2.14455                      -0.53194                      72.26483
                       2.16885                      -0.00498                      76.64470
                       2.10388                       0.50935                      76.64493
                       1.91304                       0.99135                      76.64548
                       1.60832                       1.41075                      76.64631
                       1.20888                       1.74120                      76.64736
                       0.73981                       1.96193                      76.64858
                       0.23059                       2.05907                      76.64987
                      -0.28680                       2.02652                      76.65117
                      -0.77983                       1.86632                      76.65239
                      -1.21754                       1.58854                      76.65346
                      -1.57241                       1.21064                      76.65430
                      -1.82216                       0.75635                      76.65487
                      -1.95108                       0.25423                      76.65512
                      -1.95108                      -0.26418                      76.65505
                      -1.82216                      -0.76630                      76.65465
                      -1.57241                      -1.22059                      76.65396
                      -1.21754                      -1.59849                      76.65301
                      -0.77983                      -1.87627                      76.65187
                      -0.28680                      -2.03647                      76.65060
                       0.23059                      -2.06902                      76.64929
                       0.73981                      -1.97188                      76.64802
                       1.20888                      -1.75115                      76.64687
                       1.60832                      -1.42070                      76.64591
                       1.91304                      -1.00130                      76.64520
                       2.10388                      -0.51930                      76.64479
                       2.12668                      -0.00561                      81.02482
                       2.06338                       0.49547                      81.02505
                       1.87745                       0.96507                      81.02559
                       1.58058                       1.37367                      81.02640
                       1.19143                       1.69561                      81.02742
                       0.73444                       1.91065                      81.02861
                       0.23832                       2.00529                      81.02987
                      -0.26574                       1.97358                      81.03114
                      -0.74608                       1.81751                      81.03233
                      -1.17252                       1.54688                      81.03337
                      -1.51826                       1.17871                      81.03418
                      -1.76157                       0.73612                      81.03473
                      -1.88717                       0.24692                      81.03498
                      -1.88717                      -0.25814                      81.03490
                      -1.76157                      -0.74733                      81.03451
                      -1.51826                      -1.18992                      81.03384
                      -1.17252                      -1.55809                      81.03291
                      -0.74608                      -1.82872                      81.03179
                      -0.26574                      -1.98479                      81.03056
                       0.23832                      -2.01651                      81.02928
                       0.73444                      -1.92187                      81.02805
                       1.19143                      -1.70682                      81.02692
                       1.58058                      -1.38488                      81.02599
                       1.87745                      -0.97628                      81.02530
                       2.06338                      -0.50668                      81.02490
                       2.08429                      -0.00626                      85.40514
                       2.02266                       0.48158                      85.40537
                       1.84165                       0.93876                      85.40587
                       1.55263                       1.33656                      85.40663
                       1.17376                       1.64999                      85.40760
                       0.72884                       1.85936                      85.40870
                       0.24584                       1.95149                      85.40988
                      -0.24490                       1.92062                      85.41106
                      -0.71255                       1.76867                      85.41217
                      -1.12771                       1.50520                      85.41314
                      -1.46431                       1.14675                      85.41389
                      -1.70120                       0.71586                      85.41440
                      -1.82348                       0.23960                      85.41462
                      -1.82348                      -0.25212                      85.41455
                      -1.70120                      -0.72838                      85.41418
                      -1.46431                      -1.15927                      85.41355
                      -1.12771                      -1.51772                      85.41268
                      -0.71255                      -1.78119                      85.41163
                      -0.24490                      -1.93314                      85.41048
                       0.24584                      -1.96401                      85.40929
                       0.72884                      -1.87188                      85.40814
                       1.17376                      -1.66251                      85.40709
                       1.55263                      -1.34908                      85.40623
                       1.84165                      -0.95128                      85.40559
                       2.02266                      -0.49410                      85.40522
                       2.06285                      -0.00659                      87.59541
                       2.00206                       0.47462                      87.59562
                       1.82350                       0.92560                      87.59610
                       1.53840                       1.31800                      87.59682
                       1.16468                       1.62718                      87.59773
                       0.72580                       1.83370                      87.59878
                       0.24935                       1.92459                      87.59989
                      -0.23473                       1.89413                      87.60101
                      -0.69603                       1.74425                      87.60205
                      -1.10556                       1.48435                      87.60296
                      -1.43759                       1.13077                      87.60367
                      -1.67126                       0.70573                      87.60414
                      -1.79188                       0.23593                      87.60435
                      -1.79188                      -0.24911                      87.60428
                      -1.67126                      -0.71892                      87.60393
                      -1.43759                      -1.14396                      87.60332
                      -1.10556                      -1.49754                      87.60250
                      -0.69603                      -1.75743                      87.60151
                      -0.23473                      -1.90732                      87.60043
                       0.24935                      -1.93778                      87.59930
                       0.72580                      -1.84689                      87.59822
                       1.16468                      -1.64037                      87.59723
                       1.53840                      -1.33119                      87.59642
                       1.82350                      -0.93879                      87.59582
                       2.00206                      -0.48781                      87.59547
                       3.00000                       0.00000                       0.00000
                       2.90575                       0.74607                       0.00000
                       2.62892                       1.44526                       0.00000
                       2.18691                       2.05364                       0.00000
                       1.60748                       2.53298                       0.00000
                       0.92705                       2.85317                       0.00000
                       0.18837                       2.99408                       0.00000
                      -0.56214                       2.94686                       0.00000
                      -1.27734                       2.71448                       0.00000
                      -1.91227                       2.31154                       0.00000
                      -2.42705                       1.76336                       0.00000
                      -2.78933                       1.10437                       0.00000
                      -2.97634                       0.37600                       0.00000
                      -2.97634                      -0.37600                       0.00000
                      -2.78933                      -1.10437                       0.00000
                      -2.42705                      -1.76336                       0.00000
                      -1.91227                      -2.31154                       0.00000
                      -1.27734                      -2.71448                       0.00000
                      -0.56214                      -2.94686                       0.00000
                       0.18837                      -2.99408                       0.00000
                       0.92705                      -2.85317                       0.00000
                       1.60748                      -2.53298                       0.00000
                       2.18691                      -2.05364                       0.00000
                       2.62892                      -1.44526                       0.00000
                       2.90575                      -0.74607                       0.00000
        </DataArray>
      </Points>
      <Polys>
        <DataArray type="Int32" Name="connectivity" format="ascii">
      0      1     26     25
      1      2     27     26
      2      3     28     27
      3      4     29     28
      4      5     30     29
      5      6     31     30
      6      7     32     31
      7      8     33     32
      8      9     34     33
      9     10     35     34
     10     11     36     35
     11     12     37     36
     12     13     38     37
     13     14     39     38
     14     15     40     39
     15     16     41     40
     16     17     42     41
     17     18     43     42
     18     19     44     43
     19     20     45     44
     20     21     46     45
     21     22     47     46
     22     23     48     47
     23     24     49     48
     24      0     25     49
     24     23     22     21     20     19     18     17     16     15     14     13     12     11     10      9      8      7      6      5      4      3      2      1      0
     25     26     27     28     29     30     31     32     33     34     35     36     37     38     39     40     41     42     43     44     45     46     47     48     49
     25     26     51     50
     26     27     52     51
     27     28     53     52
     28     29     54     53
     29     30     55     54
     30     31     56     55
     31     32     57     56
     32     33     58     57
     33     34     59     58
     34     35     60     59
     35     36     61     60
     36     37     62     61
     37     38     63     62
     38     39     64     63
     39     40     65     64
     40     41     66     65
     41     42     67     66
     42     43     68     67
     43     44     69     68
     44     45     70     69
     45     46     71     70
     46     47     72     71
     47     48     73     72
     48     49     74     73
     49     25     50     74
     49     48     47     46     45     44     43     42     41     40     39     38     37     36     35     34     33     32     31     30     29     28     27     26     25
     50     51     52     53     54     55     56     57     58     59     60     61     62     63     64     65     66     67     68     69     70     71     72     73     74
     50     51     76     75
     51     52     77     76
     52     53     78     77
     53     54     79     78
     54     55     80     79
     55     56     81     80
     56     57     82     81
     57     58     83     82
     58     59     84     83
     59     60     85     84
     60     61     86     85
     61     62     87     86
     62     63     88     87
     63     64     89     88
     64     65     90     89
     65     66     91     90
     66     67     92     91
     67     68     93     92
     68     69     94     93
     69     70     95     94
     70     71     96     95
     71     72     97     96
     72     73     98     97
     73     74     99     98
     74     50     75     99
     74     73     72     71     70     69     68     67     66     65     64     63     62     61     60     59     58     57     56     55     54     53     52     51     50
     75     76     77     78     79     80     81     82     83     84     85     86     87     88     89     90     91     92     93     94     95     96     97     98     99
     75     76    101    100
     76     77    102    101
     77     78    103    102
     78     79    104    103
     79     80    105    104
     80     81    106    105
     81     82    107    106
     82     83    108    107
     83     84    109    108
     84     85    110    109
     85     86    111    110
     86     87    112    111
     87     88    113    112
     88     89    114    113
     89     90    115    114
     90     91    116    115
     91     92    117    116
     92     93    118    117
     93     94    119    118
     94     95    120    119
     95     96    121    120
     96     97    122    121
     97     98    123    122
     98     99    124    123
     99     75    100    124
     99     98     97     96     95     94     93     92     91     90     89     88     87     86     85     84     83     82     81     80     79     78     77     76     75
    100    101    102    103    104    105    106    107    108    109    110    111    112    113    114    115    116    117    118    119    120    121    122    123    124
    100    101    126    125
    101    102    127    126
    102    103    128    127
    103    104    129    128
    104    105    130    129
    105    106    131    130
    106    107    132    131
    107    108    133    132
    108    109    134    133
    109    110    135    134
    110    111    136    135
    111    112    137    136
    112    113    138    137
    113    114    139    138
    114    115    140    139
    115    116    141    140
    116    117    142    141
    117    118    143    142
    118    119    144    143
    119    120    145    144
    120    121    146    145
    121    122    147    146
    122    123    148    147
    123    124    149    148
    124    100    125    149
    124    123    122    121    120    119    118    117    116    115    114    113    112    111    110    109    108    107    106    105    104    103    102    101    100
    125    126    127    128    129    130    131    132    133    134    135    136    137    138    139    140    141    142    143    144    145    146    147    148    149
    125    126    151    150
    126    127    152    151
    127    128    153    152
    128    129    154    153
    129    130    155    154
    130    131    156    155
    131    132    157    156
    132    133    158    157
    133    134    159    158
    134    135    160    159
    135    136    161    160
    136    137    162    161
    137    138    163    162
    138    139    164    163
    139    140    165    164
    140    141    166    165
    141    142    167    166
    142    143    168    167
    143    144    169    168
    144    145    170    169
    145    146    171    170
    146    147    172    171
    147    148    173    172
    148    149    174    173
    149    125    150    174
    149    148    147    146    145    144    143    142    141    140    139    138    137    136    135    134    133    132    131    130    129    128    127    126    125
    150    151    152    153    154    155    156    157    158    159    160    161    162    163    164    165    166    167    168    169    170    171    172    173    174
    150    151    176    175
    151    152    177    176
    152    153    178    177
    153    154    179    178
    154    155    180    179
    155    156    181    180
    156    157    182    181
    157    158    183    182
    158    159    184    183
    159    160    185    184
    160    161    186    185
    161    162    187    186
    162    163    188    187
    163    164    189    188
    164    165    190    189
    165    166    191    190
    166    167    192    191
    167    168    193    192
    168    169    194    193
    169    170    195    194
    170    171    196    195
    171    172    197    196
    172    173    198    197
    173    174    199    198
    174    150    175    199
    174    173    172    171    170    169    168    167    166    165    164    163    162    161    160    159    158    157    156    155    154    153    152    151    150
    175    176    177    178    179    180    181    182    183    184    185    186    187    188    189    190    191    192    193    194    195    196    197    198    199
    175    176    201    200
    176    177    202    201
    177    178    203    202
    178    179    204    203
    179    180    205    204
    180    181    206    205
    181    182    207    206
    182    183    208    207
    183    184    209    208
    184    185    210    209
    185    186    211    210
    186    187    212    211
    187    188    213    212
    188    189    214    213
    189    190    215    214
    190    191    216    215
    191    192    217    216
    192    193    218    217
    193    194    219    218
    194    195    220    219
    195    196    221    220
    196    197    222    221
    197    198    223    222
    198    199    224    223
    199    175    200    224
    199    198    197    196    195    194    193    192    191    190    189    188    187    186    185    184    183    182    181    180    179    178    177    176    175
    200    201    202    203    204    205    206    207    208    209    210    211    212    213    214    215    216    217    218    219    220    221    222    223    224
    200    201    226    225
    201    202    227    226
    202    203    228    227
    203    204    229    228
    204    205    230    229
    205    206    231    230
    206    207    232    231
    207    208    233    232
    208    209    234    233
    209    210    235    234
    210    211    236    235
    211    212    237    236
    212    213    238    237
    213    214    239    238
    214    215    240    239
    215    216    241    240
    216    217    242    241
    217    218    243    242
    218    219    244    243
    219    220    245    244
    220    221    246    245
    221    222    247    246
    222    223    248    247
    223    224    249    248
    224    200    225    249
    224    223    222    221    220    219    218    217    216    215    214    213    212    211    210    209    208    207    206    205    204    203    202    201    200
    225    226    227    228    229    230    231    232    233    234    235    236    237    238    239    240    241    242    243    244    245    246    247    248    249
    225    226    251    250
    226    227    252    251
    227    228    253    252
    228    229    254    253
    229    230    255    254
    230    231    256    255
    231    232    257    256
    232    233    258    257
    233    234    259    258
    234    235    260    259
    235    236    261    260
    236    237    262    261
    237    238    263    262
    238    239    264    263
    239    240    265    264
    240    241    266    265
    241    242    267    266
    242    243    268    267
    243    244    269    268
    244    245    270    269
    245    246    271    270
    246    247    272    271
    247    248    273    272
    248    249    274    273
    249    225    250    274
    249    248    247    246    245    244    243    242    241    240    239    238    237    236    235    234    233    232    231    230    229    228    227    226    225
    250    251    252    253    254    255    256    257    258    259    260    261    262    263    264    265    266    267    268    269    270    271    272    273    274
    250    251    276    275
    251    252    277    276
    252    253    278    277
    253    254    279    278
    254    255    280    279
    255    256    281    280
    256    257    282    281
    257    258    283    282
    258    259    284    283
    259    260    285    284
    260    261    286    285
    261    262    287    286
    262    263    288    287
    263    264    289    288
    264    265    290    289
    265    266    291    290
    266    267    292    291
    267    268    293    292
    268    269    294    293
    269    270    295    294
    270    271    296    295
    271    272    297    296
    272    273    298    297
    273    274    299    298
    274    250    275    299
    274    273    272    271    270    269    268    267    266    265    264    263    262    261    260    259    258    257    256    255    254    253    252    251    250
    275    276    277    278    279    280    281    282    283    284    285    286    287    288    289    290    291    292    293    294    295    296    297    298    299
    275    276    301    300
    276    277    302    301
    277    278    303    302
    278    279    304    303
    279    280    305    304
    280    281    306    305
    281    282    307    306
    282    283    308    307
    283    284    309    308
    284    285    310    309
    285    286    311    310
    286    287    312    311
    287    288    313    312
    288    289    314    313
    289    290    315    314
    290    291    316    315
    291    292    317    316
    292    293    318    317
    293    294    319    318
    294    295    320    319
    295    296    321    320
    296    297    322    321
    297    298    323    322
    298    299    324    323
    299    275    300    324
    299    298    297    296    295    294    293    292    291    290    289    288    287    286    285    284    283    282    281    280    279    278    277    276    275
    300    301    302    303    304    305    306    307    308    309    310    311    312    313    314    315    316    317    318    319    320    321    322    323    324
    300    301    326    325
    301    302    327    326
    302    303    328    327
    303    304    329    328
    304    305    330    329
    305    306    331    330
    306    307    332    331
    307    308    333    332
    308    309    334    333
    309    310    335    334
    310    311    336    335
    311    312    337    336
    312    313    338    337
    313    314    339    338
    314    315    340    339
    315    316    341    340
    316    317    342    341
    317    318    343    342
    318    319    344    343
    319    320    345    344
    320    321    346    345
    321    322    347    346
    322    323    348    347
    323    324    349    348
    324    300    325    349
    324    323    322    321    320    319    318    317    316    315    314    313    312    311    310    309    308    307    306    305    304    303    302    301    300
    325    326    327    328    329    330    331    332    333    334    335    336    337    338    339    340    341    342    343    344    345    346    347    348    349
    325    326    351    350
    326    327    352    351
    327    328    353    352
    328    329    354    353
    329    330    355    354
    330    331    356    355
    331    332    357    356
    332    333    358    357
    333    334    359    358
    334    335    360    359
    335    336    361    360
    336    337    362    361
    337    338    363    362
    338    339    364    363
    339    340    365    364
    340    341    366    365
    341    342    367    366
    342    343    368    367
    343    344    369    368
    344    345    370    369
    345    346    371    370
    346    347    372    371
    347    348    373    372
    348    349    374    373
    349    325    350    374
    349    348    347    346    345    344    343    342    341    340    339    338    337    336    335    334    333    332    331    330    329    328    327    326    325
    350    351    352    353    354    355    356    357    358    359    360    361    362    363    364    365    366    367    368    369    370    371    372    373    374
    350    351    376    375
    351    352    377    376
    352    353    378    377
    353    354    379    378
    354    355    380    379
    355    356    381    380
    356    357    382    381
    357    358    383    382
    358    359    384    383
    359    360    385    384
    360    361    386    385
    361    362    387    386
    362    363    388    387
    363    364    389    388
    364    365    390    389
    365    366    391    390
    366    367    392    391
    367    368    393    392
    368    369    394    393
    369    370    395    394
    370    371    396    395
    371    372    397    396
    372    373    398    397
    373    374    399    398
    374    350    375    399
    374    373    372    371    370    369    368    367    366    365    364    363    362    361    360    359    358    357    356    355    354    353    352    351    350
    375    376    377    378    379    380    381    382    383    384    385    386    387    388    389    390    391    392    393    394    395    396    397    398    399
    375    376    401    400
    376    377    402    401
    377    378    403    402
    378    379    404    403
    379    380    405    404
    380    381    406    405
    381    382    407    406
    382    383    408    407
    383    384    409    408
    384    385    410    409
    385    386    411    410
    386    387    412    411
    387    388    413    412
    388    389    414    413
    389    390    415    414
    390    391    416    415
    391    392    417    416
    392    393    418    417
    393    394    419    418
    394    395    420    419
    395    396    421    420
    396    397    422    421
    397    398    423    422
    398    399    424    423
    399    375    400    424
    399    398    397    396    395    394    393    392    391    390    389    388    387    386    385    384    383    382    381    380    379    378    377    376    375
    400    401    402    403    404    405    406    407    408    409    410    411    412    413    414    415    416    417    418    419    420    421    422    423    424
    400    401    426    425
    401    402    427    426
    402    403    428    427
    403    404    429    428
    404    405    430    429
    405    406    431    430
    406    407    432    431
    407    408    433    432
    408    409    434    433
    409    410    435    434
    410    411    436    435
    411    412    437    436
    412    413    438    437
    413    414    439    438
    414    415    440    439
    415    416    441    440
    416    417    442    441
    417    418    443    442
    418    419    444    443
    419    420    445    444
    420    421    446    445
    421    422    447    446
    422    423    448    447
    423    424    449    448
    424    400    425    449
    424    423    422    421    420    419    418    417    416    415    414    413    412    411    410    409    408    407    406    405    404    403    402    401    400
    425    426    427    428    429    430    431    432    433    434    435    436    437    438    439    440    441    442    443    444    445    446    447    448    449
    425    426    451    450
    426    427    452    451
    427    428    453    452
    428    429    454    453
    429    430    455    454
    430    431    456    455
    431    432    457    456
    432    433    458    457
    433    434    459    458
    434    435    460    459
    435    436    461    460
    436    437    462    461
    437    438    463    462
    438    439    464    463
    439    440    465    464
    440    441    466    465
    441    442    467    466
    442    443    468    467
    443    444    469    468
    444    445    470    469
    445    446    471    470
    446    447    472    471
    447    448    473    472
    448    449    474    473
    449    425    450    474
    449    448    447    446    445    444    443    442    441    440    439    438    437    436    435    434    433    432    431    430    429    428    427    426    425
    450    451    452    453    454    455    456    457    458    459    460    461    462    463    464    465    466    467    468    469    470    471    472    473    474
    450    451    476    475
    451    452    477    476
    452    453    478    477
    453    454    479    478
    454    455    480    479
    455    456    481    480
    456    457    482    481
    457    458    483    482
    458    459    484    483
    459    460    485    484
    460    461    486    485
    461    462    487    486
    462    463    488    487
    463    464    489    488
    464    465    490    489
    465    466    491    490
    466    467    492    491
    467    468    493    492
    468    469    494    493
    469    470    495    494
    470    471    496    495
    471    472    497    496
    472    473    498    497
    473    474    499    498
    474    450    475    499
    474    473    472    471    470    469    468    467    466    465    464    463    462    461    460    459    458    457    456    455    454    453    452    451    450
    475    476    477    478    479    480    481    482    483    484    485    486    487    488    489    490    491    492    493    494    495    496    497    498    499
    475    476    501    500
    476    477    502    501
    477    478    503    502
    478    479    504    503
    479    480    505    504
    480    481    506    505
    481    482    507    506
    482    483    508    507
    483    484    509    508
    484    485    510    509
    485    486    511    510
    486    487    512    511
    487    488    513    512
    488    489    514    513
    489    490    515    514
    490    491    516    515
    491    492    517    516
    492    493    518    517
    493    494    519    518
    494    495    520    519
    495    496    521    520
    496    497    522    521
    497    498    523    522
    498    499    524    523
    499    475    500    524
    499    498    497    496    495    494    493    492    491    490    489    488    487    486    485    484    483    482    481    480    479    478    477    476    475
    500    501    502    503    504    505    506    507    508    509    510    511    512    513    514    515    516    517    518    519    520    521    522    523    524
    525    526      1      0
    526    527      2      1
    527    528      3      2
    528    529      4      3
    529    530      5      4
    530    531      6      5
    531    532      7      6
    532    533      8      7
    533    534      9      8
    534    535     10      9
    535    536     11     10
    536    537     12     11
    537    538     13     12
    538    539     14     13
    539    540     15     14
    540    541     16     15
    541    542     17     16
    542    543     18     17
    543    544     19     18
    544    545     20     19
    545    546     21     20
    546    547     22     21
    547    548     23     22
    548    549     24     23
    549    525      0     24
    549    548    547    546    545    544    543    542    541    540    539    538    537    536    535    534    533    532    531    530    529    528    527    526    525
      0      1      2      3      4      5      6      7      8      9     10     11     12     13     14     15     16     17     18     19     20     21     22     23     24
        </DataArray>
        <DataArray type="Int32" Name="offsets" format="ascii">
      4
      8
     12
     16
     20
     24
     28
     32
     36
     40
     44
     48
     52
     56
     60
     64
     68
     72
     76
     80
     84
     88
     92
     96
    100
    125
    150
    154
    158
    162
    166
    170
    174
    178
    182
    186
    190
    194
    198
    202
    206
    210
    214
    218
    222
    226
    230
    234
    238
    242
    246
    250
    275
    300
    304
    308
    312
    316
    320
    324
    328
    332
    336
    340
    344
    348
    352
    356
    360
    364
    368
    372
    376
    380
    384
    388
    392
    396
    400
    425
    450
    454
    458
    462
    466
    470
    474
    478
    482
    486
    490
    494
    498
    502
    506
    510
    514
    518
    522
    526
    530
    534
    538
    542
    546
    550
    575
    600
    604
    608
    612
    616
    620
    624
    628
    632
    636
    640
    644
    648
    652
    656
    660
    664
    668
    672
    676
    680
    684
    688
    692
    696
    700
    725
    750
    754
    758
    762
    766
    770
    774
    778
    782
    786
    790
    794
    798
    802
    806
    810
    814
    818
    822
    826
    830
    834
    838
    842
    846
    850
    875
    900
    904
    908
    912
    916
    920
    924
    928
    932
    936
    940
    944
    948
    952
    956
    960
    964
    968
    972
    976
    980
    984
    988
    992
    996
   1000
   1025
   1050
   1054
   1058
   1062
   1066
   1070
   1074
   1078
   1082
   1086
   1090
   1094
   1098
   1102
   1106
   1110
   1114
   1118
   1122
   1126
   1130
   1134
   1138
   1142
   1146
   1150
   1175
   1200
   1204
   1208
   1212
   1216
   1220
   1224
   1228
   1232
   1236
   1240
   1244
   1248
   1252
   1256
   1260
   1264
   1268
   1272
   1276
   1280
   1284
   1288
   1292
   1296
   1300
   1325
   1350
   1354
   1358
   1362
   1366
   1370
   1374
   1378
   1382
   1386
   1390
   1394
   1398
   1402
   1406
   1410
   1414
   1418
   1422
   1426
   1430
   1434
   1438
   1442
   1446
   1450
   1475
   1500
   1504
   1508
   1512
   1516
   1520
   1524
   1528
   1532
   1536
   1540
   1544
   1548
   1552
   1556
   1560
   1564
   1568
   1572
   1576
   1580
   1584
   1588
   1592
   1596
   1600
   1625
   1650
   1654
   1658
   1662
   1666
   1670
   1674
   1678
   1682
   1686
   1690
   1694
   1698
   1702
   1706
   1710
   1714
   1718
   1722
   1726
   1730
   1734
   1738
   1742
   1746
   1750
   1775
   1800
   1804
   1808
   1812
   1816
   1820
   1824
   1828
   1832
   1836
   1840
   1844
   1848
   1852
   1856
   1860
   1864
   1868
   1872
   1876
   1880
   1884
   1888
   1892
   1896
   1900
   1925
   1950
   1954
   1958
   1962
   1966
   1970
   1974
   1978
   1982
   1986
   1990
   1994
   1998
   2002
   2006
   2010
   2014
   2018
   2022
   2026
   2030
   2034
   2038
   2042
   2046
   2050
   2075
   2100
   2104
   2108
   2112
   2116
   2120
   2124
   2128
   2132
   2136
   2140
   2144
   2148
   2152
   2156
   2160
   2164
   2168
   2172
   2176
   2180
   2184
   2188
   2192
   2196
   2200
   2225
   2250
   2254
   2258
   2262
   2266
   2270
   2274
   2278
   2282
   2286
   2290
   2294
   2298
   2302
   2306
   2310
   2314
   2318
   2322
   2326
   2330
   2334
   2338
   2342
   2346
   2350
   2375
   2400
   2404
   2408
   2412
   2416
   2420
   2424
   2428
   2432
   2436
   2440
   2444
   2448
   2452
   2456
   2460
   2464
   2468
   2472
   2476
   2480
   2484
   2488
   2492
   2496
   2500
   2525
   2550
   2554
   2558
   2562
   2566
   2570
   2574
   2578
   2582
   2586
   2590
   2594
   2598
   2602
   2606
   2610
   2614
   2618
   2622
   2626
   2630
   2634
   2638
   2642
   2646
   2650
   2675
   2700
   2704
   2708
   2712
   2716
   2720
   2724
   2728
   2732
   2736
   2740
   2744
   2748
   2752
   2756
   2760
   2764
   2768
   2772
   2776
   2780
   2784
   2788
   2792
   2796
   2800
   2825
   2850
   2854
   2858
   2862
   2866
   2870
   2874
   2878
   2882
   2886
   2890
   2894
   2898
   2902
   2906
   2910
   2914
   2918
   2922
   2926
   2930
   2934
   2938
   2942
   2946
   2950
   2975
   3000
   3004
   3008
   3012
   3016
   3020
   3024
   3028
   3032
   3036
   3040
   3044
   3048
   3052
   3056
   3060
   3064
   3068
   3072
   3076
   3080
   3084
   3088
   3092
   3096
   3100
   3125
   3150
        </DataArray>
      </Polys>
    </Piece>
  </PolyData>
</VTKFile>
