<?xml version="1.0"?>
<VTKFile type="PolyData" version="0.1" byte_order="LittleEndian">
  <PolyData>
    <Piece NumberOfPoints="     22" NumberOfVerts="  0" NumberOfLines="     21"
           NumberOfStrips="  0" NumberOfPolys="      0">
      <Points>
        <DataArray type="Float32" NumberOfComponents="3" format="ascii">
                       0.00006                      -0.00001                       2.19000
                       0.00064                      -0.00010                       6.57000
                       0.00190                      -0.00025                      10.95000
                       0.00390                      -0.00047                      15.33000
                       0.00665                      -0.00076                      19.71000
                       0.01011                      -0.00110                      24.09000
                       0.01426                      -0.00151                      28.46999
                       0.01906                      -0.00198                      32.84999
                       0.02447                      -0.00252                      37.22999
                       0.03050                      -0.00314                      41.60998
                       0.03714                      -0.00382                      45.98998
                       0.04440                      -0.00459                      50.36997
                       0.05233                      -0.00543                      54.74997
                       0.06093                      -0.00635                      59.12996
                       0.07022                      -0.00734                      63.50995
                       0.08017                      -0.00841                      67.88994
                       0.09070                      -0.00954                      72.26992
                       0.10167                      -0.01072                      76.64991
                       0.11281                      -0.01196                      81.02990
                       0.12373                      -0.01323                      85.40988
                       0.12894                      -0.01388                      87.59988
                       0.00000                       0.00000                       0.00000
        </DataArray>
      </Points>
      <PointData>
        <DataArray type="Float32" Name="TranslationalVelocity" NumberOfComponents="3" format="ascii">
                      -0.00007                       0.00001                       0.00000
                      -0.00063                       0.00012                       0.00000
                      -0.00177                       0.00032                       0.00000
                      -0.00345                       0.00058                       0.00000
                      -0.00559                       0.00090                       0.00000
                      -0.00807                       0.00125                       0.00000
                      -0.01077                       0.00162                       0.00001
                      -0.01351                       0.00200                       0.00001
                      -0.01615                       0.00236                       0.00001
                      -0.01851                       0.00269                       0.00002
                      -0.02045                       0.00296                       0.00002
                      -0.02181                       0.00315                       0.00002
                      -0.02247                       0.00324                       0.00002
                      -0.02232                       0.00321                       0.00002
                      -0.02130                       0.00305                       0.00002
                      -0.01937                       0.00274                       0.00002
                      -0.01652                       0.00227                       0.00001
                      -0.01280                       0.00165                      -0.00000
                      -0.00831                       0.00089                      -0.00001
                      -0.00317                       0.00002                      -0.00002
                      -0.00042                      -0.00044                      -0.00003
                       0.00000                      -0.00000                       0.00000
        </DataArray>
        <DataArray type="Float32" Name="RotationalVelocity" NumberOfComponents="3" format="ascii">
                      -0.00001                      -0.00006                       0.00000
                      -0.00004                      -0.00020                       0.00000
                      -0.00005                      -0.00032                       0.00000
                      -0.00007                      -0.00044                       0.00000
                      -0.00008                      -0.00053                       0.00000
                      -0.00008                      -0.00060                       0.00000
                      -0.00009                      -0.00063                       0.00000
                      -0.00008                      -0.00062                       0.00000
                      -0.00008                      -0.00058                       0.00000
                      -0.00007                      -0.00050                       0.00000
                      -0.00005                      -0.00038                       0.00000
                      -0.00003                      -0.00023                       0.00000
                      -0.00001                      -0.00006                       0.00000
                       0.00002                       0.00013                       0.00000
                       0.00005                       0.00034                       0.00000
                       0.00009                       0.00055                       0.00000
                       0.00012                       0.00075                       0.00000
                       0.00016                       0.00094                       0.00000
                       0.00019                       0.00111                       0.00000
                       0.00021                       0.00123                       0.00000
                       0.00021                       0.00128                       0.00000
                       0.00000                      -0.00000                       0.00000
        </DataArray>
        <DataArray type="Float32" Name="TranslationalAcceleration" NumberOfComponents="3" format="ascii">
                      -0.00046                       0.00016                       0.00000
                      -0.00427                       0.00134                       0.00000
                      -0.01199                       0.00349                       0.00000
                      -0.02338                       0.00640                       0.00001
                      -0.03792                       0.00990                       0.00002
                      -0.05485                       0.01385                       0.00003
                      -0.07327                       0.01809                       0.00004
                      -0.09217                       0.02245                       0.00006
                      -0.11047                       0.02677                       0.00009
                      -0.12709                       0.03085                       0.00011
                      -0.14101                       0.03449                       0.00013
                      -0.15126                       0.03749                       0.00014
                      -0.15704                       0.03964                       0.00015
                      -0.15766                       0.04074                       0.00016
                      -0.15266                       0.04061                       0.00014
                      -0.14178                       0.03913                       0.00012
                      -0.12502                       0.03623                       0.00008
                      -0.10262                       0.03193                       0.00002
                      -0.07514                       0.02634                      -0.00006
                      -0.04342                       0.01975                      -0.00015
                      -0.02633                       0.01621                      -0.00019
                       0.00000                      -0.00000                       0.00000
        </DataArray>
        <DataArray type="Float32" Name="RotationalAcceleration" NumberOfComponents="3" format="ascii">
                      -0.00014                      -0.00043                       0.00000
                      -0.00039                      -0.00132                       0.00000
                      -0.00058                      -0.00220                       0.00000
                      -0.00074                      -0.00298                       0.00000
                      -0.00086                      -0.00362                       0.00000
                      -0.00094                      -0.00407                       0.00000
                      -0.00099                      -0.00430                       0.00000
                      -0.00100                      -0.00429                       0.00000
                      -0.00097                      -0.00403                       0.00000
                      -0.00089                      -0.00352                       0.00000
                      -0.00077                      -0.00279                       0.00000
                      -0.00060                      -0.00186                       0.00000
                      -0.00038                      -0.00075                       0.00000
                      -0.00012                       0.00049                       0.00000
                       0.00018                       0.00181                       0.00000
                       0.00050                       0.00316                       0.00000
                       0.00083                       0.00449                       0.00000
                       0.00114                       0.00572                       0.00000
                       0.00140                       0.00680                       0.00000
                       0.00159                       0.00764                       0.00000
                       0.00164                       0.00796                       0.00000
                       0.00000                      -0.00000                       0.00000
        </DataArray>
        <DataArray type="Float32" Name="OrientationX" NumberOfComponents="3" format="ascii">
                       1.00000                       0.00000                      -0.00006
                       1.00000                       0.00000                      -0.00021
                       1.00000                       0.00000                      -0.00037
                       1.00000                       0.00000                      -0.00054
                       1.00000                       0.00000                      -0.00071
                       1.00000                       0.00000                      -0.00087
                       1.00000                       0.00000                      -0.00102
                       1.00000                       0.00000                      -0.00117
                       1.00000                       0.00000                      -0.00131
                       1.00000                       0.00000                      -0.00145
                       1.00000                       0.00000                      -0.00159
                       1.00000                       0.00000                      -0.00173
                       1.00000                       0.00000                      -0.00189
                       1.00000                       0.00000                      -0.00204
                       1.00000                       0.00000                      -0.00220
                       1.00000                       0.00000                      -0.00234
                       1.00000                       0.00000                      -0.00246
                       1.00000                       0.00000                      -0.00254
                       1.00000                       0.00000                      -0.00254
                       1.00000                       0.00000                      -0.00243
                       1.00000                       0.00000                      -0.00232
                       1.00000                      -0.00000                       0.00000
        </DataArray>
        <DataArray type="Float32" Name="OrientationY" NumberOfComponents="3" format="ascii">
                       0.00000                       1.00000                       0.00001
                       0.00000                       1.00000                       0.00003
                       0.00000                       1.00000                       0.00004
                       0.00000                       1.00000                       0.00006
                       0.00000                       1.00000                       0.00007
                       0.00000                       1.00000                       0.00009
                       0.00000                       1.00000                       0.00010
                       0.00000                       1.00000                       0.00012
                       0.00000                       1.00000                       0.00013
                       0.00000                       1.00000                       0.00015
                       0.00000                       1.00000                       0.00017
                       0.00000                       1.00000                       0.00018
                       0.00000                       1.00000                       0.00020
                       0.00000                       1.00000                       0.00022
                       0.00000                       1.00000                       0.00024
                       0.00000                       1.00000                       0.00025
                       0.00000                       1.00000                       0.00026
                       0.00000                       1.00000                       0.00028
                       0.00000                       1.00000                       0.00029
                       0.00000                       1.00000                       0.00029
                       0.00000                       1.00000                       0.00030
                      -0.00000                       1.00000                      -0.00000
        </DataArray>
        <DataArray type="Float32" Name="OrientationZ" NumberOfComponents="3" format="ascii">
                       0.00006                      -0.00001                       1.00000
                       0.00021                      -0.00003                       1.00000
                       0.00037                      -0.00004                       1.00000
                       0.00054                      -0.00006                       1.00000
                       0.00071                      -0.00007                       1.00000
                       0.00087                      -0.00009                       1.00000
                       0.00102                      -0.00010                       1.00000
                       0.00117                      -0.00012                       1.00000
                       0.00131                      -0.00013                       1.00000
                       0.00145                      -0.00015                       1.00000
                       0.00159                      -0.00017                       1.00000
                       0.00173                      -0.00018                       1.00000
                       0.00189                      -0.00020                       1.00000
                       0.00204                      -0.00022                       1.00000
                       0.00220                      -0.00024                       1.00000
                       0.00234                      -0.00025                       1.00000
                       0.00246                      -0.00026                       1.00000
                       0.00254                      -0.00028                       1.00000
                       0.00254                      -0.00029                       1.00000
                       0.00243                      -0.00029                       1.00000
                       0.00232                      -0.00030                       1.00000
                       0.00000                      -0.00000                       1.00000
        </DataArray>
      </PointData>
      <Lines>
        <DataArray type="Int32" Name="connectivity" format="ascii">
      0      1
      1      2
      2      3
      3      4
      4      5
      5      6
      6      7
      7      8
      8      9
      9     10
     10     11
     11     12
     12     13
     13     14
     14     15
     15     16
     16     17
     17     18
     18     19
     19     20
     21      0
        </DataArray>
        <DataArray type="Int32" Name="offsets" format="ascii">
      2
      4
      6
      8
     10
     12
     14
     16
     18
     20
     22
     24
     26
     28
     30
     32
     34
     36
     38
     40
     42
        </DataArray>
      </Lines>
    </Piece>
  </PolyData>
</VTKFile>
