<?xml version="1.0"?>
<VTKFile type="PolyData" version="0.1" byte_order="LittleEndian">
  <PolyData>
    <Piece NumberOfPoints="     19" NumberOfVerts="  0" NumberOfLines="     18"
           NumberOfStrips="  0" NumberOfPolys="      0">
      <Points>
        <DataArray type="Float32" NumberOfComponents="3" format="ascii">
                      -4.52098                       1.14063                      89.12402
                      -4.66496                       2.20525                      88.27889
                      -4.96101                       4.39279                      86.66324
                      -5.25332                       6.60797                      85.08099
                      -5.60298                       9.39370                      83.11980
                      -5.94420                      12.64747                      80.64186
                      -6.21990                      15.81833                      78.05196
                      -6.43241                      18.98519                      75.45105
                      -6.56584                      22.14573                      72.83746
                      -6.60688                      25.29951                      70.21319
                      -6.54311                      28.44677                      67.58210
                      -6.36141                      31.58383                      64.94452
                      -6.05153                      34.70745                      62.30258
                      -5.60535                      37.81378                      59.65905
                      -5.01493                      40.89795                      57.01748
                      -4.40771                      43.44666                      54.82076
                      -3.85138                      45.46471                      53.06223
                      -3.23734                      47.43165                      51.26738
                      -2.90384                      48.43466                      50.40485
        </DataArray>
      </Points>
      <PointData>
        <DataArray type="Float32" Name="TranslationalVelocity" NumberOfComponents="3" format="ascii">
                       0.23621                       1.44469                       1.79178
                       0.39654                       2.76058                       3.42202
                       0.72774                       5.27886                       6.77105
                       1.06579                       7.74498                      10.16118
                       1.49603                      10.79916                      14.42231
                       2.00863                      14.64158                      19.39584
                       2.52323                      18.64329                      24.23872
                       3.05688                      22.64964                      29.07148
                       3.61420                      26.65975                      33.89086
                       4.20033                      30.66727                      38.69677
                       4.82043                      34.66276                      43.49047
                       5.47878                      38.64166                      48.26766
                       6.17920                      42.59663                      53.02503
                       6.92472                      46.51924                      57.75881
                       7.71726                      50.39920                      62.46416
                       8.41505                      53.59101                      66.35904
                       8.99533                      56.12305                      69.44847
                       9.58976                      58.68898                      72.46602
                       9.89890                      59.90936                      74.00719
        </DataArray>
        <DataArray type="Float32" Name="RotationalVelocity" NumberOfComponents="3" format="ascii">
                       1.53126                       0.00139                      -0.15164
                       1.53112                       0.00127                      -0.15180
                       1.53074                       0.00085                      -0.15236
                       1.53025                       0.00022                      -0.15326
                       1.52953                      -0.00083                      -0.15486
                       1.52852                      -0.00246                      -0.15754
                       1.52742                      -0.00452                      -0.16113
                       1.52625                      -0.00710                      -0.16571
                       1.52505                      -0.01027                      -0.17137
                       1.52382                      -0.01413                      -0.17817
                       1.52258                      -0.01876                      -0.18609
                       1.52134                      -0.02419                      -0.19508
                       1.52009                      -0.03041                      -0.20496
                       1.51885                      -0.03734                      -0.21546
                       1.51761                      -0.04479                      -0.22616
                       1.51658                      -0.05121                      -0.23486
                       1.51577                      -0.05632                      -0.24136
                       1.51497                      -0.06124                      -0.24717
                       1.51458                      -0.06358                      -0.24973
        </DataArray>
        <DataArray type="Float32" Name="TranslationalAcceleration" NumberOfComponents="3" format="ascii">
                       0.56248                      -2.52950                       2.51770
                       0.37951                      -3.10269                       2.98167
                       1.04487                      -9.01876                       8.36561
                       1.61203                     -14.55321                      13.21835
                       2.21464                     -21.08235                      18.81763
                       2.83048                     -28.29057                      25.39084
                       3.34714                     -35.09341                      31.99884
                       3.75636                     -41.86479                      38.58397
                       4.07130                     -48.68085                      45.22744
                       4.31364                     -55.56452                      51.94406
                       4.52287                     -62.50238                      58.70391
                       4.76691                     -69.45338                      65.46195
                       5.14968                     -76.38048                      72.16578
                       5.82029                     -83.26801                      78.77616
                       6.98178                     -90.14060                      85.28436
                       8.53068                     -95.92044                      90.65722
                      10.27040                    -100.62221                      94.97606
                      12.60174                    -105.38754                      99.44525
                      14.00513                    -107.92170                     101.65165
        </DataArray>
        <DataArray type="Float32" Name="OrientationX" NumberOfComponents="3" format="ascii">
                       0.98250                       0.17766                       0.05591
                       0.98259                       0.17700                       0.05642
                       0.98289                       0.17479                       0.05811
                       0.98332                       0.17145                       0.06064
                       0.98402                       0.16587                       0.06482
                       0.98940                       0.13757                       0.04647
                       0.99300                       0.11222                       0.03677
                       0.99580                       0.08612                       0.03118
                       0.99804                       0.05660                       0.02674
                       0.99943                       0.02385                       0.02405
                       0.99964                      -0.01095                       0.02459
                       0.99846                      -0.04825                       0.02749
                       0.99568                      -0.08646                       0.03382
                       0.99137                      -0.12314                       0.04498
                       0.98551                      -0.15984                       0.05678
                       0.97965                      -0.18952                       0.06608
                       0.97467                      -0.21141                       0.07299
                       0.97008                      -0.22873                       0.08139
                       0.96815                      -0.23494                       0.08657
        </DataArray>
        <DataArray type="Float32" Name="OrientationY" NumberOfComponents="3" format="ascii">
                       0.15363                      -0.60340                      -0.78250
                       0.15366                      -0.60368                      -0.78228
                       0.15372                      -0.60453                      -0.78161
                       0.15376                      -0.60572                      -0.78068
                       0.15375                      -0.60762                      -0.77921
                       0.12211                      -0.61511                      -0.77893
                       0.09896                      -0.62080                      -0.77770
                       0.07841                      -0.62570                      -0.77611
                       0.05648                      -0.63013                      -0.77443
                       0.03373                      -0.63379                      -0.77277
                       0.01199                      -0.63646                      -0.77122
                      -0.00964                      -0.63804                      -0.76994
                      -0.02933                      -0.63853                      -0.76903
                      -0.04443                      -0.63836                      -0.76845
                      -0.05909                      -0.63728                      -0.76836
                      -0.07113                      -0.63568                      -0.76867
                      -0.07994                      -0.63409                      -0.76911
                      -0.08472                      -0.63312                      -0.76941
                      -0.08484                      -0.63312                      -0.76939
        </DataArray>
        <DataArray type="Float32" Name="OrientationZ" NumberOfComponents="3" format="ascii">
                      -0.10529                       0.77740                      -0.62014
                      -0.10441                       0.77733                      -0.62037
                      -0.10149                       0.77717                      -0.62105
                      -0.09712                       0.77698                      -0.62199
                      -0.08986                       0.77672                      -0.62341
                      -0.07857                       0.77635                      -0.62539
                      -0.06444                       0.77590                      -0.62756
                      -0.04733                       0.77529                      -0.62983
                      -0.02698                       0.77443                      -0.63209
                      -0.00319                       0.77314                      -0.63423
                       0.02409                       0.77123                      -0.63610
                       0.05469                       0.76849                      -0.63752
                       0.08809                       0.76472                      -0.63831
                       0.12334                       0.75982                      -0.63832
                       0.15900                       0.75387                      -0.63749
                       0.18769                       0.74833                      -0.63622
                       0.20888                       0.74380                      -0.63493
                       0.22752                       0.73949                      -0.63355
                       0.23557                       0.73753                      -0.63289
        </DataArray>
        <DataArray type="Float32" Name="Force" NumberOfComponents="3" format="ascii">
                     144.94711                      -5.73645                     -31.79982
                     134.59375                     -19.54187                     -47.14787
                     176.13195                     -66.73658                    -112.40000
                     159.97389                    -102.20514                    -152.94607
                    2158.16805                     535.61618                     358.46664
                    3001.98561                     801.15552                     622.57504
                    4225.59192                     995.75249                     806.08595
                    4977.69165                     896.86462                     740.44744
                    5614.30187                     766.06776                     710.69052
                    6312.77141                     587.58971                     697.02851
                    7577.86864                     398.68533                     784.43409
                    8558.92394                     112.14276                     884.07605
                    9236.95992                    -255.87459                     982.39749
                    9912.16447                    -658.53203                    1145.35242
                   10473.04397                   -1095.39563                    1330.25968
                   10836.68916                   -1464.98570                    1486.51476
                   10688.83989                   -1689.40165                    1549.01202
                    7789.84123                   -1390.17503                    1182.70909
                    7957.59357                   -1490.23629                    1233.09119
        </DataArray>
        <DataArray type="Float32" Name="Moment" NumberOfComponents="3" format="ascii">
                       0.00000                       0.00000                       0.00000
                       0.00000                       0.00000                       0.00000
                       0.00000                       0.00000                       0.00000
                       0.00000                       0.00000                       0.00000
                      73.42839                    -636.55181                     509.04774
                      59.60472                    -591.74007                     474.06865
                      78.44230                    -951.10406                     763.68916
                      87.93629                   -1455.64467                    1171.98931
                      67.66379                   -1978.33202                    1597.95496
                       8.22349                   -2310.76434                    1873.47913
                     -77.77608                   -2455.33129                    1999.25205
                    -187.06357                   -2619.57122                    2143.28713
                    -282.54813                   -2453.10478                    2017.71540
                    -395.64511                   -2442.03993                    2019.93543
                    -494.67561                   -2352.67271                    1957.25093
                    -555.38812                   -2222.94014                    1858.03266
                    -550.17102                   -1967.64210                    1650.44045
                    -302.47717                    -987.80638                     831.16413
                    -326.52983                   -1027.35393                     865.62255
        </DataArray>
      </PointData>
      <Lines>
        <DataArray type="Int32" Name="connectivity" format="ascii">
      0      1
      1      2
      2      3
      3      4
      4      5
      5      6
      6      7
      7      8
      8      9
      9     10
     10     11
     11     12
     12     13
     13     14
     14     15
     15     16
     16     17
     17     18
        </DataArray>
        <DataArray type="Int32" Name="offsets" format="ascii">
      2
      4
      6
      8
     10
     12
     14
     16
     18
     20
     22
     24
     26
     28
     30
     32
     34
     36
        </DataArray>
      </Lines>
    </Piece>
  </PolyData>
</VTKFile>
