<?xml version="1.0"?>
<VTKFile type="PolyData" version="0.1" byte_order="LittleEndian">
  <PolyData>
    <Piece NumberOfPoints="     19" NumberOfVerts="  0" NumberOfLines="     18"
           NumberOfStrips="  0" NumberOfPolys="      0">
      <Points>
        <DataArray type="Float32" NumberOfComponents="3" format="ascii">
                      -4.89411                       1.43113                      90.43021
                      -4.91948                       2.74260                      90.81492
                      -4.98486                       5.33924                      91.67561
                      -5.05600                       7.92434                      92.57812
                      -5.14564                      11.15009                      93.72895
                      -5.20687                      15.06484                      94.96323
                      -5.25030                      19.01825                      96.06483
                      -5.29686                      22.97427                      97.15828
                      -5.35280                      26.93324                      98.24259
                      -5.43005                      30.89415                      99.32062
                      -5.54339                      34.85516                     100.39677
                      -5.70789                      38.81539                     101.46990
                      -5.94163                      42.77290                     102.53965
                      -6.26406                      46.72494                     103.60460
                      -6.69329                      50.66807                     104.66230
                      -7.14982                      53.94379                     105.53500
                      -7.58454                      56.55783                     106.21799
                      -8.08299                      59.17751                     106.83951
                      -8.36577                      60.47129                     107.18577
        </DataArray>
      </Points>
      <PointData>
        <DataArray type="Float32" Name="TranslationalVelocity" NumberOfComponents="3" format="ascii">
                       0.36964                      -1.18370                       4.10204
                       0.70494                      -2.27448                       7.84233
                       1.36844                      -4.71293                      15.24909
                       2.02799                      -7.26993                      22.62463
                       2.84906                     -10.53190                      31.83064
                       3.84317                     -14.04093                      43.00689
                       4.84580                     -17.17692                      54.29770
                       5.85001                     -20.28977                      65.59979
                       6.85882                     -23.37474                      76.91350
                       7.87509                     -26.43666                      88.23530
                       8.90116                     -29.48392                      99.55929
                       9.93893                     -32.50903                     110.88243
                      10.98887                     -35.50587                     122.19880
                      12.04965                     -38.46498                     133.50052
                      13.11777                     -41.37433                     144.77799
                      14.00903                     -43.74701                     154.14810
                      14.71957                     -45.58294                     161.62688
                      15.42836                     -47.22575                     169.12363
                      15.77575                     -48.13964                     172.82690
        </DataArray>
        <DataArray type="Float32" Name="RotationalVelocity" NumberOfComponents="3" format="ascii">
                       2.85180                      -0.00089                      -0.25611
                       2.85200                      -0.00090                      -0.25604
                       2.85253                      -0.00096                      -0.25577
                       2.85320                      -0.00105                      -0.25537
                       2.85412                      -0.00111                      -0.25481
                       2.85523                      -0.00099                      -0.25425
                       2.85624                      -0.00059                      -0.25402
                       2.85708                       0.00013                      -0.25430
                       2.85773                       0.00113                      -0.25523
                       2.85821                       0.00230                      -0.25686
                       2.85855                       0.00351                      -0.25916
                       2.85882                       0.00451                      -0.26202
                       2.85908                       0.00504                      -0.26519
                       2.85942                       0.00475                      -0.26831
                       2.85992                       0.00323                      -0.27089
                       2.86049                       0.00074                      -0.27220
                       2.86109                      -0.00232                      -0.27233
                       2.86182                      -0.00650                      -0.27135
                       2.86224                      -0.00907                      -0.27035
        </DataArray>
        <DataArray type="Float32" Name="TranslationalAcceleration" NumberOfComponents="3" format="ascii">
                      -0.27803                     -11.80975                      -3.32567
                      -0.36217                     -14.27303                      -4.10250
                      -1.10173                     -40.63401                     -12.48371
                      -1.81007                     -64.77168                     -20.58748
                      -2.63876                     -92.90313                     -30.30018
                      -3.43992                    -125.24402                     -40.21845
                      -4.06251                    -157.09042                     -48.74757
                      -4.59851                    -188.89995                     -57.10490
                      -5.04608                    -221.06307                     -65.40486
                      -5.39925                    -253.68769                     -73.71870
                      -5.64722                    -286.67903                     -82.07430
                      -5.77026                    -319.83279                     -90.41800
                      -5.74455                    -352.89728                     -98.68161
                      -5.54187                    -385.65438                    -106.78659
                      -5.13062                    -417.99984                    -114.66338
                      -4.59839                    -444.68766                    -121.01142
                      -4.03015                    -466.00025                    -125.88040
                      -3.25967                    -487.56683                    -130.19337
                      -2.87143                    -498.37965                    -132.63188
        </DataArray>
        <DataArray type="Float32" Name="OrientationX" NumberOfComponents="3" format="ascii">
                       0.98916                      -0.02289                       0.14506
                       0.98916                      -0.02298                       0.14505
                       0.98913                      -0.02336                       0.14521
                       0.98906                      -0.02402                       0.14555
                       0.98892                      -0.02515                       0.14629
                       0.99290                      -0.01795                       0.11757
                       0.99503                      -0.01308                       0.09869
                       0.99636                      -0.00830                       0.08480
                       0.99734                      -0.00187                       0.07293
                       0.99790                       0.00671                       0.06441
                       0.99794                       0.01757                       0.06169
                       0.99744                       0.03146                       0.06420
                       0.99611                       0.04825                       0.07368
                       0.99346                       0.06736                       0.09214
                       0.98937                       0.08981                       0.11440
                       0.98472                       0.11074                       0.13440
                       0.98014                       0.12853                       0.15104
                       0.97450                       0.14595                       0.17046
                       0.97121                       0.15416                       0.18164
        </DataArray>
        <DataArray type="Float32" Name="OrientationY" NumberOfComponents="3" format="ascii">
                       0.14565                       0.27894                      -0.94920
                       0.14568                       0.27869                      -0.94927
                       0.14595                       0.27800                      -0.94943
                       0.14648                       0.27709                      -0.94961
                       0.14752                       0.27575                      -0.94984
                       0.11796                       0.27472                      -0.95426
                       0.09850                       0.27347                      -0.95682
                       0.08385                       0.27235                      -0.95854
                       0.07069                       0.27153                      -0.95983
                       0.06019                       0.27105                      -0.96068
                       0.05464                       0.27093                      -0.96105
                       0.05331                       0.27115                      -0.96106
                       0.05790                       0.27177                      -0.96062
                       0.07047                       0.27304                      -0.95942
                       0.08579                       0.27484                      -0.95766
                       0.09934                       0.27666                      -0.95582
                       0.11052                       0.27838                      -0.95409
                       0.12443                       0.28075                      -0.95168
                       0.13287                       0.28232                      -0.95007
        </DataArray>
        <DataArray type="Float32" Name="OrientationZ" NumberOfComponents="3" format="ascii">
                      -0.01873                       0.96003                       0.27925
                      -0.01861                       0.96010                       0.27902
                      -0.01819                       0.96030                       0.27839
                      -0.01752                       0.96054                       0.27758
                      -0.01646                       0.96090                       0.27641
                      -0.01517                       0.96136                       0.27489
                      -0.01447                       0.96179                       0.27340
                      -0.01514                       0.96216                       0.27206
                      -0.01801                       0.96243                       0.27094
                      -0.02391                       0.96254                       0.27008
                      -0.03359                       0.96244                       0.26941
                      -0.04764                       0.96202                       0.26877
                      -0.06637                       0.96115                       0.26792
                      -0.08979                       0.95964                       0.26651
                      -0.11745                       0.95729                       0.26421
                      -0.14303                       0.95457                       0.26143
                      -0.16468                       0.95183                       0.25864
                      -0.18675                       0.94862                       0.25543
                      -0.19775                       0.94685                       0.25371
        </DataArray>
        <DataArray type="Float32" Name="Force" NumberOfComponents="3" format="ascii">
                     156.49926                      18.85176                     -54.31075
                     171.21034                      37.57275                    -117.77827
                     241.95508                     105.20816                    -346.06839
                     231.48711                     156.67898                    -524.46441
                    3352.94947                    -187.81526                     841.06045
                    3421.68779                     -99.07587                     522.59901
                    3015.19093                     -32.54679                     263.22363
                    3989.09693                     -12.51346                     250.79213
                    5179.21309                      21.44895                     246.72120
                    5353.56712                      84.51626                     151.39864
                    7468.60884                     209.56274                     151.92517
                    6874.65002                     315.82509                      60.80257
                    3307.14630                     250.72227                     -87.60452
                    1627.83256                     166.47555                     -53.92342
                   -3627.97828                    -346.35392                    -314.32775
                   -8706.70959                   -1147.93951                    -481.45610
                  -12717.64950                   -1992.20773                    -630.14177
                  -13172.61089                   -2386.25806                    -621.76404
                  -16011.69365                   -3091.74844                    -756.82022
        </DataArray>
        <DataArray type="Float32" Name="Moment" NumberOfComponents="3" format="ascii">
                       0.00000                       0.00000                       0.00000
                       0.00000                       0.00000                       0.00000
                       0.00000                       0.00000                       0.00000
                       0.00000                       0.00000                       0.00000
                      25.02843                   -1481.80985                    -430.67719
                      42.48729                   -2756.27519                    -800.72595
                      52.22428                   -3586.75311                   -1041.71302
                      82.89113                   -5480.16911                   -1591.90255
                     146.10162                   -8120.65718                   -2361.01243
                     220.46319                   -9176.64193                   -2673.00276
                     345.86777                  -10171.80270                   -2971.99106
                     519.81977                  -10709.92943                   -3143.19863
                     539.37670                   -7932.97373                   -2342.06508
                     693.71166                   -7506.42196                   -2232.59748
                     852.57050                   -7019.21648                   -2105.99957
                     980.04330                   -6596.46458                   -1995.21833
                     994.51500                   -5790.85136                   -1763.59428
                     551.51846                   -2819.20112                    -864.63137
                     592.35946                   -2852.81208                    -878.01677
        </DataArray>
      </PointData>
      <Lines>
        <DataArray type="Int32" Name="connectivity" format="ascii">
      0      1
      1      2
      2      3
      3      4
      4      5
      5      6
      6      7
      7      8
      8      9
      9     10
     10     11
     11     12
     12     13
     13     14
     14     15
     15     16
     16     17
     17     18
        </DataArray>
        <DataArray type="Int32" Name="offsets" format="ascii">
      2
      4
      6
      8
     10
     12
     14
     16
     18
     20
     22
     24
     26
     28
     30
     32
     34
     36
        </DataArray>
      </Lines>
    </Piece>
  </PolyData>
</VTKFile>
