<?xml version="1.0"?>
<VTKFile type="PolyData" version="0.1" byte_order="LittleEndian">
  <PolyData>
    <Piece NumberOfPoints="    625" NumberOfVerts="  0" NumberOfLines="      0"
           NumberOfStrips="  0" NumberOfPolys="    600">
      <Points>
        <DataArray type="Float32" NumberOfComponents="3" format="ascii">
                      -4.73204                      -0.41884                      91.45114
                      -4.73204                      -0.41884                      91.45114
                      -4.73204                      -0.41884                      91.45114
                      -4.73204                      -0.41884                      91.45114
                      -4.73204                      -0.41884                      91.45114
                      -4.73204                      -0.41884                      91.45114
                      -4.73204                      -0.41884                      91.45114
                      -4.73204                      -0.41884                      91.45114
                      -4.73204                      -0.41884                      91.45114
                      -4.73204                      -0.41884                      91.45114
                      -4.73204                      -0.41884                      91.45114
                      -4.73204                      -0.41884                      91.45114
                      -4.73204                      -0.41884                      91.45114
                      -4.73204                      -0.41884                      91.45114
                      -4.73204                      -0.41884                      91.45114
                      -4.73204                      -0.41884                      91.45114
                      -4.73204                      -0.41884                      91.45114
                      -4.73204                      -0.41884                      91.45114
                      -4.73204                      -0.41884                      91.45114
                      -4.73204                      -0.41884                      91.45114
                      -4.73204                      -0.41884                      91.45114
                      -4.73204                      -0.41884                      91.45114
                      -4.73204                      -0.41884                      91.45114
                      -4.73204                      -0.41884                      91.45114
                      -4.73204                      -0.41884                      91.45114
                      -4.14573                      -0.38552                      91.27755
                      -4.16803                      -0.52922                      91.23969
                      -4.22645                      -0.66390                      91.20757
                      -4.31731                      -0.78108                      91.18322
                      -4.43491                      -0.87341                      91.16816
                      -4.57186                      -0.93509                      91.16334
                      -4.71954                      -0.96223                      91.16907
                      -4.86869                      -0.95314                      91.18498
                      -5.00993                      -0.90839                      91.21007
                      -5.13438                      -0.83078                      91.24277
                      -5.23423                      -0.72520                      91.28103
                      -5.30321                      -0.59828                      91.32243
                      -5.33697                      -0.45799                      91.36438
                      -5.33339                      -0.31315                      91.40424
                      -5.29271                      -0.17285                      91.43951
                      -5.21748                      -0.04592                      91.46796
                      -5.11242                       0.05967                      91.48783
                      -4.98414                       0.13728                      91.49784
                      -4.84069                       0.18204                      91.49738
                      -4.69110                       0.19114                      91.48648
                      -4.54475                       0.16401                      91.46581
                      -4.41085                       0.10234                      91.43669
                      -4.29780                       0.01002                      91.40093
                      -4.21272                      -0.10716                      91.36079
                      -4.16095                      -0.24182                      91.31878
                      -3.92775                      -0.35222                      91.13701
                      -3.95859                      -0.55098                      91.08465
                      -4.03939                      -0.73725                      91.04022
                      -4.16507                      -0.89933                      91.00654
                      -4.32772                      -1.02703                      90.98572
                      -4.51713                      -1.11234                      90.97905
                      -4.72140                      -1.14989                      90.98697
                      -4.92769                      -1.13731                      91.00898
                      -5.12304                      -1.07541                      91.04369
                      -5.29518                      -0.96808                      91.08892
                      -5.43328                      -0.82204                      91.14182
                      -5.52868                      -0.64649                      91.19909
                      -5.57538                      -0.45245                      91.25711
                      -5.57044                      -0.25212                      91.31224
                      -5.51417                      -0.05807                      91.36102
                      -5.41011                       0.11749                      91.40038
                      -5.26480                       0.26353                      91.42785
                      -5.08737                       0.37088                      91.44171
                      -4.88897                       0.43279                      91.44107
                      -4.68205                       0.44538                      91.42599
                      -4.47964                       0.40785                      91.39741
                      -4.29443                       0.32256                      91.35712
                      -4.13808                       0.19486                      91.30766
                      -4.02040                       0.03279                      91.25214
                      -3.94879                      -0.15347                      91.19404
                      -3.77617                      -0.31893                      91.00244
                      -3.81308                      -0.55676                      90.93978
                      -3.90976                      -0.77965                      90.88662
                      -4.06014                      -0.97359                      90.84632
                      -4.25477                      -1.12640                      90.82140
                      -4.48142                      -1.22847                      90.81343
                      -4.72585                      -1.27340                      90.82290
                      -4.97269                      -1.25836                      90.84924
                      -5.20644                      -1.18429                      90.89077
                      -5.41242                      -1.05585                      90.94489
                      -5.57768                      -0.88111                      91.00820
                      -5.69183                      -0.67104                      91.07672
                      -5.74770                      -0.43886                      91.14614
                      -5.74179                      -0.19914                      91.21211
                      -5.67446                       0.03305                      91.27048
                      -5.54995                       0.24312                      91.31758
                      -5.37607                       0.41787                      91.35045
                      -5.16376                       0.54633                      91.36703
                      -4.92635                       0.62041                      91.36627
                      -4.67876                       0.63547                      91.34823
                      -4.43656                       0.59056                      91.31402
                      -4.21494                       0.48851                      91.26582
                      -4.02785                       0.33571                      91.20664
                      -3.88704                       0.14178                      91.14020
                      -3.80135                      -0.08110                      91.07068
                      -3.66157                      -0.28563                      90.87118
                      -3.70316                      -0.55364                      90.80057
                      -3.81211                      -0.80480                      90.74067
                      -3.98157                      -1.02335                      90.69526
                      -4.20089                      -1.19555                      90.66717
                      -4.45630                      -1.31057                      90.65819
                      -4.73173                      -1.36120                      90.66887
                      -5.00989                      -1.34425                      90.69854
                      -5.27331                      -1.26078                      90.74534
                      -5.50541                      -1.11605                      90.80633
                      -5.69164                      -0.91914                      90.87767
                      -5.82027                      -0.68242                      90.95488
                      -5.88323                      -0.42078                      91.03312
                      -5.87657                      -0.15065                      91.10746
                      -5.80070                       0.11100                      91.17323
                      -5.66039                       0.34772                      91.22631
                      -5.46445                       0.54465                      91.26335
                      -5.22521                       0.68940                      91.28203
                      -4.95768                       0.77289                      91.28118
                      -4.67868                       0.78986                      91.26084
                      -4.40574                       0.73925                      91.22230
                      -4.15601                       0.62424                      91.16798
                      -3.94518                       0.45206                      91.10129
                      -3.78650                       0.23353                      91.02642
                      -3.68994                      -0.01763                      90.94808
                      -3.57243                      -0.25234                      90.74221
                      -3.61775                      -0.54439                      90.66526
                      -3.73648                      -0.81809                      90.59999
                      -3.92114                      -1.05625                      90.55050
                      -4.16014                      -1.24389                      90.51990
                      -4.43846                      -1.36924                      90.51011
                      -4.73861                      -1.42441                      90.52175
                      -5.04173                      -1.40594                      90.55408
                      -5.32878                      -1.31498                      90.60508
                      -5.58171                      -1.15726                      90.67154
                      -5.78464                      -0.94268                      90.74928
                      -5.92482                      -0.68473                      90.83342
                      -5.99343                      -0.39961                      90.91868
                      -5.98617                      -0.10524                      90.99969
                      -5.90349                       0.17988                      91.07136
                      -5.75059                       0.43785                      91.12920
                      -5.53708                       0.65244                      91.16957
                      -5.27636                       0.81018                      91.18992
                      -4.98483                       0.90115                      91.18899
                      -4.68080                       0.91965                      91.16683
                      -4.38337                       0.86450                      91.12483
                      -4.11123                       0.73917                      91.06564
                      -3.88149                       0.55154                      90.99296
                      -3.70857                       0.31340                      90.91138
                      -3.60335                       0.03971                      90.82601
                      -3.50283                      -0.21905                      90.61500
                      -3.55116                      -0.53044                      90.53295
                      -3.67775                      -0.82227                      90.46336
                      -3.87464                      -1.07620                      90.41059
                      -4.12947                      -1.27627                      90.37796
                      -4.42622                      -1.40992                      90.36752
                      -4.74625                      -1.46874                      90.37993
                      -5.06945                      -1.44904                      90.41441
                      -5.37550                      -1.35207                      90.46878
                      -5.64519                      -1.18390                      90.53964
                      -5.86156                      -0.95511                      90.62253
                      -6.01102                      -0.68007                      90.71225
                      -6.08418                      -0.37607                      90.80315
                      -6.07643                      -0.06221                      90.88952
                      -5.98828                       0.24180                      90.96595
                      -5.82525                       0.51685                      91.02762
                      -5.59760                       0.74565                      91.07065
                      -5.31962                       0.91384                      91.09236
                      -5.00878                       1.01084                      91.09136
                      -4.68461                       1.03056                      91.06774
                      -4.36748                       0.97176                      91.02296
                      -4.07732                       0.83813                      90.95984
                      -3.83236                       0.63808                      90.88236
                      -3.64799                       0.38416                      90.79537
                      -3.53580                       0.09234                      90.70434
                      -3.44931                      -0.18575                      90.48922
                      -3.50004                      -0.51262                      90.40310
                      -3.63292                      -0.81895                      90.33005
                      -3.83960                      -1.08550                      90.27466
                      -4.10709                      -1.29551                      90.24041
                      -4.41859                      -1.43580                      90.22945
                      -4.75452                      -1.49755                      90.24248
                      -5.09377                      -1.47687                      90.27866
                      -5.41504                      -1.37507                      90.33574
                      -5.69812                      -1.19855                      90.41012
                      -5.92525                      -0.95839                      90.49713
                      -6.08213                      -0.66969                      90.59131
                      -6.15892                      -0.35058                      90.68673
                      -6.15080                      -0.02112                      90.77739
                      -6.05827                       0.29799                      90.85761
                      -5.88714                       0.58671                      90.92235
                      -5.64817                       0.82688                      90.96752
                      -5.35637                       1.00343                      90.99031
                      -5.03009                       1.10525                      90.98926
                      -4.68981                       1.12595                      90.96446
                      -4.35693                       1.06423                      90.91746
                      -4.05235                       0.92396                      90.85120
                      -3.79522                       0.71396                      90.76987
                      -3.60169                       0.44743                      90.67856
                      -3.48392                       0.14111                      90.58301
                      -3.40966                      -0.15246                      90.36470
                      -3.46228                      -0.49146                      90.27537
                      -3.60009                      -0.80916                      90.19961
                      -3.81444                      -1.08561                      90.14216
                      -4.09186                      -1.30342                      90.10664
                      -4.41492                      -1.44892                      90.09528
                      -4.76332                      -1.51296                      90.10879
                      -5.11518                      -1.49151                      90.14632
                      -5.44837                      -1.38594                      90.20552
                      -5.74196                      -1.20286                      90.28266
                      -5.97752                      -0.95379                      90.37290
                      -6.14023                      -0.65436                      90.47057
                      -6.21987                      -0.32341                      90.56953
                      -6.21144                       0.01828                      90.66356
                      -6.11548                       0.34924                      90.74676
                      -5.93799                       0.64868                      90.81390
                      -5.69015                       0.89777                      90.86075
                      -5.38753                       1.08087                      90.88438
                      -5.04912                       1.18647                      90.88330
                      -4.69622                       1.20794                      90.85758
                      -4.35097                       1.14392                      90.80883
                      -4.03509                       0.99845                      90.74011
                      -3.76841                       0.78066                      90.65576
                      -3.56769                       0.50423                      90.56106
                      -3.44555                       0.18654                      90.46196
                      -3.38243                      -0.11917                      90.24128
                      -3.43646                      -0.46732                      90.14955
                      -3.57800                      -0.79359                      90.07174
                      -3.79813                      -1.07749                      90.01275
                      -4.08304                      -1.30118                      89.97627
                      -4.41481                      -1.45060                      89.96460
                      -4.77262                      -1.51637                      89.97847
                      -5.13396                      -1.49435                      90.01701
                      -5.47614                      -1.38592                      90.07781
                      -5.77766                      -1.19791                      90.15703
                      -6.01957                      -0.94211                      90.24971
                      -6.18667                      -0.63461                      90.35001
                      -6.26846                      -0.29473                      90.45164
                      -6.25981                       0.05618                      90.54821
                      -6.16125                       0.39607                      90.63366
                      -5.97898                       0.70359                      90.70260
                      -5.72445                       0.95940                      90.75072
                      -5.41366                       1.14744                      90.77499
                      -5.06613                       1.25589                      90.77388
                      -4.70370                       1.27793                      90.74746
                      -4.34914                       1.21219                      90.69739
                      -4.02473                       1.06279                      90.62683
                      -3.75086                       0.83912                      90.54020
                      -3.54473                       0.55524                      90.44294
                      -3.41929                       0.22897                      90.34117
                      -3.36666                      -0.08588                      90.11890
                      -3.42168                      -0.44041                      90.02548
                      -3.56581                      -0.77267                      89.94625
                      -3.78999                      -1.06179                      89.88617
                      -4.08012                      -1.28958                      89.84902
                      -4.41799                      -1.44174                      89.83713
                      -4.78235                      -1.50872                      89.85126
                      -5.15033                      -1.48629                      89.89051
                      -5.49879                      -1.37588                      89.95242
                      -5.80584                      -1.18441                      90.03310
                      -6.05219                      -0.92392                      90.12748
                      -6.22235                      -0.61078                      90.22962
                      -6.30565                      -0.26466                      90.33312
                      -6.29683                       0.09269                      90.43146
                      -6.19647                       0.43882                      90.51847
                      -6.01085                       0.75197                      90.58868
                      -5.75165                       1.01248                      90.63768
                      -5.43516                       1.20397                      90.66240
                      -5.08125                       1.31441                      90.66126
                      -4.71217                       1.33686                      90.63436
                      -4.35110                       1.26991                      90.58338
                      -4.02074                       1.11777                      90.51152
                      -3.74185                       0.89000                      90.42330
                      -3.53193                       0.60090                      90.32425
                      -3.40420                       0.26865                      90.22062
                      -3.36173                      -0.05259                      89.99748
                      -3.41734                      -0.41090                      89.90307
                      -3.56301                      -0.74670                      89.82299
                      -3.78957                      -1.03889                      89.76227
                      -4.08280                      -1.26912                      89.72473
                      -4.42426                      -1.42290                      89.71272
                      -4.79251                      -1.49059                      89.72700
                      -5.16441                      -1.46793                      89.76667
                      -5.51658                      -1.35634                      89.82924
                      -5.82691                      -1.16283                      89.91077
                      -6.07588                      -0.89956                      90.00616
                      -6.24786                      -0.58308                      90.10939
                      -6.33204                      -0.23327                      90.21399
                      -6.32313                       0.12789                      90.31338
                      -6.22170                       0.47770                      90.40132
                      -6.03410                       0.79419                      90.47228
                      -5.77214                       1.05748                      90.52180
                      -5.45228                       1.25101                      90.54678
                      -5.09460                       1.36263                      90.54563
                      -4.72158                       1.38532                      90.51844
                      -4.35667                       1.31765                      90.46692
                      -4.02279                       1.16389                      90.39429
                      -3.74092                       0.93369                      90.30513
                      -3.52877                       0.64152                      90.20503
                      -3.39967                       0.30572                      90.10029
                      -3.36731                      -0.01930                      89.87701
                      -3.42311                      -0.37886                      89.78228
                      -3.56928                      -0.71584                      89.70192
                      -3.79664                      -1.00905                      89.64098
                      -4.09089                      -1.24007                      89.60331
                      -4.43355                      -1.39440                      89.59125
                      -4.80308                      -1.46232                      89.60558
                      -5.17628                      -1.43958                      89.64539
                      -5.52968                      -1.32760                      89.70818
                      -5.84109                      -1.13341                      89.79000
                      -6.09093                      -0.86923                      89.88572
                      -6.26351                      -0.55164                      89.98931
                      -6.34799                      -0.20061                      90.09427
                      -6.33905                       0.16181                      90.19401
                      -6.23726                       0.51284                      90.28226
                      -6.04901                       0.83044                      90.35346
                      -5.78613                       1.09464                      90.40316
                      -5.46515                       1.28885                      90.42822
                      -5.10622                       1.40086                      90.42708
                      -4.73190                       1.42363                      90.39979
                      -4.36572                       1.35573                      90.34809
                      -4.03067                       1.20143                      90.27521
                      -3.74782                       0.97042                      90.18573
                      -3.53493                       0.67723                      90.08529
                      -3.40538                       0.34026                      89.98018
                      -3.38328                       0.01399                      89.75748
                      -3.43889                      -0.34432                      89.66307
                      -3.58455                      -0.68012                      89.58299
                      -3.81111                      -0.97231                      89.52227
                      -4.10434                      -1.20254                      89.48472
                      -4.44581                      -1.35632                      89.47271
                      -4.81406                      -1.42401                      89.48699
                      -5.18595                      -1.40135                      89.52666
                      -5.53813                      -1.28975                      89.58923
                      -5.84845                      -1.09625                      89.67077
                      -6.09742                      -0.83298                      89.76615
                      -6.26940                      -0.51650                      89.86938
                      -6.35359                      -0.16669                      89.97398
                      -6.34468                       0.19447                      90.07337
                      -6.24324                       0.54428                      90.16131
                      -6.05565                       0.86078                      90.23227
                      -5.79369                       1.12406                      90.28179
                      -5.47382                       1.31759                      90.30677
                      -5.11614                       1.42921                      90.30563
                      -4.74313                       1.45190                      90.27844
                      -4.37821                       1.38424                      90.22691
                      -4.04433                       1.23047                      90.15429
                      -3.76246                       1.00027                      90.06512
                      -3.55031                       0.70810                      89.96503
                      -3.42121                       0.37230                      89.86028
                      -3.40975                       0.04728                      89.63888
                      -3.46477                      -0.30725                      89.54547
                      -3.60890                      -0.63951                      89.46623
                      -3.83307                      -0.92862                      89.40615
                      -4.12321                      -1.15642                      89.36900
                      -4.46107                      -1.30858                      89.35712
                      -4.82544                      -1.37556                      89.37125
                      -5.19342                      -1.35313                      89.41050
                      -5.54188                      -1.24272                      89.47241
                      -5.84893                      -1.05125                      89.55309
                      -6.09527                      -0.79076                      89.64746
                      -6.26544                      -0.47762                      89.74961
                      -6.34874                      -0.13150                      89.85310
                      -6.33992                       0.22585                      89.95145
                      -6.23955                       0.57198                      90.03846
                      -6.05394                       0.88514                      90.10867
                      -5.79474                       1.14564                      90.15767
                      -5.47825                       1.33713                      90.18238
                      -5.12434                       1.44757                      90.18125
                      -4.75526                       1.47002                      90.15435
                      -4.39419                       1.40308                      90.10337
                      -4.06383                       1.25094                      90.03151
                      -3.78493                       1.02316                      89.94328
                      -3.57502                       0.73407                      89.84424
                      -3.44728                       0.40181                      89.74061
                      -3.44706                       0.08057                      89.52126
                      -3.50110                      -0.26757                      89.42953
                      -3.64263                      -0.59385                      89.35173
                      -3.86276                      -0.87775                      89.29273
                      -4.14767                      -1.10144                      89.25625
                      -4.47945                      -1.25086                      89.24458
                      -4.83725                      -1.31663                      89.25845
                      -5.19859                      -1.29461                      89.29700
                      -5.54077                      -1.18618                      89.35779
                      -5.84229                      -0.99817                      89.43701
                      -6.08420                      -0.74237                      89.52969
                      -6.25130                      -0.43487                      89.62999
                      -6.33309                      -0.09499                      89.73162
                      -6.32444                       0.25592                      89.82819
                      -6.22588                       0.59582                      89.91364
                      -6.04361                       0.90333                      89.98258
                      -5.78908                       1.15914                      90.03070
                      -5.47829                       1.34718                      90.05497
                      -5.13076                       1.45563                      90.05386
                      -4.76833                       1.47768                      90.02744
                      -4.41377                       1.41193                      89.97738
                      -4.08936                       1.26254                      89.90681
                      -3.81549                       1.03887                      89.82018
                      -3.60936                       0.75498                      89.72292
                      -3.48392                       0.42872                      89.62115
                      -3.49584                       0.11386                      89.40467
                      -3.54845                      -0.22514                      89.31535
                      -3.68626                      -0.54284                      89.23959
                      -3.90062                      -0.81928                      89.18214
                      -4.17804                      -1.03710                      89.14662
                      -4.50110                      -1.18259                      89.13525
                      -4.84950                      -1.24663                      89.14876
                      -5.20135                      -1.22519                      89.18629
                      -5.53454                      -1.11961                      89.24549
                      -5.82814                      -0.93654                      89.32263
                      -6.06369                      -0.68746                      89.41288
                      -6.22640                      -0.38804                      89.51055
                      -6.30605                      -0.05709                      89.60951
                      -6.29762                       0.28461                      89.70354
                      -6.20165                       0.61557                      89.78674
                      -6.02417                       0.91500                      89.85387
                      -5.77633                       1.16409                      89.90073
                      -5.47370                       1.34719                      89.92436
                      -5.13530                       1.45279                      89.92327
                      -4.78239                       1.47426                      89.89755
                      -4.43715                       1.41025                      89.84880
                      -4.12126                       1.26477                      89.78009
                      -3.85459                       1.04698                      89.69573
                      -3.65387                       0.77055                      89.60103
                      -3.53173                       0.45286                      89.50194
                      -3.55703                       0.14715                      89.28919
                      -3.60776                      -0.17971                      89.20307
                      -3.74064                      -0.48604                      89.13002
                      -3.94732                      -0.75259                      89.07463
                      -4.21481                      -0.96261                      89.04038
                      -4.52631                      -1.10290                      89.02942
                      -4.86224                      -1.16464                      89.04245
                      -5.20149                      -1.14397                      89.07863
                      -5.52276                      -1.04217                      89.13571
                      -5.80584                      -0.86565                      89.21009
                      -6.03297                      -0.62549                      89.29710
                      -6.18985                      -0.33679                      89.39128
                      -6.26665                      -0.01768                      89.48670
                      -6.25852                       0.31178                      89.57736
                      -6.16599                       0.63090                      89.65758
                      -5.99486                       0.91961                      89.72232
                      -5.75589                       1.15979                      89.76749
                      -5.46409                       1.33633                      89.79028
                      -5.13781                       1.43815                      89.78923
                      -4.79753                       1.45885                      89.76443
                      -4.46465                       1.39713                      89.71743
                      -4.16007                       1.25686                      89.65117
                      -3.90294                       1.04687                      89.56984
                      -3.70941                       0.78033                      89.47853
                      -3.59164                       0.47401                      89.38298
                      -3.63210                       0.18044                      89.17496
                      -3.68043                      -0.13095                      89.09292
                      -3.80701                      -0.42278                      89.02332
                      -4.00391                      -0.67671                      88.97055
                      -4.25874                      -0.87678                      88.93792
                      -4.55549                      -1.01043                      88.92749
                      -4.87552                      -1.06926                      88.93989
                      -5.19871                      -1.04956                      88.97437
                      -5.50477                      -0.95258                      89.02875
                      -5.77445                      -0.78441                      89.09961
                      -5.99082                      -0.55562                      89.18250
                      -6.14028                      -0.28059                      89.27221
                      -6.21344                       0.02341                      89.36311
                      -6.20570                       0.33728                      89.44949
                      -6.11754                       0.64129                      89.52591
                      -5.95452                       0.91633                      89.58758
                      -5.72686                       1.14514                      89.63062
                      -5.44888                       1.31333                      89.65232
                      -5.13804                       1.41033                      89.65133
                      -4.81387                       1.43005                      89.62770
                      -4.49674                       1.37124                      89.58292
                      -4.20659                       1.23762                      89.51981
                      -3.96163                       1.03756                      89.44232
                      -3.77726                       0.78365                      89.35533
                      -3.66506                       0.49183                      89.26430
                      -3.72323                       0.21373                      89.06217
                      -3.76856                      -0.07832                      88.98522
                      -3.88729                      -0.35203                      88.91995
                      -4.07195                      -0.59018                      88.87046
                      -4.31095                      -0.77783                      88.83986
                      -4.58927                      -0.90317                      88.83007
                      -4.88942                      -0.95834                      88.84171
                      -5.19254                      -0.93987                      88.87404
                      -5.47958                      -0.84892                      88.92504
                      -5.73252                      -0.69120                      88.99150
                      -5.93545                      -0.47662                      89.06924
                      -6.07563                      -0.21866                      89.15338
                      -6.14424                       0.06645                      89.23864
                      -6.13698                       0.36082                      89.31965
                      -6.05430                       0.64595                      89.39132
                      -5.90140                       0.90391                      89.44916
                      -5.68788                       1.11850                      89.48953
                      -5.42717                       1.27624                      89.50988
                      -5.13564                       1.36722                      89.50895
                      -4.83160                       1.38572                      89.48679
                      -4.53418                       1.33057                      89.44479
                      -4.26204                       1.20524                      89.38560
                      -4.03230                       1.01761                      89.31292
                      -3.85938                       0.77947                      89.23134
                      -3.75415                       0.50577                      89.14597
                      -3.83392                       0.24701                      88.95114
                      -3.87551                      -0.02099                      88.88052
                      -3.98446                      -0.27216                      88.82063
                      -4.15392                      -0.49070                      88.77521
                      -4.37325                      -0.66290                      88.74713
                      -4.62865                      -0.77793                      88.73814
                      -4.90408                      -0.82855                      88.74882
                      -5.18225                      -0.81160                      88.77849
                      -5.44566                      -0.72814                      88.82529
                      -5.67777                      -0.58340                      88.88628
                      -5.86399                      -0.38649                      88.95762
                      -5.99262                      -0.14978                      89.03484
                      -6.05559                       0.11187                      89.11307
                      -6.04892                       0.38200                      89.18741
                      -5.97305                       0.64365                      89.25319
                      -5.83274                       0.88037                      89.30626
                      -5.63681                       1.07729                      89.34330
                      -5.39756                       1.22205                      89.36198
                      -5.13003                       1.30553                      89.36113
                      -4.85103                       1.32250                      89.34079
                      -4.57809                       1.27190                      89.30225
                      -4.32836                       1.15689                      89.24793
                      -4.11753                       0.98471                      89.18124
                      -3.95886                       0.76617                      89.10637
                      -3.86229                       0.51501                      89.02803
                      -3.97007                       0.28030                      88.84239
                      -4.00698                       0.04247                      88.77972
                      -4.10366                      -0.18042                      88.72657
                      -4.25404                      -0.37436                      88.68627
                      -4.44867                      -0.52717                      88.66135
                      -4.67532                      -0.62924                      88.65337
                      -4.91974                      -0.67417                      88.66285
                      -5.16659                      -0.65913                      88.68918
                      -5.40034                      -0.58506                      88.73071
                      -5.60632                      -0.45662                      88.78483
                      -5.77157                      -0.28188                      88.84814
                      -5.88572                      -0.07182                      88.91666
                      -5.94160                       0.16037                      88.98609
                      -5.93569                       0.40009                      89.05206
                      -5.86836                       0.63228                      89.11043
                      -5.74384                       0.84235                      89.15753
                      -5.56997                       1.01710                      89.19040
                      -5.35766                       1.14556                      89.20698
                      -5.12025                       1.21964                      89.20622
                      -4.87266                       1.23470                      89.18817
                      -4.63045                       1.18979                      89.15397
                      -4.40884                       1.08773                      89.10577
                      -4.22175                       0.93494                      89.04658
                      -4.08093                       0.74101                      88.98015
                      -3.99525                       0.51813                      88.91062
                      -4.14319                       0.31358                      88.73696
                      -4.17403                       0.11483                      88.68459
                      -4.25483                      -0.07144                      88.64017
                      -4.38051                      -0.23352                      88.60648
                      -4.54316                      -0.36123                      88.58566
                      -4.73257                      -0.44653                      88.57900
                      -4.93684                      -0.48408                      88.58692
                      -5.14313                      -0.47151                      88.60892
                      -5.33848                      -0.40961                      88.64363
                      -5.51062                      -0.30227                      88.68886
                      -5.64872                      -0.15623                      88.74177
                      -5.74412                       0.01932                      88.79903
                      -5.79082                       0.21336                      88.85705
                      -5.78588                       0.41369                      88.91218
                      -5.72961                       0.60773                      88.96096
                      -5.62555                       0.78329                      89.00032
                      -5.48024                       0.92934                      89.02779
                      -5.30281                       1.03669                      89.04165
                      -5.10441                       1.09860                      89.04101
                      -4.89749                       1.11119                      89.02593
                      -4.69508                       1.07366                      88.99735
                      -4.50987                       0.98837                      88.95706
                      -4.35352                       0.86067                      88.90761
                      -4.23584                       0.69860                      88.85208
                      -4.16423                       0.51234                      88.79398
                      -4.38272                       0.34687                      88.63748
                      -4.40502                       0.20317                      88.59962
                      -4.46344                       0.06849                      88.56751
                      -4.55430                      -0.04869                      88.54315
                      -4.67190                      -0.14102                      88.52810
                      -4.80884                      -0.20270                      88.52328
                      -4.95653                      -0.22984                      88.52901
                      -5.10567                      -0.22075                      88.54492
                      -5.24691                      -0.17600                      88.57001
                      -5.37137                      -0.09839                      88.60271
                      -5.47122                       0.00719                      88.64096
                      -5.54019                       0.13411                      88.68236
                      -5.57395                       0.27440                      88.72431
                      -5.57038                       0.41924                      88.76417
                      -5.52970                       0.55954                      88.79944
                      -5.45446                       0.68647                      88.82790
                      -5.34941                       0.79205                      88.84776
                      -5.22112                       0.86967                      88.85778
                      -5.07768                       0.91443                      88.85732
                      -4.92808                       0.92353                      88.84641
                      -4.78173                       0.89640                      88.82575
                      -4.64783                       0.83473                      88.79662
                      -4.53479                       0.74241                      88.76086
                      -4.44970                       0.62523                      88.72072
                      -4.39793                       0.49057                      88.67871
                      -4.99057                       0.38013                      88.57107
                      -4.99057                       0.38013                      88.57107
                      -4.99057                       0.38013                      88.57107
                      -4.99057                       0.38013                      88.57107
                      -4.99057                       0.38013                      88.57107
                      -4.99057                       0.38013                      88.57107
                      -4.99057                       0.38013                      88.57107
                      -4.99057                       0.38013                      88.57107
                      -4.99057                       0.38013                      88.57107
                      -4.99057                       0.38013                      88.57107
                      -4.99057                       0.38013                      88.57107
                      -4.99057                       0.38013                      88.57107
                      -4.99057                       0.38013                      88.57107
                      -4.99057                       0.38013                      88.57107
                      -4.99057                       0.38013                      88.57107
                      -4.99057                       0.38013                      88.57107
                      -4.99057                       0.38013                      88.57107
                      -4.99057                       0.38013                      88.57107
                      -4.99057                       0.38013                      88.57107
                      -4.99057                       0.38013                      88.57107
                      -4.99057                       0.38013                      88.57107
                      -4.99057                       0.38013                      88.57107
                      -4.99057                       0.38013                      88.57107
                      -4.99057                       0.38013                      88.57107
                      -4.99057                       0.38013                      88.57107
        </DataArray>
      </Points>
      <Polys>
        <DataArray type="Int32" Name="connectivity" format="ascii">
      0      1     26     25
      1      2     27     26
      2      3     28     27
      3      4     29     28
      4      5     30     29
      5      6     31     30
      6      7     32     31
      7      8     33     32
      8      9     34     33
      9     10     35     34
     10     11     36     35
     11     12     37     36
     12     13     38     37
     13     14     39     38
     14     15     40     39
     15     16     41     40
     16     17     42     41
     17     18     43     42
     18     19     44     43
     19     20     45     44
     20     21     46     45
     21     22     47     46
     22     23     48     47
     23     24     49     48
     24      0     25     49
     25     26     51     50
     26     27     52     51
     27     28     53     52
     28     29     54     53
     29     30     55     54
     30     31     56     55
     31     32     57     56
     32     33     58     57
     33     34     59     58
     34     35     60     59
     35     36     61     60
     36     37     62     61
     37     38     63     62
     38     39     64     63
     39     40     65     64
     40     41     66     65
     41     42     67     66
     42     43     68     67
     43     44     69     68
     44     45     70     69
     45     46     71     70
     46     47     72     71
     47     48     73     72
     48     49     74     73
     49     25     50     74
     50     51     76     75
     51     52     77     76
     52     53     78     77
     53     54     79     78
     54     55     80     79
     55     56     81     80
     56     57     82     81
     57     58     83     82
     58     59     84     83
     59     60     85     84
     60     61     86     85
     61     62     87     86
     62     63     88     87
     63     64     89     88
     64     65     90     89
     65     66     91     90
     66     67     92     91
     67     68     93     92
     68     69     94     93
     69     70     95     94
     70     71     96     95
     71     72     97     96
     72     73     98     97
     73     74     99     98
     74     50     75     99
     75     76    101    100
     76     77    102    101
     77     78    103    102
     78     79    104    103
     79     80    105    104
     80     81    106    105
     81     82    107    106
     82     83    108    107
     83     84    109    108
     84     85    110    109
     85     86    111    110
     86     87    112    111
     87     88    113    112
     88     89    114    113
     89     90    115    114
     90     91    116    115
     91     92    117    116
     92     93    118    117
     93     94    119    118
     94     95    120    119
     95     96    121    120
     96     97    122    121
     97     98    123    122
     98     99    124    123
     99     75    100    124
    100    101    126    125
    101    102    127    126
    102    103    128    127
    103    104    129    128
    104    105    130    129
    105    106    131    130
    106    107    132    131
    107    108    133    132
    108    109    134    133
    109    110    135    134
    110    111    136    135
    111    112    137    136
    112    113    138    137
    113    114    139    138
    114    115    140    139
    115    116    141    140
    116    117    142    141
    117    118    143    142
    118    119    144    143
    119    120    145    144
    120    121    146    145
    121    122    147    146
    122    123    148    147
    123    124    149    148
    124    100    125    149
    125    126    151    150
    126    127    152    151
    127    128    153    152
    128    129    154    153
    129    130    155    154
    130    131    156    155
    131    132    157    156
    132    133    158    157
    133    134    159    158
    134    135    160    159
    135    136    161    160
    136    137    162    161
    137    138    163    162
    138    139    164    163
    139    140    165    164
    140    141    166    165
    141    142    167    166
    142    143    168    167
    143    144    169    168
    144    145    170    169
    145    146    171    170
    146    147    172    171
    147    148    173    172
    148    149    174    173
    149    125    150    174
    150    151    176    175
    151    152    177    176
    152    153    178    177
    153    154    179    178
    154    155    180    179
    155    156    181    180
    156    157    182    181
    157    158    183    182
    158    159    184    183
    159    160    185    184
    160    161    186    185
    161    162    187    186
    162    163    188    187
    163    164    189    188
    164    165    190    189
    165    166    191    190
    166    167    192    191
    167    168    193    192
    168    169    194    193
    169    170    195    194
    170    171    196    195
    171    172    197    196
    172    173    198    197
    173    174    199    198
    174    150    175    199
    175    176    201    200
    176    177    202    201
    177    178    203    202
    178    179    204    203
    179    180    205    204
    180    181    206    205
    181    182    207    206
    182    183    208    207
    183    184    209    208
    184    185    210    209
    185    186    211    210
    186    187    212    211
    187    188    213    212
    188    189    214    213
    189    190    215    214
    190    191    216    215
    191    192    217    216
    192    193    218    217
    193    194    219    218
    194    195    220    219
    195    196    221    220
    196    197    222    221
    197    198    223    222
    198    199    224    223
    199    175    200    224
    200    201    226    225
    201    202    227    226
    202    203    228    227
    203    204    229    228
    204    205    230    229
    205    206    231    230
    206    207    232    231
    207    208    233    232
    208    209    234    233
    209    210    235    234
    210    211    236    235
    211    212    237    236
    212    213    238    237
    213    214    239    238
    214    215    240    239
    215    216    241    240
    216    217    242    241
    217    218    243    242
    218    219    244    243
    219    220    245    244
    220    221    246    245
    221    222    247    246
    222    223    248    247
    223    224    249    248
    224    200    225    249
    225    226    251    250
    226    227    252    251
    227    228    253    252
    228    229    254    253
    229    230    255    254
    230    231    256    255
    231    232    257    256
    232    233    258    257
    233    234    259    258
    234    235    260    259
    235    236    261    260
    236    237    262    261
    237    238    263    262
    238    239    264    263
    239    240    265    264
    240    241    266    265
    241    242    267    266
    242    243    268    267
    243    244    269    268
    244    245    270    269
    245    246    271    270
    246    247    272    271
    247    248    273    272
    248    249    274    273
    249    225    250    274
    250    251    276    275
    251    252    277    276
    252    253    278    277
    253    254    279    278
    254    255    280    279
    255    256    281    280
    256    257    282    281
    257    258    283    282
    258    259    284    283
    259    260    285    284
    260    261    286    285
    261    262    287    286
    262    263    288    287
    263    264    289    288
    264    265    290    289
    265    266    291    290
    266    267    292    291
    267    268    293    292
    268    269    294    293
    269    270    295    294
    270    271    296    295
    271    272    297    296
    272    273    298    297
    273    274    299    298
    274    250    275    299
    275    276    301    300
    276    277    302    301
    277    278    303    302
    278    279    304    303
    279    280    305    304
    280    281    306    305
    281    282    307    306
    282    283    308    307
    283    284    309    308
    284    285    310    309
    285    286    311    310
    286    287    312    311
    287    288    313    312
    288    289    314    313
    289    290    315    314
    290    291    316    315
    291    292    317    316
    292    293    318    317
    293    294    319    318
    294    295    320    319
    295    296    321    320
    296    297    322    321
    297    298    323    322
    298    299    324    323
    299    275    300    324
    300    301    326    325
    301    302    327    326
    302    303    328    327
    303    304    329    328
    304    305    330    329
    305    306    331    330
    306    307    332    331
    307    308    333    332
    308    309    334    333
    309    310    335    334
    310    311    336    335
    311    312    337    336
    312    313    338    337
    313    314    339    338
    314    315    340    339
    315    316    341    340
    316    317    342    341
    317    318    343    342
    318    319    344    343
    319    320    345    344
    320    321    346    345
    321    322    347    346
    322    323    348    347
    323    324    349    348
    324    300    325    349
    325    326    351    350
    326    327    352    351
    327    328    353    352
    328    329    354    353
    329    330    355    354
    330    331    356    355
    331    332    357    356
    332    333    358    357
    333    334    359    358
    334    335    360    359
    335    336    361    360
    336    337    362    361
    337    338    363    362
    338    339    364    363
    339    340    365    364
    340    341    366    365
    341    342    367    366
    342    343    368    367
    343    344    369    368
    344    345    370    369
    345    346    371    370
    346    347    372    371
    347    348    373    372
    348    349    374    373
    349    325    350    374
    350    351    376    375
    351    352    377    376
    352    353    378    377
    353    354    379    378
    354    355    380    379
    355    356    381    380
    356    357    382    381
    357    358    383    382
    358    359    384    383
    359    360    385    384
    360    361    386    385
    361    362    387    386
    362    363    388    387
    363    364    389    388
    364    365    390    389
    365    366    391    390
    366    367    392    391
    367    368    393    392
    368    369    394    393
    369    370    395    394
    370    371    396    395
    371    372    397    396
    372    373    398    397
    373    374    399    398
    374    350    375    399
    375    376    401    400
    376    377    402    401
    377    378    403    402
    378    379    404    403
    379    380    405    404
    380    381    406    405
    381    382    407    406
    382    383    408    407
    383    384    409    408
    384    385    410    409
    385    386    411    410
    386    387    412    411
    387    388    413    412
    388    389    414    413
    389    390    415    414
    390    391    416    415
    391    392    417    416
    392    393    418    417
    393    394    419    418
    394    395    420    419
    395    396    421    420
    396    397    422    421
    397    398    423    422
    398    399    424    423
    399    375    400    424
    400    401    426    425
    401    402    427    426
    402    403    428    427
    403    404    429    428
    404    405    430    429
    405    406    431    430
    406    407    432    431
    407    408    433    432
    408    409    434    433
    409    410    435    434
    410    411    436    435
    411    412    437    436
    412    413    438    437
    413    414    439    438
    414    415    440    439
    415    416    441    440
    416    417    442    441
    417    418    443    442
    418    419    444    443
    419    420    445    444
    420    421    446    445
    421    422    447    446
    422    423    448    447
    423    424    449    448
    424    400    425    449
    425    426    451    450
    426    427    452    451
    427    428    453    452
    428    429    454    453
    429    430    455    454
    430    431    456    455
    431    432    457    456
    432    433    458    457
    433    434    459    458
    434    435    460    459
    435    436    461    460
    436    437    462    461
    437    438    463    462
    438    439    464    463
    439    440    465    464
    440    441    466    465
    441    442    467    466
    442    443    468    467
    443    444    469    468
    444    445    470    469
    445    446    471    470
    446    447    472    471
    447    448    473    472
    448    449    474    473
    449    425    450    474
    450    451    476    475
    451    452    477    476
    452    453    478    477
    453    454    479    478
    454    455    480    479
    455    456    481    480
    456    457    482    481
    457    458    483    482
    458    459    484    483
    459    460    485    484
    460    461    486    485
    461    462    487    486
    462    463    488    487
    463    464    489    488
    464    465    490    489
    465    466    491    490
    466    467    492    491
    467    468    493    492
    468    469    494    493
    469    470    495    494
    470    471    496    495
    471    472    497    496
    472    473    498    497
    473    474    499    498
    474    450    475    499
    475    476    501    500
    476    477    502    501
    477    478    503    502
    478    479    504    503
    479    480    505    504
    480    481    506    505
    481    482    507    506
    482    483    508    507
    483    484    509    508
    484    485    510    509
    485    486    511    510
    486    487    512    511
    487    488    513    512
    488    489    514    513
    489    490    515    514
    490    491    516    515
    491    492    517    516
    492    493    518    517
    493    494    519    518
    494    495    520    519
    495    496    521    520
    496    497    522    521
    497    498    523    522
    498    499    524    523
    499    475    500    524
    500    501    526    525
    501    502    527    526
    502    503    528    527
    503    504    529    528
    504    505    530    529
    505    506    531    530
    506    507    532    531
    507    508    533    532
    508    509    534    533
    509    510    535    534
    510    511    536    535
    511    512    537    536
    512    513    538    537
    513    514    539    538
    514    515    540    539
    515    516    541    540
    516    517    542    541
    517    518    543    542
    518    519    544    543
    519    520    545    544
    520    521    546    545
    521    522    547    546
    522    523    548    547
    523    524    549    548
    524    500    525    549
    525    526    551    550
    526    527    552    551
    527    528    553    552
    528    529    554    553
    529    530    555    554
    530    531    556    555
    531    532    557    556
    532    533    558    557
    533    534    559    558
    534    535    560    559
    535    536    561    560
    536    537    562    561
    537    538    563    562
    538    539    564    563
    539    540    565    564
    540    541    566    565
    541    542    567    566
    542    543    568    567
    543    544    569    568
    544    545    570    569
    545    546    571    570
    546    547    572    571
    547    548    573    572
    548    549    574    573
    549    525    550    574
    550    551    576    575
    551    552    577    576
    552    553    578    577
    553    554    579    578
    554    555    580    579
    555    556    581    580
    556    557    582    581
    557    558    583    582
    558    559    584    583
    559    560    585    584
    560    561    586    585
    561    562    587    586
    562    563    588    587
    563    564    589    588
    564    565    590    589
    565    566    591    590
    566    567    592    591
    567    568    593    592
    568    569    594    593
    569    570    595    594
    570    571    596    595
    571    572    597    596
    572    573    598    597
    573    574    599    598
    574    550    575    599
    575    576    601    600
    576    577    602    601
    577    578    603    602
    578    579    604    603
    579    580    605    604
    580    581    606    605
    581    582    607    606
    582    583    608    607
    583    584    609    608
    584    585    610    609
    585    586    611    610
    586    587    612    611
    587    588    613    612
    588    589    614    613
    589    590    615    614
    590    591    616    615
    591    592    617    616
    592    593    618    617
    593    594    619    618
    594    595    620    619
    595    596    621    620
    596    597    622    621
    597    598    623    622
    598    599    624    623
    599    575    600    624
        </DataArray>
        <DataArray type="Int32" Name="offsets" format="ascii">
      4
      8
     12
     16
     20
     24
     28
     32
     36
     40
     44
     48
     52
     56
     60
     64
     68
     72
     76
     80
     84
     88
     92
     96
    100
    104
    108
    112
    116
    120
    124
    128
    132
    136
    140
    144
    148
    152
    156
    160
    164
    168
    172
    176
    180
    184
    188
    192
    196
    200
    204
    208
    212
    216
    220
    224
    228
    232
    236
    240
    244
    248
    252
    256
    260
    264
    268
    272
    276
    280
    284
    288
    292
    296
    300
    304
    308
    312
    316
    320
    324
    328
    332
    336
    340
    344
    348
    352
    356
    360
    364
    368
    372
    376
    380
    384
    388
    392
    396
    400
    404
    408
    412
    416
    420
    424
    428
    432
    436
    440
    444
    448
    452
    456
    460
    464
    468
    472
    476
    480
    484
    488
    492
    496
    500
    504
    508
    512
    516
    520
    524
    528
    532
    536
    540
    544
    548
    552
    556
    560
    564
    568
    572
    576
    580
    584
    588
    592
    596
    600
    604
    608
    612
    616
    620
    624
    628
    632
    636
    640
    644
    648
    652
    656
    660
    664
    668
    672
    676
    680
    684
    688
    692
    696
    700
    704
    708
    712
    716
    720
    724
    728
    732
    736
    740
    744
    748
    752
    756
    760
    764
    768
    772
    776
    780
    784
    788
    792
    796
    800
    804
    808
    812
    816
    820
    824
    828
    832
    836
    840
    844
    848
    852
    856
    860
    864
    868
    872
    876
    880
    884
    888
    892
    896
    900
    904
    908
    912
    916
    920
    924
    928
    932
    936
    940
    944
    948
    952
    956
    960
    964
    968
    972
    976
    980
    984
    988
    992
    996
   1000
   1004
   1008
   1012
   1016
   1020
   1024
   1028
   1032
   1036
   1040
   1044
   1048
   1052
   1056
   1060
   1064
   1068
   1072
   1076
   1080
   1084
   1088
   1092
   1096
   1100
   1104
   1108
   1112
   1116
   1120
   1124
   1128
   1132
   1136
   1140
   1144
   1148
   1152
   1156
   1160
   1164
   1168
   1172
   1176
   1180
   1184
   1188
   1192
   1196
   1200
   1204
   1208
   1212
   1216
   1220
   1224
   1228
   1232
   1236
   1240
   1244
   1248
   1252
   1256
   1260
   1264
   1268
   1272
   1276
   1280
   1284
   1288
   1292
   1296
   1300
   1304
   1308
   1312
   1316
   1320
   1324
   1328
   1332
   1336
   1340
   1344
   1348
   1352
   1356
   1360
   1364
   1368
   1372
   1376
   1380
   1384
   1388
   1392
   1396
   1400
   1404
   1408
   1412
   1416
   1420
   1424
   1428
   1432
   1436
   1440
   1444
   1448
   1452
   1456
   1460
   1464
   1468
   1472
   1476
   1480
   1484
   1488
   1492
   1496
   1500
   1504
   1508
   1512
   1516
   1520
   1524
   1528
   1532
   1536
   1540
   1544
   1548
   1552
   1556
   1560
   1564
   1568
   1572
   1576
   1580
   1584
   1588
   1592
   1596
   1600
   1604
   1608
   1612
   1616
   1620
   1624
   1628
   1632
   1636
   1640
   1644
   1648
   1652
   1656
   1660
   1664
   1668
   1672
   1676
   1680
   1684
   1688
   1692
   1696
   1700
   1704
   1708
   1712
   1716
   1720
   1724
   1728
   1732
   1736
   1740
   1744
   1748
   1752
   1756
   1760
   1764
   1768
   1772
   1776
   1780
   1784
   1788
   1792
   1796
   1800
   1804
   1808
   1812
   1816
   1820
   1824
   1828
   1832
   1836
   1840
   1844
   1848
   1852
   1856
   1860
   1864
   1868
   1872
   1876
   1880
   1884
   1888
   1892
   1896
   1900
   1904
   1908
   1912
   1916
   1920
   1924
   1928
   1932
   1936
   1940
   1944
   1948
   1952
   1956
   1960
   1964
   1968
   1972
   1976
   1980
   1984
   1988
   1992
   1996
   2000
   2004
   2008
   2012
   2016
   2020
   2024
   2028
   2032
   2036
   2040
   2044
   2048
   2052
   2056
   2060
   2064
   2068
   2072
   2076
   2080
   2084
   2088
   2092
   2096
   2100
   2104
   2108
   2112
   2116
   2120
   2124
   2128
   2132
   2136
   2140
   2144
   2148
   2152
   2156
   2160
   2164
   2168
   2172
   2176
   2180
   2184
   2188
   2192
   2196
   2200
   2204
   2208
   2212
   2216
   2220
   2224
   2228
   2232
   2236
   2240
   2244
   2248
   2252
   2256
   2260
   2264
   2268
   2272
   2276
   2280
   2284
   2288
   2292
   2296
   2300
   2304
   2308
   2312
   2316
   2320
   2324
   2328
   2332
   2336
   2340
   2344
   2348
   2352
   2356
   2360
   2364
   2368
   2372
   2376
   2380
   2384
   2388
   2392
   2396
   2400
        </DataArray>
      </Polys>
    </Piece>
  </PolyData>
</VTKFile>
