<?xml version="1.0"?>
<VTKFile type="PolyData" version="0.1" byte_order="LittleEndian">
  <PolyData>
    <Piece NumberOfPoints="     19" NumberOfVerts="  0" NumberOfLines="     18"
           NumberOfStrips="  0" NumberOfPolys="      0">
      <Points>
        <DataArray type="Float32" NumberOfComponents="3" format="ascii">
                      -4.89973                       1.44696                      90.36505
                      -4.93043                       2.77431                      90.69033
                      -5.00640                       5.40677                      91.43326
                      -5.08812                       8.02954                      92.21860
                      -5.19101                      11.30333                      93.22332
                      -5.26842                      15.26919                      94.28072
                      -5.32840                      19.26772                      95.20415
                      -5.39180                      23.26839                      96.11968
                      -5.46500                      27.27147                      97.02629
                      -5.56001                      31.27603                      97.92692
                      -5.69169                      35.28034                      98.82601
                      -5.87518                      39.28341                      99.72245
                      -6.12856                      43.28318                     100.61593
                      -6.47126                      47.27675                     101.50512
                      -6.92128                      51.26045                     102.38766
                      -7.39544                      54.56902                     103.11499
                      -7.84435                      57.20826                     103.68204
                      -8.35707                      59.85003                     104.18746
                      -8.64687                      61.15624                     104.47635
        </DataArray>
      </Points>
      <PointData>
        <DataArray type="Float32" Name="TranslationalVelocity" NumberOfComponents="3" format="ascii">
                       0.37090                      -0.98391                       4.14868
                       0.71030                      -1.90370                       7.93388
                       1.38320                      -4.00339                      15.44216
                       2.05296                      -6.22318                      22.92463
                       2.88768                      -9.06464                      32.26725
                       3.89752                     -12.06450                      43.58917
                       4.91534                     -14.68760                      55.00909
                       5.93525                     -17.28822                      66.43980
                       6.95975                     -19.86162                      77.88176
                       7.99099                     -22.41280                      89.33194
                       9.03048                     -24.95044                     100.78504
                      10.07906                     -27.46720                     112.23782
                      11.13601                     -29.95728                     123.68407
                      12.19875                     -32.41174                     135.11523
                      13.26237                     -34.81916                     146.52070
                      14.14377                     -36.77632                     155.99523
                      14.84180                     -38.28169                     163.55431
                      15.53200                     -39.59429                     171.12185
                      15.86947                     -40.34557                     174.86421
        </DataArray>
        <DataArray type="Float32" Name="RotationalVelocity" NumberOfComponents="3" format="ascii">
                       2.85154                      -0.00134                      -0.25618
                       2.85176                      -0.00133                      -0.25614
                       2.85232                      -0.00135                      -0.25596
                       2.85302                      -0.00136                      -0.25567
                       2.85399                      -0.00130                      -0.25529
                       2.85522                      -0.00103                      -0.25494
                       2.85640                      -0.00043                      -0.25488
                       2.85749                       0.00058                      -0.25522
                       2.85843                       0.00204                      -0.25601
                       2.85923                       0.00393                      -0.25724
                       2.85988                       0.00617                      -0.25882
                       2.86040                       0.00857                      -0.26058
                       2.86082                       0.01088                      -0.26226
                       2.86116                       0.01273                      -0.26348
                       2.86144                       0.01360                      -0.26379
                       2.86163                       0.01320                      -0.26296
                       2.86176                       0.01177                      -0.26127
                       2.86187                       0.00909                      -0.25841
                       2.86190                       0.00720                      -0.25647
        </DataArray>
        <DataArray type="Float32" Name="TranslationalAcceleration" NumberOfComponents="3" format="ascii">
                      -0.25107                     -11.94303                      -2.83245
                      -0.31941                     -14.44314                      -3.45893
                      -0.97327                     -41.15744                     -10.64033
                      -1.60556                     -65.63985                     -17.63850
                      -2.36455                     -94.18439                     -26.06556
                      -3.11812                    -126.93816                     -34.52693
                      -3.72078                    -159.12939                     -41.65799
                      -4.24275                    -191.27141                     -48.66162
                      -4.64607                    -223.76107                     -55.63521
                      -4.88294                    -256.71064                     -62.64118
                      -4.90010                    -290.02647                     -69.70426
                      -4.63905                    -323.49984                     -76.77040
                      -4.04655                    -356.87086                     -83.77226
                      -3.07930                    -389.90885                     -90.63109
                      -1.71013                    -422.49324                     -97.27329
                      -0.25042                    -449.33222                    -102.59574
                       1.11830                    -470.72335                    -106.63884
                       2.72495                    -492.30634                    -110.10846
                       3.52405                    -503.12085                    -112.12280
        </DataArray>
        <DataArray type="Float32" Name="OrientationX" NumberOfComponents="3" format="ascii">
                       0.98923                      -0.01233                       0.14583
                       0.98923                      -0.01242                       0.14583
                       0.98920                      -0.01279                       0.14600
                       0.98914                      -0.01343                       0.14637
                       0.98901                      -0.01450                       0.14716
                       0.99296                      -0.00856                       0.11814
                       0.99507                      -0.00447                       0.09906
                       0.99638                      -0.00023                       0.08496
                       0.99733                       0.00577                       0.07279
                       0.99786                       0.01411                       0.06388
                       0.99785                       0.02498                       0.06062
                       0.99728                       0.03914                       0.06246
                       0.99587                       0.05651                       0.07111
                       0.99312                       0.07659                       0.08862
                       0.98890                       0.10012                       0.10978
                       0.98414                       0.12198                       0.12877
                       0.97947                       0.14049                       0.14456
                       0.97375                       0.15871                       0.16316
                       0.97043                       0.16736                       0.17396
        </DataArray>
        <DataArray type="Float32" Name="OrientationY" NumberOfComponents="3" format="ascii">
                       0.14459                       0.23650                      -0.96081
                       0.14461                       0.23625                      -0.96087
                       0.14488                       0.23558                      -0.96099
                       0.14541                       0.23470                      -0.96113
                       0.14646                       0.23341                      -0.96128
                       0.11689                       0.23214                      -0.96563
                       0.09741                       0.23078                      -0.96812
                       0.08274                       0.22962                      -0.96976
                       0.06954                       0.22878                      -0.97099
                       0.05898                       0.22830                      -0.97180
                       0.05335                       0.22821                      -0.97215
                       0.05192                       0.22850                      -0.97216
                       0.05638                       0.22923                      -0.97174
                       0.06882                       0.23067                      -0.97060
                       0.08401                       0.23266                      -0.96892
                       0.09747                       0.23465                      -0.96718
                       0.10858                       0.23650                      -0.96555
                       0.12244                       0.23905                      -0.96326
                       0.13088                       0.24074                      -0.96173
        </DataArray>
        <DataArray type="Float32" Name="OrientationZ" NumberOfComponents="3" format="ascii">
                      -0.02264                       0.97155                       0.23573
                      -0.02252                       0.97161                       0.23551
                      -0.02210                       0.97177                       0.23489
                      -0.02145                       0.97197                       0.23411
                      -0.02041                       0.97227                       0.23297
                      -0.01916                       0.97264                       0.23151
                      -0.01853                       0.97299                       0.23008
                      -0.01928                       0.97328                       0.22881
                      -0.02226                       0.97346                       0.22776
                      -0.02829                       0.97349                       0.22698
                      -0.03812                       0.97329                       0.22639
                      -0.05232                       0.97276                       0.22585
                      -0.07122                       0.97173                       0.22509
                      -0.09478                       0.97001                       0.22381
                      -0.12255                       0.96739                       0.22166
                      -0.14819                       0.96440                       0.21904
                      -0.16984                       0.96142                       0.21639
                      -0.19188                       0.95795                       0.21334
                      -0.20283                       0.95605                       0.21172
        </DataArray>
        <DataArray type="Float32" Name="Force" NumberOfComponents="3" format="ascii">
                     156.35400                      16.95438                     -54.85996
                     170.90134                      32.82916                    -118.99776
                     241.22191                      90.30614                    -349.72515
                     230.52040                     133.62130                    -530.13305
                    3341.06238                    -135.18269                     843.89331
                    3403.79436                     -60.58241                     522.01854
                    2986.92619                      -7.44583                     259.92357
                    3943.72003                      16.23279                     246.11922
                    5123.52170                      55.62602                     239.26779
                    5286.46782                     115.20222                     141.17570
                    7399.21442                     250.36087                     135.42505
                    6813.47132                     349.95257                      40.92860
                    3269.56673                     261.16836                    -101.13036
                    1629.87332                     172.95080                     -62.59227
                   -3572.61549                    -373.76481                    -294.69896
                   -8597.25550                   -1201.42626                    -423.42799
                  -12564.72413                   -2064.53397                    -533.54926
                  -13013.14961                   -2454.84512                    -511.16302
                  -15829.33062                   -3175.32167                    -612.55789
        </DataArray>
        <DataArray type="Float32" Name="Moment" NumberOfComponents="3" format="ascii">
                       0.00000                       0.00000                       0.00000
                       0.00000                       0.00000                       0.00000
                       0.00000                       0.00000                       0.00000
                       0.00000                       0.00000                       0.00000
                      31.13899                   -1499.42592                    -363.47453
                      53.90254                   -2784.38459                    -674.60799
                      67.28695                   -3620.56096                    -876.94720
                     106.44746                   -5533.83030                   -1340.68970
                     182.01452                   -8204.98596                   -1990.00724
                     262.34309                   -9275.48169                   -2254.72389
                     394.04199                  -10287.84762                   -2510.07223
                     572.57674                  -10837.00725                   -2658.20636
                     580.16059                   -8031.27529                   -1983.98654
                     734.18773                   -7604.82473                   -1895.24237
                     892.03845                   -7114.08221                   -1791.37663
                    1018.11988                   -6686.45092                   -1699.83816
                    1028.76368                   -5872.11812                   -1504.91166
                     568.72022                   -2860.85874                    -739.24793
                     610.06012                   -2896.24888                    -751.47424
        </DataArray>
      </PointData>
      <Lines>
        <DataArray type="Int32" Name="connectivity" format="ascii">
      0      1
      1      2
      2      3
      3      4
      4      5
      5      6
      6      7
      7      8
      8      9
      9     10
     10     11
     11     12
     12     13
     13     14
     14     15
     15     16
     16     17
     17     18
        </DataArray>
        <DataArray type="Int32" Name="offsets" format="ascii">
      2
      4
      6
      8
     10
     12
     14
     16
     18
     20
     22
     24
     26
     28
     30
     32
     34
     36
        </DataArray>
      </Lines>
    </Piece>
  </PolyData>
</VTKFile>
