<?xml version="1.0"?>
<VTKFile type="PolyData" version="0.1" byte_order="LittleEndian">
  <PolyData>
    <Piece NumberOfPoints="      8" NumberOfVerts="  0" NumberOfLines="      0"
           NumberOfStrips="  0" NumberOfPolys="      6">
      <Points>
        <DataArray type="Float32" NumberOfComponents="3" format="ascii">
                      -3.29240                       2.38571                      87.61385
                       3.70755                       2.38572                      87.58711
                       3.70755                      -2.41429                      87.58550
                      -3.29240                      -2.41429                      87.61224
                      -3.27406                      -2.41590                      92.41221
                       3.72589                      -2.41590                      92.38547
                       3.72589                       2.38411                      92.38708
                      -3.27406                       2.38410                      92.41383
        </DataArray>
      </Points>
      <Polys>
        <DataArray type="Int32" Name="connectivity" format="ascii">
      0      1      2      3
      4      5      6      7
      7      6      1      0
      6      5      2      1
      5      4      3      2
      4      7      0      3
        </DataArray>
        <DataArray type="Int32" Name="offsets" format="ascii">
      4
      8
     12
     16
     20
     24
        </DataArray>
      </Polys>
    </Piece>
  </PolyData>
</VTKFile>
