<?xml version="1.0"?>
<VTKFile type="PolyData" version="0.1" byte_order="LittleEndian">
  <PolyData>
    <Piece NumberOfPoints="     19" NumberOfVerts="  0" NumberOfLines="     18"
           NumberOfStrips="  0" NumberOfPolys="      0">
      <Points>
        <DataArray type="Float32" NumberOfComponents="3" format="ascii">
                      -4.81682                       0.78654                      91.27913
                      -4.77263                       1.51419                      92.43547
                      -4.70222                       2.88976                      94.79986
                      -4.63865                       4.22846                      97.18855
                      -4.55970                       5.88116                     100.18841
                      -4.41101                       7.98927                     103.70741
                      -4.23712                      10.21066                     107.15368
                      -4.06374                      12.43722                     110.59712
                      -3.89722                      14.67044                     114.03729
                      -3.74986                      16.90861                     117.47587
                      -3.63703                      19.14861                     120.91515
                      -3.57433                      21.39176                     124.35393
                      -3.58048                      23.63824                     127.79092
                      -3.67573                      25.88838                     131.22358
                      -3.87899                      28.14253                     134.64811
                      -4.14881                      30.02475                     137.49138
                      -4.43526                      31.53970                     139.75224
                      -4.78488                      33.10337                     141.97276
                      -4.99545                      33.85154                     143.09970
        </DataArray>
      </Points>
      <PointData>
        <DataArray type="Float32" Name="TranslationalVelocity" NumberOfComponents="3" format="ascii">
                       0.20074                      -3.61942                       2.28661
                       0.38795                      -6.93024                       4.36279
                       0.74359                     -13.69784                       8.28942
                       1.09281                     -20.53773                      12.11318
                       1.53001                     -29.13497                      16.83733
                       2.09750                     -39.24587                      22.86860
                       2.70799                     -49.16727                      29.23068
                       3.33565                     -59.09208                      35.61455
                       3.98171                     -69.01642                      42.02412
                       4.64581                     -78.94063                      48.45417
                       5.32627                     -88.86578                      54.89536
                       6.02154                     -98.78282                      61.35114
                       6.72866                    -108.68167                      67.82184
                       7.44353                    -118.54843                      74.30844
                       8.16082                    -128.36622                      80.81220
                       8.75560                    -136.49293                      86.24759
                       9.22781                    -142.93722                      90.62569
                       9.70362                    -149.24982                      95.14737
                       9.92964                    -152.44537                      97.31285
        </DataArray>
        <DataArray type="Float32" Name="RotationalVelocity" NumberOfComponents="3" format="ascii">
                       2.85274                       0.00010                      -0.25666
                       2.85334                       0.00033                      -0.25681
                       2.85488                       0.00105                      -0.25727
                       2.85679                       0.00213                      -0.25792
                       2.85947                       0.00393                      -0.25890
                       2.86288                       0.00675                      -0.26019
                       2.86625                       0.01018                      -0.26144
                       2.86941                       0.01409                      -0.26253
                       2.87225                       0.01833                      -0.26333
                       2.87472                       0.02273                      -0.26378
                       2.87681                       0.02704                      -0.26382
                       2.87854                       0.03101                      -0.26345
                       2.87994                       0.03433                      -0.26268
                       2.88104                       0.03661                      -0.26161
                       2.88184                       0.03747                      -0.26034
                       2.88228                       0.03679                      -0.25925
                       2.88246                       0.03507                      -0.25844
                       2.88244                       0.03213                      -0.25778
                       2.88235                       0.03015                      -0.25752
        </DataArray>
        <DataArray type="Float32" Name="TranslationalAcceleration" NumberOfComponents="3" format="ascii">
                      -1.03350                      -6.52518                     -10.46584
                      -1.18903                      -7.90745                     -12.57126
                      -3.43630                     -21.99041                     -36.38482
                      -5.53016                     -34.61104                     -58.51242
                      -8.01603                     -49.14157                     -84.52471
                     -10.82845                     -66.66753                    -113.54952
                     -13.53941                     -84.73058                    -141.28643
                     -16.21983                    -102.85235                    -168.96310
                     -18.84244                    -121.25226                    -196.92559
                     -21.34966                    -139.97262                    -225.29251
                     -23.66624                    -158.93589                    -254.00930
                     -25.71044                    -178.03791                    -282.88366
                     -27.41031                    -197.14699                    -311.67887
                     -28.71688                    -216.15929                    -340.17273
                     -29.61850                    -235.04294                    -368.22794
                     -30.08099                    -250.73934                    -391.26434
                     -30.30529                    -263.41074                    -409.50798
                     -30.41400                    -276.64382                    -427.50746
                     -30.48168                    -283.08186                    -436.73238
        </DataArray>
        <DataArray type="Float32" Name="OrientationX" NumberOfComponents="3" format="ascii">
                       0.98256                      -0.17176                       0.07123
                       0.98255                      -0.17186                       0.07111
                       0.98249                      -0.17235                       0.07080
                       0.98237                      -0.17321                       0.07038
                       0.98214                      -0.17474                       0.06980
                       0.98717                      -0.15084                       0.05242
                       0.99000                      -0.13505                       0.04087
                       0.99192                      -0.12252                       0.03302
                       0.99354                      -0.11001                       0.02780
                       0.99483                      -0.09804                       0.02660
                       0.99562                      -0.08812                       0.03135
                       0.99595                      -0.07934                       0.04218
                       0.99551                      -0.07297                       0.06033
                       0.99370                      -0.07077                       0.08696
                       0.99053                      -0.06861                       0.11890
                       0.98673                      -0.06612                       0.14829
                       0.98283                      -0.06380                       0.17312
                       0.97774                      -0.06366                       0.19993
                       0.97464                      -0.06494                       0.21415
        </DataArray>
        <DataArray type="Float32" Name="OrientationY" NumberOfComponents="3" format="ascii">
                       0.18314                       0.82763                      -0.53055
                       0.18315                       0.82755                      -0.53068
                       0.18339                       0.82726                      -0.53104
                       0.18387                       0.82685                      -0.53151
                       0.18482                       0.82619                      -0.53221
                       0.15530                       0.83045                      -0.53501
                       0.13575                       0.83272                      -0.53680
                       0.12095                       0.83423                      -0.53799
                       0.10760                       0.83557                      -0.53875
                       0.09687                       0.83668                      -0.53905
                       0.09109                       0.83741                      -0.53894
                       0.08955                       0.83786                      -0.53849
                       0.09400                       0.83792                      -0.53763
                       0.10655                       0.83745                      -0.53602
                       0.12202                       0.83680                      -0.53373
                       0.13588                       0.83618                      -0.53135
                       0.14745                       0.83567                      -0.52908
                       0.16190                       0.83499                      -0.52591
                       0.17070                       0.83457                      -0.52379
        </DataArray>
        <DataArray type="Float32" Name="OrientationZ" NumberOfComponents="3" format="ascii">
                       0.03218                       0.53434                       0.84465
                       0.03236                       0.53444                       0.84458
                       0.03296                       0.53472                       0.84439
                       0.03387                       0.53508                       0.84412
                       0.03533                       0.53560                       0.84373
                       0.03717                       0.53629                       0.84322
                       0.03846                       0.53698                       0.84272
                       0.03837                       0.53764                       0.84230
                       0.03604                       0.53826                       0.84201
                       0.03059                       0.53884                       0.84185
                       0.02124                       0.53943                       0.84176
                       0.00738                       0.54009                       0.84158
                      -0.01132                       0.54089                       0.84102
                      -0.03489                       0.54191                       0.83971
                      -0.06287                       0.54319                       0.83725
                      -0.08886                       0.54445                       0.83407
                      -0.11092                       0.54552                       0.83073
                      -0.13346                       0.54657                       0.82671
                      -0.14471                       0.54706                       0.82449
        </DataArray>
        <DataArray type="Float32" Name="Force" NumberOfComponents="3" format="ascii">
                     161.27261                      46.58709                     -35.61548
                     180.35176                     103.89601                     -72.63785
                     263.16646                     308.81098                    -205.65061
                     259.42862                     467.99888                    -306.53543
                    3506.91818                    -959.76242                     460.38498
                    3633.03655                    -686.02499                     273.85965
                    3282.77123                    -433.93131                     124.64930
                    4333.00736                    -469.52909                      99.41466
                    5516.65612                    -508.61216                      85.07911
                    5705.17853                    -400.07962                      44.79749
                    7845.04499                    -429.71632                      71.67375
                    7249.37114                    -242.30957                      86.54881
                    3709.92266                      30.54684                      28.46495
                    1896.09561                      37.89631                      53.07418
                   -3493.23216                     170.13524                    -363.09998
                   -8754.82298                     -17.16088                    -900.26619
                  -12959.93618                    -318.75422                   -1487.96874
                  -13527.16879                    -598.60333                   -1750.96782
                  -16514.96009                    -867.59188                   -2275.37107
        </DataArray>
        <DataArray type="Float32" Name="Moment" NumberOfComponents="3" format="ascii">
                       0.00000                       0.00000                       0.00000
                       0.00000                       0.00000                       0.00000
                       0.00000                       0.00000                       0.00000
                       0.00000                       0.00000                       0.00000
                     -54.98128                    -830.14758                   -1311.79261
                    -109.30805                   -1567.41087                   -2476.31540
                    -147.61268                   -2044.38988                   -3229.42952
                    -224.28985                   -3110.04293                   -4912.81710
                    -311.59094                   -4593.84802                   -7258.50173
                    -299.46835                   -5189.02347                   -8203.63243
                    -231.74952                   -5748.14415                   -9096.57888
                     -87.89108                   -6059.89847                   -9604.01757
                      91.81554                   -4496.81031                   -7140.89514
                     275.08241                   -4261.69768                   -6784.46606
                     466.86530                   -3981.32722                   -6357.01765
                     623.79496                   -3744.09244                   -5994.85192
                     686.80194                   -3288.26119                   -5277.50482
                     403.84330                   -1599.33612                   -2573.14183
                     443.95451                   -1617.48631                   -2605.54118
        </DataArray>
      </PointData>
      <Lines>
        <DataArray type="Int32" Name="connectivity" format="ascii">
      0      1
      1      2
      2      3
      3      4
      4      5
      5      6
      6      7
      7      8
      8      9
      9     10
     10     11
     11     12
     12     13
     13     14
     14     15
     15     16
     16     17
     17     18
        </DataArray>
        <DataArray type="Int32" Name="offsets" format="ascii">
      2
      4
      6
      8
     10
     12
     14
     16
     18
     20
     22
     24
     26
     28
     30
     32
     34
     36
        </DataArray>
      </Lines>
    </Piece>
  </PolyData>
</VTKFile>
