<?xml version="1.0"?>
<VTKFile type="PolyData" version="0.1" byte_order="LittleEndian">
  <PolyData>
    <Piece NumberOfPoints="     19" NumberOfVerts="  0" NumberOfLines="     18"
           NumberOfStrips="  0" NumberOfPolys="      0">
      <Points>
        <DataArray type="Float32" NumberOfComponents="3" format="ascii">
                      -4.80575                      -0.26673                      91.48651
                      -4.74501                      -0.50735                      92.83075
                      -4.64713                      -1.08201                      95.50425
                      -4.55838                      -1.70113                      98.17080
                      -4.44869                      -2.50174                     101.49983
                      -4.25226                      -3.32245                     105.51659
                      -4.01990                      -4.01579                     109.55434
                      -3.78474                      -4.70691                     113.59276
                      -3.55228                      -5.39379                     117.63273
                      -3.33420                      -6.07774                     121.67472
                      -3.14533                      -6.76132                     125.71881
                      -3.00045                      -7.44149                     129.76558
                      -2.91763                      -8.11587                     133.81497
                      -2.91654                      -8.78119                     137.86620
                      -3.01568                      -9.43355                     141.91764
                      -3.19244                      -9.96307                     145.29221
                      -3.40003                     -10.36770                     147.99067
                      -3.66391                     -10.70692                     150.69497
                      -3.83281                     -10.91105                     152.03809
        </DataArray>
      </Points>
      <PointData>
        <DataArray type="Float32" Name="TranslationalVelocity" NumberOfComponents="3" format="ascii">
                      -0.05893                      -4.21097                      -0.73480
                      -0.11828                      -8.06466                      -1.42180
                      -0.25840                     -15.72689                      -3.06371
                      -0.40748                     -23.37258                      -4.83433
                      -0.59850                     -32.92666                      -7.12669
                      -0.78994                     -44.48496                      -9.48054
                      -0.94681                     -56.12830                     -11.47244
                      -1.10005                     -67.78943                     -13.46049
                      -1.24626                     -79.46790                     -15.43891
                      -1.38118                     -91.16026                     -17.41137
                      -1.49900                    -102.86124                     -19.38485
                      -1.59051                    -114.56737                     -21.34987
                      -1.64465                    -126.27320                     -23.29825
                      -1.64802                    -137.97200                     -25.21849
                      -1.58481                    -149.65629                     -27.09653
                      -1.46635                    -159.37549                     -28.61420
                      -1.32012                    -167.13950                     -29.76759
                      -1.10877                    -174.91634                     -30.72562
                      -0.99142                    -178.77414                     -31.30052
        </DataArray>
        <DataArray type="Float32" Name="RotationalVelocity" NumberOfComponents="3" format="ascii">
                       2.85451                       0.00169                      -0.25601
                       2.85516                       0.00193                      -0.25601
                       2.85690                       0.00256                      -0.25602
                       2.85910                       0.00326                      -0.25608
                       2.86219                       0.00409                      -0.25626
                       2.86608                       0.00496                      -0.25659
                       2.86983                       0.00579                      -0.25699
                       2.87325                       0.00690                      -0.25731
                       2.87626                       0.00873                      -0.25740
                       2.87887                       0.01182                      -0.25707
                       2.88118                       0.01673                      -0.25616
                       2.88332                       0.02400                      -0.25452
                       2.88550                       0.03407                      -0.25206
                       2.88792                       0.04724                      -0.24874
                       2.89079                       0.06363                      -0.24462
                       2.89365                       0.07959                      -0.24069
                       2.89633                       0.09378                      -0.23730
                       2.89939                       0.10900                      -0.23384
                       2.90108                       0.11691                      -0.23211
        </DataArray>
        <DataArray type="Float32" Name="TranslationalAcceleration" NumberOfComponents="3" format="ascii">
                      -0.99963                       2.13503                     -12.00751
                      -1.26897                       2.61380                     -14.58375
                      -3.65497                       8.25875                     -41.61874
                      -5.88405                      13.89141                     -66.44006
                      -8.52361                      20.80073                     -95.42669
                     -11.56957                      27.62386                    -128.67078
                     -14.54772                      33.25034                    -161.33859
                     -17.48848                      38.85059                    -194.00215
                     -20.41763                      44.48041                    -227.05598
                     -23.35234                      50.17442                    -260.61135
                     -26.31098                      55.94112                    -294.57756
                     -29.32350                      61.71865                    -328.75409
                     -32.44037                      67.43987                    -362.90097
                     -35.74227                      73.03208                    -396.82252
                     -39.34965                      78.43336                    -430.44983
                     -42.71943                      82.75078                    -458.33914
                     -45.73280                      86.01622                    -480.71848
                     -49.12674                      88.73423                    -503.44217
                     -50.98184                      90.38909                    -514.91943
        </DataArray>
        <DataArray type="Float32" Name="OrientationX" NumberOfComponents="3" format="ascii">
                       0.96850                      -0.23405                      -0.08502
                       0.96849                      -0.23402                      -0.08525
                       0.96839                      -0.23413                      -0.08603
                       0.96822                      -0.23442                      -0.08721
                       0.96789                      -0.23504                      -0.08912
                       0.97474                      -0.20581                      -0.08669
                       0.97878                      -0.18628                      -0.08541
                       0.98162                      -0.17150                      -0.08370
                       0.98411                      -0.15842                      -0.08015
                       0.98615                      -0.14834                      -0.07414
                       0.98747                      -0.14371                      -0.06528
                       0.98817                      -0.14397                      -0.05286
                       0.98786                      -0.15093                      -0.03680
                       0.98586                      -0.16667                      -0.01739
                       0.98252                      -0.18608                       0.00591
                       0.97863                      -0.20372                       0.02792
                       0.97470                      -0.21856                       0.04684
                       0.96942                      -0.23639                       0.06592
                       0.96612                      -0.24689                       0.07523
        </DataArray>
        <DataArray type="Float32" Name="OrientationY" NumberOfComponents="3" format="ascii">
                       0.24501                       0.95662                       0.15764
                       0.24503                       0.95662                       0.15763
                       0.24527                       0.95657                       0.15752
                       0.24575                       0.95648                       0.15732
                       0.24667                       0.95631                       0.15693
                       0.21749                       0.96299                       0.15919
                       0.19805                       0.96694                       0.16061
                       0.18321                       0.96967                       0.16179
                       0.16973                       0.97191                       0.16307
                       0.15880                       0.97353                       0.16436
                       0.15273                       0.97432                       0.16547
                       0.15088                       0.97444                       0.16644
                       0.15499                       0.97367                       0.16719
                       0.16721                       0.97154                       0.16781
                       0.18244                       0.96865                       0.16864
                       0.19620                       0.96579                       0.16957
                       0.20778                       0.96320                       0.17052
                       0.22233                       0.95970                       0.17189
                       0.23121                       0.95743                       0.17285
        </DataArray>
        <DataArray type="Float32" Name="OrientationZ" NumberOfComponents="3" format="ascii">
                       0.04444                      -0.17351                       0.98383
                       0.04467                      -0.17355                       0.98381
                       0.04541                      -0.17364                       0.98376
                       0.04654                      -0.17375                       0.98369
                       0.04834                      -0.17388                       0.98358
                       0.05072                      -0.17402                       0.98344
                       0.05267                      -0.17412                       0.98332
                       0.05341                      -0.17415                       0.98327
                       0.05207                      -0.17408                       0.98335
                       0.04780                      -0.17386                       0.98361
                       0.03982                      -0.17337                       0.98405
                       0.02755                      -0.17245                       0.98463
                       0.01060                      -0.17087                       0.98524
                      -0.01107                      -0.16834                       0.98567
                      -0.03711                      -0.16461                       0.98566
                      -0.06151                      -0.16047                       0.98512
                      -0.08238                      -0.15647                       0.98424
                      -0.10390                      -0.15198                       0.98291
                      -0.11471                      -0.14960                       0.98207
        </DataArray>
        <DataArray type="Float32" Name="Force" NumberOfComponents="3" format="ascii">
                     167.91421                      59.83835                       2.96861
                     193.72652                     129.89950                      14.11453
                     295.37361                     379.29090                      53.26375
                     302.48518                     568.44192                      85.95987
                    3576.25403                   -1278.30984                    -401.28713
                    3737.45686                    -957.88220                    -361.77096
                    3446.85776                    -648.92263                    -299.15690
                    4608.07905                    -738.09621                    -380.57750
                    5884.64642                    -837.55222                    -459.39614
                    6209.17147                    -751.47368                    -434.26214
                    8509.62831                    -935.46289                    -509.20587
                    8070.01065                    -777.54464                    -362.51179
                    4644.86599                    -328.16956                    -107.43115
                     895.42085                      95.02613                      26.82478
                   -2598.64481                     488.92121                     -12.77648
                   -8066.59292                    1034.97537                    -325.61096
                  -12563.99139                    1465.94582                    -802.21556
                  -13514.05926                    1488.34337                   -1178.70758
                  -16706.62027                    1821.75848                   -1647.82898
        </DataArray>
        <DataArray type="Float32" Name="Moment" NumberOfComponents="3" format="ascii">
                       0.00000                       0.00000                       0.00000
                       0.00000                       0.00000                       0.00000
                       0.00000                       0.00000                       0.00000
                       0.00000                       0.00000                       0.00000
                     -76.10177                     273.18147                   -1548.44195
                    -152.04001                     520.24619                   -2948.21220
                    -206.19643                     679.41879                   -3849.55182
                    -318.12682                    1033.75115                   -5856.78696
                    -457.58116                    1525.17418                   -8642.03259
                    -474.28583                    1722.05024                   -9761.37927
                    -437.14383                    1904.68114                  -10804.45127
                    -319.05789                    2009.78864                  -11413.42459
                     -91.12926                    1496.41351                   -8511.13035
                      91.91026                    1422.70283                   -8107.88641
                     284.92896                    1317.70748                   -7527.42856
                     445.28054                    1238.92196                   -7093.25986
                     526.42937                    1090.02687                   -6252.85023
                     324.33937                     530.42334                   -3048.83878
                     362.52497                     535.83798                   -3083.08675
        </DataArray>
      </PointData>
      <Lines>
        <DataArray type="Int32" Name="connectivity" format="ascii">
      0      1
      1      2
      2      3
      3      4
      4      5
      5      6
      6      7
      7      8
      8      9
      9     10
     10     11
     11     12
     12     13
     13     14
     14     15
     15     16
     16     17
     17     18
        </DataArray>
        <DataArray type="Int32" Name="offsets" format="ascii">
      2
      4
      6
      8
     10
     12
     14
     16
     18
     20
     22
     24
     26
     28
     30
     32
     34
     36
        </DataArray>
      </Lines>
    </Piece>
  </PolyData>
</VTKFile>
