<?xml version="1.0"?>
<VTKFile type="PolyData" version="0.1" byte_order="LittleEndian">
  <PolyData>
    <Piece NumberOfPoints="    625" NumberOfVerts="  0" NumberOfLines="      0"
           NumberOfStrips="  0" NumberOfPolys="    600">
      <Points>
        <DataArray type="Float32" NumberOfComponents="3" format="ascii">
                      -4.46345                       0.92990                      88.89768
                      -4.46345                       0.92990                      88.89768
                      -4.46345                       0.92990                      88.89768
                      -4.46345                       0.92990                      88.89768
                      -4.46345                       0.92990                      88.89768
                      -4.46345                       0.92990                      88.89768
                      -4.46345                       0.92990                      88.89768
                      -4.46345                       0.92990                      88.89768
                      -4.46345                       0.92990                      88.89768
                      -4.46345                       0.92990                      88.89768
                      -4.46345                       0.92990                      88.89768
                      -4.46345                       0.92990                      88.89768
                      -4.46345                       0.92990                      88.89768
                      -4.46345                       0.92990                      88.89768
                      -4.46345                       0.92990                      88.89768
                      -4.46345                       0.92990                      88.89768
                      -4.46345                       0.92990                      88.89768
                      -4.46345                       0.92990                      88.89768
                      -4.46345                       0.92990                      88.89768
                      -4.46345                       0.92990                      88.89768
                      -4.46345                       0.92990                      88.89768
                      -4.46345                       0.92990                      88.89768
                      -4.46345                       0.92990                      88.89768
                      -4.46345                       0.92990                      88.89768
                      -4.46345                       0.92990                      88.89768
                      -3.85733                       0.85100                      88.93493
                      -3.86678                       0.96662                      89.03045
                      -3.91312                       1.07496                      89.12370
                      -3.99343                       1.16924                      89.20880
                      -4.10268                       1.24351                      89.28042
                      -4.23400                       1.29312                      89.33405
                      -4.37913                       1.31495                      89.36632
                      -4.52895                       1.30763                      89.37520
                      -4.67406                       1.27162                      89.36014
                      -4.80534                       1.20917                      89.32209
                      -4.91453                       1.12422                      89.26342
                      -4.99478                       1.02210                      89.18784
                      -5.04104                       0.90923                      89.10009
                      -5.05040                       0.79269                      89.00568
                      -5.02229                       0.67982                      88.91054
                      -4.95846                       0.57771                      88.82066
                      -4.86292                       0.49276                      88.74168
                      -4.74168                       0.43033                      88.67856
                      -4.60236                       0.39432                      88.63527
                      -4.45371                       0.38701                      88.61453
                      -4.30507                       0.40885                      88.61764
                      -4.16578                       0.45847                      88.64441
                      -4.04459                       0.53276                      88.69315
                      -3.94912                       0.62704                      88.76081
                      -3.88536                       0.73539                      88.84312
                      -3.61920                       0.77209                      89.00871
                      -3.63227                       0.93200                      89.14083
                      -3.69636                       1.08186                      89.26980
                      -3.80745                       1.21225                      89.38751
                      -3.95855                       1.31498                      89.48656
                      -4.14018                       1.38360                      89.56074
                      -4.34091                       1.41380                      89.60537
                      -4.54814                       1.40367                      89.61766
                      -4.74885                       1.35385                      89.59683
                      -4.93042                       1.26748                      89.54419
                      -5.08144                       1.14998                      89.46306
                      -5.19243                       1.00874                      89.35852
                      -5.25642                       0.85262                      89.23714
                      -5.26937                       0.69144                      89.10656
                      -5.23049                       0.53533                      88.97497
                      -5.14220                       0.39409                      88.85065
                      -5.01006                       0.27660                      88.74141
                      -4.84237                       0.19024                      88.65411
                      -4.64968                       0.14044                      88.59423
                      -4.44407                       0.13033                      88.56555
                      -4.23848                       0.16054                      88.56985
                      -4.04582                       0.22917                      88.60688
                      -3.87821                       0.33192                      88.67429
                      -3.74616                       0.46232                      88.76787
                      -3.65797                       0.61218                      88.88173
                      -3.44742                       0.69318                      89.08907
                      -3.46306                       0.88452                      89.24717
                      -3.53975                       1.06384                      89.40149
                      -3.67267                       1.21986                      89.54234
                      -3.85348                       1.34279                      89.66086
                      -4.07081                       1.42490                      89.74962
                      -4.31101                       1.46103                      89.80303
                      -4.55898                       1.44891                      89.81773
                      -4.79914                       1.38931                      89.79281
                      -5.01640                       1.28596                      89.72982
                      -5.19712                       1.14536                      89.63274
                      -5.32993                       0.97635                      89.50765
                      -5.40649                       0.78954                      89.36241
                      -5.42199                       0.59667                      89.20616
                      -5.37546                       0.40987                      89.04871
                      -5.26982                       0.24087                      88.89995
                      -5.11170                       0.10028                      88.76923
                      -4.91105                      -0.00306                      88.66476
                      -4.68047                      -0.06265                      88.59312
                      -4.43445                      -0.07475                      88.55879
                      -4.18844                      -0.03860                      88.56394
                      -3.95791                       0.04353                      88.60824
                      -3.75734                       0.16647                      88.68892
                      -3.59933                       0.32251                      88.80089
                      -3.49381                       0.50183                      88.93713
                      -3.31258                       0.61426                      89.17310
                      -3.33020                       0.82988                      89.35125
                      -3.41662                       1.03195                      89.52516
                      -3.56641                       1.20777                      89.68388
                      -3.77016                       1.34629                      89.81744
                      -4.01507                       1.43882                      89.91746
                      -4.28574                       1.47954                      89.97764
                      -4.56517                       1.46588                      89.99421
                      -4.83580                       1.39871                      89.96612
                      -5.08063                       1.28225                      89.89515
                      -5.28427                       1.12381                      89.78574
                      -5.43393                       0.93336                      89.64478
                      -5.52021                       0.72285                      89.48112
                      -5.53767                       0.50551                      89.30504
                      -5.48524                       0.29501                      89.12761
                      -5.36619                       0.10456                      88.95998
                      -5.18802                      -0.05386                      88.81268
                      -4.96191                      -0.17030                      88.69496
                      -4.70207                      -0.23745                      88.61422
                      -4.42484                      -0.25109                      88.57554
                      -4.14762                      -0.21036                      88.58135
                      -3.88784                      -0.11781                      88.63127
                      -3.66182                       0.02073                      88.72218
                      -3.48377                       0.19656                      88.84836
                      -3.36486                       0.39864                      89.00188
                      -3.20318                       0.53534                      89.25965
                      -3.22238                       0.77031                      89.45379
                      -3.31656                       0.99051                      89.64330
                      -3.47979                       1.18210                      89.81626
                      -3.70182                       1.33306                      89.96181
                      -3.96869                       1.43389                      90.07080
                      -4.26365                       1.47826                      90.13638
                      -4.56815                       1.46337                      90.15444
                      -4.86307                       1.39018                      90.12383
                      -5.12986                       1.26327                      90.04649
                      -5.35178                       1.09061                      89.92727
                      -5.51487                       0.88307                      89.77366
                      -5.60888                       0.65367                      89.59531
                      -5.62792                       0.41684                      89.40344
                      -5.57078                       0.18745                      89.21009
                      -5.44105                      -0.02008                      89.02741
                      -5.24689                      -0.19272                      88.86689
                      -5.00049                      -0.31961                      88.73861
                      -4.71734                      -0.39279                      88.65063
                      -4.41523                      -0.40765                      88.60848
                      -4.11314                      -0.36326                      88.61481
                      -3.83006                      -0.26241                      88.66921
                      -3.58376                      -0.11144                      88.76827
                      -3.38973                       0.08017                      88.90577
                      -3.26015                       0.30038                      89.07307
                      -3.11330                       0.45643                      89.34814
                      -3.13378                       0.70695                      89.55514
                      -3.23419                       0.94174                      89.75720
                      -3.40824                       1.14602                      89.94161
                      -3.64497                       1.30697                      90.09680
                      -3.92952                       1.41448                      90.21301
                      -4.24401                       1.46179                      90.28294
                      -4.56868                       1.44592                      90.30219
                      -4.88313                       1.36787                      90.26956
                      -5.16759                       1.23256                      90.18709
                      -5.40420                       1.04847                      90.05997
                      -5.57809                       0.82718                      89.89619
                      -5.67834                       0.58259                      89.70603
                      -5.69863                       0.33007                      89.50145
                      -5.63771                       0.08549                      89.29530
                      -5.49939                      -0.13579                      89.10053
                      -5.29237                      -0.31986                      88.92938
                      -5.02965                      -0.45515                      88.79260
                      -4.72775                      -0.53318                      88.69879
                      -4.40563                      -0.54902                      88.65385
                      -4.08354                      -0.50169                      88.66059
                      -3.78170                      -0.39416                      88.71860
                      -3.51909                      -0.23319                      88.82422
                      -3.31221                      -0.02889                      88.97083
                      -3.17405                       0.20590                      89.14921
                      -3.03949                       0.37751                      89.43823
                      -3.06099                       0.64049                      89.65552
                      -3.16639                       0.88693                      89.86761
                      -3.34908                       1.10137                      90.06119
                      -3.59758                       1.27032                      90.22409
                      -3.89627                       1.38317                      90.34607
                      -4.22639                       1.43283                      90.41947
                      -4.56719                       1.41617                      90.43968
                      -4.89726                       1.33425                      90.40543
                      -5.19586                       1.19221                      90.31887
                      -5.44423                       0.99897                      90.18543
                      -5.62676                       0.76669                      90.01351
                      -5.73198                       0.50995                      89.81390
                      -5.75329                       0.24488                      89.59915
                      -5.68934                      -0.01186                      89.38276
                      -5.54414                      -0.24413                      89.17831
                      -5.32684                      -0.43735                      88.99865
                      -5.05107                      -0.57937                      88.85508
                      -4.73416                      -0.66127                      88.75661
                      -4.39604                      -0.67790                      88.70943
                      -4.05794                      -0.62822                      88.71651
                      -3.74110                      -0.51535                      88.77740
                      -3.46544                      -0.34638                      88.88827
                      -3.24828                      -0.13193                      89.04217
                      -3.10326                       0.11453                      89.22941
                      -2.97954                       0.29859                      89.52969
                      -3.00183                       0.57133                      89.75505
                      -3.11115                       0.82693                      89.97502
                      -3.30062                       1.04933                      90.17578
                      -3.55834                       1.22455                      90.34473
                      -3.86812                       1.34159                      90.47124
                      -4.21050                       1.39309                      90.54736
                      -4.56395                       1.37581                      90.56832
                      -4.90628                       1.29085                      90.53280
                      -5.21596                       1.14354                      90.44302
                      -5.47355                       0.94313                      90.30463
                      -5.66286                       0.70222                      90.12633
                      -5.77199                       0.43594                      89.91931
                      -5.79409                       0.16104                      89.69659
                      -5.72776                      -0.10523                      89.47216
                      -5.57718                      -0.34613                      89.26012
                      -5.35180                      -0.54652                      89.07379
                      -5.06580                      -0.69381                      88.92489
                      -4.73713                      -0.77875                      88.82277
                      -4.38645                      -0.79600                      88.77384
                      -4.03579                      -0.74447                      88.78118
                      -3.70720                      -0.62741                      88.84433
                      -3.42130                      -0.45217                      88.95932
                      -3.19608                      -0.22976                      89.11892
                      -3.04567                       0.02585                      89.31312
                      -2.93199                       0.21967                      89.62239
                      -2.95488                       0.49977                      89.85382
                      -3.06715                       0.76226                      90.07972
                      -3.26173                       0.99066                      90.28591
                      -3.52641                       1.17061                      90.45941
                      -3.84455                       1.29081                      90.58933
                      -4.19616                       1.34370                      90.66751
                      -4.55915                       1.32596                      90.68904
                      -4.91071                       1.23870                      90.65256
                      -5.22875                       1.08741                      90.56036
                      -5.49329                       0.88160                      90.41823
                      -5.68771                       0.63419                      90.23512
                      -5.79978                       0.36073                      90.02252
                      -5.82248                       0.07841                      89.79379
                      -5.75436                      -0.19505                      89.56330
                      -5.59972                      -0.44244                      89.34554
                      -5.36826                      -0.64824                      89.15419
                      -5.07454                      -0.79951                      89.00127
                      -4.73700                      -0.88674                      88.89639
                      -4.37686                      -0.90445                      88.84614
                      -4.01674                      -0.85154                      88.85368
                      -3.67928                      -0.73132                      88.91853
                      -3.38568                      -0.55134                      89.03662
                      -3.15437                      -0.32293                      89.20053
                      -2.99991                      -0.06043                      89.39997
                      -2.89589                       0.14075                      89.71621
                      -2.91921                       0.42599                      89.95189
                      -3.03353                       0.69330                      90.18195
                      -3.23169                       0.92589                      90.39191
                      -3.50122                       1.10914                      90.56860
                      -3.82520                       1.23155                      90.70091
                      -4.18326                       1.28541                      90.78052
                      -4.55291                       1.26734                      90.80244
                      -4.91092                       1.17848                      90.76529
                      -5.23480                       1.02442                      90.67140
                      -5.50420                       0.81483                      90.52667
                      -5.70218                       0.56288                      90.34019
                      -5.81631                       0.28440                      90.12369
                      -5.83942                      -0.00311                      89.89076
                      -5.77005                      -0.28158                      89.65605
                      -5.61257                      -0.53351                      89.43429
                      -5.37687                      -0.74309                      89.23943
                      -5.07775                      -0.89713                      89.08370
                      -4.73402                      -0.98596                      88.97690
                      -4.36728                      -1.00400                      88.92572
                      -4.00055                      -0.95011                      88.93340
                      -3.65690                      -0.82769                      88.99944
                      -3.35790                      -0.64441                      89.11970
                      -3.12236                      -0.41181                      89.28662
                      -2.96506                      -0.14449                      89.48971
                      -2.87063                       0.06183                      89.81112
                      -2.89419                       0.35011                      90.04931
                      -3.00974                       0.62027                      90.28181
                      -3.21000                       0.85534                      90.49402
                      -3.48241                       1.04054                      90.67259
                      -3.80984                       1.16425                      90.80631
                      -4.17172                       1.21868                      90.88677
                      -4.54531                       1.20043                      90.90892
                      -4.90714                       1.11062                      90.87138
                      -5.23447                       0.95492                      90.77648
                      -5.50673                       0.74309                      90.63021
                      -5.70682                       0.48846                      90.44175
                      -5.82217                       0.20701                      90.22294
                      -5.84553                      -0.08356                      89.98753
                      -5.77542                      -0.36500                      89.75031
                      -5.61626                      -0.61962                      89.52619
                      -5.37805                      -0.83142                      89.32925
                      -5.07575                      -0.98711                      89.17186
                      -4.72835                      -1.07689                      89.06392
                      -4.35769                      -1.09512                      89.01221
                      -3.98706                      -1.04066                      89.01996
                      -3.63974                      -0.91693                      89.08671
                      -3.33756                      -0.73170                      89.20825
                      -3.09951                      -0.49662                      89.37695
                      -2.94053                      -0.22645                      89.58220
                      -2.85586                      -0.01709                      89.90707
                      -2.87951                       0.27220                      90.14609
                      -2.99545                       0.54330                      90.37940
                      -3.19642                       0.77919                      90.59235
                      -3.46978                       0.96504                      90.77154
                      -3.79835                       1.08918                      90.90573
                      -4.16149                       1.14380                      90.98647
                      -4.53639                       1.12548                      91.00870
                      -4.89948                       1.03536                      90.97102
                      -5.22795                       0.87911                      90.87580
                      -5.50116                       0.66655                      90.72902
                      -5.70196                       0.41103                      90.53990
                      -5.81771                       0.12860                      90.32032
                      -5.84114                      -0.16299                      90.08409
                      -5.77079                      -0.44541                      89.84604
                      -5.61108                      -0.70092                      89.62114
                      -5.37203                      -0.91346                      89.42351
                      -5.06867                      -1.06969                      89.26558
                      -4.72007                      -1.15978                      89.15726
                      -4.34811                      -1.17808                      89.10536
                      -3.97619                      -1.12342                      89.11315
                      -3.62766                      -0.99926                      89.18013
                      -3.32442                      -0.81339                      89.30209
                      -3.08554                      -0.57748                      89.47138
                      -2.92601                      -0.30637                      89.67735
                      -2.85148                      -0.09601                      90.00404
                      -2.87504                       0.19227                      90.24224
                      -2.99058                       0.46243                      90.47474
                      -3.19085                       0.69750                      90.68694
                      -3.46326                       0.88270                      90.86551
                      -3.79069                       1.00641                      90.99923
                      -4.15256                       1.06084                      91.07969
                      -4.52615                       1.04259                      91.10185
                      -4.88798                       0.95278                      91.06430
                      -5.21531                       0.79708                      90.96941
                      -5.48758                       0.58525                      90.82313
                      -5.68767                       0.33062                      90.63467
                      -5.80302                       0.04917                      90.41586
                      -5.82637                      -0.24140                      90.18045
                      -5.75627                      -0.52284                      89.94323
                      -5.59711                      -0.77746                      89.71911
                      -5.35889                      -0.98926                      89.52217
                      -5.05659                      -1.14495                      89.36479
                      -4.70920                      -1.23473                      89.25685
                      -4.33854                      -1.25296                      89.20513
                      -3.96791                      -1.19850                      89.21289
                      -3.62059                      -1.07477                      89.27963
                      -3.31841                      -0.88954                      89.40118
                      -3.08035                      -0.65446                      89.56987
                      -2.92138                      -0.38429                      89.77513
                      -2.85759                      -0.17493                      90.10206
                      -2.88090                       0.11031                      90.33774
                      -2.99522                       0.37762                      90.56779
                      -3.19338                       0.61021                      90.77776
                      -3.46291                       0.79346                      90.95445
                      -3.78689                       0.91587                      91.08676
                      -4.14495                       0.96973                      91.16637
                      -4.51460                       0.95166                      91.18829
                      -4.87262                       0.86280                      91.15114
                      -5.19649                       0.70874                      91.05725
                      -5.46589                       0.49915                      90.91252
                      -5.66387                       0.24720                      90.72604
                      -5.77800                      -0.03128                      90.50954
                      -5.80111                      -0.31879                      90.27661
                      -5.73174                      -0.59726                      90.04189
                      -5.57426                      -0.84919                      89.82014
                      -5.33856                      -1.05877                      89.62527
                      -5.03945                      -1.21281                      89.46955
                      -4.69572                      -1.30164                      89.36274
                      -4.32897                      -1.31968                      89.31157
                      -3.96224                      -1.26579                      89.31925
                      -3.61859                      -1.14337                      89.38529
                      -3.31959                      -0.96009                      89.50555
                      -3.08405                      -0.72749                      89.67247
                      -2.92675                      -0.46017                      89.87556
                      -2.87453                      -0.25385                      90.20116
                      -2.89742                       0.02625                      90.43259
                      -3.00969                       0.28874                      90.65850
                      -3.20427                       0.51714                      90.86468
                      -3.46895                       0.69709                      91.03818
                      -3.78709                       0.81729                      91.16811
                      -4.13870                       0.87018                      91.24629
                      -4.50169                       0.85244                      91.26781
                      -4.85325                       0.76518                      91.23133
                      -5.17129                       0.61389                      91.13913
                      -5.43583                       0.40808                      90.99701
                      -5.63025                       0.16067                      90.81389
                      -5.74232                      -0.11279                      90.60129
                      -5.76501                      -0.39511                      90.37256
                      -5.69690                      -0.66857                      90.14207
                      -5.54225                      -0.91596                      89.92431
                      -5.31080                      -1.12176                      89.73296
                      -5.01707                      -1.27303                      89.58004
                      -4.67954                      -1.36026                      89.47516
                      -4.31940                      -1.37797                      89.42491
                      -3.95928                      -1.32506                      89.43245
                      -3.62182                      -1.20484                      89.49730
                      -3.32821                      -1.02486                      89.61539
                      -3.09691                      -0.79645                      89.77931
                      -2.94245                      -0.53395                      89.97874
                      -2.90292                      -0.33277                      90.30139
                      -2.92521                      -0.06003                      90.52674
                      -3.03453                       0.19557                      90.74671
                      -3.22400                       0.41797                      90.94748
                      -3.48172                       0.59319                      91.11642
                      -3.79151                       0.71023                      91.24293
                      -4.13388                       0.76173                      91.31906
                      -4.48733                       0.74445                      91.34002
                      -4.82966                       0.65949                      91.30449
                      -5.13935                       0.51218                      91.21472
                      -5.39694                       0.31177                      91.07633
                      -5.58624                       0.07086                      90.89802
                      -5.69537                      -0.19542                      90.69101
                      -5.71747                      -0.47032                      90.46829
                      -5.65114                      -0.73659                      90.24386
                      -5.50056                      -0.97749                      90.03182
                      -5.27519                      -1.17788                      89.84549
                      -4.98918                      -1.32517                      89.69659
                      -4.66051                      -1.41011                      89.59446
                      -4.30983                      -1.42736                      89.54553
                      -3.95918                      -1.37584                      89.55288
                      -3.63058                      -1.25877                      89.61602
                      -3.34469                      -1.08353                      89.73101
                      -3.11946                      -0.86112                      89.89062
                      -2.96906                      -0.60551                      90.08481
                      -2.94372                      -0.41169                      90.40285
                      -2.96521                      -0.14872                      90.62014
                      -3.07062                       0.09773                      90.83223
                      -3.25331                       0.31217                      91.02581
                      -3.50180                       0.48112                      91.18871
                      -3.80050                       0.59397                      91.31069
                      -4.13061                       0.64363                      91.38409
                      -4.47142                       0.62697                      91.40430
                      -4.80149                       0.54505                      91.37005
                      -5.10009                       0.40301                      91.28348
                      -5.34846                       0.20977                      91.15005
                      -5.53099                      -0.02251                      90.97813
                      -5.63621                      -0.27926                      90.77852
                      -5.65752                      -0.54432                      90.56377
                      -5.59356                      -0.80106                      90.34738
                      -5.44837                      -1.03333                      90.14293
                      -5.23107                      -1.22655                      89.96327
                      -4.95530                      -1.36857                      89.81970
                      -4.63839                      -1.45047                      89.72123
                      -4.30027                      -1.46710                      89.67405
                      -3.96216                      -1.41742                      89.68113
                      -3.64533                      -1.30455                      89.74202
                      -3.36967                      -1.13558                      89.85289
                      -3.15251                      -0.92113                      90.00679
                      -3.00749                      -0.67467                      90.19403
                      -2.99838                      -0.49061                      90.50569
                      -3.01885                      -0.24009                      90.71269
                      -3.11927                      -0.00530                      90.91474
                      -3.29331                       0.19898                      91.09916
                      -3.53004                       0.35993                      91.25434
                      -3.81460                       0.46744                      91.37055
                      -4.12909                       0.51475                      91.44048
                      -4.45375                       0.49888                      91.45973
                      -4.76820                       0.42083                      91.42710
                      -5.05267                       0.28552                      91.34463
                      -5.28928                       0.10143                      91.21752
                      -5.46317                      -0.11986                      91.05373
                      -5.56341                      -0.36445                      90.86358
                      -5.58371                      -0.61697                      90.65899
                      -5.52278                      -0.86155                      90.45284
                      -5.38446                      -1.08283                      90.25807
                      -5.17744                      -1.26690                      90.08692
                      -4.91473                      -1.40219                      89.95014
                      -4.61283                      -1.48022                      89.85634
                      -4.29071                      -1.49606                      89.81139
                      -3.96861                      -1.44873                      89.81813
                      -3.66678                      -1.34120                      89.87614
                      -3.40417                      -1.18023                      89.98177
                      -3.19728                      -0.97593                      90.12837
                      -3.05913                      -0.74114                      90.30675
                      -3.06910                      -0.56954                      90.61012
                      -3.08830                      -0.33457                      90.80426
                      -3.18248                      -0.11437                      90.99377
                      -3.34571                       0.07722                      91.16673
                      -3.56774                       0.22818                      91.31227
                      -3.83461                       0.32901                      91.42126
                      -4.12957                       0.37338                      91.48685
                      -4.43407                       0.35849                      91.50490
                      -4.72899                       0.28530                      91.47430
                      -4.99578                       0.15839                      91.39696
                      -5.21770                      -0.01427                      91.27773
                      -5.38079                      -0.22181                      91.12412
                      -5.47480                      -0.45121                      90.94578
                      -5.49384                      -0.68804                      90.75390
                      -5.43670                      -0.91743                      90.56055
                      -5.30697                      -1.12497                      90.37788
                      -5.11281                      -1.29760                      90.21736
                      -4.86641                      -1.42449                      90.08908
                      -4.58326                      -1.49767                      90.00110
                      -4.28115                      -1.51253                      89.95895
                      -3.97906                      -1.46814                      89.96527
                      -3.69598                      -1.36729                      90.01968
                      -3.44968                      -1.21632                      90.11874
                      -3.25565                      -1.02471                      90.25624
                      -3.12607                      -0.80450                      90.42354
                      -3.15934                      -0.64846                      90.71649
                      -3.17697                      -0.43284                      90.89465
                      -3.26339                      -0.23077                      91.06855
                      -3.41318                      -0.05495                      91.22727
                      -3.61693                       0.08357                      91.36083
                      -3.86183                       0.17610                      91.46085
                      -4.13250                       0.21682                      91.52103
                      -4.41193                       0.20316                      91.53760
                      -4.68256                       0.13599                      91.50951
                      -4.92739                       0.01953                      91.43854
                      -5.13104                      -0.13891                      91.32913
                      -5.28070                      -0.32936                      91.18817
                      -5.36697                      -0.53987                      91.02451
                      -5.38444                      -0.75721                      90.84843
                      -5.33200                      -0.96771                      90.67101
                      -5.21296                      -1.15816                      90.50337
                      -5.03478                      -1.31658                      90.35607
                      -4.80868                      -1.43302                      90.23835
                      -4.54884                      -1.50017                      90.15762
                      -4.27160                      -1.51381                      90.11893
                      -3.99439                      -1.47308                      90.12474
                      -3.73461                      -1.38053                      90.17466
                      -3.50859                      -1.24199                      90.26557
                      -3.33053                      -1.06616                      90.39175
                      -3.21163                      -0.86408                      90.54527
                      -3.27503                      -0.72738                      90.82538
                      -3.29067                      -0.53604                      90.98348
                      -3.36736                      -0.35672                      91.13780
                      -3.50029                      -0.20070                      91.27865
                      -3.68109                      -0.07777                      91.39718
                      -3.89842                       0.00434                      91.48593
                      -4.13862                       0.04047                      91.53934
                      -4.38659                       0.02835                      91.55405
                      -4.62675                      -0.03125                      91.52912
                      -4.84402                      -0.13460                      91.46614
                      -5.02473                      -0.27520                      91.36905
                      -5.15754                      -0.44422                      91.24396
                      -5.23410                      -0.63102                      91.09873
                      -5.24961                      -0.82389                      90.94247
                      -5.20307                      -1.01069                      90.78502
                      -5.09743                      -1.17970                      90.63626
                      -4.93932                      -1.32028                      90.50554
                      -4.73866                      -1.42362                      90.40108
                      -4.50808                      -1.48321                      90.32943
                      -4.26206                      -1.49531                      90.29511
                      -4.01605                      -1.45916                      90.30026
                      -3.78552                      -1.37703                      90.34456
                      -3.58495                      -1.25409                      90.42523
                      -3.42694                      -1.09805                      90.53720
                      -3.32143                      -0.91873                      90.67344
                      -3.42765                      -0.80631                      90.93794
                      -3.44072                      -0.64640                      91.07007
                      -3.50482                      -0.49655                      91.19904
                      -3.61590                      -0.36615                      91.31675
                      -3.76701                      -0.26342                      91.41580
                      -3.94863                      -0.19480                      91.48997
                      -4.14937                      -0.16460                      91.53461
                      -4.35660                      -0.17473                      91.54690
                      -4.55730                      -0.22455                      91.52607
                      -4.73887                      -0.31092                      91.47343
                      -4.88990                      -0.42842                      91.39229
                      -5.00089                      -0.56966                      91.28775
                      -5.06487                      -0.72578                      91.16638
                      -5.07783                      -0.88696                      91.03580
                      -5.03894                      -1.04307                      90.90421
                      -4.95066                      -1.18431                      90.77989
                      -4.81852                      -1.30180                      90.67065
                      -4.65083                      -1.38816                      90.58335
                      -4.45813                      -1.43796                      90.52347
                      -4.25253                      -1.44807                      90.49479
                      -4.04694                      -1.41786                      90.49909
                      -3.85428                      -1.34923                      90.53611
                      -3.68666                      -1.24648                      90.60353
                      -3.55461                      -1.11608                      90.69711
                      -3.46643                      -0.96622                      90.81097
                      -3.64663                      -0.88524                      91.05709
                      -3.65608                      -0.76963                      91.15262
                      -3.70242                      -0.66128                      91.24586
                      -3.78274                      -0.56701                      91.33097
                      -3.89198                      -0.49273                      91.40258
                      -4.02330                      -0.44312                      91.45621
                      -4.16843                      -0.42129                      91.48848
                      -4.31826                      -0.42861                      91.49736
                      -4.46337                      -0.46462                      91.48230
                      -4.59464                      -0.52707                      91.44425
                      -4.70383                      -0.61202                      91.38559
                      -4.78408                      -0.71414                      91.31000
                      -4.83034                      -0.82702                      91.22225
                      -4.83971                      -0.94355                      91.12784
                      -4.81159                      -1.05642                      91.03270
                      -4.74776                      -1.15853                      90.94282
                      -4.65222                      -1.24348                      90.86384
                      -4.53099                      -1.30591                      90.80072
                      -4.39167                      -1.34192                      90.75743
                      -4.24301                      -1.34923                      90.73669
                      -4.09437                      -1.32739                      90.73980
                      -3.95508                      -1.27777                      90.76657
                      -3.83389                      -1.20348                      90.81531
                      -3.73842                      -1.10920                      90.88297
                      -3.67467                      -1.00085                      90.96529
                      -4.23360                      -0.96418                      91.21276
                      -4.23360                      -0.96418                      91.21276
                      -4.23360                      -0.96418                      91.21276
                      -4.23360                      -0.96418                      91.21276
                      -4.23360                      -0.96418                      91.21276
                      -4.23360                      -0.96418                      91.21276
                      -4.23360                      -0.96418                      91.21276
                      -4.23360                      -0.96418                      91.21276
                      -4.23360                      -0.96418                      91.21276
                      -4.23360                      -0.96418                      91.21276
                      -4.23360                      -0.96418                      91.21276
                      -4.23360                      -0.96418                      91.21276
                      -4.23360                      -0.96418                      91.21276
                      -4.23360                      -0.96418                      91.21276
                      -4.23360                      -0.96418                      91.21276
                      -4.23360                      -0.96418                      91.21276
                      -4.23360                      -0.96418                      91.21276
                      -4.23360                      -0.96418                      91.21276
                      -4.23360                      -0.96418                      91.21276
                      -4.23360                      -0.96418                      91.21276
                      -4.23360                      -0.96418                      91.21276
                      -4.23360                      -0.96418                      91.21276
                      -4.23360                      -0.96418                      91.21276
                      -4.23360                      -0.96418                      91.21276
                      -4.23360                      -0.96418                      91.21276
        </DataArray>
      </Points>
      <Polys>
        <DataArray type="Int32" Name="connectivity" format="ascii">
      0      1     26     25
      1      2     27     26
      2      3     28     27
      3      4     29     28
      4      5     30     29
      5      6     31     30
      6      7     32     31
      7      8     33     32
      8      9     34     33
      9     10     35     34
     10     11     36     35
     11     12     37     36
     12     13     38     37
     13     14     39     38
     14     15     40     39
     15     16     41     40
     16     17     42     41
     17     18     43     42
     18     19     44     43
     19     20     45     44
     20     21     46     45
     21     22     47     46
     22     23     48     47
     23     24     49     48
     24      0     25     49
     25     26     51     50
     26     27     52     51
     27     28     53     52
     28     29     54     53
     29     30     55     54
     30     31     56     55
     31     32     57     56
     32     33     58     57
     33     34     59     58
     34     35     60     59
     35     36     61     60
     36     37     62     61
     37     38     63     62
     38     39     64     63
     39     40     65     64
     40     41     66     65
     41     42     67     66
     42     43     68     67
     43     44     69     68
     44     45     70     69
     45     46     71     70
     46     47     72     71
     47     48     73     72
     48     49     74     73
     49     25     50     74
     50     51     76     75
     51     52     77     76
     52     53     78     77
     53     54     79     78
     54     55     80     79
     55     56     81     80
     56     57     82     81
     57     58     83     82
     58     59     84     83
     59     60     85     84
     60     61     86     85
     61     62     87     86
     62     63     88     87
     63     64     89     88
     64     65     90     89
     65     66     91     90
     66     67     92     91
     67     68     93     92
     68     69     94     93
     69     70     95     94
     70     71     96     95
     71     72     97     96
     72     73     98     97
     73     74     99     98
     74     50     75     99
     75     76    101    100
     76     77    102    101
     77     78    103    102
     78     79    104    103
     79     80    105    104
     80     81    106    105
     81     82    107    106
     82     83    108    107
     83     84    109    108
     84     85    110    109
     85     86    111    110
     86     87    112    111
     87     88    113    112
     88     89    114    113
     89     90    115    114
     90     91    116    115
     91     92    117    116
     92     93    118    117
     93     94    119    118
     94     95    120    119
     95     96    121    120
     96     97    122    121
     97     98    123    122
     98     99    124    123
     99     75    100    124
    100    101    126    125
    101    102    127    126
    102    103    128    127
    103    104    129    128
    104    105    130    129
    105    106    131    130
    106    107    132    131
    107    108    133    132
    108    109    134    133
    109    110    135    134
    110    111    136    135
    111    112    137    136
    112    113    138    137
    113    114    139    138
    114    115    140    139
    115    116    141    140
    116    117    142    141
    117    118    143    142
    118    119    144    143
    119    120    145    144
    120    121    146    145
    121    122    147    146
    122    123    148    147
    123    124    149    148
    124    100    125    149
    125    126    151    150
    126    127    152    151
    127    128    153    152
    128    129    154    153
    129    130    155    154
    130    131    156    155
    131    132    157    156
    132    133    158    157
    133    134    159    158
    134    135    160    159
    135    136    161    160
    136    137    162    161
    137    138    163    162
    138    139    164    163
    139    140    165    164
    140    141    166    165
    141    142    167    166
    142    143    168    167
    143    144    169    168
    144    145    170    169
    145    146    171    170
    146    147    172    171
    147    148    173    172
    148    149    174    173
    149    125    150    174
    150    151    176    175
    151    152    177    176
    152    153    178    177
    153    154    179    178
    154    155    180    179
    155    156    181    180
    156    157    182    181
    157    158    183    182
    158    159    184    183
    159    160    185    184
    160    161    186    185
    161    162    187    186
    162    163    188    187
    163    164    189    188
    164    165    190    189
    165    166    191    190
    166    167    192    191
    167    168    193    192
    168    169    194    193
    169    170    195    194
    170    171    196    195
    171    172    197    196
    172    173    198    197
    173    174    199    198
    174    150    175    199
    175    176    201    200
    176    177    202    201
    177    178    203    202
    178    179    204    203
    179    180    205    204
    180    181    206    205
    181    182    207    206
    182    183    208    207
    183    184    209    208
    184    185    210    209
    185    186    211    210
    186    187    212    211
    187    188    213    212
    188    189    214    213
    189    190    215    214
    190    191    216    215
    191    192    217    216
    192    193    218    217
    193    194    219    218
    194    195    220    219
    195    196    221    220
    196    197    222    221
    197    198    223    222
    198    199    224    223
    199    175    200    224
    200    201    226    225
    201    202    227    226
    202    203    228    227
    203    204    229    228
    204    205    230    229
    205    206    231    230
    206    207    232    231
    207    208    233    232
    208    209    234    233
    209    210    235    234
    210    211    236    235
    211    212    237    236
    212    213    238    237
    213    214    239    238
    214    215    240    239
    215    216    241    240
    216    217    242    241
    217    218    243    242
    218    219    244    243
    219    220    245    244
    220    221    246    245
    221    222    247    246
    222    223    248    247
    223    224    249    248
    224    200    225    249
    225    226    251    250
    226    227    252    251
    227    228    253    252
    228    229    254    253
    229    230    255    254
    230    231    256    255
    231    232    257    256
    232    233    258    257
    233    234    259    258
    234    235    260    259
    235    236    261    260
    236    237    262    261
    237    238    263    262
    238    239    264    263
    239    240    265    264
    240    241    266    265
    241    242    267    266
    242    243    268    267
    243    244    269    268
    244    245    270    269
    245    246    271    270
    246    247    272    271
    247    248    273    272
    248    249    274    273
    249    225    250    274
    250    251    276    275
    251    252    277    276
    252    253    278    277
    253    254    279    278
    254    255    280    279
    255    256    281    280
    256    257    282    281
    257    258    283    282
    258    259    284    283
    259    260    285    284
    260    261    286    285
    261    262    287    286
    262    263    288    287
    263    264    289    288
    264    265    290    289
    265    266    291    290
    266    267    292    291
    267    268    293    292
    268    269    294    293
    269    270    295    294
    270    271    296    295
    271    272    297    296
    272    273    298    297
    273    274    299    298
    274    250    275    299
    275    276    301    300
    276    277    302    301
    277    278    303    302
    278    279    304    303
    279    280    305    304
    280    281    306    305
    281    282    307    306
    282    283    308    307
    283    284    309    308
    284    285    310    309
    285    286    311    310
    286    287    312    311
    287    288    313    312
    288    289    314    313
    289    290    315    314
    290    291    316    315
    291    292    317    316
    292    293    318    317
    293    294    319    318
    294    295    320    319
    295    296    321    320
    296    297    322    321
    297    298    323    322
    298    299    324    323
    299    275    300    324
    300    301    326    325
    301    302    327    326
    302    303    328    327
    303    304    329    328
    304    305    330    329
    305    306    331    330
    306    307    332    331
    307    308    333    332
    308    309    334    333
    309    310    335    334
    310    311    336    335
    311    312    337    336
    312    313    338    337
    313    314    339    338
    314    315    340    339
    315    316    341    340
    316    317    342    341
    317    318    343    342
    318    319    344    343
    319    320    345    344
    320    321    346    345
    321    322    347    346
    322    323    348    347
    323    324    349    348
    324    300    325    349
    325    326    351    350
    326    327    352    351
    327    328    353    352
    328    329    354    353
    329    330    355    354
    330    331    356    355
    331    332    357    356
    332    333    358    357
    333    334    359    358
    334    335    360    359
    335    336    361    360
    336    337    362    361
    337    338    363    362
    338    339    364    363
    339    340    365    364
    340    341    366    365
    341    342    367    366
    342    343    368    367
    343    344    369    368
    344    345    370    369
    345    346    371    370
    346    347    372    371
    347    348    373    372
    348    349    374    373
    349    325    350    374
    350    351    376    375
    351    352    377    376
    352    353    378    377
    353    354    379    378
    354    355    380    379
    355    356    381    380
    356    357    382    381
    357    358    383    382
    358    359    384    383
    359    360    385    384
    360    361    386    385
    361    362    387    386
    362    363    388    387
    363    364    389    388
    364    365    390    389
    365    366    391    390
    366    367    392    391
    367    368    393    392
    368    369    394    393
    369    370    395    394
    370    371    396    395
    371    372    397    396
    372    373    398    397
    373    374    399    398
    374    350    375    399
    375    376    401    400
    376    377    402    401
    377    378    403    402
    378    379    404    403
    379    380    405    404
    380    381    406    405
    381    382    407    406
    382    383    408    407
    383    384    409    408
    384    385    410    409
    385    386    411    410
    386    387    412    411
    387    388    413    412
    388    389    414    413
    389    390    415    414
    390    391    416    415
    391    392    417    416
    392    393    418    417
    393    394    419    418
    394    395    420    419
    395    396    421    420
    396    397    422    421
    397    398    423    422
    398    399    424    423
    399    375    400    424
    400    401    426    425
    401    402    427    426
    402    403    428    427
    403    404    429    428
    404    405    430    429
    405    406    431    430
    406    407    432    431
    407    408    433    432
    408    409    434    433
    409    410    435    434
    410    411    436    435
    411    412    437    436
    412    413    438    437
    413    414    439    438
    414    415    440    439
    415    416    441    440
    416    417    442    441
    417    418    443    442
    418    419    444    443
    419    420    445    444
    420    421    446    445
    421    422    447    446
    422    423    448    447
    423    424    449    448
    424    400    425    449
    425    426    451    450
    426    427    452    451
    427    428    453    452
    428    429    454    453
    429    430    455    454
    430    431    456    455
    431    432    457    456
    432    433    458    457
    433    434    459    458
    434    435    460    459
    435    436    461    460
    436    437    462    461
    437    438    463    462
    438    439    464    463
    439    440    465    464
    440    441    466    465
    441    442    467    466
    442    443    468    467
    443    444    469    468
    444    445    470    469
    445    446    471    470
    446    447    472    471
    447    448    473    472
    448    449    474    473
    449    425    450    474
    450    451    476    475
    451    452    477    476
    452    453    478    477
    453    454    479    478
    454    455    480    479
    455    456    481    480
    456    457    482    481
    457    458    483    482
    458    459    484    483
    459    460    485    484
    460    461    486    485
    461    462    487    486
    462    463    488    487
    463    464    489    488
    464    465    490    489
    465    466    491    490
    466    467    492    491
    467    468    493    492
    468    469    494    493
    469    470    495    494
    470    471    496    495
    471    472    497    496
    472    473    498    497
    473    474    499    498
    474    450    475    499
    475    476    501    500
    476    477    502    501
    477    478    503    502
    478    479    504    503
    479    480    505    504
    480    481    506    505
    481    482    507    506
    482    483    508    507
    483    484    509    508
    484    485    510    509
    485    486    511    510
    486    487    512    511
    487    488    513    512
    488    489    514    513
    489    490    515    514
    490    491    516    515
    491    492    517    516
    492    493    518    517
    493    494    519    518
    494    495    520    519
    495    496    521    520
    496    497    522    521
    497    498    523    522
    498    499    524    523
    499    475    500    524
    500    501    526    525
    501    502    527    526
    502    503    528    527
    503    504    529    528
    504    505    530    529
    505    506    531    530
    506    507    532    531
    507    508    533    532
    508    509    534    533
    509    510    535    534
    510    511    536    535
    511    512    537    536
    512    513    538    537
    513    514    539    538
    514    515    540    539
    515    516    541    540
    516    517    542    541
    517    518    543    542
    518    519    544    543
    519    520    545    544
    520    521    546    545
    521    522    547    546
    522    523    548    547
    523    524    549    548
    524    500    525    549
    525    526    551    550
    526    527    552    551
    527    528    553    552
    528    529    554    553
    529    530    555    554
    530    531    556    555
    531    532    557    556
    532    533    558    557
    533    534    559    558
    534    535    560    559
    535    536    561    560
    536    537    562    561
    537    538    563    562
    538    539    564    563
    539    540    565    564
    540    541    566    565
    541    542    567    566
    542    543    568    567
    543    544    569    568
    544    545    570    569
    545    546    571    570
    546    547    572    571
    547    548    573    572
    548    549    574    573
    549    525    550    574
    550    551    576    575
    551    552    577    576
    552    553    578    577
    553    554    579    578
    554    555    580    579
    555    556    581    580
    556    557    582    581
    557    558    583    582
    558    559    584    583
    559    560    585    584
    560    561    586    585
    561    562    587    586
    562    563    588    587
    563    564    589    588
    564    565    590    589
    565    566    591    590
    566    567    592    591
    567    568    593    592
    568    569    594    593
    569    570    595    594
    570    571    596    595
    571    572    597    596
    572    573    598    597
    573    574    599    598
    574    550    575    599
    575    576    601    600
    576    577    602    601
    577    578    603    602
    578    579    604    603
    579    580    605    604
    580    581    606    605
    581    582    607    606
    582    583    608    607
    583    584    609    608
    584    585    610    609
    585    586    611    610
    586    587    612    611
    587    588    613    612
    588    589    614    613
    589    590    615    614
    590    591    616    615
    591    592    617    616
    592    593    618    617
    593    594    619    618
    594    595    620    619
    595    596    621    620
    596    597    622    621
    597    598    623    622
    598    599    624    623
    599    575    600    624
        </DataArray>
        <DataArray type="Int32" Name="offsets" format="ascii">
      4
      8
     12
     16
     20
     24
     28
     32
     36
     40
     44
     48
     52
     56
     60
     64
     68
     72
     76
     80
     84
     88
     92
     96
    100
    104
    108
    112
    116
    120
    124
    128
    132
    136
    140
    144
    148
    152
    156
    160
    164
    168
    172
    176
    180
    184
    188
    192
    196
    200
    204
    208
    212
    216
    220
    224
    228
    232
    236
    240
    244
    248
    252
    256
    260
    264
    268
    272
    276
    280
    284
    288
    292
    296
    300
    304
    308
    312
    316
    320
    324
    328
    332
    336
    340
    344
    348
    352
    356
    360
    364
    368
    372
    376
    380
    384
    388
    392
    396
    400
    404
    408
    412
    416
    420
    424
    428
    432
    436
    440
    444
    448
    452
    456
    460
    464
    468
    472
    476
    480
    484
    488
    492
    496
    500
    504
    508
    512
    516
    520
    524
    528
    532
    536
    540
    544
    548
    552
    556
    560
    564
    568
    572
    576
    580
    584
    588
    592
    596
    600
    604
    608
    612
    616
    620
    624
    628
    632
    636
    640
    644
    648
    652
    656
    660
    664
    668
    672
    676
    680
    684
    688
    692
    696
    700
    704
    708
    712
    716
    720
    724
    728
    732
    736
    740
    744
    748
    752
    756
    760
    764
    768
    772
    776
    780
    784
    788
    792
    796
    800
    804
    808
    812
    816
    820
    824
    828
    832
    836
    840
    844
    848
    852
    856
    860
    864
    868
    872
    876
    880
    884
    888
    892
    896
    900
    904
    908
    912
    916
    920
    924
    928
    932
    936
    940
    944
    948
    952
    956
    960
    964
    968
    972
    976
    980
    984
    988
    992
    996
   1000
   1004
   1008
   1012
   1016
   1020
   1024
   1028
   1032
   1036
   1040
   1044
   1048
   1052
   1056
   1060
   1064
   1068
   1072
   1076
   1080
   1084
   1088
   1092
   1096
   1100
   1104
   1108
   1112
   1116
   1120
   1124
   1128
   1132
   1136
   1140
   1144
   1148
   1152
   1156
   1160
   1164
   1168
   1172
   1176
   1180
   1184
   1188
   1192
   1196
   1200
   1204
   1208
   1212
   1216
   1220
   1224
   1228
   1232
   1236
   1240
   1244
   1248
   1252
   1256
   1260
   1264
   1268
   1272
   1276
   1280
   1284
   1288
   1292
   1296
   1300
   1304
   1308
   1312
   1316
   1320
   1324
   1328
   1332
   1336
   1340
   1344
   1348
   1352
   1356
   1360
   1364
   1368
   1372
   1376
   1380
   1384
   1388
   1392
   1396
   1400
   1404
   1408
   1412
   1416
   1420
   1424
   1428
   1432
   1436
   1440
   1444
   1448
   1452
   1456
   1460
   1464
   1468
   1472
   1476
   1480
   1484
   1488
   1492
   1496
   1500
   1504
   1508
   1512
   1516
   1520
   1524
   1528
   1532
   1536
   1540
   1544
   1548
   1552
   1556
   1560
   1564
   1568
   1572
   1576
   1580
   1584
   1588
   1592
   1596
   1600
   1604
   1608
   1612
   1616
   1620
   1624
   1628
   1632
   1636
   1640
   1644
   1648
   1652
   1656
   1660
   1664
   1668
   1672
   1676
   1680
   1684
   1688
   1692
   1696
   1700
   1704
   1708
   1712
   1716
   1720
   1724
   1728
   1732
   1736
   1740
   1744
   1748
   1752
   1756
   1760
   1764
   1768
   1772
   1776
   1780
   1784
   1788
   1792
   1796
   1800
   1804
   1808
   1812
   1816
   1820
   1824
   1828
   1832
   1836
   1840
   1844
   1848
   1852
   1856
   1860
   1864
   1868
   1872
   1876
   1880
   1884
   1888
   1892
   1896
   1900
   1904
   1908
   1912
   1916
   1920
   1924
   1928
   1932
   1936
   1940
   1944
   1948
   1952
   1956
   1960
   1964
   1968
   1972
   1976
   1980
   1984
   1988
   1992
   1996
   2000
   2004
   2008
   2012
   2016
   2020
   2024
   2028
   2032
   2036
   2040
   2044
   2048
   2052
   2056
   2060
   2064
   2068
   2072
   2076
   2080
   2084
   2088
   2092
   2096
   2100
   2104
   2108
   2112
   2116
   2120
   2124
   2128
   2132
   2136
   2140
   2144
   2148
   2152
   2156
   2160
   2164
   2168
   2172
   2176
   2180
   2184
   2188
   2192
   2196
   2200
   2204
   2208
   2212
   2216
   2220
   2224
   2228
   2232
   2236
   2240
   2244
   2248
   2252
   2256
   2260
   2264
   2268
   2272
   2276
   2280
   2284
   2288
   2292
   2296
   2300
   2304
   2308
   2312
   2316
   2320
   2324
   2328
   2332
   2336
   2340
   2344
   2348
   2352
   2356
   2360
   2364
   2368
   2372
   2376
   2380
   2384
   2388
   2392
   2396
   2400
        </DataArray>
      </Polys>
    </Piece>
  </PolyData>
</VTKFile>
